1 586.95 586.95
2 359.77 558.546641563691
3 381.29 549.078855418254
4 305.29 544.344962345536
5 243.83 541.504626501905
6 246.09 539.611069272818
7 250.48 538.258528394899
8 246.11 537.244122736459
9 239.48 536.455140557673
10 281.8 535.823954814643
11 224.52 535.307530115802
12 213.26 534.8771762001
13 191.17 534.513030579122
14 198.79 534.20090576114
15 239.1 533.930397585556
16 207.99 533.69370293192
17 214.03 533.484854708124
18 192.57 533.299211842527
19 209.13 533.133110331204
20 205.89 532.983618971013
21 163.23 532.848364883221
22 171.46 532.725406621592
23 148.97 532.613140382713
24 138.28 532.510229663741
25 319.56 532.415551802286
26 355.31 532.328156853252
27 354.69 532.247235604145
28 376.94 532.172094444261
29 383.12 532.102135433334
30 338.19 532.036840356469
31 376.87 531.975757865208
32 427.63 531.918493029651
33 443.32 531.864698790188
34 415.23 531.814068917753
35 478.56 531.766332180885
36 479.88 531.721247484954
37 455.77 531.678599799615
38 441.01 531.638196729293
39 423.36 531.599865611295
40 495.02 531.563451049197
41 457.49 531.528812807202
42 459.7 531.495824005301
43 405.58 531.46436956628
44 517.98 531.434344874487
45 378.84 531.40565461344
46 455.14 531.378211755047
47 407.94 531.351936677863
48 532.07 531.326756395561
49 697.76 531.302603879884
50 623.57 531.279417464834
51 612.89 531.257140320962
52 661.48 531.235719990317
53 673.48 531.215107974035
54 685.48 531.195259365763
55 815.93 531.176132525066
56 684.56 531.157688785821
57 811.72 531.139892195322
58 718.01 531.122709280358
59 891.5 531.106108837087
60 861.9 531.090061741925
61 891.79 531.074540781031
62 881 531.059520496295
63 924.28 531.044977045995
64 998.17 531.030888078516
65 1148.74 531.01723261773
66 1076.76 531.003990958785
67 1290.82 530.991144573242
68 1124.23 530.978676022567
69 1428.55 530.966568879159
70 1362.14 530.954807654133
71 1331.7 530.943377731221
