0.0337199541978666
0.0337199592184614
0.00863484014252092
0.0327876042374577
0.0350425721956045
0.089428572311309
0.0301765874289393
0.0313243722701035
0.0324920749465589
0.0301765836094674
0.0337199544887699
0.175530998916703
0.215987618683338
0.0335102118076518
0.00863484323375108
0.0342310179943435
0.0894285737480006
0.0133009989206401
0.00863484078896493
0.0339751709315146
0.0894285726231115
0.0328382349927334
0.0350425622667052
0.0339751664750174
0.00863483683222488
0.0345000102864645
0.210248415261197
0.13159725301579
0.131597255089776
0.0200128237033308
0.215987618270635
0.0265692514168703
0.0265692599958289
0.0122337880314073
0.013300991351171
0.0339751681746647
0.0894285732162915
0.0342310070478165
0.0200128269210664
0.0324920659944978
0.131597253947752
0.0335102096861453
0.0547377744799985
0.0086348364993416
0.0200128249391835
0.0327876015512307
0.0547377746917507
0.0301765871232842
0.0328382320167189
0.0342310224127005
0.0351735011938712
0.131597253286724
0.0200128246246871
0.00145526529072582
0.17553099588646
0.0350425610256031
0.0243589139801208
0.0313243754736972
0.0339751571654008
0.0133009948924319
0.0351735031003932
0.210248417997635
0.0328382358797412
0.0327876046324895
0.0415276737692283
0.0901419605423539
0.0327875942729441
0.0350425592940637
0.210248413142203
0.0327876000648042
0.0243589108124425
0.00145526295850129
0.0122337826299749
0.0301765899559974
0.0342310204882954
0.0265692591339812
0.0133009956856545
0.0328382382156587
0.0209571472126544
0.0328382323938092
0.0337199556888694
0.0901419588683327
0.0292253856506153
0.00145526560666398
0.0122337824089965
0.0339751697038122
0.0200128245214788
0.210248419796996
0.131597253156401
0.0894285729336982
0.0351735052773585
0.00145526749863256
0.0200128320464925
0.029225380636049
0.0333266379544286
0.0292253789089603
0.0670665715196002
0.0324920750342155
0.0337199533854937
0.0200128344997401
0.0200128292278474
0.0014552662596673
0.0328382344941704
0.0415276736352191
0.0337199527563894
0.0670665718521918
0.0337199573706313
0.029225379782817
0.0265692655262055
0.0324920753326303
0.0901419595251508
0.0243589060888425
0.0901419614564379
0.031324371385077
0.0133009908035298
0.215987619029659
0.0301765915123233
0.131597254302658
0.0324920708267231
0.0901419612625359
0.0547377741635051
0.0350425621312518
0.0328382328670875
0.0547377744720156
0.0301765937467016
0.0122337837008843
0.0894285690882412
0.131597253316824
0.0894285744908953
0.0351735037159562
0.0350425644083709
0.0133009935422503
0.0333266382182638
0.0301765872877133
0.0209571423556456
0.041527675201639
0.0200128251630372
0.175530997716912
0.0324920745482389
0.089428573211903
0.0350425610710217
0.0415276755110099
0.0327875981824219
0.0345000092311551
0.210248419805889
0.0337199520443752
0.131597253630644
0.020957147903502
0.0901419630417815
0.0670665826300381
0.0339751653417983
0.0345000092310335
0.21024841757178
0.029225379999452
0.0342310218118587
0.0342310217142221
0.210248416840247
0.17553100031836
0.0901419594356854
0.0351735058060041
0.0339751693610471
0.0243589081633186
0.00863483653321051
0.0133009947966314
0.0350425611819407
0.0894285735562612
0.210248419999642
0.210248418486053
0.00145526399343898
0.0324920736874055
0.054737774289583
0.0547377746975805
0.0333266359814346
0.0901419598380396
0.0339751669606154
0.00863484190766939
0.0351735059044891
0.0265692651613656
0.0547377743619353
0.0257738236746563
0.210248417441278
0.175531001342686
0.0345000096148227
0.00145526481943636
0.0350425608226708
0.00863484325450448
0.032838237611315
0.0415276736362085
0.0337199561281365
0.00145526250439187
0.0313243717746388
0.0200128243374009
0.0333266368105485
0.0328382323521599
0.0324920758575802
0.035042563695094
0.21024841881706
0.0133009985703167
0.030176590373066
0.175531000318204
0.210248416990116
0.0333266392759963
0.0327876094189712
0.0351735057541895
0.0333266396627268
0.0200128244834141
0.0209571429241286
0.0265692591430928
0.0257738219951174
0.0333266374274703
0.0415276684694578
0.0200128280248912
0.215987618709456
0.033510198481411
0.0333266428234196
0.0351735007669605
0.0133009926602168
0.0335102105394214
0.0133009913205668
0.0547377745395705
0.0301765904567461
0.00863483983866975
0.0292253833087324
0.0894285743153006
0.0243589120673553
0.032838235174687
0.0333266405540653
0.131597253033809
0.0547377749312846
0.0415276715311914
0.210248418382315
0.0292253804759384
0.0345000094601691
0.0200128262356918
0.175531003828265
0.0670665715229597
0.0333266374478158
0.0257738261854915
0.0301765877997195
0.041527676163613
0.00863483768613804
0.0337199520438387
0.0122337886927114
0.0292253819686223
0.0901419622854678
0.0415276686798849
0.0351735099059387
0.0339751686076597
0.0339751696257959
0.21598761941069
0.215987619619751
0.0243589084889158
0.0342310176949332
0.0901419596158588
0.03132437463166
0.0415276726167367
0.0670665758298943
0.0333266356173552
0.0313243738385003
0.0324920758516267
0.0342310240371693
0.00145526634548887
0.0894285704292563
0.029225379580897
0.0670665743040539
0.0257738227753468
0.175531003231482
0.0243589084850817
0.0342310198657894
0.0324920770807158
0.0901419599834756
0.0547377748318338
0.131597254939543
0.17553100198488
0.0209571506791129
0.032492070544442
0.0328382380941097
0.032787598831749
0.0133009960571917
0.0086348385247188
0.00863485048435719
0.0257738240856676
0.0339751661929355
0.0133009969671085
0.0292253796446982
0.210248418556498
0.0415276625976397
0.0901419630178195
0.0328382317885849
0.131597253314203
0.0345000127887714
0.0301765949337698
0.0337199559048242
0.0122337847284198
0.0901419625554423
0.0901419606489842
0.0292253797373099
0.0670665727545677
0.0342310284254153
0.0333266392681066
0.0342310195358739
0.175531003324153
0.0333266383876627
0.0301765886763619
0.0265692645306852
0.0547377744213642
0.0339751668080117
0.0350425573239206
0.0335102070307693
0.0313243756306441
0.175531000349381
0.00145526363886184
0.210248415261231
0.0301765915696006
0.131597252732778
0.215987618951747
0.0350425624660033
0.0327875998916625
0.0324920737778847
0.0122337838182841
0.0339751669821389
0.215987618785502
0.0415276751742627
0.0342310139386899
0.0547377747594608
0.0209571450657591
0.0547377743819042
0.0901419605878369
0.0292253788854189
0.215987621981375
0.0415276755865157
0.0415276713456791
0.0333266355344006
0.210248417415719
0.0257738195835477
0.0301765859309076
0.0901419611568641
0.0547377745685217
0.215987618775927
0.0670665705461281
0.175531000943244
0.0335101905668718
0.0133009979508312
0.0345000125900632
0.0324920737664323
0.0547377768366097
0.00145526469778079
0.0209571467821794
0.0292253872565365
0.0200128237951833
0.020957143109354
0.0901419612393013
0.00863484149712423
0.0292253825370508
0.0335102088919081
0.0133009941908346
0.215987619176056
0.215987619053303
0.0335102064796868
0.0901419605496038
0.0339751715441492
0.0327876027495206
0.0894285702994393
0.0894285693067363
0.0670665762608726
0.0122337839945805
0.0313243801970471
0.0333266341042684
0.0415276751272456
0.0547377744650097
0.0324920736878265
0.0265692627123226
0.0324920737315801
0.0339751575475453
0.210248417706701
0.210248416805016
0.215987619059402
0.0547377745197976
0.0894285710992752
0.0257738217386527
0.00863484424690397
0.0313243724175682
0.0339751646973037
0.0415276729852665
0.0342310242545461
0.0415276758555333
0.032838235292489
0.0337199544788833
0.00863483702295165
0.02922538319084
0.0327876004533634
0.0265692626696243
0.0335102067349229
0.0209571492372835
0.0337199573616691
0.0901419612614828
0.024358911315508
0.0335102079234275
0.0351735075290529
0.0345000087764138
0.0301765886625591
0.0901419608074014
0.0339751691728643
0.0243589113196432
0.0339751678380567
0.0133009969835538
0.00863483966738299
0.175531001007079
0.0342310217094084
0.0327876046467703
0.0337199548307012
0.0337199529891477
0.02095714159144
0.026569258758756
0.0342310212870229
0.0243589120950753
0.0328382361278636
0.0333266359501612
0.0313243758183324
0.0301765896412327
0.033510208562332
0.0342310222183682
0.00145526749866853
0.0122337830669411
0.215987619452508
0.0333266352762793
0.0415276713249282
0.175531004007048
0.0342310260389878
0.0209571552250076
0.0257738161293193
0.131597254183654
0.0327875962513706
0.210248417402713
0.0335102142351518
0.00863484463835085
0.0313243762313302
0.0335102024950558
0.0200128272109787
0.034231022793481
0.215987618952374
0.0345000094862975
0.0894285699093509
0.0415276754102183
0.0335102124255813
0.0342310204904861
0.0342310197775977
0.0313243765802316
0.0333266428693291
0.210248420061852
0.0333266384392568
0.0345000070371335
0.0350425573022468
0.00863483903521245
0.0547377740413795
0.0122337812793896
0.131597253942424
0.0243589113079954
0.032787601278379
0.0209571466134599
0.0350425602271216
0.0351735052979592
0.0339751693775119
0.0209571457726261
0.0670665727549347
0.0200128250031273
0.215987614152566
0.175531001161401
0.0292253840065491
0.0335102103981062
0.0345000108493265
0.0415276715498797
0.0339751707302516
0.0670665715515135
0.131597252732692
0.0350425625444313
0.0313243743725287
0.0337199565085311
0.0257738258149718
0.0547377747271774
0.0342310211035115
0.0415276733820454
0.035173506347471
0.0415276767089819
0.0328382360667472
0.0350425578742848
0.0339751649016804
0.0894285719810338
0.0894285726229814
0.0313243729805581
0.0292253785738603
0.175531000678306
0.0337199575312896
0.0351735009333969
0.0301765919302572
0.0670665705302236
0.0265692595048082
0.0122337823995634
0.035173504021379
0.0345000070209727
0.0200128273774502
0.210248418099415
0.0209571486397415
0.00145526617317504
0.0328382368679765
0.131597255212869
0.0670665701904724
0.0350425581963734
0.0335102065277844
0.131597251352502
0.0292253821389514
0.0313243791124156
0.215987619797188
0.0901419601679355
0.0670665722629813
0.0209571461867721
0.00145526645255278
0.03278760156243
0.17553100184496
0.00863484335310294
0.041527670984417
0.0122337862349827
0.0901419625500597
0.00863483654798247
0.175531000827566
0.0337199544845586
0.0328382308067674
0.0292253845619364
0.0342310215179709
0.0243589113138794
0.0301765873573321
0.0547377749367483
0.0257738212407479
0.215987619091294
0.0292253829724707
0.0257738206988403
0.0133009947242597
0.089428563447996
0.024358910070478
0.0292253807366589
0.0200128263858463
0.026569259302603
0.00863484304805517
0.0339751672000377
0.0209571494145038
0.0345000041683627
0.090141961156303
0.0265692647829725
0.175531003081236
0.0350425573372648
0.0337199585026542
0.0335102068605055
0.0333266355891748
0.0351735014133676
0.033719957262818
0.0328382369034168
0.0345000057457685
0.0301765901761377
0.175530999802707
0.215987619062438
0.00145527172580273
0.0345000066406522
0.0292253869003494
0.025773819757798
0.0265692576121042
0.0327876048533255
0.0292253782179137
0.0313243775426477
0.0339751691768626
0.0547377745890039
0.0328382350583087
0.0415276702725798
0.0122337837651594
0.0547377747116323
0.210248419646378
0.0200128273916584
0.00863483578365631
0.0547377745167479
0.131597253466618
0.0133009935059289
0.0901419605487664
0.0339751675458961
0.215987618454489
0.0324920700748215
0.0265692624320226
0.0333266360635682
0.175530999834044
0.0243589110466091
0.020957143432784
0.0327876034259174
0.0122337875060106
0.0547377743815783
0.0415276761978896
0.0894285741142735
0.0342310168228261
0.0265692619667028
0.0335102130112888
0.0122337875458375
0.0243589145288503
0.0335102092052462
0.0415276736180354
0.0328382384750077
0.0313243858433772
0.0901419590249792
0.03517350623423
0.0345000053974212
0.0257738220334065
0.03504256225651
0.00863483999823456
0.0350425570859636
0.0351735055601214
0.131597253930305
0.024358908166207
0.0337199548663427
0.0337199528248704
0.0333266380800357
0.0670665734829244
0.0200128265862891
0.0324920712889913
0.00145526622933945
0.0333266360083824
0.00145526810307595
0.0257738207388746
0.03517350512553
0.0345000092108723
0.215987618942454
0.0313243767570106
0.0243589110465392
0.0670665749068017
0.0265692587585058
0.0133009985384589
0.0133009967389532
0.0339751689298498
0.0333266373891443
0.0333266341094838
0.013300992837131
0.00863484085673738
0.0901419604790231
0.035173505277732
0.054737774537072
0.00145526470815882
0.0350425586279299
0.0243589133482198
0.0350425565569565
0.0265692598447334
0.00145525313601003
0.0209571459480766
0.0122337858145497
0.089428570293284
0.0894285709455959
0.210248418047695
0.0342310198641564
0.0292253855999007
0.0292253844110693
0.215987619555619
0.0324920768497974
0.0547377741860287
0.0327876004571364
0.0328382394483917
0.0200128244960833
0.175531003024018
0.033719960202911
0.0292253798597684
0.0333266302916329
0.0339751700945914
0.0670665725898224
0.0901419608137695
0.0209571414915903
0.0324920756470173
0.0547377746730999
0.032492072153917
0.0345000048842814
0.0335102097981412
0.0301765919452397
0.175531003828184
0.0894285780282104
0.0351735048897588
0.0333266341187461
0.0133010099418422
0.0345000048501538
0.0313243785355981
0.0209571468076613
0.0328382368039597
0.00145526538967311
0.0265692667464963
0.00863483853651625
0.0901419605874296
0.089428571669582
0.0901419601716885
0.0333266359590116
0.215987618771912
0.0339751701348381
0.0547377744771612
0.0122337846562526
0.0342310240217509
0.0350425691443292
0.175531003392228
0.0345000181462025
0.03351021046806
0.175531005722736
0.0351735083159721
0.00863483722667846
0.0547377743531534
0.0342310236737726
0.0292253816993993
0.131597255841633
0.0243589072818231
0.00863484546347792
0.0901419595218782
0.0327876023033593
0.0328382328841277
0.0257738254667466
0.0327876004666949
0.0257738257378044
0.0122337971944388
0.0350425582041785
0.0292253801252111
0.175531002781478
0.00863484153308347
0.00863483722664804
0.090141960641159
0.0337199568370359
0.0342310166995554
0.0328382358681691
0.0257738247897108
0.020012826038291
0.0337199562598032
0.0313243757080413
0.0350425606771272
0.0200128266345339
0.0265692622109923
0.0345000102509927
0.0122337836757069
0.00863484133373249
0.0122337854475137
0.0337199560818879
0.00145526507213156
0.0342310210592705
0.175530997651026
0.0301765871307726
0.175531001756059
0.0292253831560596
0.0301765901759532
0.0313243760716706
0.175531001754965
0.210248417590313
0.0122337880567917
0.0209571460430908
0.0328382372637961
0.215987619394473
0.089428569721727
0.0122337839710707
0.0122337868562473
0.0292253841490344
0.0243589132496638
0.0133009941944708
0.0333266380491741
0.0351735026669826
0.0243589115524074
0.0327876007142673
0.0324920712907462
0.0122337816082279
0.215987619945587
0.0209571457878379
0.041527675518814
0.0292253801012534
0.0351735081595079
0.0901419598224976
0.0670665851400787
0.17553100172227
0.029225385028872
0.0327875926119117
0.0335102103530298
0.0257738225394935
0.0292253844075829
0.030176588820551
0.0350425600870985
0.0415276767348178
0.0337199541303397
0.020012824490915
0.0547377748731285
0.0265692624903262
0.0243589121147829
0.215987619410392
0.0337199572635145
0.0122337809031644
0.00145526539505481
0.0351735088647767
0.0122337832846751
0.0292253847746702
0.090141962114573
0.0547377744606768
0.0200128275206688
0.0351735034259484
0.0351735021459612
0.0328382264703326
0.215987618885863
0.00145526475144353
0.00863484382440172
0.0339751709069926
0.00145526685622066
0.0133009926896468
0.0342310262115288
0.0133009942054019
0.00145526471044799
0.0894285696010729
0.0327876015488551
0.0547377746115884
0.0265692595880567
0.0415276719791962
0.0209571336076158
0.0122337879551065
0.0301765906608829
0.0122337874872686
0.0014552663578179
0.0901419606000737
0.215987619548277
0.0415276764483532
0.00145526564158993
0.0337199544316173
0.0333266355784476
0.0415276729922685
0.0337199535900778
0.0333266403510006
0.0337199543785818
0.0014552684567285
0.0337199581027907
0.215987619092415
0.175530998886036
0.0265692596405316
0.0209571459475664
0.0901419578666394
0.0292253856005151
0.0265692673085636
0.131597253255943
0.0350425581980556
0.0333266366689222
0.0122337825514536
0.0324920712886621
0.0243589114669547
0.0327876030158982
0.0339751648364059
0.0313243754361499
0.0670665728210724
0.0209571490594365
0.0547377746102801
0.00863483862313608
0.175531001753705
0.0350425609864158
0.032787598685085
0.0345000088554386
0.0901419624442173
0.00145526518753269
0.0122337851926516
0.0339751694252164
0.0292253860288729
0.0209571463801161
0.0335102097562938
0.0901419613935396
0.0301765836258867
0.0133009928373475
0.0133009949408058
0.032492073723223
0.0257738186351193
0.0351735074271637
0.0122337847740921
0.0339751684750689
0.0257738182615116
0.0301765943884882
0.032492061611245
0.00145526347347502
0.0209571433912095
0.0345000109665345
0.0133009908037602
0.0209571438509186
0.0894285674920301
0.210248420408256
0.0547377745778768
0.0122337850296108
0.0133009984634826
0.00145526564853771
0.013300994302432
0.0351735047061272
0.0350425608322802
0.0327876015675312
0.215987619245576
0.0200128273283371
0.0209571467962495
0.0328382361234452
0.175531000551486
0.0333266417486551
0.175531000674045
0.0209571452011272
0.0257738215567124
0.131597253119032
0.131597252093174
0.034500005473562
0.0200128273282569
0.0324920724153634
0.0547377743857969
0.0670665699272014
0.00863483969584911
0.0292253954237343
0.0351735025335982
0.131597252750793
0.0324920756472915
0.0292253837215175
0.0292253862144189
0.0324920769986548
0.210248419522843
0.041527668825633
0.00145526548516295
0.0350425610186964
0.0333266384452715
0.00863483972685231
0.0339751727730848
0.0313243859264705
0.0133009930179451
0.0335102109189858
0.0313243746488958
0.0335102094474102
0.0209571424075903
0.0415276728489991
0.0328382336373563
0.0209571458104694
0.0257738227961422
0.0200128280222003
0.0324920724079334
0.0243589112868123
0.0209571506797519
0.0257738186517852
0.020957145087712
0.0335102061144814
0.0670665736656267
0.0327875983844117
0.0243589096428276
0.0122337872439654
0.0313243740818205
0.00863483593668524
0.0257738235349257
0.0257738247309517
0.0901419601360023
0.0547377746228173
0.0133009924630596
0.0324920749309086
0.00863483981473645
0.0547377745803131
0.090141962325993
0.0200128273285454
0.00145526363881121
0.0324920744586985
0.0670665715351261
0.0122337813089523
0.0257738252234833
0.131597258314217
0.01330099774557
0.0327875986918733
0.0133010002820559
0.0351734919946485
0.0415276629847714
0.0333266482225458
0.0345000061290521
0.0350425641868211
0.0547377746905287
0.0122337834365277
0.0243589114717537
0.0122337871701355
0.0133009949897525
0.0292253797294353
0.0209571425614989
0.00145526576272903
0.0337199530050909
0.0122337880005867
0.0333266355506656
0.0133009933895187
0.0265692625682479
0.0200128262489367
0.00145526403502705
0.0335102063650503
0.0327876012798392
0.0894285717016848
0.0670665753067331
0.020957146848841
0.0350425585876528
0.0328382445583224
0.0257738208659745
0.0292253804489433
0.0265692626697849
0.0415276757306453
0.0337199495828076
0.215987619065385
0.0292253800471673
0.0415276668932676
0.210248420456158
0.0265692587821054
0.0313243709487612
0.0339751691972043
0.032787601522605
0.0339751737436789
0.0351735057275222
