504.396998231142 522.626303
586.519323116839 611.845721
569.878764417214 582.603434
473.736756442276 445.355658
469.317034807705 487.133431
385.072822565968 387.186042
347.357213632756 341.544999
757.774935696348 802.408592
385.11988055363 385.034492
642.208918348632 664.103768
763.693447086583 814.217955
370.000069184833 365.333764
371.635489472452 365.931779
332.030255635554 320.6895
812.327326732262 942.314708
945.569044291388 955.650057
1043.6330442834 1051.224387
943.867713022384 955.459604
827.436930347856 841.041383
794.550028740062 812.203312
825.888842362201 842.568588
861.95586255824 876.512713
900.41320191522 915.53849
991.317998773319 1002.272097
797.760773849562 812.846661
831.8366651482 842.294443
946.932522682765 961.070018
948.604298564887 961.369026
1048.58501159664 1053.22364
831.103137292526 847.204123
864.901449744429 879.359518
904.593237097106 918.464784
992.658236156112 1003.888722
1108.12459151328 1106.875733
842.005975638361 845.079924
716.610042116325 723.95141
1082.38936898378 1083.320836
1023.8822489892 1025.842679
880.028293026771 878.293075
805.320149012688 805.576679
772.692114081782 774.832106
716.303713297645 720.839803
666.438606066325 675.310788
862.482878269986 860.100903
737.552266891521 738.380512
1092.66801015001 1087.457679
1035.19103269192 1030.50936
891.483243093483 882.720512
818.210977104172 810.33259
783.059599186122 779.341487
728.900750201672 726.561529
677.545892702292 680.957147
826.479038949505 844.354453
1046.07857531024 1055.719875
862.624380919672 877.724927
829.91342725045 850.639652
1048.62361185519 1054.984425
867.334056815154 879.503774
1076.94340245608 1149.357085
640.051479904817 631.981216
611.56189229439 576.248734
1182.77334984162 1147.562
945.873579502378 931.344
1176.69017267178 1149.703
946.507600415478 924.594
723.588263487833 724.156
1022.11027734644 995.891
1019.24900042426 999.344
998.754844224518 959.515416
943.016979409342 914.875
940.725691310319 916.735
967.024511580782 1039.562
737.280699291601 741.203
1021.63208343544 1060.797
989.997139789151 1113.578887
1180.27900722392 1156.75
658.447154653924 662.607396
872.284965254552 884.085065
1001.24289134361 1051.937338
836.175473535056 876.827736
486.753418250769 549.291095
666.013312585862 718.234942
759.610391921101 805.82059
494.663047442159 498.460788
770.695528339441 804.072375
461.939610066242 441.813284
608.627555563684 603.950649
704.090448081534 720.743511
408.162026220881 429.068789
415.589623268948 415.323053
619.991915427703 653.58452
529.229292422708 536.458431
633.131278066647 656.988201
520.381172126314 539.940966
525.858764994934 516.673155
554.353019751645 535.928602
434.674479450769 438.198347
1102.39943473492 1005.86
1083.92627401669 1061.593
762.85973296174 774.891
604.713632148212 615.875
591.956488917672 601.844
1018.71951991007 1031.187283
1061.25351079699 1075.941285
1197.24313269968 1249.032053
1056.66219334611 1089.187326
945.040551337009 961.971725
1002.40470171755 1036.625945
1158.47555600677 1164.737422
1483.60055607869 1395.471752
1018.86405367023 974.741243
782.724263702151 721.029282
780.018153058316 720.317643
865.67510471664 807.801622
870.834378471334 810.013073
900.576387644891 838.805109
924.348198997374 873.306565
725.226396355332 674.055172
833.351770919026 777.031715
750.428220580953 695.215236
864.608360302264 805.99037
749.135945285949 694.876207
874.397334805341 807.794238
847.933427819681 777.483229
682.371012169485 634.606922
695.186448968647 635.273005
756.14322032212 696.162389
754.497485306071 682.692383
426.920225447689 472.9
410.752462183883 445.2
414.321458514836 415.012038
571.743289979079 582.900199
759.801752402954 800.224384
702.209417550896 656.453324
529.865681489917 541.054375
570.588651931782 584.278842
493.072920345725 502.055181
431.387760549837 453.16017
749.798623176946 800.197679
583.807349343242 604.833202
538.185130080468 556.465442
481.559821105886 501.211873
496.668106487167 503.472419
500.577554180266 519.116228
613.215000632576 654.428761
516.476696090303 537.681224
559.491855281998 580.669261
452.881681556809 469.848767
492.800215137902 503.265461
496.335236363734 503.374732
529.242148866784 540.224928
571.079784845575 584.721396
758.178654975205 800.220668
625.128486618356 655.306057
594.038586293517 609.089563
438.026796294713 426.966776
399.895317117441 412.245952
348.235003541211 349.371202
377.023902622573 396
542.413954808659 631.101012
362.009121838982 378.15482
372.513583912934 381.833886
380.886461659713 382.542179
402.111182451301 425.799794
401.817566615567 413.213435
524.793013278339 519.53795
461.632380873358 468.697463
489.713978067763 514.747269
457.926585166682 480.785597
364.780976144868 372.189094
507.326173804082 533.708752
619.408114523967 653.308838
350.428863623787 342.786216
717.250462631775 722.061574
655.560651484088 659.068925
516.041462529978 499.801006
444.609869391257 426.655661
589.201454964735 557.326213
538.106166632713 517.495909
489.963182605887 498.488794
535.798428602205 554.200823
432.593987893681 448.284151
754.934999253324 796.890075
616.941057096045 651.622976
589.093838967724 603.363473
519.948289123158 535.951825
564.320002191287 577.556635
483.179096661331 498.605011
350.088193593447 341.891036
390.773535276296 391.617728
538.363654475411 558.515876
668.647527350724 671.121103
352.549053978267 369.942412
362.996706339029 366.080924
343.656325282817 347.536296
334.301229060198 338.417893
490.390893845244 349.129082
325.509498427748 329.555695
322.795725749145 322.7604
394.771338692676 422.286897
1091.18272040223 994.12281
1029.32076121496 937.579561
1121.66755530471 1000.734
829.013628514233 920.249109
883.083481887325 990.536602
817.662166446331 948.816274
746.120309916987 757.499631
654.57700193041 670.585408
972.15093842594 1302.899824
777.199377237579 878.554348
644.79863871932 656.246
569.388000421327 582.597
586.954542924597 583.533
555.668053067544 555.703
946.387861850949 977.421048
1196.43262353969 1222.297872
1080.04253438494 1109.279613
989.758468020528 1027.251098
515.827973871533 517.1
556.852251601985 573.8
626.296841313613 658.4
438.699754972485 476.6
453.862572835641 502.656259
420.418937220689 469.024421
419.975306681508 469.208942
614.82380681723 732.933759
654.850561305093 805.313736
515.432362734262 578.382198
564.33913317387 625.931141
765.900988241562 831.99112
410.808262896058 460.214584
442.217887364222 493.255855
451.63502442717 504.748245
410.346055344083 459.591518
761.923525427915 831.20704
633.794318398929 698.643768
873.427802619058 1027.687482
880.254431196292 1027.155662
407.047272343427 475.070615
1091.07950526992 1019.25
884.615633598519 968.835458
892.6079161062 961.544468
916.191946412115 994.680018
932.677041040138 996.073182
926.560140371473 994.989256
975.281643813468 1113.289989
1077.55446019499 1137.1652
1135.93858492001 1271.520653
990.793939491443 1113.389065
978.397600409561 1113.755518
981.865282894343 1113.054259
1105.89177553033 1256.294976
983.143409090079 1115.963653
926.957780297958 996.941388
926.237831601128 994.274902
980.329268670014 1113.657209
798.023757941064 936.969337
863.202167502684 871.272771
865.027168147757 870.697427
796.067692592192 850.36984
1858.29187940585 2201.052252
1444.55277628682 1696.492995
815.114644543415 785.747314
734.285268895213 756.793374
567.21776729231 534.658825
643.78284868944 594.267849
635.445534462547 652.426442
738.042168059532 706.527754
663.178815324524 626.884133
621.206945676789 592.968968
908.5857634583 877.143656
791.18563142918 757.621273
597.459661579709 616.416905
636.468079750847 654.478487
615.560450001431 565.280077
578.980163375751 534.949951
576.937235154128 579.139946
635.82044975973 653.418387
778.637667318877 740.138181
597.914903593728 617.332156
623.738671314314 593.409355
553.95423570279 522.190447
629.578917504037 592.058941
845.859312655651 893.441594
801.383882397027 745.501915
805.62007179311 750.309211
650.53700074704 699.005655
589.56683003134 650.94615
729.292915359672 767.075009
680.014870693584 719.358841
818.738487846999 823.970831
663.965661345417 715.960681
612.672283469411 681.773922
550.020997654874 616.264849
783.480974621678 873.289083
506.534605571379 519.885995
506.667039212719 521.387407
504.082842048256 517.013447
355.917702997766 349.620416
591.707167572918 606.057558
619.56255928514 649.563956
543.662756022607 535.058222
487.747216655742 553.980805
472.987634984158 481.335719
569.527716469163 576.978953
475.035005316476 483.692312
347.314068306616 341.920571
387.41146066143 383.887799
774.144211958556 868.429792
605.275074632049 679.571562
761.311208043183 802.950284
700.16551365617 723.142834
658.458695524894 713.545881
559.374710099596 614.709991
603.543801407469 608.904298
623.854205726097 679.570337
592.224048336273 648.967827
496.318200060104 501.994671
415.58976316454 416.284912
504.814046695756 522.111907
595.92558208594 607.108364
502.00234000078 500.992799
491.312106987112 502.157096
464.684136991347 469.703716
474.741342146108 487.235454
430.530045078477 442.621771
522.03477443934 520.797244
400.196261678813 382.636674
421.785295353991 415.960587
574.299676592188 603.0597
536.103845922015 587.696213
1177.07779757701 1139.735
1173.9368552184 1136.39
937.247770316127 908.828
816.838145388839 794.969
1019.02964276136 990.547
940.855827881726 911.484
815.156075613 792.141
644.631283933739 630.843
829.040668829985 996.970424
785.392428366483 898.246985
773.038264156465 930.083417
749.296293590257 678.355535
739.962338226792 916.84163
755.899883943614 881.235548
748.854953862028 678.313705
931.906044665272 840.948616
1028.11384067221 1058.400239
948.280508044379 992.808801
1109.03745103881 1055.120856
1271.8067634151 1202.948058
1027.86011768343 988.316004
1021.79676267383 960.231794
969.733616172899 977.129135
1164.20908582095 1200.742943
1134.29886848131 1156.665793
841.824729665027 779.361776
910.200620825457 862.847936
879.62860525979 844.304743
771.328832573176 788.654065
414.617557514586 416.16626
387.939291221284 383.399533
387.737571548618 383.385476
541.46044736321 587.67445
475.618938998105 484.954583
433.353105449554 440.974204
523.782117795593 519.608658
538.203798663622 585.927963
571.359785609198 598.843717
568.012365705633 582.220596
471.541709278193 485.868905
523.260446260015 519.300303
571.681740418871 599.006344
472.35567953242 484.530054
523.602361706852 519.37971
476.040860314237 484.913959
571.861766506642 599.322585
472.332569798783 484.650226
475.904577843133 485.06525
531.863908624715 584.494379
629.578576361623 632.364502
460.086334051167 469.312778
412.81723640082 415.353371
414.837823531067 415.78973
507.009774377148 519.425012
569.804752954051 581.927426
403.80357062668 426.031123
400.837896934331 413.487743
756.839360263328 800.547927
533.625304733266 585.616113
566.186505746687 614.078966
1097.26991577339 998.313
952.033940464294 1042.797
1290.98381391777 1477.61
1437.85925735043 1645.422
648.146175181502 682.359
734.885716983478 746.616
583.540289136782 595.437
653.843641702846 668.71
732.733365303669 748.344
1332.07928793329 1480.61
825.975532463557 837.47
694.430000748718 702.25
926.623799075048 1001.828
1118.99607978655 1223.797
716.339182001182 734.105
980.18446666566 1066.416
1122.33736061515 1243.226
1083.03076276601 1252.625
1097.24242565524 1284.765
685.153934396616 711.88
957.832442446474 1055.496
738.412958738131 764.055
669.137379090978 644.606136
604.292288754624 645.297
585.898816177389 579.774
602.543848536169 599.493
612.711293016568 602.379
638.337001345098 634.365
664.166672714788 667.718
666.610411003123 675.372
648.554887904238 658.875
670.960109871775 683.844
919.673644014991 1002.813
972.623865447743 1089.625
603.852253962418 627.391
644.359046874892 659.859
550.795544198694 556.312
583.031936051376 589.937
658.652162032285 658.5
680.176084010189 694.125
912.01715276348 996.484
632.230943805498 630.093
527.055641664247 533.4
565.265602791267 570.8
599.440372044373 599.6
490.094606771692 526.2
533.984028875039 578.1
585.055231518479 628.6
472.266008072855 490.9
575.13260952702 555.2
507.934592521351 554.3
467.07189975457 505.8
727.84717346827 816.2
637.598038713252 697.8
527.027713247108 509.1
554.329083375171 532.7
587.446695436972 568.7
661.701567376771 637.4
584.758857094103 603.2
645.201694314237 759.6
685.767582980578 775.7
736.9230096391 834.8
642.326638759204 655.8
674.417696535617 683.6
710.368560377083 718.1
756.499828873569 696.9
809.381433550947 743.9
819.43688168475 786.7
845.86599253641 803.8
761.918286254672 697.8
817.856915819897 747.6
756.217569769932 714.7
835.819446267294 839.3
668.365271958904 621.3
904.061019674197 917.2
865.098467545835 917.5
891.872416669578 916.6
934.288123457755 972.8
934.06079051047 938.3
851.049126825423 1040.8
776.687075666378 878.2
471.412519238682 587.2
536.011401850693 584.7
512.013640931152 474
507.325116113959 496.6
421.969835991301 475.6
420.529581068531 466.6
426.141444259118 472.8
417.554214690183 446.7
476.645463214158 621.3
535.933321325401 683.5
488.74962808035 585.8
433.659637252807 467.8
395.105305997421 394.6
382.459123109723 384.3
571.191182029321 607.8
431.94856445326 386
510.936503987945 443.5
447.241055913623 395.1
395.807302991711 394.7
486.628822138103 445.3
443.174190708389 449.1
464.062655302867 469
449.938792253958 454.9
461.871853224265 496.1
382.245278246904 384.2
390.302739589881 471.1
411.001400907897 467.3
484.921290525645 551.9
433.982717497371 493.1
478.171001528638 549.7
446.195430597036 532.5
429.520023084777 512.8
501.527636814464 532.6
668.591749585073 726.7
513.270630215537 564.8
495.547537036532 542.8
539.357942245736 677.5
516.248331380721 649.5
462.769533944186 553.7
481.452309788408 553.1
470.437999697295 574.7
453.093280853684 553.9
453.545389726607 557.6
429.755001815575 498
437.323824812544 567.4
376.53065889634 381.4
370.492020345851 371.383408
550.883236765832 599
571.125306697557 537.7
426.912100850999 483.3
456.858307603762 473.1
488.513436642593 539
520.041010563563 582.6
366.857177757911 377.3
693.934818266818 697.4
486.369026261624 521.4
495.345454214304 545.6
418.577407634509 431.4
533.810487856883 564.1
548.710034912202 591.2
442.68993893624 455.7
414.449452638581 453.6
514.051297265273 541.1
511.672895079853 549
357.021877007983 361
356.821441532241 361.4
409.37871844699 382.1
371.150104557117 362.2
368.605073682815 371.5
368.252363700418 371.6
383.157873853251 372.1
444.627685909101 428.8
399.962251137354 403.3
406.010256761684 392.9
487.521714757247 422.1
388.92440514127 392.4
437.783769776904 440.9
409.690281312904 439.5
421.774566064354 452.6
465.059093227906 491.8
360.070337799095 363.4
742.780300391916 743.295615
526.101164829383 520.553017
591.004927511807 670.354161
402.980415659043 414.946212
576.468880487472 583.70641
573.548402897865 649.518578
464.078410532207 469.779663
486.338276995066 484.235514
455.244856690511 441.318252
538.197852405385 519.915615
513.737960808136 502.150857
403.916229565445 426.622028
534.537241541953 554.850744
616.693502297571 653.202906
405.937357921295 411.872088
539.811902457579 602.039041
331.949869229976 329.594713
350.578973256979 347.758727
560.321142060599 616.362551
426.09157785893 478.322335
884.205397358742 968.098568
726.417050544934 714.759203
565.062934775564 522.99564
447.386609822814 494.180518
426.472962770279 412.42207
10183.8960191684 9644.446091
3622.26697236657 3260.279094
2476.35222639389 3303.294964
4789.01856633849 4117.806582
3781.21383713941 3359.77019
3007.48705172687 2650.750071
829.363862994868 1038.748916
867.218454301057 1047.014985
814.512378579393 999.934641
665.276130901779 639.013795
605.222119969822 565.903817
590.340934898539 620.00272
629.041842384161 589.69838
557.622619363267 521.581423
469.743947004074 477.556951
496.909687541727 496.385592
738.744240633581 710.630655
838.17470065473 973.966694
1009.5673456186 1260.281
1002.5998756094 1254.734
989.893250232477 1096.437
748.254828503101 867.146675
651.332081868712 663.438
595.573826105999 602.454
866.406753751909 872.408094
678.629268492166 687.994945
716.261789784624 725.05449
774.042405443488 778.707532
849.142727904696 852.967707
851.46938222912 856.019905
1104.76187799244 1116.143736
860.91726402137 880.586054
832.079665300889 852.006623
829.300216164519 839.455723
868.588234789225 852.279613
938.350557062295 930.882689
1093.05853902091 1085.305771
737.855026212834 755.132839
758.157481104599 765.957282
500.988630242677 528.44368
484.117102679565 511.03841
390.286643969673 391.504918
380.024960443736 382.287204
359.91735051834 361.603198
536.718570470209 585.118224
446.688818291984 483.072633
419.920708410728 456.570857
627.58224575227 632.642643
459.450445306191 470.758996
430.353394301699 441.313153
440.698531132821 442.948028
567.698709947209 583.942975
416.605468291186 415.870263
703.609093761523 696.376903
564.466489607149 613.320625
361.944971630128 378.498157
372.44558493071 383.013339
446.439235524644 482.530925
420.183057050134 455.356052
587.591172697173 666.887846
538.697932113799 568.343689
411.250670141451 417.680686
565.659624285924 582.928517
398.895079474801 434.888139
405.513426703556 431.733781
418.21153391748 421.965761
422.583806207835 417.126937
361.508828090997 379.630861
371.666329779701 382.132953
567.354338795361 582.822157
472.249514112055 484.594021
470.717492789096 486.361265
569.019092781601 583.287141
522.175657785288 519.884763
576.714324102635 584.367432
567.478897403048 582.754196
514.306854276568 522.017739
361.675658496796 379.169977
576.295692221286 589.725652
395.119460266942 384.559879
638.552614130435 635.607783
405.657083615398 433.172517
578.031378850616 601.864537
576.255657296472 590.051636
375.857478065215 383.934862
394.409754336824 386.137236
449.94874295674 444.868204
362.867495969637 373.407363
418.162198163045 423.327998
468.661659948171 475.628527
363.977248521077 361.191277
365.016982007991 361.175894
351.376620978969 349.737483
577.218401037176 585.563526
531.748053412073 522.101254
521.390830735452 520.245328
480.769300692937 487.080257
469.402753641915 471.28754
386.866494256844 380.522844
420.672535546494 423.324977
544.17731235666 585.223224
510.729203659224 581.972798
466.957455780068 476.961215
467.416145293523 474.428017
341.818170360905 375.231197
396.993489513929 368.82861
338.529211398881 333.060025
350.855672917259 349.712527
347.004269836989 341.276717
582.502555843115 588.340657
414.118957606477 417.391425
352.547984747417 336.158515
338.923738795843 319.825702
478.926731587919 457.174266
416.850617916571 398.839878
378.836373055319 364.91831
351.178841983431 328.107674
420.311876810144 421.320186
499.759625134391 490.93532
481.340962823088 491.925091
680.968718962937 640.469841
403.700324305037 387.776185
580.53725805417 587.524611
335.872985532065 320.319554
688.767650401181 614.18369
