-0.0165387457683102
-0.0928857474532505
0.00985296797754289
-0.146403599612242
-0.00180083966028108
-0.10525916691043
0.00440528457586543
0.139740044193407
-0.403189501842915
0.294407469408641
0.0794471329628495
0.087516284737192
0.0986764236037815
0.0328177298703531
0.0478202297702378
-0.0862938589084461
-0.100730214716874
-0.0907073623945234
-0.0874699775147917
-0.089168724809541
-0.109291447754648
-0.112410013696173
-0.112021357939954
-0.111593681318001
-0.129296515260385
-0.0841287652331882
-0.0993018647994058
-0.0900949428857292
-0.102862344555558
-0.111333118315645
-0.11723668465758
-0.116372504960201
-0.125210069453941
-0.129363566570027
-0.126353769479016
-0.149518307658764
-0.150201662849764
-0.145614255921703
-0.143975002162929
-0.144753519324775
-0.146880387743427
-0.100604912252977
-0.0944622283937259
-0.135363320597365
-0.12935903538801
-0.118145005108979
-0.109797638237825
-0.123445079605481
-0.105923628629956
-0.118473126270241
-0.11203456100698
-0.113539139909236
-0.115642966910784
-0.121003099427092
-0.0838253331452538
0.307026281377582
-0.00201492245513346
0.365000305992532
0.0961911052930037
0.10459241310573
0.0970513737014666
0.0904475255722312
0.055857938106644
0.0712055194774187
0.070111690525473
0.079569892909814
-0.177303298801535
0.0878948281786536
0.0768141600377297
-0.018149195772564
-0.074687268961957
0.0699958081733356
0.0491552654207589
0.0882869954257307
0.0847093394991431
0.350454426561824
-0.119482982129395
-0.106608019990222
0.061341009180614
-0.460360787452739
0.267436512417415
0.143701157669827
0.178270819007455
0.278786178956694
0.217251661977504
0.138605929107227
0.171349371795901
0.067252772430312
0.159625075293631
0.18092591849627
0.054442182120776
0.156031602236797
0.155235490263725
0.0350297810199133
0.00725997122625449
-0.14422068647062
-0.126362043927698
-0.147202383670534
0.150078246788028
-0.0383890323699675
-0.0342026295399351
-0.170082571520457
-0.0742271115059096
-0.0132897630448657
-0.0414969243031233
0.10686931418657
0.208026734556232
0.139688111198676
0.137704398379847
0.117791605908215
0.158602949625297
0.109506734505606
0.090538732343418
0.149692263967614
0.128259774253192
0.143697855945359
0.122807565096426
0.138934453753536
0.0858308798551323
0.159208002919838
0.172264767173067
0.156969877469789
0.200600045947103
0.146438382321398
0.184912836493015
0.0196089374198641
0.0793181629332661
0.0123613321513771
0.160683091602463
0.269566176079623
0.022954378755836
0.0141523484607409
0.0276399843687709
0.106491452493135
0.155167728413502
0.0928684443041162
0.0229568606138523
0.0875799283947713
-0.101315624062618
0.0140519069725847
0.0824295904624468
0.091838861980126
0.0417805751113715
0.0205195078696642
-0.103349609492736
0.0192866436259333
0.0166451667926267
0.161092746630703
0.166191447539581
0.0015169432481673
0.139055301767527
0.0422623441229048
0.0292276037531292
-0.206094393258095
-0.284899286291687
0.047574558562724
0.0771731959114825
0.160983169287029
0.120257051231071
0.175529717685511
0.150156103264963
0.163567544795874
0.0701986391949073
0.0721297978939788
0.0665601150312618
0.0420553130388376
0.087575456251752
0.222499914065335
0.235905379553611
0.206889300701092
0.190064564507362
0.192156397626156
0.192056152667028
0.0816462510918174
-0.0228263179220513
0.043413577943442
0.0683896001365589
0.059504255188592
0.0729121530710745
0.0685114577445121
0.0734186645235309
0.0653276602041268
-0.0200101180841994
0.228584567440152
0.333623418813484
0.273304535032927
0.127415000686241
0.0761545475037231
0.0723811144998668
0.0788089138667944
0.355736798505599
0.0742958514129383
0.20445054561151
0.00548236699561763
0.00413647864978507
0.175879509996872
0.110952511295488
-0.0866957690470516
0.0474683802011318
-0.0181707607626517
-0.0589084211869304
0.00908899890119904
0.194906024735383
0.0298658024174948
0.0337557160769444
0.0110108869937589
0.0898124230194329
0.0669162803681731
0.05027971039658
0.0510281988588928
0.058925861416759
0.0314972631039536
-0.0161490383876829
0.0937554597061896
0.0238135220342808
-0.0180017997549738
-0.00976150306549734
-0.0255789895825407
0.004501203992783
0.0261838439994011
0.0143317162954654
0.0908416690843248
-0.0137865663867571
-0.0192065788255424
-0.00889195819517697
-0.0127985255792473
0.0916552766585947
0.00700307524833404
-0.296106491267822
-0.29045914032263
-0.315513550747067
-0.00170432571726975
0.117171482843912
0.131092961914828
-0.01873971391982
-0.0427326940985332
-0.0710880730183293
0.00177993924666725
0.0596457100172061
-0.00493110999392506
0.0572795080609365
0.0488890794790728
0.0551237978139346
0.0550645780053488
0.0509569451138908
-0.00037595948546882
0.0229298577163561
-0.0034221768759535
0.0499166054295656
0.00874695752228356
0.0337895901923713
0.237080267252124
0.0310181447454625
-0.014188287494632
0.440737792390615
0.0485106287263918
0.283807575112484
0.395862895903135
-0.0140272871734752
0.276306557439799
0.297044633449442
0.262199105501549
0.251452349267374
0.27051448594698
-0.0304679763874935
0.370766786333378
0.250278069998855
0.0070685756483787
-0.0139634610786583
0.356820773910738
-0.0261804003880451
0.273104600780205
0.294240373706177
0.326509728243901
0.0220993679546583
0.0460196439788838
0.0375859874646856
-0.0512540923066027
-0.00464580453058816
0.0106104739634278
-0.119977509384854
-0.185443853011679
-0.297726002219909
-0.311199554507496
-0.054871714876165
-0.479275251031444
0.000948264148002776
0.000344974343217118
0.00085679157258834
0.163569720306893
0.157942309663687
0.312417521427482
-0.260468198252037
0.00945947630709975
0.0134820539162742
0.192176748066255
0.187533124950193
-0.0194445731218877
0.15024650477276
0.221586802288894
0.158834841229666
0.18346122803157
0.255171967755146
0.194657864803326
0.132496292968908
0.201145375077056
0.146331836602615
0.229726875567461
0.217733251996899
0.244677142697634
0.242348575152563
0.293084041897551
0.257135256793034
0.237527778587703
0.217711088406539
0.226700175617311
0.192971459710666
0.245709598404713
0.22541621129619
0.29562771019429
0.106748967594212
0.104114590874965
0.0963373074493644
0.0958399441455471
0.0954221457598013
0.0981981275707488
0.109451728725631
0.0917485491874471
0.0790503932289722
0.00603186953897791
0.0689080007891952
-0.00622873336274925
-0.0928201568759558
-0.0548859027430718
-0.0966557436564715
-0.0893569197830374
-0.0220167100695507
-0.0409582159746159
-0.0507008252183997
0.187384621681232
0.166124331486181
0.202041769382849
0.205223820317374
0.100831541081372
0.0649192610456025
0.110355516639307
0.158921160911924
0.146061641526443
-0.107036927412416
-0.137318379839934
-0.1490538123144
-0.178774606938678
-0.574532392855336
-0.133324723606027
-0.122427463969429
-0.14725167721191
-0.573621433808043
0.137587127452917
-0.0091137292327802
-0.0176105617625408
-0.148504382288439
0.135409524511496
-0.0168697069894072
-0.130921885256846
0.135512752159719
-0.0152206426899204
-0.132599587405157
-0.309078703268733
-0.122585832016665
-0.137904999809595
-0.0095368017038486
-0.137926324601923
-0.0104433589654874
-0.00366697796908975
0.165836506305125
0.110253687206445
0.149867322698451
-0.571615078524304
0.277098108433613
0.044366570468565
-0.014710732688456
-0.282193158199069
-0.281593387242329
-0.0722480603027328
0.0758007644396972
0.0406208160656606
0.0415868422387974
-0.2776700570678
-0.16026171162472
-0.112792899324267
-0.00828436778819123
0.14247219683656
-0.143808237651456
-0.0170389498879385
0.128636484962766
-0.275930398449833
-0.283374180699727
0.184057408693674
-0.00267838870813275
0.481428283403539
0.414930599475216
-0.077466058798776
0.0225153234373737
0.0504304196208205
0.103830791808922
-0.0329839462632038
0.0174134003883316
-0.00931656035159856
-0.0257004442462065
0.0252220888169494
0.131000683968637
-0.12611302792284
-0.0900860002843993
-0.0636761194705071
-0.0268148103805878
-0.0557492864277008
-0.0154533714808327
0.0506960679842939
0.123034727299099
0.0698289221259974
-0.0276200759328879
-0.0064435504136538
0.00466934658740263
0.0308748965730523
0.0426295508513888
0.0506646510758817
0.146798224807876
0.0752772414377576
0.0353341592926954
0.124819906934054
-0.070284305290966
-0.0296333233047387
0.0512259600106325
0.0640690993780101
0.0745943566262057
0.0987323415726286
0.0792202914210657
-0.013359835566861
-0.0018552694199131
0.00572928727721452
0.114541255654511
0.123106428357494
0.184046800629421
0.180044308600539
0.180085693778553
0.216899538457118
0.213915158042697
0.1982834592979
0.211957849275484
0.187044331353329
0.226670877247816
0.108065388402162
0.101925936675993
0.0969755287403179
0.104246590670827
0.142037721081472
0.334001638670749
0.269749670401164
0.250061817142593
0.0807157632599016
-0.0499798229631321
-0.0201954514311784
0.0269217184420764
0.0155518815462056
0.0881321745006619
0.29958223383766
0.22268164201633
0.253940910194933
-0.153778022259196
-0.145221204537851
-0.158656588385198
0.0090371433664309
-0.0518593362786713
-0.00381259909592222
-0.0308995589628335
-0.144261539895306
-0.0569057311420747
0.0791060338023966
-0.145885704408904
-0.146200501122133
-0.00356357526614469
-0.1597620802152
-0.255268503955963
-0.166376857047112
-0.152595888246037
-0.138692727449457
-0.0987853841391988
-0.134453349823216
-0.142819649844926
-0.0118882982859575
0.0139366468831072
-0.0127260809603451
0.0212197550839947
0.0157172656202238
0.0208853674522045
0.0226400170650008
0.0480906018303916
0.0452176830834658
0.0268985902072586
0.0405234210620964
0.0729438721320805
0.0217764307499597
-0.02606265561401
0.181383811183788
0.133616931770403
-0.0600691622707463
-0.196220709237287
-0.0927383788469853
-0.118678497379326
-0.206779461612416
-0.204221036935012
-0.0210937260067985
-0.197999377215778
0.11342443688462
0.036274992979074
0.100123016579476
0.0390535891864177
0.124815146825962
0.0588233015302915
0.0777341029468268
0.0786023491320638
0.0404853823585156
0.0611733197944465
0.091266140137647
0.0703595700401513
0.0716047323951278
0.0936407231925934
0.0725493379602141
0.016985993223287
0.096146696376604
0.0915128040852903
0.0937255652113217
0.0227458576644059
0.0289219921449396
0.120165313682298
0.172644925058126
0.260366661923336
0.0993375980673277
0.152790225522989
0.0369817198245261
0.18191437618949
0.0447822807622442
0.177496385291767
0.185350302932331
0.191284804354962
0.166479635455021
0.203920191936517
-0.0264149015524269
-0.0355674382506651
0.193019893769049
0.028424403385412
0.089968143451178
0.0874898667878429
-0.00379806629467738
-0.138841365669766
0.0926030835115321
0.327411777317609
0.347871524416259
-0.028892491799946
0.183262802574601
-0.212313121676572
-0.0509855671929484
-0.0691032985701615
-0.223379325422259
0.543102021268624
-0.0809642050086717
-0.0691307223305664
-0.16416821189758
-0.176394470902807
-0.179351736329447
0.447969482984818
0.304006730755677
0.350942848410907
0.285476919917343
-0.233874103754226
-0.200797406664085
0.209751126299353
-0.00247983395522045
-0.00102467692142562
-0.021426372824974
0.0653904292308123
-0.131538139914134
0.103111833461728
0.13590708791203
0.0659692681794207
0.0895989236192468
0.0657645100634423
0.0611533454978217
-0.124469901825383
-0.12302421190765
-0.11459816828509
-0.115870032965253
-0.078487230349495
-0.000973654903294459
-0.0892455454098656
-0.127180983824218
-0.0687912536921845
-0.117578630193337
0.0489120906770188
0.0529095645359246
0.0262400840606344
0.0238131312335399
-0.564355800249431
-0.0101479715342992
-0.00952926270737674
-0.129521674715338
-0.118958471873111
-0.123823164828793
-0.102111158498823
0.000819069325185157
-0.129762862346717
-0.126342612141445
-0.468996189255726
-0.562370647118969
0.0969953995206368
0.0849516233026847
-0.0109249950868334
-0.0155375056412951
0.0414103741107168
0.0411438987132723
-0.146828666914118
-0.00884810017983298
0.147210741346889
-0.013413107964718
-0.119414240654052
0.09821662589425
0.0829848479514806
0.00292114089304634
0.00214492735578328
-0.00118956049119489
-0.138508197642554
0.00928373454133219
0.00289194229226225
0.012038454333391
0.0927718251437225
0.00907171116177142
-0.130266606667516
-0.121443669589882
0.177994255477359
0.144846199351242
0.0119761779711177
0.0862552511244194
-0.127417328137163
0.0187829196912415
-0.48604374211918
0.000600653771887301
-0.110313792311281
0.0360255959151602
0.017658517331151
0.0371922647684873
0.00768133651993125
-0.12582443384323
-0.13638021465537
0.0103197494096922
-0.108001098150133
0.0365124747150756
0.00938274662021638
-0.789905015666371
-0.749405699643517
-0.123828417396761
-0.123746181001376
0.137072256031328
-0.0257811131502263
0.00849321453948694
0.022795956574553
0.00965398590380618
-0.00131699290450092
0.261235858636899
-0.129175782205301
0.122475515408677
0.105910736416401
0.0898648187889914
0.160889106491412
0.100469932242046
0.0994619180282531
0.258771511441236
0.252949584466644
0.252100056182099
0.262536458074891
0.227339467904616
0.249931468925206
0.112663767308649
-0.224671957651694
