400.855283186958 427.032801
474.951910795429 497.528598
450.598951424574 470.76415
380.220678115291 355.060268
375.416537699675 392.747458
314.376046116242 327.656278
295.766108595895 292.165378
600.891854423707 655.105006
308.757518569793 310.22768
499.55933188449 535.941112
606.347274834175 655.388144
306.093627567099 288.215897
307.330210441964 288.733287
276.440116747382 253.048233
588.500357442007 654.881651
738.935015338061 776.916086
817.296620113366 864.456638
739.156262120022 778.799904
650.215379109983 677.225678
624.555301919817 648.708572
656.493907816373 678.315051
684.166297628127 708.011914
713.205591050742 743.249853
783.292175708296 821.236119
627.517990215183 649.974171
654.687304662081 679.727147
741.680527600807 781.015882
743.438790840301 780.582021
821.939202702145 866.644268
660.523831200913 680.168985
686.385217991074 710.297634
716.346244693642 744.86404
784.548896150413 819.619805
877.08322002904 920.31816
656.538874147857 705.635706
558.759661592556 597.178724
852.254428196536 911.884636
806.324060326425 861.127446
691.158251428755 738.720329
631.199807804867 673.902957
605.763570283517 645.814821
562.105129392913 597.402161
524.296785024924 554.337597
671.799950711662 710.432221
574.452890593593 601.747153
861.828700009028 912.860262
815.565604352288 863.686134
703.115941976564 738.311721
643.552283251687 674.833033
614.987529849689 646.205045
575.120459127628 597.435579
535.575147848421 554.905902
657.308513769921 678.819922
826.672435728398 867.22229
676.713995770234 708.179303
659.78383564453 680.804242
829.301383754677 867.661884
681.199562989445 709.486283
750.427049950692 1010.467431
598.621279329792 519.938325
524.105930064365 514.171422
1032.37173578459 988.079
818.060112042082 789.703
1015.43947659083 985.953
835.851766629901 789.844
676.10421993039 593.75
915.351389423969 848.281
897.984886492095 847.109
746.561970529495 769.143159
813.177481596383 790.843
827.643595757577 788.734
787.810331006081 845.219
610.240224430079 656.641
915.074512037246 848.171
708.314679463653 350.701998
1026.04659916731 989.109
590.264438294167 505.090346
595.836604915982 518.064842
674.29403632707 622.548045
556.528116717721 517.820071
375.943667068513 406.750459
529.15028794114 614.439305
606.572308673328 652.641938
402.98022512717 405.807832
616.679475902646 655.338609
346.537482353358 357.236108
481.483530291097 492.549924
555.41609773693 588.936486
320.175807882466 337.455618
331.551736371238 337.188111
501.876420532502 535.612845
428.64069769471 435.833857
506.575176176379 536.501544
425.967381314684 435.423925
417.373241575243 420.57158
438.334503291372 436.502598
348.027451673778 356.679111
851.524912063885 751.5
846.560190966928 739.156
659.940237355214 679.14
519.996770890864 539.578
506.999428976302 529.016
846.835088662575 873.26827
889.66926609531 901.406194
1072.33630621512 1042.521425
917.185007631584 908.926989
781.598288321388 809.477191
883.890901917629 874.438188
957.071727705072 981.79166
1114.0727767587 1149.392641
748.633472230814 806.000286
594.572595313039 618.559496
593.115837973617 618.045742
661.798053430736 694.532968
646.645899322001 695.969586
691.019107379237 725.020606
722.299390146526 757.994785
547.68320061822 573.713468
634.543112434696 665.167717
568.753716888583 594.10389
661.06481969758 692.798751
568.495636518108 595.212547
661.308670218193 693.735585
639.44272609131 667.033704
514.375056984898 536.649028
514.02432203128 538.117721
572.634922214004 595.810947
564.447911345893 577.918483
318.160063407684 375.9
294.134915194103 363.1
328.341295306918 335.493406
452.015943447673 469.98059
601.309162041677 652.92079
552.468412540015 533.877302
418.281707906527 434.897714
451.468587371503 469.689467
388.287418809738 405.358943
347.029320554221 366.698037
593.987651407621 651.627927
470.520421353365 488.885713
414.082853040012 451.511509
392.230832415397 404.438827
391.83648602755 404.867224
386.618909780234 419.148949
490.678925971965 533.407657
419.062358455386 434.531934
451.907143929699 469.360023
370.276515578026 378.336378
388.384115832925 404.888297
391.614860271742 404.909377
418.374147876776 435.099714
451.649926410903 470.10944
600.242988599915 652.335607
493.653506618255 533.413003
473.223557318927 489.124956
331.131455369694 346.260925
314.111261671703 335.377231
289.917196800183 294.309827
317.311920444804 310.6
431.214181981445 514.961842
293.532082584724 309.763713
304.21144579497 309.867876
305.388399603536 310.551373
315.43034719228 337.081095
318.745273155961 337.368991
418.495761826082 421.404469
369.637496446972 380.378887
393.699337883798 421.591864
368.725670387924 393.504636
298.837282851271 302.269678
402.288542691609 425.574186
495.74511750458 533.502744
293.590532033183 287.935452
556.262818696193 589.632633
504.720047081467 535.990706
393.985314207868 406.27315
336.108264625409 346.877323
447.7189820788 453.307538
409.063419883909 420.981528
402.285413042498 405.491114
421.474584512744 452.453527
352.461142057706 367.360744
605.889246463162 653.837051
499.968952217395 534.47405
479.167470864124 490.125685
425.611216091035 435.55202
459.932034435505 470.257469
396.860040774663 405.318138
293.33223875559 287.999017
310.814580438907 323.190761
425.318448000281 460.889937
529.222355251164 554.382014
287.238147285268 292.895875
304.545889313474 292.767864
289.625624820764 277.074961
282.159896757436 270.006338
401.144547575422 277.584526
275.667801190493 263.001637
273.427700114006 258.234449
315.444623923317 345.621383
834.466293519003 738.39486
790.12679672765 702.73135
826.213092956226 735.328
592.076488101874 617.846441
642.327235938638 704.964298
590.854494593348 654.966569
597.347032080985 654.694439
532.439612471785 572.04449
712.686913375773 776.879361
384.145241325862 612.250567
545.802795636959 575.609
491.798040378004 511.93
486.61670584121 512.397
464.996614856555 485.582
666.412314958813 744.165399
839.453714173257 945.232952
754.897238535215 849.691675
691.643178594003 773.474119
435.360745878223 455.7
481.772795370489 506
516.265752862299 543
358.029080128645 394.5
306.353884678997 414.271447
282.768115643217 384.321911
280.885705170223 382.359748
442.814752391462 545.708116
465.295483919024 605.95488
341.008619458519 469.663705
374.164219877708 516.487966
486.242599994854 676.983596
276.111324865782 377.432182
298.116969907706 407.583442
302.749957066956 414.190632
275.590201671339 379.21306
482.710649528996 677.139773
421.363142388954 575.238203
691.555427268748 859.869724
696.577481375942 859.510617
329.342579539711 395.959872
852.27372894552 737
625.488173054869 666.996591
634.306926596484 665.991859
656.619477386885 303.131125
677.978747489313 304.160906
659.17517060774 304.318137
691.894592058882 349.62576
803.626823560091 346.624197
820.25015317348 399.729774
707.938726738722 350.446253
694.773286131034 350.423861
695.188869839036 349.673927
789.412959970489 394.806218
697.158295390639 351.122993
660.350732235222 304.204315
660.468397429915 303.708306
696.151258432055 349.97111
570.672742602444 660.92373
623.16382246982 299.375098
624.423320838512 299.525195
536.444083168813 556.875169
1343.81331210521 1535.988245
1037.50202471213 1167.148693
593.85985039084 636.283808
594.785382206241 629.766642
520.038050007656 454.328258
573.135877203455 507.405929
534.519241368662 569.566554
657.567462812816 607.281835
604.714441784854 537.70298
571.38899772635 508.045582
782.794610737484 758.56207
697.934263267121 652.301717
508.672961637269 536.119282
535.005912623916 569.834457
580.558201422223 480.668805
553.121336103491 456.004788
478.18469205724 506.622253
534.647856939282 570.371722
651.0274086921 628.857083
510.018304270544 535.471261
574.952479820235 508.853103
495.177025123842 447.378413
562.71311007951 506.782665
605.696543556358 793.472849
609.643381942971 646.060756
613.435838468531 649.401385
480.38157965643 562.983484
455.162013686981 520.065457
513.963379278048 622.503929
473.573415844616 575.439947
650.298503726413 672.744482
521.526382876555 613.196795
483.627402672876 579.257497
434.107331887718 521.198068
616.458983303795 745.066496
403.216356076302 420.51885
403.002705136557 420.218121
401.734685419938 419.094516
282.364113640019 287.700058
505.323523581344 493.795976
494.190093934696 538.712418
428.876919561383 443.765599
398.886961670036 447.780484
376.59733098306 391.46971
451.284254769987 470.112238
378.050836977874 392.415487
291.382198023594 287.779491
308.325509239885 309.581757
612.811080293237 740.280793
477.06832937916 574.940201
604.721628039996 654.510491
549.726644333618 589.586901
518.844421489993 608.971134
439.630853141933 517.521603
480.133002771354 489.536943
490.644038377138 575.100244
465.430965780597 544.488432
396.897559075906 405.161957
331.437062600897 335.874481
401.648011380547 420.306989
476.792987313822 490.076892
390.995205156133 404.960039
392.58770510107 405.263923
369.317747378533 379.108334
378.374897665686 392.397145
342.884018106563 356.751188
414.21660103179 420.597946
317.717963099685 309.447713
336.707403750396 336.079221
457.024097099798 489.770711
423.111075528074 493.641286
1014.5576957662 986.75
1012.80604143285 986.329
809.462458773479 789.078
724.905442819613 677.14
897.197385621547 847.11
811.947114056423 789.406
720.887612440205 677.563
588.622923960937 527.031
604.367357779982 656.013017
566.337244143546 613.841282
564.944301253935 612.571321
489.765003479446 592.119272
536.308893593066 615.388916
534.735200818524 614.711493
490.999032015089 592.413303
611.822774548939 729.256525
868.471677161015 876.444368
823.611432786069 811.59404
827.927373872764 874.956186
952.341118236898 998.179961
766.371983189496 813.657958
750.936036299044 815.404968
645.443744585726 865.401417
788.107357979328 1032.537742
795.243502996832 1030.316864
556.371739345153 661.997136
631.714892445028 717.34707
593.710494548281 690.288514
611.634078203351 625.561164
328.246905874089 336.386839
306.70423831134 309.610301
308.395090966613 310.281725
428.941357635294 497.444129
378.728975039504 392.907911
343.09519779649 357.04314
415.610527297808 420.432654
427.749437765154 496.326326
452.927693940847 489.132317
450.742304019502 471.58622
375.021046782448 391.920983
415.736135825483 420.708548
453.869122943976 489.224376
375.505488517711 391.83338
415.304190326968 420.787424
378.867177266514 392.827796
454.440373963751 488.91574
375.552226896413 392.766581
379.1201561519 392.71192
433.935804224285 494.838702
497.7337529699 512.295462
366.56559257439 379.816983
325.193176406783 336.869663
328.421717791747 336.774011
402.526600358286 420.902432
449.992557521372 471.327064
314.094246305901 337.065495
316.953722233901 336.25624
600.199410911351 652.252122
427.876071857197 496.264614
447.763008612802 520.920015
837.57977437443 748.547
782.744430385112 833.414
1122.56170581717 949.5
1251.67404987018 1055.328
531.339622069287 581.61
565.131320918906 641.706
453.029711581269 513.786
499.84150265444 578.2
575.477526067653 644.625
1146.81110659029 974.328
695.552458587229 732.202
597.050513170685 620.015
761.718872551602 807.453
802.067552509419 1104.063
614.171815542507 639.413
803.972010774475 855.91
808.357675999607 1107.99
833.323125715385 1174.469
847.375176706481 1188.438
554.285144715919 600.386
711.851807922555 946.312
586.511189155336 648.786
494.903883328519 516.256689
513.503849500776 526.5
472.717185744824 515.627
474.73201322456 513.942
473.840714553716 513.942
540.849352350724 553.596
549.328725322478 552.595
557.874590790402 573.326
545.243022064973 559.031
551.763492127403 559.125
692.938992026742 880.391
768.330647487172 876.265
518.251925798275 548.672
546.22422835945 582.688
468.825586537662 490.937
490.042026891114 517.687
541.677300621376 582.625
551.481011979138 557.687
687.407184724937 881
511.129199536713 538.656
460.578347663617 487.9
483.725791019017 520.4
506.907857611271 551.1
396.388646747566 441.8
426.21532260976 480.5
463.294743422999 526
339.960511728153 405.6
516.936172346513 495.6
406.275769261225 460.4
378.377858779149 424.9
615.628868713443 623.1
560.055123555093 584
479.769849484499 467.4
496.27620211274 491.2
521.512267027829 518.8
571.721750708666 583.8
516.392238630234 507.8
558.899166158383 583.3
587.946293070501 622.6
622.860692736991 669.7
555.90083884526 556.5
578.569402810959 584
601.946734999452 615
702.443441825509 577.6
748.802731901969 620.7
753.333688515341 621.3
781.991409707054 645.6
699.746685032927 576.7
752.164940713527 621.1
693.05420751461 576.7
728.572075456381 632.8
621.786825995828 505.4
780.939386709897 681.4
789.824591509127 692.3
814.315418510261 714.5
850.251497170792 744.8
837.747855985702 726.7
808.661097920459 614
727.377172366809 590.1
334.044936915692 382.2
392.721244216712 479.8
426.939267699168 439.1
432.007107450466 457
326.118495203638 385.2
315.923232583191 372.1
316.305863390831 377.7
301.339013982514 364.2
322.013568297978 393.7
381.195568683616 445.4
347.273769283981 396.7
332.890468138496 353.4
331.226925679997 316.2
322.681752427962 307.9
430.206488727858 466.3
355.301132963813 309.2
411.773266002377 355
364.951837161033 316.5
331.561030950906 316.5
396.719219015162 356.7
334.986621840338 338.4
384.618496056475 377.4
373.787726119569 365.2
353.073407238202 376.1
322.678736274854 308.1
321.189555347725 370.4
323.301974466161 381.9
377.053049883145 449.7
337.542528628686 397.1
371.344714114971 398
350.531516586372 384.4
339.431722321348 369.8
382.965179364502 383.5
483.136415760614 545.5
373.477350641965 426.6
361.775174971896 412
393.649734229373 474.5
378.834123383015 454.3
341.798410422807 416.6
353.928315818774 433.3
343.071576476317 403.9
331.679895967551 388.5
332.446474062275 389.1
316.435590299216 385
321.82651592449 375
316.823898031669 315.1
315.357686280366 312.987787
404.612052223052 459.3
382.990771680726 399.4
322.241130232623 353.6
372.814654781309 377
382.441955626012 411.9
418.008777750244 442.7
304.53701759584 301.1
570.543908136198 568.1
456.818851296674 413.4
363.054910691725 411.8
343.940874638876 344.6
406.71029978353 443.8
447.186581102145 460.9
367.575511756693 369.5
324.273405080847 346.4
387.817371569816 427.9
409.904298609694 427.9
297.153554607635 298.8
296.781062703651 298.8
334.870625339078 315.9
306.723043781735 299.3
305.130702809585 304.4
304.790941333425 304.4
315.51234469356 304.8
361.876732601779 351.9
329.211583653564 330.3
332.712187457876 322.2
370.309622604233 327.5
320.817955936009 321.3
358.427349831316 361.2
318.0162933587 342.1
326.982733439946 352.6
352.865639122406 386.5
292.398382936526 290.1
578.149123639685 633.907577
419.031774708762 419.781974
462.079177844947 497.289837
319.1231492008 335.84627
458.043456851818 471.461003
449.427180405071 477.008036
370.27080696262 379.512323
387.824705529601 392.724102
364.736111219179 357.064826
428.871457024757 420.93577
409.911211790638 406.262467
320.136267836133 338.722748
423.981346945105 452.702511
500.81424521644 535.124297
320.213208892292 336.700814
423.082841651616 442.123126
277.136701769548 261.157767
291.333103310611 275.3481
377.539391131681 512.302043
343.467148830559 400.69104
629.773137266024 664.141573
641.140770525478 567.899818
506.425867376234 447.314174
307.581133901187 408.43126
336.563558360755 332.34381
9272.96650844365 8025.652035
2536.72412809203 2780.369501
2037.5974287816 2019.934103
3740.15636329421 3349.657398
2544.6544760308 2721.458388
1983.57589313013 2063.598425
585.610449118427 598.741481
592.873619001133 646.286707
560.419899618352 603.51153
499.129517573997 515.463386
573.370140741997 480.321181
503.028884925852 509.552153
554.630342327098 505.208894
508.288702882944 445.944248
398.028955283006 453.280942
416.911998558893 452.783779
520.934999657751 618.208179
606.797623537397 653.847409
811.935138423638 881.156
821.687301064708 878.969
802.250120781724 878
529.606804824914 608.992432
557.664896704691 593.125
457.50433841449 516.156
649.014669244937 741.999907
501.625935307154 577.741233
534.288322472167 619.972417
577.975355901704 672.763628
652.555198726763 683.538392
675.72663261623 703.320725
874.190873011501 917.343389
681.602995173365 709.499557
659.531595034296 684.087321
649.810853878642 674.073547
649.845024762742 680.819033
733.943348209206 774.027186
864.276524302557 909.869442
579.425846060278 596.674716
605.440019284099 620.573972
392.461688226068 426.064101
379.724145126045 411.401743
329.3218960245 326.509794
321.199335618247 317.773876
305.7969677635 301.427253
419.688764459537 494.656776
351.854992669046 379.491141
332.14613438688 356.402048
501.417770819064 510.934348
367.958969839375 378.928065
344.944571506815 356.037357
351.912404880585 357.08784
451.906288478488 469.938883
333.268047601058 335.894747
559.958648250293 562.258461
441.616676007054 519.568098
291.491540065478 308.802381
302.472839152308 308.809231
351.663956988801 379.45969
332.498172515632 356.492074
459.436466928467 497.436527
425.576669902511 458.93858
331.760150357821 336.131081
453.314994147366 470.238592
315.067583396521 336.358862
316.470110466608 336.456452
331.544635051682 337.322645
337.716327349625 336.506163
291.108784435878 308.900398
302.289328702899 308.910874
451.079256724484 469.688542
376.710096816531 391.489577
375.324930734812 391.747781
451.908237485989 470.06106
416.128697753934 419.440166
458.43555532063 471.518701
452.16566338442 470.282047
408.708363822998 420.551436
291.489150153213 308.886436
458.00987766711 471.860638
315.599342299482 310.25794
508.575474194736 513.049073
316.345016575862 339.067086
458.874032294905 491.058274
457.740553778303 474.916014
305.237808150015 309.491558
315.185596963752 311.9774
351.753315507184 357.198056
295.37774482014 299.625053
332.246218861594 337.000788
374.847991836628 382.03605
307.742894074019 301.342222
313.683496555648 301.304078
293.32373381231 293.966759
458.312204535453 471.283371
423.515577607876 420.869059
415.31714270398 419.868823
382.572318017442 392.864397
375.13876156433 380.239343
328.918697233572 317.847422
333.816648458619 341.264367
425.052940093328 495.370543
408.81415917874 495.11254
380.239781557055 383.110385
380.394957590682 379.994597
268.925228173053 315.04787
329.628051032734 310.263576
286.035522756079 279.872608
295.983866329188 294.003501
292.551292371731 286.815939
462.390336452211 470.05307
331.059761017606 335.605561
292.637304844236 265.94057
282.563741510979 253.287059
390.481171430167 361.631314
343.479913454807 316.042798
312.955581081845 289.246138
291.053333720211 259.819781
334.491844263509 335.766828
399.478009608335 391.511613
383.800821717979 391.899841
540.738968448659 510.673747
322.656576782771 309.217949
462.199816721091 470.377627
279.879104702058 253.338809
593.563959153439 575.160864
