-0.0116091918084028
0.000905825383947922
0.012295565350738
-0.00259108696226507
-0.0243849287094482
0.0694885188519305
0.0304049172557058
-0.0366176525003901
0.018040680855856
0.00334737873210781
0.0110296978995701
0.0151484837192991
0.0325743776182931
-0.045228152387759
-0.0282573009076172
-0.0796555008193056
-0.0817458034711416
-0.0813438653597914
-0.0864316647046774
-0.0916947384007523
-0.0880508404901331
-0.0891345582627888
-0.0846148202202341
-0.0799614448787428
-0.0855653342521103
-0.0767905110648992
-0.0805888906943975
-0.0744772781460406
-0.0804694122618813
-0.07799344848328
-0.0834359434540805
-0.0807951767677454
-0.0845683880353137
-0.100858216047421
-0.109029532338807
-0.0990356311559562
-0.101788854414458
-0.0996934653780061
-0.102210128924127
-0.103714523839374
-0.114048620814194
-0.0843207157869177
-0.0874335920436043
-0.0903453460029449
-0.0896946083523762
-0.0861499311877625
-0.0852879700058733
-0.0894432611983391
-0.0838288153933781
-0.0948720091997401
-0.0874275605441886
-0.0776110372618416
-0.0843747609019435
-0.0801487310376738
-0.0768482331887666
0.287745082743268
0.0553608460965045
0.224228781909537
0.15160932275168
0.152948299848598
0.151640226840761
0.14997803073278
0.137071055165105
0.138899964590642
0.14363639795414
0.144665199647873
-0.122649420604144
0.147304509638609
0.147278360866857
0.0118064401279287
0.0446576206757085
0.143578705774728
-0.160779384871828
0.150588100509975
0.142896896777227
0.174480313221244
-0.0674117636927045
-0.0208678838040179
-0.0794226935684783
-0.0718796886847292
-0.00155661914368755
0.0324032319081585
0.00264609112300475
0.193542982228021
0.00280314389037777
-0.0527579384081132
0.0121159675197613
0.0198655040743626
0.021895768474407
0.00017987270142817
0.0158745365222848
0.0945768157097957
0.024920357742709
0.0173739855469919
0.00589140682259366
0.00368512933653335
0.0155529117247481
0.0265232521206932
0.060042568296073
0.0526034425747022
0.0458858167281999
-0.0188830652824863
0.0146942325891437
0.0539872847287553
0.052036488482286
-0.0267152872362629
0.157748320394354
0.106391287523762
0.111161211926283
0.0993756560246215
0.124361192799005
0.098041013297915
0.0940282542871272
0.109459728278994
0.100342194213968
0.113317867810074
0.100195456538173
0.105986896821272
0.0799643757294
0.122440018989429
0.126763546739761
0.110951633544652
0.162830649203962
0.112784678926913
0.124872691894854
-0.00305435431975497
0.0401022139220157
0.0200094382697761
-0.00248789626823474
0.0784371283894753
0.0420219769762301
0.0353027590996729
0.0533806633163871
0.0152591110921227
0.0343325024865353
0.025156722392936
0.0474818927544331
0.0130280672044669
0.0537561053038281
0.0375285080824377
0.0174146934998608
0.025405654554129
0.0174411692491448
0.0487728102490775
0.0520351424033529
0.0157881296299371
0.0418768920274006
-0.00262741040122746
0.00572480245574939
0.0362332357684217
-0.024720411350764
0.0415877393186128
0.0534368886244306
-0.0651060473779578
-0.134885319996927
-0.00200209731524825
0.0051396578094569
0.029337457434321
-0.0535524726908158
-0.0178611704896846
0.0421594057055114
0.0209959791469839
0.00802582842305006
0.00790386806412382
0.0291592548955223
0.0793612027791857
-0.00779276361475938
0.0229924487438273
0.0368832465621613
0.0770020324452708
0.120953274187271
0.124665438991495
0.11236753064445
0.0202155407636445
0.0353428289063297
0.0231680435652974
0.023512764042923
0.0147349764049097
0.0231225753561372
0.0154807292986768
0.0248491078422736
0.0202053174352562
0.038293460459367
0.0292001459318087
0.00514675928921854
0.0455162208814801
-0.0293864702037064
-0.00303393718940367
0.00543630366325138
0.00382876395990247
0.253784062336537
-0.000999156695339979
0.0346442620689789
0.0424943018204256
0.0602701391253571
0.0965762133353148
-0.0312155699083217
-0.0785924601157613
-0.0483967133551467
-0.000446162571593065
-0.0122985841630907
-0.187466960184154
0.117315852113001
-0.0251077465039397
-0.017553895204068
-0.0308562387339818
0.0181632321371113
0.0147535222060996
0.0168219752935013
0.0110369873267342
0.00667842751801336
-3.44775874065901E-05
-0.0422102500388449
0.0236525476588451
-0.0476758605385526
-0.0147335923125144
-0.01409757376607
-0.0258108570347726
-0.113083852177869
-0.137427339864465
-0.000950694406084049
-0.00805590540918226
-0.0133231102479791
-0.0165765958245297
-0.0167434738974695
-0.0109010218673637
-0.0560186768317677
-0.0095177841160814
-0.196736067420017
-0.186670397552129
-0.107260402192367
-0.0151941957858231
-0.040433923397244
-0.0146539425701133
0.0697249472650734
0.0540145668966549
0.0591862724218641
0.0504421272600037
-0.079612044103521
0.00930869419865613
-0.203800421320068
-0.136674848371358
-0.135589826281733
-0.201367698302561
-0.136231717393914
0.0515695240504956
-0.00456977479951309
0.0489802276952854
-0.136955915940782
-0.0528554764360823
0.0657250189558016
0.0915515808057891
-0.0614415334024672
-0.0624991655945354
0.198078006738736
0.00416805722415948
0.171093261249682
0.234274361072392
-0.0300719326601931
0.140511837238328
0.166904834807047
0.153168704759851
0.122109199832722
0.142206531520646
-0.0404381257454242
0.20004690166887
0.183156549888796
-0.000700932230921126
-0.026536479903877
0.257736073255831
-0.0289508031036468
0.157770529913804
0.181791510701723
0.204689451062425
0.0281240832496506
0.104236615759516
0.102062897929333
0.0180158502524507
0.0238507537141199
0.0291222029845973
-0.0940472114727759
-0.0676034513966032
-0.0717400367916186
-0.0830195221014984
-0.0661791745604955
0.0372826707980032
-0.00540139903209748
-0.00162757737568022
-0.00523001779935431
0.0649876309643826
0.0931075178344892
0.0522682530454114
-0.0941229280639648
0.0161235248710688
0.0310047432749853
0.0156046630273825
0.0166642095671607
0.0401806529211727
0.03416440098948
-0.0851569569727866
-0.0625898600483559
-0.00658634320559771
-0.0124063932220629
-0.0619563264038138
-0.0617635034108079
0.0370934609383023
-0.0576655885433792
0.0424135525984024
0.0417422793556077
0.0172271704802714
0.038253351149098
0.0580789005693815
0.0369182231881228
0.064693595726944
0.0217556839400509
0.0292654213661454
0.05051183434277
0.0703772016775025
0.0564493154690002
-0.00659572721105904
0.147559198956239
0.150391288846719
0.145407109210166
0.146291628078703
0.144011074880864
0.141990428728861
0.147202979867202
0.141545939079101
0.135298597739676
-0.149805864967865
-0.105610031202983
-0.154340941908834
-0.0550515715278632
-0.112788197635523
0.00922717635304645
-0.0237914718975696
0.0504902640822883
0.0425905581867337
0.0270650155879223
0.151217431133768
0.146155499932859
0.150403771696191
0.162401385541424
0.0407800927594231
0.0407267881869801
0.109480272683382
0.162597004206698
0.12321793265956
-0.0776317040968908
0.027576228737683
0.0612205165369699
0.0297681777224711
-0.0801259853633999
0.0119645977863486
0.0269661452803952
0.0301843890650549
-0.0774407765509347
-0.0155767426780231
0.0122278295877281
0.00841022114533816
0.0293163162847583
-0.0191247231120623
0.00839557647907525
0.0103889056717003
-0.0170009288354889
0.0143747500162924
0.0158253583056341
-0.0809339310547101
0.0363761692641705
0.0134172676659882
0.0350691047522554
0.0459948128737239
0.0136209326740221
0.0283237211687368
-0.0499078427191523
-0.0205828085573397
-0.0142293495688373
-0.0681240254915117
0.0807422940256674
0.0207262748369783
0.021716625806752
0.0796737558535983
0.0798038656852471
0.0233257697701727
0.0982963138099563
0.0790795039816269
0.0900609259281179
0.105949624647906
0.00268997050878814
0.0244352230856736
0.0172997978132684
0.197185053814194
0.00881563336833533
0.0176042682575408
0.187751447154613
0.158323868762395
0.152157764768763
0.240290626368581
0.0654429717493558
0.207957937302938
0.17500626394293
-0.00510744193443354
0.0270085043705251
0.0483672622807221
0.0833503843956596
0.0461201780564542
0.0679010203469636
0.0543445184597584
0.053569739267182
0.0751701882774452
0.194751156224381
0.247685669708177
-0.0214000424867813
-0.009811283896906
-0.0463607146052569
0.0115386484980601
0.0242622084900032
0.0865737343728837
0.187349330589124
0.0764935570730939
0.037629395106168
0.0471634995257626
0.0519139049511645
-0.0445327660771258
-0.0444356418991582
-0.0390510213724923
0.0558637864202995
0.138701784985627
-0.0487188844523451
0.0229601461750095
0.0283565535700889
-0.0313938759053437
0.113222721702313
0.116798355832435
0.120512119007094
0.128164061459144
0.0333405030788683
-0.0594291771921016
-0.0509415293194935
-0.0424133297130573
0.0513128984568341
0.0590996988529154
0.112912831024841
0.110158178087743
0.0890275384799298
0.125039966609536
0.114797775655307
0.0711704734049812
0.124734264026019
0.0861542306377381
0.0989703635299287
0.0123709581669445
-0.0125218011025094
0.0185763208134783
0.00791994732186488
0.0292035929527555
0.0871762846767958
0.151303268553393
-0.0446566271899612
0.0377976124307793
0.0226198208586762
-0.00945880089264868
0.00888649399466246
-0.00917343306681158
0.067343304519404
0.0720259400696212
-0.0491094899876561
-0.0389213300881956
-0.0438363521835101
-0.0378304395797257
-0.017021446289176
0.0482447311376503
0.0700667615956516
0.0745076179879823
0.0514290070116371
-0.0371419739047328
0.0325905035598814
0.0614197058871555
-0.0362563884912999
-0.0365677826985249
0.0180123735535392
-0.0172661827250069
-0.104503959593862
-0.0439672954941373
-0.0386115733671006
-0.0322125870343547
-0.0534809059108408
-0.0824895804757004
-0.0877462109680445
0.00994420106917077
0.115698458313383
0.0823395798414701
-0.0610217726918709
-0.0702314482122124
-0.017292450691702
-0.00811757861331632
-0.06009538767585
-0.0671506022359459
-0.0164817303243225
-0.0729549504111139
-0.00976806288059754
0.0412780933058679
0.0682506407062062
0.2166840003593
0.211908535998522
0.00151189807235826
-0.0444856554036232
0.0674842060628166
0.0508021246063866
-0.0317324449886609
-0.208388237750075
0.0734737333079288
-0.0438892413443707
0.0574061176228025
0.0631418756954414
-0.025111365340468
-0.00907995284912819
0.0709502595657764
0.0813622098727039
-0.00935014164305153
-0.0147729525223695
0.046792382708151
0.013616620663583
-0.039873963585851
-0.0123841269625815
0.000740674198079818
-0.0340526461669454
-0.00888424943477236
0.149733551974662
-0.035368508479086
-0.0365721334291045
-0.0269632477401794
-0.0164497695015245
-0.0101207358399095
0.0503175987189764
-0.0110134426120968
-0.0027402509476591
0.0920581776248998
0.0122969562883173
0.0647454546275394
0.00361756979598387
0.0715015558344985
0.0155385237743414
-0.00873882579314274
0.0279782722123038
0.0348354453954581
0.0218143091195656
-0.00109471378010059
0.0264387984428007
-0.00806852197690892
0.0497630828265248
0.00186217617475978
0.0154272347982529
-0.00319899183167012
-0.116057329946215
-0.0432972827267985
0.163620586185761
0.209710492621577
-0.0206497005666346
0.0608934316532492
0.096855189063238
0.130984626214141
0.0828303938480975
0.0106723477601472
0.744651584022199
0.0616501247857173
0.0321966494269703
-0.0611775762070862
-0.0377386083557913
-0.0541493611630595
0.213976252397878
0.166584569923509
0.206898976723077
0.192661397296819
-0.112745350509436
-0.100891081186112
0.0408314176753552
-0.108793524878317
-0.0470335157870905
-0.069714439529906
-0.0340794608297457
0.0313384539212548
0.0962965723029139
0.11007456663107
-0.032208166121241
-0.0251643065681154
-0.0452410946956527
-0.0415522413928787
-0.0972588490614137
-0.0823854515601689
-0.0906507988300411
-0.0898517578765305
-0.0725259910942678
0.00550075702510084
-0.0791039918768166
-0.0884433634668311
-0.0746434130414414
-0.0960222520506013
0.0887053010879257
0.0867355565122359
0.0391010557170639
0.0408309232790794
-0.0686241796656529
0.0195059054250068
0.0182943190635421
0.0224314958118762
0.0105212887953436
0.0108158775460904
0.0231331186977442
0.00270741795908184
0.034043538258521
0.034685262590766
-0.0771789861311106
-0.0597131210126663
0.00579510328927271
0.00298981755926296
0.0202467156431531
0.0146881299482801
0.0800550605488721
0.0832424952631683
0.00804292695430251
-0.0169496840691595
-0.141240268479356
-0.00184165249054249
0.0119495712781468
0.0039004504233255
0.00970551881417566
0.0130171089319055
0.0141335786002991
0.02220402227206
0.0378097604461878
0.0124232721038186
-0.000692196443438264
0.00891119348696103
-0.00489578301838797
0.0119384841060013
0.0211251856510763
0.0205538764740089
-0.0630060548894558
-0.0204095501116287
0.0147941588996234
0.00586108564208899
0.0201721395388231
0.0141848441815874
0.0408220004970599
-0.00330985636166999
-0.00450038029445112
0.042822603000137
0.0407351419968165
0.0324752068501169
0.0143912738717146
0.0439039850590759
0.0231753407011415
0.00742164230728284
0.00282907996629411
0.0253595830144477
0.00514248590266028
-0.0596104307926874
-0.102797653859001
0.0243429704556136
0.0273951428222595
-0.0103668884587579
0.0934032882982809
0.0483824792860056
0.041658955422136
0.0399526027678718
0.00835789868201335
0.0322818301241031
0.0243217127449128
0.0217939836140792
0.0474052389673399
0.0465532408804704
0.0172556681794294
0.0272829647806517
0.0520273458555726
0.0407823109849028
0.0598283727622854
0.0276873522032156
0.0964561214292174
0.0731296334558577
0.0420301970710828
0.0430041855863178
-0.0797709238789542
