total error;
avg err;MSE;
-0.0426072482604072;0.471145274926058;
programs error;
program;avg err;MSE;
0;-0.00246425245657735;0.294263287606211
1;-0.213602109196268;0.311244132377372
2;0.333266016220748;0.727114847968569
3;0.104824682323543;0.43495876627621
4;-0.215027724455252;0.450929360229032
5;-0.10343710563179;0.434174283395725
6;-0.122867699419215;0.404672465063792
7;-0.289523130894757;0.527772413316075
8;0.125366089165907;0.514551626145018

programs splitup;
program;splitup;
0;1.74130288266868;0;0;
1;1.11291686385158;0;0;
2;0.852656452839456;0.1045917253621;0.208469507069228;
3;1.27117943731949;0;0;
4;0.488737599613245;0;0;
5;1.07103815331753;0;0;
6;1.0367524213457;0;0;
7;0.965525214968848;0;0;
8;0.42757390398984;0.202690401953261;0.304688319710624;

buckets;
bucket;number;
-72;1;
-71;0;
-70;2;
-69;6;
-68;11;
-67;11;
-66;6;
-65;2;
-64;2;
-63;5;
-62;21;
-61;19;
-60;32;
-59;32;
-58;38;
-57;27;
-56;26;
-55;27;
-54;24;
-53;28;
-52;28;
-51;26;
-50;27;
-49;28;
-48;20;
-47;40;
-46;50;
-45;65;
-44;62;
-43;61;
-42;75;
-41;94;
-40;90;
-39;60;
-38;91;
-37;57;
-36;73;
-35;69;
-34;95;
-33;73;
-32;88;
-31;97;
-30;113;
-29;102;
-28;90;
-27;80;
-26;87;
-25;80;
-24;82;
-23;62;
-22;73;
-21;71;
-20;76;
-19;79;
-18;71;
-17;70;
-16;84;
-15;77;
-14;73;
-13;67;
-12;79;
-11;94;
-10;80;
-9;95;
-8;81;
-7;83;
-6;87;
-5;86;
-4;87;
-3;92;
-2;83;
-1;99;
0;148;
1;70;
2;68;
3;55;
4;52;
5;67;
6;71;
7;62;
8;56;
9;44;
10;58;
11;45;
12;43;
13;46;
14;44;
15;37;
16;32;
17;57;
18;48;
19;66;
20;49;
21;46;
22;35;
23;38;
24;28;
25;40;
26;36;
27;25;
28;32;
29;23;
30;22;
31;26;
32;26;
33;20;
34;15;
35;21;
36;10;
37;16;
38;19;
39;11;
40;11;
41;15;
42;16;
43;9;
44;11;
45;13;
46;23;
47;8;
48;9;
49;6;
50;12;
51;7;
52;6;
53;11;
54;10;
55;2;
56;7;
57;11;
58;13;
59;9;
60;10;
61;10;
62;8;
63;8;
64;12;
65;8;
66;7;
67;9;
68;5;
69;5;
70;4;
71;7;
72;6;
73;8;
74;8;
75;6;
76;4;
77;1;
78;8;
79;4;
80;0;
81;3;
82;4;
83;9;
84;6;
85;6;
86;9;
87;4;
88;11;
89;4;
90;4;
91;4;
92;5;
93;3;
94;5;
95;7;
96;8;
97;3;
98;4;
99;4;
100;6;
101;1;
102;4;
103;4;
104;5;
105;5;
106;5;
107;3;
108;2;
109;7;
110;2;
111;1;
112;8;
113;3;
114;2;
115;2;
116;2;
117;2;
118;0;
119;4;
120;2;
121;3;
122;1;
123;3;
124;3;
125;2;
126;2;
127;3;
128;0;
129;1;
130;0;
131;0;
132;1;
133;0;
134;1;
135;0;
136;2;
137;1;
138;1;
139;0;
140;1;
141;0;
142;3;
143;0;
144;1;
145;1;
146;1;
147;0;
148;1;
149;1;
150;0;
151;1;
152;2;
153;0;
154;2;
155;2;
156;0;
157;1;
158;2;
159;1;
160;2;
161;1;
162;1;
163;0;
164;1;
165;0;
166;0;
167;1;
168;0;
169;0;
170;0;
171;1;
172;0;
173;1;
174;0;
175;0;
176;0;
177;0;
178;0;
179;1;
180;0;
181;0;
182;1;
183;0;
184;1;
185;0;
186;2;
187;1;
188;1;
189;0;
190;0;
191;2;
192;0;
193;0;
194;0;
195;1;
196;0;
197;1;
198;0;
199;0;
200;1;
201;0;
202;1;
203;1;
204;2;
205;3;
206;1;
207;1;
208;0;
209;0;
210;0;
211;0;
212;0;
213;1;
214;0;
215;0;
216;0;
217;2;
218;0;
219;0;
220;0;
221;0;
222;0;
223;0;
224;0;
225;0;
226;2;
227;0;
228;0;
229;0;
230;0;
231;1;
232;0;
233;1;
234;0;
235;1;
236;0;
237;0;
238;0;
239;1;
240;0;
241;0;
242;0;
243;0;
244;0;
245;0;
246;0;
247;0;
248;0;
249;0;
250;1;
251;0;
252;2;
253;1;
254;0;
255;1;
256;1;
257;0;
258;0;
259;2;
260;0;
261;0;
262;0;
263;0;
264;0;
265;1;
266;0;
267;0;
268;0;
269;0;
270;0;
271;0;
272;0;
273;0;
274;0;
275;0;
276;0;
277;0;
278;1;
279;0;
280;0;
281;0;
282;0;
283;0;
284;0;
285;0;
286;0;
287;0;
288;0;
289;0;
290;1;
291;0;
292;0;
293;1;
294;0;
295;0;
296;0;
297;0;
298;0;
299;0;
300;0;
301;0;
302;0;
303;0;
304;0;
305;0;
306;0;
307;0;
308;0;
309;0;
310;0;
311;0;
312;0;
313;0;
314;0;
315;0;
316;0;
317;0;
318;0;
319;0;
320;1;
321;0;
322;0;
323;0;
324;0;
325;0;
326;0;
327;0;
328;0;
329;0;
330;0;
331;0;
332;0;
333;0;
334;0;
335;0;
336;0;
337;0;
338;0;
339;0;
340;0;
341;0;
342;1;
343;0;
344;0;
345;0;
346;0;
347;0;
348;0;
349;0;
350;0;
351;0;
352;1;
353;0;
354;0;
355;0;
356;0;
357;0;
358;0;
359;0;
360;1;
361;0;
362;0;
363;0;
364;0;
365;0;
366;0;
367;0;
368;0;
369;0;
370;0;
371;0;
372;0;
373;0;
374;0;
375;0;
376;0;
377;0;
378;0;
379;0;
380;0;
381;0;
382;0;
383;0;
384;0;
385;0;
386;0;
387;0;
388;0;
389;1;
390;0;
391;0;
392;0;
393;0;
394;0;
395;0;
396;0;
397;0;
398;0;
399;0;
400;0;
401;0;
402;0;
403;0;
404;0;
405;0;
406;0;
407;0;
408;0;
409;0;
410;0;
411;0;
412;0;
413;0;
414;0;
415;0;
416;0;
417;0;
418;0;
419;0;
420;0;
421;0;
422;0;
423;0;
424;0;
425;0;
426;0;
427;0;
428;0;
429;0;
430;0;
431;0;
432;0;
433;0;
434;0;
435;0;
436;0;
437;0;
438;0;
439;0;
440;0;
441;0;
442;0;
443;0;
444;0;
445;0;
446;0;
447;0;
448;0;
449;0;
450;0;
451;0;
452;0;
453;0;
454;0;
455;0;
456;0;
457;0;
458;0;
459;0;
460;0;
461;0;
462;0;
463;0;
464;0;
465;0;
466;0;
467;0;
468;0;
469;0;
470;0;
471;0;
472;0;
473;0;
474;0;
475;0;
476;0;
477;0;
478;0;
479;0;
480;0;
481;0;
482;0;
483;0;
484;0;
485;0;
486;0;
487;0;
488;0;
489;0;
490;0;
491;0;
492;0;
493;0;
494;0;
495;0;
496;0;
497;0;
498;0;
499;0;
500;0;
501;0;
502;0;
503;0;
504;0;
505;0;
506;0;
507;0;
508;0;
509;0;
510;0;
511;0;
512;0;
513;0;
514;0;
515;0;
516;0;
517;0;
518;0;
519;0;
520;0;
521;0;
522;1;
523;0;
524;0;
525;0;
526;0;
527;0;
528;0;
529;0;
530;1;
531;0;
532;0;
533;0;
534;0;
535;0;
536;0;
537;0;
538;0;
539;0;
540;0;
541;0;
542;0;
543;0;
544;0;
545;0;
546;0;
547;0;
548;0;
549;0;
550;0;
551;0;
552;0;
553;0;
554;0;
555;0;
556;0;
557;0;
558;0;
559;0;
560;0;
561;0;
562;0;
563;0;
564;0;
565;1;
566;0;
567;0;
568;1;
569;0;
570;0;
571;0;
572;0;
573;0;
574;0;
575;0;
576;0;
577;1;
578;0;
579;0;
580;0;
581;0;
582;0;
583;1;
584;0;
585;0;
586;0;
587;0;
588;0;
589;0;
590;0;
591;0;
592;0;
593;0;
594;0;
595;1;
596;0;
597;0;
598;0;
599;0;
600;0;
601;0;
602;0;
603;0;
604;0;
605;0;
606;0;
607;0;
608;0;
609;0;
610;0;
611;0;
612;0;
613;0;
614;0;
615;0;
616;0;
617;0;
618;0;
619;1;
620;0;
621;0;
622;0;
623;0;
624;0;
625;0;
626;0;
627;0;
628;0;
629;0;
630;0;
631;0;
632;0;
633;0;
634;0;
635;0;
636;0;
637;0;
638;0;
639;0;
640;0;
641;0;
642;0;
643;0;
644;0;
645;0;
646;0;
647;0;
648;0;
649;0;
650;0;
651;0;
652;0;
653;0;
654;0;
655;0;
656;0;
657;0;
658;0;
659;0;
660;1;
