0.596017347854176,0.453572632691212,0.884244928156858,0.678540936548482,0.46936372554847
0.351680529070612,0.320515142355162,0.55746516876719,0.31024359469466,0.330099674095252
0.0841295923720847,0.0449701342582312,0.733412948339982,0.272420781263322,0.069361502361706
0.426031980842726,0.415657208439077,0.49745726722815,0.405775690082584,0.422167028618017
0.239732334434542,0.109334910124007,0.561942151355159,0.195903594070209,0.197626413676994
0.358746042192236,0.350607183338505,0.400495439468766,0.374790962675721,0.355825864114885
0.197180011696357,0.192877353449997,0.208474154107459,0.192940295506555,0.195956471929288
0.398765025047714,0.386500039588575,0.618460129661192,0.339960372266882,0.373716826484195
0.403153611712491,0.405680734868286,0.422725342699049,0.398143114028449,0.40180648719613
0.575724940934228,0.573369651314632,0.553730009675678,0.558888703661273,0.574339568417388
0.162386636167325,0.0858247208379799,0.544511288253788,0.36945934503423,0.129142875147149
0.0665381945158582,0.0545672880661917,0.12102240892461,0.0756907136391482,0.060957153738567
0.435246939027212,0.430280038097621,0.42550210201345,0.413043379102922,0.433574906632339
0.122491382331508,0.113178009125741,0.669305503709011,0.342991208611028,0.115248247373948
0.28865304048464,0.325212958155649,0.824543242391627,0.244964248544516,0.246620022185257
1,1,1,1,1
0.124472661486815,0.0588493636138822,0.391281951236331,0.0943664274514648,0.109104365572138
