100 6 -0.17008712430418 0.407511927262237
100 6 0.0206428963210553 0.157082528902344
100 6 0.0347338065817342 0.179632056958943
100 6 0.00666330652340732 0.152387904350476
100 6 0.0229889511777999 0.181680315864457
100 6 0.0192238105684532 0.181951101551513
100 6 -0.154361864356464 0.407332451698738
100 6 -0.170114333143936 0.418580063629971
100 6 -0.113270710361164 0.399230601441556
100 6 -0.155990735221787 0.414561505470286
