,n,Mean Duration 1,Mean Duration 2,Mean Duration 3,Mean Duration 4,Mean Duration 5,Mean Duration 6,Mean Duration 7,Mean Duration 8,Mean Duration 9,Mean Duration 10,Mean Duration 11,Mean Duration 12,Mean Duration 13,Mean Duration 14,Mean Duration 15,Mean Duration 16,Mean Duration 17,Mean Duration 18,Mean Duration 19,Mean Duration 20,Mean Duration 21,Mean Duration 22,Mean Duration 23,Mean Duration 24,Mean Duration 25,Mean Duration 26,Mean Duration 27,Mean Duration 28,Mean Duration 29,Mean Duration 30,220 O.S. 1,220 O.S. 2,220 O.S. 3,220 O.S. 4,220 O.S. 5,220 O.S. 6,220 O.S. 7,220 O.S. 8,220 O.S. 9,220 O.S. 10,220 O.S. 11,220 O.S. 12,220 O.S. 13,220 O.S. 14,220 O.S. 15,220 O.S. 16,220 O.S. 17,220 O.S. 18,220 O.S. 19,220 O.S. 20,220 O.S. 21,220 O.S. 22,220 O.S. 23,220 O.S. 24,220 O.S. 25,220 O.S. 26,220 O.S. 27,220 O.S. 28,220 O.S. 29,220 O.S. 30,220 Alg 1,220 Alg 2,220 Alg 3,220 Alg 4,220 Alg 5,220 Alg 6,220 Alg 7,220 Alg 8,220 Alg 9,220 Alg 10,220 Alg 11,220 Alg 12,220 Alg 13,220 Alg 14,220 Alg 15,220 Alg 16,220 Alg 17,220 Alg 18,220 Alg 19,220 Alg 20,220 Alg 21,220 Alg 22,220 Alg 23,220 Alg 24,220 Alg 25,220 Alg 26,220 Alg 27,220 Alg 28,220 Alg 29,220 Alg 30,J 1,J 2,J 3,J 4,J 5,J 6,J 7,J 8,J 9,J 10,J 11,J 12,J 13,J 14,J 15,J 16,J 17,J 18,J 19,J 20,J 21,J 22,J 23,J 24,J 25,J 26,J 27,J 28,J 29,J 30,Avg J,StdDev J,Energon,Energa,a1,a2,k1*log(k2*n),k1,k2,k1*log(n),k2*log(n)
1K,1024,0.484375,0.5,0.484375,0.46875,0.453125,0.453125,0.46875,0.453125,0.453125,0.453125,0.453125,0.453125,0.453125,0.5,0.453125,0.46875,0.453125,0.453125,0.4375,0.453125,0.453125,0.4375,0.453125,0.46875,0.46875,0.5,0.46875,0.453125,0.453125,0.453125,49.53246222,49.73799111,49.34895429,50.66287111,50.25181333,49.73799111,50.8684,50.97850476,50.8684,49.87745714,49.94352,50.40596,51.30881905,50.14904889,50.25181333,50.66287111,50.03474966,50.45734222,51.17669333,51.07392889,49.63522667,49.22416889,49.63522667,47.96163429,51.38222222,49.94352,48.29928889,49.73799111,50.64819048,51.32056356,56.52044444,62.4294,62.4294,57.54808889,62.4294,60.88793333,57.03426667,57.805,55.4928,57.03426667,62.4294,60.1172,55.95524,58.06191111,58.57573333,62.4294,58.57573333,55.4928,60.1172,54.46515556,60.1172,59.34646667,60.1172,60.1172,56.26353333,58.06191111,57.03426667,57.03426667,64.7416,58.57573333,27.37709028,31.2147,30.23924063,26.97566667,28.28832188,27.58984479,26.7348125,26.19289063,25.145175,25.84365208,28.28832188,27.24060625,25.35471813,29.03095556,26.54212917,29.26378125,26.54212917,25.145175,26.301275,24.67952361,27.24060625,25.96407917,27.24060625,28.1799375,26.37353125,29.03095556,26.7348125,25.84365208,29.3360375,26.54212917,27.21587856,1.576631122,217.544478,0.125104893,0.0473,0.32,0.118980782,0.039,0.0445,0.117401698,0.133958348
2K,2048,0.484375,0.484375,0.484375,0.484375,0.484375,0.5,0.5,0.5,0.53125,0.5,0.484375,0.46875,0.484375,0.484375,0.484375,0.484375,0.484375,0.484375,0.484375,0.5,0.5,0.53125,0.5,0.515625,0.46875,0.484375,0.484375,0.5,0.484375,0.484375,50.29035,50.04628444,50.45734222,49.32693333,49.12140444,50.09766667,50.76563556,49.73799111,50.56010667,50.04628444,50.25181333,50.61148889,50.56010667,50.53808571,50.45734222,50.04628444,49.60219524,50.14904889,50.56010667,50.75829524,50.64819048,50.04628444,50.14904889,49.94352,50.42798095,50.35457778,50.04628444,50.97850476,50.25181333,50.56010667,60.1172,62.4294,56.00662222,56.52044444,57.805,58.57573333,55.4928,58.57573333,59.08955556,60.1172,58.57573333,55.4928,60.1172,62.4294,56.52044444,60.1172,57.03426667,55.4928,59.34646667,56.52044444,57.03426667,60.1172,58.57573333,59.34646667,58.57573333,57.03426667,57.805,55.4928,58.57573333,57.805,29.11926875,30.23924063,27.12820764,27.37709028,27.99929688,29.28786667,27.7464,29.28786667,31.39132639,30.0586,28.37262083,26.01225,29.11926875,30.23924063,27.37709028,29.11926875,27.62597292,26.879325,28.74594479,28.26022222,28.51713333,31.9372625,29.28786667,30.60052188,27.457375,27.62597292,27.99929688,27.7464,28.37262083,27.99929688,28.63100383,1.357437215,217.544478,0.131609885,0.0473,0.32,0.133219501,0.039,0.0445,0.129141868,0.147354183
3K,3072,0.53125,0.515625,0.5,0.546875,0.515625,0.5625,0.53125,0.515625,0.515625,0.515625,0.53125,0.5,0.53125,0.515625,0.515625,0.5,0.515625,0.515625,0.53125,0.53125,0.546875,0.546875,0.515625,0.515625,0.5,0.515625,0.53125,0.515625,0.515625,0.515625,50.53808571,49.01864,50.45734222,50.04628444,50.45734222,50.04628444,51.07392889,50.14904889,50.8684,49.94352,50.66287111,49.53246222,49.53246222,50.04628444,49.53246222,50.14904889,50.53808571,49.54714286,50.66287111,51.58775111,50.49404381,48.81311111,50.76563556,49.94352,50.14904889,50.56010667,50.38393905,50.29291911,49.4370381,49.22416889,60.63102222,59.34646667,54.97897778,60.88793333,56.52044444,60.1172,58.57573333,60.1172,57.03426667,57.805,55.4928,60.1172,57.54808889,60.1172,59.08955556,60.1172,58.06191111,57.03426667,62.4294,58.57573333,59.08955556,62.4294,56.00662222,57.805,60.1172,60.1172,59.08955556,60.88793333,58.57573333,57.805,32.21023056,30.60052188,27.48948889,33.29808854,29.14335417,33.815925,31.11835833,30.99793125,29.40829375,29.80570313,29.48055,30.0586,30.57242222,30.99793125,30.46805208,30.0586,29.93817292,29.40829375,33.16561875,31.11835833,32.31460069,34.14107813,28.87841458,29.80570313,30.0586,30.99793125,31.39132639,31.39534063,30.2031125,29.80570313,30.73821017,1.511046079,217.544478,0.14129621,0.0473,0.32,0.141548617,0.039,0.0445,0.136009427,0.155190244
4K,4096,0.53125,0.515625,0.546875,0.53125,0.546875,0.578125,0.546875,0.53125,0.53125,0.53125,0.53125,0.53125,0.515625,0.53125,0.53125,0.515625,0.515625,0.515625,0.53125,0.53125,0.578125,0.546875,0.5625,0.53125,0.515625,0.53125,0.53125,0.53125,0.53125,0.515625,51.41892381,49.63522667,50.14904889,49.63522667,50.45734222,48.81311111,48.71034667,50.35457778,50.76563556,50.04628444,49.63522667,51.43360444,49.42969778,51.17669333,50.66287111,49.94352,49.08029867,50.25181333,50.14904889,50.35457778,50.25181333,50.04628444,50.45734222,49.84075556,50.25181333,50.97116444,50.14904889,51.38222222,50.76563556,51.27945778,57.805,57.805,56.52044444,60.1172,57.54808889,57.54808889,60.88793333,58.57573333,62.4294,57.03426667,57.03426667,57.03426667,57.805,58.57573333,60.1172,57.03426667,57.805,58.06191111,60.1172,60.1172,57.54808889,61.65866667,57.03426667,57.03426667,58.57573333,57.03426667,62.4294,57.54808889,55.4928,57.54808889,30.70890625,29.80570313,30.90961806,31.9372625,31.47161111,33.26998889,33.29808854,31.11835833,33.16561875,30.29945417,30.29945417,30.29945417,29.80570313,31.11835833,31.9372625,29.40829375,29.80570313,29.93817292,31.9372625,31.9372625,33.26998889,33.71958333,32.081775,30.29945417,30.2031125,30.29945417,33.16561875,30.57242222,29.48055,29.67323333,31.17455764,1.335934583,217.544478,0.143301995,0.0473,0.32,0.14745822,0.039,0.0445,0.140882038,0.160750018
5K,5120,0.53125,0.546875,0.53125,0.546875,0.546875,0.546875,0.546875,0.546875,0.5625,0.59375,0.5625,0.578125,0.546875,0.546875,0.53125,0.546875,0.53125,0.546875,0.5625,0.53125,0.546875,0.53125,0.5625,0.546875,0.5625,0.609375,0.5625,0.5625,0.546875,0.546875,51.47397619,49.42969778,51.07392889,49.42969778,50.76563556,50.09766667,50.14904889,49.84075556,50.14904889,50.04628444,50.09766667,49.10672381,50.14904889,50.31787619,50.42798095,50.25181333,51.38222222,49.94352,50.61882921,51.08860952,49.73799111,50.8684,50.00517867,51.63913333,50.25181333,49.42969778,49.53246222,49.87745714,50.66287111,49.84075556,59.08955556,64.7416,58.57573333,60.1172,55.4928,60.1172,60.1172,57.54808889,61.65866667,60.1172,56.52044444,59.08955556,58.57573333,54.97897778,58.57573333,60.1172,57.03426667,62.4294,56.52044444,57.54808889,60.1172,56.00662222,57.03426667,57.03426667,59.08955556,60.1172,59.08955556,57.65085333,56.52044444,60.1172,31.39132639,35.4055625,31.11835833,32.87659375,30.347625,32.87659375,32.87659375,31.47161111,34.683,35.6945875,31.79275,34.16114931,32.03360417,30.06662847,31.11835833,32.87659375,30.29945417,34.14107813,31.79275,30.57242222,32.87659375,29.75351806,32.081775,31.19061458,33.237875,36.63391875,33.237875,32.428605,30.90961806,32.87659375,32.42745425,1.72345352,217.544478,0.149061261,0.0473,0.32,0.152042063,0.039,0.0445,0.144661528,0.165062513
6K,6144,0.546875,0.546875,0.5625,0.546875,0.5625,0.546875,0.5625,0.546875,0.5625,0.5625,0.5625,0.59375,0.5625,0.609375,0.578125,0.5625,0.546875,0.546875,0.5625,0.546875,0.546875,0.5625,0.546875,0.5625,0.5625,0.59375,0.609375,0.578125,0.546875,0.5625,50.76563556,50.64819048,49.94352,50.25181333,49.82240476,49.53246222,50.45734222,49.84075556,48.40205333,49.32693333,50.04628444,50.56010667,50.35457778,51.27945778,51.58775111,50.31787619,50.35457778,50.97116444,49.94352,50.14904889,50.14904889,50.25181333,50.8684,50.76563556,49.42969778,51.17669333,47.78546667,49.22416889,50.8684,50.25181333,54.97897778,61.14484444,60.1172,55.4928,60.1172,57.805,57.03426667,59.08955556,60.1172,57.03426667,57.54808889,58.06191111,57.805,58.06191111,58.57573333,59.08955556,62.4294,57.03426667,59.08955556,58.57573333,57.03426667,61.14484444,60.1172,53.95133333,57.54808889,60.1172,61.65866667,57.805,56.00662222,59.08955556,30.06662847,33.43858681,33.815925,30.347625,33.815925,31.61210938,32.081775,32.31460069,33.815925,32.081775,32.3708,34.47425972,32.5153125,35.38147708,33.86409583,33.237875,34.14107813,31.19061458,33.237875,32.03360417,31.19061458,34.393975,32.87659375,30.347625,32.3708,35.6945875,37.57325,33.41851563,30.62862153,33.237875,32.91901084,1.694352243,217.544478,0.151320829,0.0473,0.32,0.155787336,0.039,0.0445,0.147749597,0.168586079
7K,7168,0.5625,0.5625,0.5625,0.5625,0.5625,0.5625,0.5625,0.59375,0.5625,0.5625,0.5625,0.5625,0.5625,0.578125,0.625,0.578125,0.59375,0.5625,0.5625,0.5625,0.5625,0.5625,0.546875,0.65625,0.5625,0.5625,0.546875,0.5625,0.578125,0.5625,50.25181333,51.07392889,50.53808571,50.04628444,49.01864,49.83341524,49.94352,50.04628444,50.35457778,49.22416889,50.66287111,50.76563556,50.20777143,49.42969778,48.40205333,50.14904889,50.97116444,50.04628444,49.53246222,50.25181333,51.17669333,49.65724762,50.14904889,50.76563556,50.75829524,50.45734222,49.84075556,49.53246222,50.25181333,49.84075556,60.1172,56.52044444,58.57573333,58.57573333,57.03426667,59.08955556,60.88793333,56.52044444,55.4928,58.57573333,60.88793333,56.52044444,63.20013333,58.06191111,59.60337778,61.65866667,56.00662222,56.72597333,60.1172,57.805,54.97897778,60.1172,57.805,56.6489,55.4928,59.08955556,60.1172,60.1172,57.03426667,59.60337778,33.815925,31.79275,32.94885,32.94885,32.081775,33.237875,34.2494625,33.55901389,31.2147,32.94885,34.2494625,31.79275,35.550075,33.56704236,37.25211111,35.64641667,33.25393194,31.90836,33.815925,32.5153125,30.925675,33.815925,31.61210938,37.17584063,31.2147,33.237875,32.87659375,33.815925,32.97293542,33.5269,33.31746392,1.561251287,217.544478,0.153152423,0.0473,0.32,0.158953919,0.039,0.0445,0.150360522,0.171565211
8K,8192,0.578125,0.578125,0.640625,0.59375,0.578125,0.5625,0.578125,0.5625,0.5625,0.578125,0.5625,0.578125,0.578125,0.578125,0.5625,0.578125,0.5625,0.578125,0.578125,0.5625,0.578125,0.59375,0.609375,0.578125,0.578125,0.5625,0.5625,0.578125,0.578125,0.5625,49.32693333,49.60219524,49.53246222,50.45734222,49.92296711,51.30881905,50.56010667,50.53808571,50.498448,49.22416889,51.17669333,50.45734222,49.84075556,50.35457778,49.73799111,50.20777143,50.04628444,49.82240476,50.14904889,49.94352,49.63522667,49.4370381,49.32693333,49.84075556,50.14904889,50.8684,49.4370381,49.32693333,49.63522667,49.42969778,58.57573333,59.08955556,57.03426667,58.06191111,57.54808889,59.08955556,60.1172,56.00662222,55.4928,60.1172,60.1172,57.03426667,60.1172,60.1172,60.1172,56.52044444,59.08955556,58.88402667,58.57573333,60.1172,56.52044444,57.34256,58.57573333,58.57573333,60.1172,57.03426667,59.08955556,58.57573333,60.1172,57.54808889,33.86409583,34.16114931,36.53757708,34.47425972,33.26998889,33.237875,34.75525625,31.503725,31.2147,34.75525625,33.815925,32.97293542,34.75525625,34.75525625,33.815925,32.67588194,33.237875,34.04232792,33.86409583,33.815925,32.67588194,34.047145,35.6945875,33.86409583,34.75525625,32.081775,33.237875,33.86409583,34.75525625,32.3708,33.76240185,1.154156948,217.544478,0.155197696,0.0473,0.32,0.161696938,0.039,0.0445,0.152622208,0.174145852
9K,9216,0.59375,0.625,0.59375,0.609375,0.59375,0.59375,0.59375,0.578125,0.59375,0.5625,0.5625,0.59375,0.578125,0.578125,0.578125,0.578125,0.578125,0.578125,0.578125,0.59375,0.59375,0.59375,0.625,0.609375,0.609375,0.578125,0.578125,0.578125,0.5625,0.578125,49.63522667,49.94352,50.14904889,51.48498667,51.17669333,49.7123,50.45734222,50.8684,48.81311111,49.63522667,49.73799111,50.14904889,50.97116444,50.25181333,49.73799111,50.14904889,50.80674133,49.50310095,49.23444533,49.53246222,49.12140444,51.43360444,49.32693333,50.45734222,50.04628444,49.65724762,49.42969778,51.07392889,50.14904889,49.84075556,57.54808889,57.54808889,58.57573333,60.1172,58.57573333,57.54808889,57.03426667,57.03426667,59.08955556,59.08955556,62.4294,56.52044444,57.03426667,58.57573333,60.1172,60.1172,56.52044444,57.54808889,58.57573333,61.14484444,60.1172,57.03426667,59.60337778,58.57573333,58.57573333,56.00662222,56.00662222,60.1172,61.65866667,60.1172,34.16917778,35.96755556,34.77934167,36.63391875,34.77934167,34.16917778,33.86409583,32.97293542,35.08442361,33.237875,35.1165375,33.55901389,32.97293542,33.86409583,34.75525625,34.75525625,32.67588194,33.26998889,33.86409583,36.30475139,35.6945875,33.86409583,37.25211111,35.6945875,35.6945875,32.37882847,32.37882847,34.75525625,34.683,34.75525625,34.46489317,1.256325803,217.544478,0.158426881,0.0473,0.32,0.164116453,0.039,0.0445,0.154617156,0.17642214
10K,10240,0.609375,0.578125,0.578125,0.609375,0.609375,0.59375,0.59375,0.609375,0.59375,0.578125,0.59375,0.59375,0.609375,0.59375,0.65625,0.625,0.609375,0.609375,0.578125,0.578125,0.578125,0.609375,0.59375,0.59375,0.59375,0.59375,0.578125,0.578125,0.578125,0.59375,50.66287111,50.8684,50.05362476,51.07392889,50.35457778,50.76563556,49.87745714,50.14904889,49.73799111,50.58212762,49.63522667,51.27945778,50.45734222,49.10672381,49.42969778,50.48303333,49.84075556,50.53808571,51.38222222,50.56010667,50.20777143,49.94352,50.14904889,51.07392889,50.56010667,51.27945778,51.17669333,50.04628444,49.01864,49.54714286,59.08955556,55.4928,59.08955556,60.1172,59.08955556,60.37411111,56.52044444,56.00662222,56.00662222,59.08955556,58.06191111,60.63102222,60.32272889,57.03426667,58.57573333,57.805,58.57573333,55.4928,56.00662222,58.57573333,59.08955556,60.1172,62.4294,55.4928,57.03426667,56.72597333,57.03426667,60.1172,59.08955556,54.97897778,36.00769792,32.081775,34.16114931,36.63391875,36.00769792,35.84712847,33.55901389,34.12903542,33.25393194,34.16114931,34.47425972,35.99966944,36.75916292,33.86409583,38.440325,36.128125,35.6945875,33.815925,32.37882847,33.86409583,34.16114931,36.63391875,37.06745625,32.94885,33.86409583,33.68104667,32.97293542,34.75525625,34.16114931,32.64376806,34.67170662,1.576944031,217.544478,0.159377553,0.0473,0.32,0.166280782,0.039,0.0445,0.156401698,0.178458348
11K,11264,0.59375,0.609375,0.59375,0.609375,0.609375,0.609375,0.65625,0.625,0.625,0.59375,0.59375,0.59375,0.59375,0.59375,0.59375,0.59375,0.59375,0.59375,0.59375,0.59375,0.59375,0.59375,0.59375,0.59375,0.59375,0.59375,0.609375,0.609375,0.640625,0.625,50.56010667,50.14904889,48.73236762,50.25181333,50.66287111,49.32693333,50.25181333,49.01864,49.388592,50.14904889,48.60758222,50.35457778,51.27945778,51.48498667,50.71425333,49.84075556,49.42969778,49.73799111,49.4370381,49.73799111,50.45734222,50.31787619,49.42969778,50.14904889,49.53246222,51.17669333,50.14904889,50.66287111,50.04628444,51.27945778,57.03426667,60.1172,58.06191111,57.54808889,60.1172,60.1172,59.80890667,58.06191111,59.60337778,58.57573333,58.57573333,60.1172,55.4928,56.00662222,60.1172,58.06191111,59.80890667,60.1172,57.03426667,56.52044444,57.54808889,61.65866667,61.14484444,60.1172,57.03426667,58.57573333,57.03426667,57.03426667,56.82873778,57.54808889,33.86409583,36.63391875,34.47425972,35.06836667,36.63391875,36.63391875,39.249595,36.28869444,37.25211111,34.77934167,34.77934167,35.6945875,32.94885,33.25393194,35.6945875,34.47425972,35.51153833,35.6945875,33.86409583,33.55901389,34.16917778,36.60983333,36.30475139,35.6945875,33.86409583,34.77934167,34.75525625,34.75525625,36.40591014,35.96755556,35.32195934,1.362125089,217.544478,0.16236661,0.0473,0.32,0.168238656,0.039,0.0445,0.158016013,0.180300323
12K,12288,0.625,0.625,0.609375,0.609375,0.59375,0.59375,0.59375,0.609375,0.59375,0.609375,0.59375,0.609375,0.609375,0.59375,0.59375,0.609375,0.625,0.59375,0.6875,0.625,0.625,0.609375,0.640625,0.65625,0.78125,0.625,0.59375,0.59375,0.59375,0.59375,51.17669333,50.25181333,50.04628444,49.87745714,49.32693333,50.8684,50.8684,49.84075556,49.32693333,49.94352,50.04628444,49.63522667,50.42798095,49.53246222,50.97116444,49.32693333,50.25181333,49.22416889,49.4370381,51.07392889,50.14904889,50.56010667,49.01864,50.14904889,49.73799111,50.8684,49.84075556,50.04628444,50.25181333,50.20777143,59.60337778,58.57573333,58.57573333,62.68631111,59.60337778,58.06191111,58.57573333,59.08955556,57.03426667,57.03426667,57.54808889,58.57573333,60.1172,59.60337778,59.08955556,61.65866667,60.1172,60.1172,57.41963333,58.57573333,59.08955556,59.08955556,58.57573333,59.60337778,59.34646667,59.60337778,59.08955556,59.60337778,60.63102222,58.57573333,37.25211111,36.60983333,35.6945875,38.19947083,35.38950556,34.47425972,34.77934167,36.00769792,33.86409583,34.75525625,34.16917778,35.6945875,36.63391875,35.38950556,35.08442361,37.57325,37.57325,35.6945875,39.47599792,36.60983333,36.93097222,36.00769792,37.52507917,39.11471667,46.36442708,37.25211111,35.08442361,35.38950556,35.99966944,34.77934167,36.5124212,2.322570628,217.544478,0.167838878,0.0473,0.32,0.170026055,0.039,0.0445,0.159489767,0.181981914
13K,13312,0.609375,0.59375,0.609375,0.59375,0.625,0.609375,0.59375,0.609375,0.625,0.609375,0.59375,0.609375,0.640625,0.625,0.609375,0.65625,0.625,0.640625,0.609375,0.625,0.609375,0.609375,0.609375,0.609375,0.59375,0.609375,0.609375,0.609375,0.59375,0.59375,50.45734222,50.14904889,50.14904889,50.09766667,50.76563556,50.45734222,50.35457778,50.25181333,50.04628444,49.94352,49.65724762,51.48498667,49.84075556,50.14904889,50.8684,50.45734222,49.94352,49.63522667,50.14904889,49.42969778,50.35457778,48.77640952,50.35457778,51.89604444,50.14904889,50.8684,49.9875619,50.53808571,50.76563556,50.8684,56.52044444,55.4928,56.00662222,58.06191111,57.54808889,60.1172,58.57573333,58.57573333,59.60337778,60.1172,57.03426667,57.03426667,57.03426667,55.4928,58.57573333,56.6489,60.1172,61.35037333,61.14484444,59.60337778,60.1172,55.4928,55.4928,57.03426667,55.4928,57.54808889,58.57573333,57.54808889,59.08955556,57.54808889,34.44214583,32.94885,34.12903542,34.47425972,35.96755556,36.63391875,34.77934167,35.6945875,37.25211111,36.63391875,33.86409583,34.75525625,36.53757708,34.683,35.6945875,37.17584063,37.57325,39.30258292,37.26013958,37.25211111,36.63391875,33.815925,33.815925,34.75525625,32.94885,35.06836667,35.6945875,35.06836667,35.08442361,34.16917778,35.47029875,1.509422642,217.544478,0.16304849,0.0473,0.32,0.171670302,0.039,0.0445,0.160845489,0.183528827
14K,14336,0.609375,0.609375,0.609375,0.609375,0.609375,0.625,0.625,0.625,0.625,0.6875,0.625,0.640625,0.640625,0.609375,0.609375,0.609375,0.609375,0.609375,0.625,0.609375,0.609375,0.609375,0.609375,0.625,0.609375,0.59375,0.609375,0.625,0.609375,0.65625,49.94352,50.14904889,50.8684,50.04628444,49.63522667,50.56010667,49.72331048,49.65724762,49.94352,48.91587556,49.73799111,51.07392889,50.76563556,51.48498667,50.66287111,50.56010667,49.63522667,50.04628444,50.14904889,49.94352,49.10672381,50.76563556,50.39568356,50.56010667,50.76563556,50.60121244,49.76735238,50.09766667,49.87745714,49.4370381,59.08955556,60.63102222,60.73378667,63.20013333,55.4928,56.6489,58.9611,57.805,59.80890667,58.57573333,60.1172,57.34256,60.1172,59.08955556,60.1172,60.1172,60.63102222,59.60337778,59.08955556,60.63102222,54.46515556,54.46515556,57.03426667,60.1172,59.08955556,59.08955556,58.06191111,56.00662222,57.54808889,57.54808889,36.00769792,36.94702917,37.00965125,38.51258125,33.815925,35.4055625,36.8506875,36.128125,37.38056667,40.27081667,37.57325,36.7350775,38.51258125,36.00769792,36.63391875,36.63391875,36.94702917,36.32080833,36.93097222,36.94702917,33.18970417,33.18970417,34.75525625,37.57325,36.00769792,35.08442361,35.38147708,35.00413889,35.06836667,37.76593333,36.35302927,1.547130116,217.544478,0.167106192,0.0473,0.32,0.173192638,0.039,0.0445,0.162100692,0.184961046
15K,15360,0.640625,0.625,0.625,0.671875,0.65625,0.625,0.640625,0.609375,0.59375,0.625,0.609375,0.609375,0.609375,0.59375,0.609375,0.625,0.609375,0.609375,0.609375,0.609375,0.625,0.625,0.625,0.609375,0.609375,0.625,0.640625,0.640625,0.625,0.65625,50.76563556,49.01864,49.94352,49.32693333,51.63913333,49.73799111,49.12140444,49.54714286,49.73799111,50.71425333,51.07392889,49.01864,50.25181333,49.53246222,49.32693333,51.69051556,51.17669333,49.73799111,50.25181333,49.84075556,50.04628444,51.38222222,50.04628444,50.14170857,49.9875619,49.87745714,49.22416889,49.87745714,50.62176533,49.94352,59.08955556,58.06191111,58.06191111,58.19036667,57.41963333,59.60337778,58.06191111,60.1172,60.1172,59.60337778,57.54808889,59.08955556,59.08955556,60.1172,61.65866667,55.4928,55.4928,57.03426667,58.57573333,55.4928,59.08955556,57.54808889,58.06191111,57.03426667,58.06191111,59.60337778,57.54808889,56.52044444,59.08955556,58.57573333,37.85424653,36.28869444,36.28869444,39.0966526,37.68163438,37.25211111,37.19591181,36.63391875,35.6945875,37.25211111,35.06836667,36.00769792,36.00769792,35.6945875,37.57325,34.683,33.815925,34.75525625,35.6945875,33.815925,36.93097222,35.96755556,36.28869444,34.75525625,35.38147708,37.25211111,36.86674444,36.20840972,36.93097222,38.440325,36.31257915,1.267269559,217.544478,0.166920252,0.0473,0.32,0.174609898,0.039,0.0445,0.163269257,0.186294409
16K,16384,0.671875,0.625,0.640625,0.625,0.625,0.625,0.625,0.609375,0.640625,0.625,0.609375,0.640625,0.625,0.625,0.609375,0.609375,0.625,0.609375,0.609375,0.640625,0.625,0.609375,0.625,0.640625,0.625,0.625,0.65625,0.640625,0.65625,0.625,51.27945778,49.53246222,48.91587556,50.97116444,48.91587556,50.45734222,50.8684,50.04628444,49.73799111,49.42969778,49.73799111,50.25181333,49.94352,50.14904889,49.73799111,50.66287111,49.54714286,49.63522667,49.01864,50.56010667,49.21682857,49.65724762,50.8684,49.87745714,49.89213778,50.66287111,50.25181333,49.73799111,49.84075556,51.46296571,56.6489,61.65866667,58.06191111,59.60337778,60.63102222,61.65866667,58.57573333,59.60337778,58.57573333,58.57573333,60.1172,60.1172,59.60337778,59.60337778,59.08955556,58.57573333,57.03426667,55.4928,57.03426667,57.805,56.6489,56.52044444,60.1172,57.41963333,61.65866667,61.65866667,60.63102222,59.08955556,59.60337778,61.65866667,38.06097969,38.53666667,37.19591181,37.25211111,37.89438889,38.53666667,36.60983333,36.32080833,37.52507917,36.60983333,36.63391875,38.51258125,37.25211111,37.25211111,36.00769792,35.6945875,35.64641667,33.815925,34.75525625,37.03132813,35.4055625,34.44214583,37.57325,36.7844526,38.53666667,38.53666667,39.78910833,37.85424653,39.11471667,38.53666667,37.12392317,1.42760987,217.544478,0.170649807,0.0473,0.32,0.175935657,0.039,0.0445,0.164362378,0.187541687
17K,17408,0.625,0.640625,0.640625,0.625,0.640625,0.625,0.609375,0.640625,0.640625,0.625,0.625,0.625,0.625,0.640625,0.640625,0.640625,0.625,0.625,0.625,0.625,0.625,0.640625,0.65625,0.640625,0.6875,0.671875,0.65625,0.640625,0.625,0.625,50.20777143,51.13265143,49.94352,51.17669333,50.45734222,50.25181333,50.66287111,50.8684,51.34111644,51.07392889,50.97116444,50.04628444,50.76563556,50.97116444,50.04628444,49.42969778,49.84075556,50.66287111,49.12140444,49.12140444,50.35457778,49.84075556,49.63522667,50.45734222,50.8684,51.07392889,49.10672381,49.32693333,50.14904889,50.04628444,61.14484444,59.60337778,57.54808889,58.57573333,59.60337778,56.00662222,57.03426667,53.95133333,55.4928,56.00662222,57.03426667,57.54808889,57.03426667,56.00662222,57.65085333,60.1172,61.14484444,60.1172,59.08955556,58.57573333,58.57573333,59.91167111,60.63102222,59.08955556,58.57573333,57.41963333,56.49475333,59.60337778,58.57573333,61.65866667,38.21552778,38.18341389,36.86674444,36.60983333,38.18341389,35.00413889,34.75525625,34.56257292,35.550075,35.00413889,35.64641667,35.96755556,35.64641667,35.87924236,36.93257792,38.51258125,38.21552778,37.57325,36.93097222,36.60983333,36.60983333,38.38091431,39.78910833,37.85424653,40.27081667,38.57881615,37.07468188,38.18341389,36.60983333,38.53666667,37.09126067,1.475877616,217.544478,0.170499665,0.0473,0.32,0.177181016,0.039,0.0445,0.165389206,0.188713325
18K,18432,0.625,0.625,0.640625,0.625,0.625,0.640625,0.625,0.625,0.625,0.625,0.625,0.640625,0.625,0.640625,0.625,0.640625,0.625,0.640625,0.640625,0.65625,0.640625,0.640625,0.65625,0.703125,0.671875,0.640625,0.640625,0.625,0.625,0.625,50.35457778,50.14904889,50.14904889,50.25181333,49.53246222,49.73799111,50.45734222,50.45734222,51.64940978,49.74533143,49.758544,50.35457778,49.76735238,50.20777143,50.20777143,51.07392889,51.17669333,50.8684,50.20043111,51.27945778,49.4370381,50.14904889,50.04628444,49.73799111,50.80674133,50.20777143,50.56010667,49.01864,50.25181333,49.32693333,60.1172,59.08955556,59.60337778,58.57573333,61.65866667,60.1172,58.57573333,57.03426667,58.57573333,59.60337778,60.63102222,59.08955556,59.08955556,57.54808889,55.4928,58.57573333,58.57573333,57.03426667,58.57573333,59.34646667,58.9611,60.1172,59.08955556,60.1172,58.19036667,58.9611,59.60337778,60.63102222,60.1172,59.60337778,37.57325,36.93097222,38.18341389,36.60983333,38.53666667,38.51258125,36.60983333,35.64641667,36.60983333,37.25211111,37.89438889,37.85424653,36.93097222,36.86674444,34.683,37.52507917,36.60983333,36.53757708,37.52507917,38.94611875,37.77195469,38.51258125,38.77752083,42.26990625,39.0966526,37.77195469,38.18341389,37.89438889,37.57325,37.25211111,37.63138952,1.310451888,217.544478,0.172982509,0.0473,0.32,0.178355171,0.039,0.0445,0.166357326,0.189817975
19K,19456,0.625,0.640625,0.625,0.640625,0.640625,0.671875,0.625,0.640625,0.640625,0.625,0.671875,0.640625,0.625,0.625,0.640625,0.640625,0.625,0.65625,0.640625,0.65625,0.65625,0.65625,0.640625,0.6875,0.703125,0.65625,0.640625,0.65625,0.640625,0.625,49.63522667,49.32693333,49.12140444,50.56010667,50.14904889,50.53808571,50.56010667,50.97116444,49.53246222,51.17669333,50.14904889,50.04628444,49.42969778,50.35457778,49.94352,49.63522667,49.63522667,49.12140444,49.53246222,50.25181333,50.8684,50.45734222,50.97116444,50.35457778,49.42969778,51.07392889,50.04628444,49.12140444,49.84075556,50.66287111,60.1172,60.1172,59.08955556,59.08955556,58.57573333,59.08955556,55.4928,55.4928,56.00662222,55.4928,57.805,60.1172,60.1172,59.08955556,59.60337778,58.57573333,58.06191111,60.1172,58.57573333,57.03426667,58.57573333,58.9611,60.1172,60.1172,59.08955556,56.00662222,56.6489,61.14484444,60.63102222,58.57573333,37.57325,38.51258125,36.93097222,37.85424653,37.52507917,39.70079514,34.683,35.550075,35.87924236,34.683,38.83773438,38.51258125,37.57325,36.93097222,38.18341389,37.52507917,36.28869444,39.4519125,37.52507917,37.4287375,38.440325,38.69322188,38.51258125,41.330575,41.54734375,36.75434583,36.29070156,40.12630417,38.84174861,36.60983333,37.80988922,1.666443605,217.544478,0.173803029,0.0473,0.32,0.179465827,0.039,0.0445,0.167273089,0.190862883
20K,20480,0.65625,0.625,0.640625,0.671875,0.625,0.65625,0.65625,0.640625,0.640625,0.65625,0.640625,0.640625,0.640625,0.640625,0.640625,0.640625,0.640625,0.640625,0.640625,0.640625,0.640625,0.65625,0.640625,0.65625,0.71875,0.671875,0.671875,0.671875,0.640625,0.640625,51.27945778,49.84075556,49.53246222,49.87745714,49.42969778,51.27945778,50.45734222,49.90241422,49.94352,49.73799111,51.48498667,50.76563556,51.63913333,50.09766667,50.76563556,50.35457778,51.27945778,50.8684,50.04628444,49.73799111,49.94352,50.27236622,50.09766667,49.84075556,50.313472,49.32693333,50.04628444,50.76563556,50.31787619,49.32693333,58.57573333,60.1172,58.57573333,57.54808889,57.03426667,57.03426667,57.805,57.03426667,59.60337778,60.1172,57.54808889,58.57573333,59.08955556,63.20013333,54.97897778,53.95133333,58.57573333,55.87816667,58.57573333,59.60337778,59.60337778,57.54808889,60.63102222,58.57573333,58.9611,59.60337778,59.08955556,57.805,57.41963333,60.1172,38.440325,37.57325,37.52507917,38.66512222,35.64641667,37.4287375,37.93453125,36.53757708,38.18341389,39.4519125,36.86674444,37.52507917,37.85424653,40.48758542,35.22090764,34.56257292,37.52507917,35.79695052,37.52507917,38.18341389,38.18341389,37.76593333,38.84174861,38.440325,42.37829063,40.04601944,39.70079514,38.83773438,36.7844526,38.51258125,37.94751061,1.590808563,217.544478,0.174435642,0.0473,0.32,0.180519501,0.039,0.0445,0.168141868,0.191854183
21K,21504,0.640625,0.640625,0.65625,0.65625,0.640625,0.65625,0.65625,0.640625,0.65625,0.640625,0.640625,0.65625,0.65625,0.65625,0.640625,0.640625,0.671875,0.65625,0.640625,0.640625,0.671875,0.671875,0.65625,0.671875,0.703125,0.6875,0.671875,0.703125,0.65625,0.65625,50.25181333,50.35457778,50.14904889,50.25181333,50.29291911,50.45734222,49.32693333,49.12140444,50.66287111,49.68660889,51.38222222,50.35457778,50.20777143,49.94352,50.25181333,49.40914489,50.66287111,49.17278667,50.56010667,49.9875619,51.48498667,50.42798095,50.97116444,49.42969778,49.9875619,48.88651429,49.63522667,49.81139429,50.04628444,49.63522667,60.1172,60.1172,58.37020444,61.65866667,57.54808889,57.03426667,55.87816667,58.57573333,58.57573333,60.63102222,59.60337778,60.1172,58.57573333,58.06191111,57.805,60.1172,59.60337778,58.57573333,59.08955556,59.08955556,58.9611,57.03426667,59.60337778,59.08955556,57.805,55.4928,60.63102222,59.08955556,57.41963333,58.57573333,38.51258125,38.51258125,38.30544667,40.4635,36.86674444,37.4287375,36.67004688,37.52507917,38.440325,38.84174861,38.18341389,39.4519125,38.440325,38.10312917,37.03132813,38.51258125,40.04601944,38.440325,37.85424653,37.85424653,39.61448906,38.31989792,39.11471667,39.70079514,40.64414063,38.1513,40.73646806,41.54734375,37.68163438,38.440325,38.64784763,1.186117203,217.544478,0.177654924,0.0473,0.32,0.181521755,0.039,0.0445,0.168968251,0.192797107
22K,22528,0.640625,0.6875,0.640625,0.640625,0.65625,0.671875,0.65625,0.640625,0.640625,0.671875,0.65625,0.640625,0.65625,0.65625,0.640625,0.65625,0.640625,0.734375,0.640625,0.640625,0.6875,0.65625,0.65625,0.65625,0.640625,0.65625,0.65625,0.65625,0.671875,0.703125,50.14904889,50.45734222,50.16372952,50.35457778,49.73799111,50.14904889,49.42969778,49.22416889,50.56010667,50.76563556,50.64819048,50.97116444,52.35848444,51.38222222,49.94352,50.06683733,49.53246222,50.14904889,49.9875619,50.76563556,49.53246222,50.04628444,49.84075556,49.22416889,50.8684,49.94352,49.22416889,50.8684,50.66287111,50.8684,59.60337778,61.65866667,60.1172,57.54808889,56.00662222,57.805,61.65866667,60.1172,57.54808889,57.54808889,60.1172,57.54808889,57.03426667,56.6489,59.60337778,59.60337778,59.60337778,61.2733,58.9611,59.08955556,60.1172,58.57573333,57.29117778,60.1172,56.52044444,56.6489,61.14484444,57.03426667,60.1172,58.19036667,38.18341389,42.39033333,38.51258125,36.86674444,36.75434583,38.83773438,40.4635,38.51258125,36.86674444,38.66512222,39.4519125,36.86674444,37.4287375,37.17584063,38.18341389,39.11471667,38.18341389,44.99757969,37.77195469,37.85424653,41.330575,38.440325,37.59733542,39.4519125,36.20840972,37.17584063,40.12630417,37.4287375,40.39124375,40.91510156,38.73824822,1.912512322,217.544478,0.178070474,0.0473,0.32,0.182477375,0.039,0.0445,0.169756183,0.193696157
23K,23552,0.703125,0.703125,0.703125,0.6875,0.671875,0.65625,0.65625,0.65625,0.65625,0.65625,0.65625,0.65625,0.65625,0.65625,0.65625,0.65625,0.65625,0.65625,0.65625,0.65625,0.6875,0.65625,0.65625,0.65625,0.65625,0.65625,0.65625,0.65625,0.65625,0.671875,48.81311111,49.84075556,51.38222222,49.01864,50.04628444,50.8684,50.56010667,50.45734222,51.12531111,49.42969778,50.8684,50.76563556,50.8684,50.56010667,50.45734222,51.27945778,50.30319556,49.63522667,50.35457778,50.53808571,50.25181333,50.66287111,51.30881905,50.25181333,50.56010667,50.14904889,49.22416889,50.97116444,50.42798095,50.35457778,60.1172,58.57573333,55.87816667,60.1172,59.08955556,56.52044444,56.6489,58.57573333,61.14484444,58.57573333,58.06191111,53.95133333,57.805,57.54808889,59.60337778,58.57573333,60.1172,58.57573333,57.805,58.9611,60.1172,60.1172,60.1172,59.60337778,60.88793333,58.57573333,62.68631111,58.57573333,58.57573333,58.06191111,42.26990625,41.1860625,39.28933594,41.330575,39.70079514,37.09154167,37.17584063,38.440325,40.12630417,38.440325,38.10312917,35.4055625,37.93453125,37.76593333,39.11471667,38.440325,39.4519125,38.440325,37.93453125,38.69322188,41.330575,39.4519125,39.4519125,39.11471667,39.95770625,38.440325,41.13789167,38.440325,38.440325,39.01034653,39.0370412,1.450774946,217.544478,0.179443954,0.0473,0.32,0.183390509,0.039,0.0445,0.170509084,0.194555237
24K,24576,0.703125,0.71875,0.671875,0.6875,0.75,0.71875,0.84375,0.859375,0.671875,0.671875,0.671875,0.71875,0.703125,0.6875,0.6875,0.65625,0.65625,0.671875,0.671875,0.671875,0.65625,0.65625,0.65625,0.671875,0.65625,0.65625,0.6875,0.640625,0.65625,0.6875,52.71816,52.12212622,58.31882222,50.8684,52.96039048,51.48498667,51.75217422,52.05019111,51.32056356,49.73799111,49.81139429,50.14904889,49.94352,50.45734222,50.42798095,49.32693333,50.76563556,50.31787619,50.76563556,49.32693333,50.04628444,51.69051556,49.9246449,51.07392889,51.69051556,50.35457778,49.63522667,50.51900089,51.38222222,50.64819048,59.73183333,61.65866667,61.2733,57.54808889,61.04208,63.20013333,57.805,60.73378667,60.63102222,57.54808889,57.54808889,56.26353333,61.65866667,58.19036667,56.26353333,60.1172,58.57573333,57.54808889,59.73183333,59.08955556,60.1172,57.54808889,59.08955556,55.4928,57.805,61.65866667,59.60337778,59.08955556,57.03426667,57.41963333,41.99894531,44.31716667,41.16799844,39.56431111,45.78156,45.42509583,48.77296875,52.19309792,40.73646806,38.66512222,38.66512222,40.43941458,43.35375,40.00587708,38.68117917,39.4519125,38.440325,38.66512222,40.13232552,39.70079514,39.4519125,37.76593333,38.77752083,37.284225,37.93453125,40.4635,40.97732222,37.85424653,37.4287375,39.47599792,40.78574949,3.459899719,217.544478,0.187482348,0.0473,0.32,0.184264774,0.039,0.0445,0.171229937,0.195377748
25K,25600,0.65625,0.671875,0.65625,0.65625,0.65625,0.65625,0.65625,0.671875,0.671875,0.65625,0.6875,0.703125,0.6875,0.671875,0.703125,0.6875,0.671875,0.65625,0.65625,0.671875,0.65625,0.65625,0.65625,0.65625,0.65625,0.65625,0.671875,0.6875,0.65625,0.65625,50.8684,50.61148889,51.19871429,49.42969778,50.99171733,50.14904889,50.97116444,50.66287111,49.94352,50.56010667,49.73799111,49.27555111,50.25181333,50.14904889,49.63522667,49.94352,49.73799111,49.84075556,49.84075556,50.14904889,50.56010667,49.54714286,48.50481778,50.76563556,50.8684,50.08739022,51.27945778,50.14904889,49.22416889,49.87745714,59.60337778,61.14484444,57.54808889,55.4928,57.41963333,61.65866667,60.1172,59.08955556,57.54808889,56.6489,59.60337778,60.1172,56.6489,60.1172,59.60337778,55.87816667,59.08955556,59.08955556,60.1172,58.57573333,60.88793333,57.805,60.1172,58.57573333,57.54808889,57.54808889,55.4928,59.60337778,58.57573333,58.06191111,39.11471667,41.08169236,37.76593333,36.41715,37.68163438,40.4635,39.4519125,39.70079514,38.66512222,37.17584063,40.97732222,42.26990625,38.94611875,40.39124375,41.908625,38.41623958,39.70079514,38.77752083,39.4519125,39.35557083,39.95770625,37.93453125,39.4519125,38.440325,37.76593333,37.76593333,37.284225,40.97732222,38.440325,38.10312917,39.12782984,1.436772063,217.544478,0.179861287,0.0473,0.32,0.185103344,0.039,0.0445,0.171921359,0.196166678
26K,26624,0.6875,0.671875,0.671875,0.671875,0.6875,0.671875,0.65625,0.671875,0.671875,0.65625,0.671875,0.671875,0.703125,0.671875,0.671875,0.65625,0.671875,0.671875,0.671875,0.671875,0.671875,0.65625,0.671875,0.6875,0.671875,0.671875,0.671875,0.671875,0.671875,0.6875,50.8684,49.53246222,49.84075556,49.53246222,49.12140444,49.94352,50.76563556,49.53246222,50.66287111,50.76563556,50.45734222,50.04628444,50.56010667,51.17669333,50.35457778,50.56010667,49.76735238,50.25181333,50.8684,49.32693333,49.22416889,50.31787619,50.25181333,51.17669333,50.97116444,49.73799111,51.17669333,50.45734222,49.94352,50.04628444,58.57573333,61.14484444,61.65866667,59.08955556,58.57573333,61.14484444,61.65866667,59.08955556,57.03426667,57.41963333,59.60337778,61.65866667,58.88402667,60.1172,60.63102222,60.63102222,59.08955556,61.65866667,57.805,61.14484444,60.1172,58.06191111,58.57573333,57.03426667,58.57573333,58.57573333,57.54808889,57.805,59.08955556,58.06191111,40.27081667,41.08169236,41.42691667,39.70079514,40.27081667,41.08169236,40.4635,39.70079514,38.31989792,37.68163438,40.04601944,41.42691667,41.40283125,40.39124375,40.73646806,39.78910833,39.70079514,41.42691667,38.83773438,41.08169236,40.39124375,38.10312917,39.35557083,39.21105833,39.35557083,39.35557083,38.66512222,38.83773438,39.70079514,39.91756389,39.92438809,1.036971632,217.544478,0.183522875,0.0473,0.32,0.185909021,0.039,0.0445,0.172585659,0.196924662
27K,27648,0.671875,0.71875,0.703125,0.6875,0.671875,0.671875,0.671875,0.65625,0.671875,0.671875,0.671875,0.671875,0.6875,0.671875,0.65625,0.65625,0.671875,0.671875,0.671875,0.671875,0.671875,0.671875,0.671875,0.65625,0.65625,0.671875,0.671875,0.671875,0.671875,0.671875,51.48498667,49.22416889,50.31787619,50.53808571,50.25181333,49.63522667,50.8684,50.45734222,49.12140444,50.45734222,49.76735238,50.35457778,49.10672381,51.07392889,50.16960178,50.97116444,50.66287111,50.8684,50.56010667,50.76563556,50.04628444,50.76563556,49.73799111,49.94352,49.83341524,50.35457778,50.64819048,49.22416889,48.71034667,50.25181333,57.03426667,58.06191111,59.73183333,56.6489,61.65866667,58.57573333,57.54808889,60.1172,60.63102222,58.57573333,59.08955556,60.1172,58.34451333,58.57573333,59.08955556,57.54808889,56.6489,61.14484444,58.78126222,59.08955556,58.57573333,56.6489,61.14484444,59.08955556,59.80890667,57.41963333,56.6489,61.65866667,58.57573333,57.54808889,38.31989792,41.73199861,41.99894531,38.94611875,41.42691667,39.35557083,38.66512222,39.4519125,40.73646806,39.35557083,39.70079514,40.39124375,40.11185292,39.35557083,38.77752083,37.76593333,38.06097969,41.08169236,39.49366056,39.70079514,39.35557083,38.06097969,41.08169236,38.77752083,39.249595,38.57881615,38.06097969,41.42691667,39.35557083,38.66512222,39.56804435,1.184235685,217.544478,0.181884848,0.0473,0.32,0.186684288,0.039,0.0445,0.173224885,0.197654036
28K,28672,0.703125,0.6875,0.75,0.671875,0.671875,0.671875,0.6875,0.6875,0.6875,0.6875,0.703125,0.6875,0.71875,0.734375,0.703125,0.6875,0.6875,0.6875,0.6875,0.6875,0.671875,0.671875,0.671875,0.671875,0.671875,0.671875,0.671875,0.6875,0.6875,0.671875,50.8684,50.09766667,49.32693333,49.22416889,49.76735238,50.14904889,50.53808571,49.63522667,50.09766667,50.8684,50.04628444,50.45734222,48.19652444,50.56010667,51.07392889,49.63522667,51.38222222,49.63522667,50.25181333,50.14904889,49.84075556,50.14904889,49.84075556,50.35457778,51.238352,49.73799111,49.63522667,50.14904889,51.17669333,50.25181333,56.26353333,60.1172,59.34646667,58.57573333,58.57573333,58.34451333,56.6489,58.57573333,57.54808889,57.805,60.63102222,59.34646667,59.60337778,58.57573333,60.57964,59.08955556,57.03426667,60.1172,58.57573333,58.06191111,57.41963333,60.63102222,60.1172,55.18450667,57.41963333,61.65866667,60.1172,57.54808889,58.19036667,60.1172,39.56029688,41.330575,44.50985,39.35557083,39.35557083,39.2002199,38.94611875,40.27081667,39.56431111,39.7409375,42.6311875,40.80069583,42.83992778,43.01655417,42.59505938,40.62406944,39.21105833,41.330575,40.27081667,39.91756389,38.57881615,40.73646806,40.39124375,37.07709042,38.57881615,41.42691667,40.39124375,39.56431111,40.00587708,40.39124375,40.40712674,1.55782167,217.544478,0.185741909,0.0473,0.32,0.187431357,0.039,0.0445,0.173840862,0.19835688
29K,29696,0.671875,0.6875,0.671875,0.6875,0.671875,0.671875,0.703125,0.671875,0.671875,0.6875,0.671875,0.671875,0.671875,0.703125,0.71875,0.71875,0.703125,0.703125,0.703125,0.703125,0.703125,0.671875,0.671875,0.671875,0.6875,0.6875,0.671875,0.703125,0.671875,0.671875,49.96407289,50.04628444,49.01864,50.04628444,50.8684,50.04628444,50.76563556,50.64819048,50.40596,50.14904889,49.32693333,50.42798095,50.04628444,49.73799111,49.63522667,50.45734222,49.32693333,50.04628444,50.56010667,49.87745714,50.75829524,50.04628444,49.54714286,49.01864,49.94352,50.25181333,50.25181333,50.8684,49.94352,50.20777143,59.60337778,60.1172,61.65866667,60.1172,57.03426667,56.6489,61.65866667,60.1172,57.03426667,60.1172,58.57573333,58.57573333,60.1172,59.08955556,58.06191111,55.87816667,59.08955556,56.26353333,59.60337778,58.03622,56.6489,60.1172,60.1172,57.41963333,57.54808889,61.65866667,57.54808889,57.805,60.63102222,58.57573333,40.04601944,41.330575,41.42691667,41.330575,38.31989792,38.06097969,43.35375,40.39124375,38.31989792,41.330575,39.35557083,39.35557083,40.39124375,41.54734375,41.73199861,40.16243229,41.54734375,39.56029688,41.908625,40.80671719,39.83125781,40.39124375,40.39124375,38.57881615,39.56431111,42.39033333,38.66512222,40.64414063,40.73646806,39.35557083,40.36086936,1.299157052,217.544478,0.185529275,0.0473,0.32,0.188152207,0.039,0.0445,0.17443522,0.199035059
30K,30720,0.6875,0.671875,0.6875,0.6875,0.6875,0.6875,0.671875,0.6875,0.6875,0.6875,0.6875,0.6875,0.671875,0.671875,0.6875,0.703125,0.671875,0.6875,0.671875,0.671875,0.671875,0.6875,0.703125,0.6875,0.671875,0.6875,0.6875,0.6875,0.6875,0.6875,50.35457778,50.30319556,50.66287111,50.25181333,49.60219524,49.94352,49.9875619,50.97116444,50.56010667,51.17669333,49.36803911,50.14904889,49.32693333,50.04628444,49.84075556,49.63522667,50.45734222,50.8684,50.8684,49.94352,50.56010667,49.53246222,49.63522667,50.8684,50.66287111,49.84075556,50.42798095,50.8684,49.94352,50.20777143,58.9611,60.63102222,58.57573333,58.9611,57.03426667,60.1172,59.08955556,56.6489,58.57573333,59.60337778,59.34646667,60.1172,59.60337778,57.54808889,57.805,58.57573333,57.54808889,56.6489,58.57573333,59.08955556,57.805,59.60337778,60.63102222,60.27134667,60.1172,61.65866667,59.60337778,57.805,58.57573333,59.60337778,40.53575625,40.73646806,40.27081667,40.53575625,39.21105833,41.330575,39.70079514,38.94611875,40.27081667,40.97732222,40.80069583,41.330575,40.04601944,38.66512222,39.7409375,41.1860625,38.66512222,38.94611875,39.35557083,39.70079514,38.83773438,40.97732222,42.6311875,41.43655083,40.39124375,42.39033333,40.97732222,39.7409375,40.27081667,40.97732222,40.31944245,1.034361686,217.544478,0.185338846,0.0473,0.32,0.188848617,0.039,0.0445,0.175009427,0.199690244
31K,31744,0.71875,0.703125,0.703125,0.6875,0.71875,0.71875,0.734375,0.703125,0.703125,0.703125,0.71875,0.6875,0.703125,0.671875,0.6875,0.703125,0.6875,0.703125,0.671875,0.671875,0.6875,0.765625,0.6875,0.671875,0.703125,0.671875,0.703125,0.6875,0.6875,0.6875,51.17669333,49.94352,50.35457778,49.73799111,49.01864,50.25181333,49.63522667,49.32693333,50.56010667,50.25181333,49.73799111,49.94352,50.56010667,50.97116444,50.04628444,49.76735238,49.84075556,49.94352,49.32693333,50.45734222,50.3619181,50.56010667,50.42798095,51.07392889,50.45734222,50.8684,50.56010667,49.94352,50.69223238,51.17669333,58.57573333,58.06191111,58.19036667,61.65866667,61.65866667,60.1172,59.34646667,57.805,58.57573333,56.6489,59.60337778,57.805,61.65866667,60.63102222,61.2733,56.49475333,58.57573333,58.9611,61.14484444,58.06191111,57.54808889,59.11524667,57.54808889,57.41963333,59.60337778,60.1172,60.1172,62.17248889,59.08955556,58.19036667,42.10130833,40.82478125,40.91510156,42.39033333,44.31716667,43.2092375,43.58256146,40.64414063,41.1860625,39.83125781,42.83992778,39.7409375,43.35375,40.73646806,42.12539375,39.72287344,40.27081667,41.45702344,41.08169236,39.01034653,39.56431111,45.26011073,39.56431111,38.57881615,41.908625,40.39124375,42.26990625,42.74358611,40.62406944,40.00587708,41.34173458,1.630071102,217.544478,0.190038078,0.0473,0.32,0.18952219,0.039,0.0445,0.175564804,0.200323943
32K,32768,0.71875,0.734375,0.71875,0.71875,0.71875,0.734375,0.71875,0.734375,0.71875,0.71875,0.71875,0.75,0.71875,0.734375,0.734375,0.734375,0.734375,0.71875,0.734375,0.71875,0.734375,0.734375,0.71875,0.75,0.734375,0.71875,0.703125,0.71875,0.734375,0.734375,50.14904889,50.76563556,50.97116444,50.53808571,49.94352,50.25181333,49.73799111,50.87941048,50.97116444,50.75829524,49.84075556,50.27383429,50.04628444,50.53808571,49.59412089,49.94352,49.73799111,50.8684,50.14904889,50.04628444,51.17669333,49.94352,50.25181333,50.97116444,49.94352,51.27945778,50.31001156,51.27945778,49.76735238,50.04628444,60.1172,58.34451333,60.63102222,59.34646667,59.60337778,60.1172,61.65866667,57.41963333,61.14484444,61.2733,60.1172,59.73183333,60.1172,60.1172,61.65866667,58.57573333,59.91167111,57.03426667,61.65866667,57.03426667,59.80890667,57.57378,61.14484444,57.03426667,59.08955556,57.41963333,60.50256667,60.1172,60.50256667,60.1172,43.2092375,42.84675198,43.57854722,42.65527292,42.83992778,44.14856875,44.31716667,42.16754323,43.94785694,44.04018438,43.2092375,44.798875,43.2092375,44.14856875,45.28058333,43.01655417,43.99763347,40.99337917,45.28058333,40.99337917,43.92216583,42.28074469,43.94785694,42.7757,43.39389236,41.27036146,42.54086719,43.2092375,44.4315724,44.14856875,43.3533352,1.109652115,217.544478,0.199284926,0.0473,0.32,0.190174376,0.039,0.0445,0.176102547,0.200937522
33K,33792,0.6875,0.6875,0.703125,0.6875,0.6875,0.6875,0.703125,0.6875,0.703125,0.6875,0.6875,0.6875,0.6875,0.6875,0.6875,0.6875,0.703125,0.6875,0.6875,0.703125,0.71875,0.703125,0.703125,0.71875,0.703125,0.703125,0.734375,0.765625,0.71875,0.71875,50.64819048,51.07392889,49.73799111,50.8684,50.8684,50.35457778,49.87745714,50.25181333,49.01864,50.56010667,49.4370381,49.67633244,50.27383429,51.17669333,51.07392889,51.35286095,51.89604444,51.17669333,51.38222222,50.66287111,50.04628444,51.48498667,49.17278667,49.73799111,50.56010667,50.97850476,51.38222222,50.31787619,49.84075556,50.66287111,59.80890667,57.41963333,57.54808889,59.60337778,58.19036667,59.60337778,58.57573333,57.805,61.65866667,59.19232,57.805,61.65866667,60.63102222,58.9611,58.57573333,57.03426667,58.57573333,59.60337778,58.57573333,60.1172,58.57573333,56.26353333,58.57573333,57.03426667,62.68631111,58.88402667,57.41963333,58.19036667,60.1172,58.19036667,41.11862333,39.47599792,40.4635,40.97732222,40.00587708,40.97732222,41.1860625,39.7409375,43.35375,40.69472,39.7409375,42.39033333,41.68382778,40.53575625,40.27081667,39.21105833,41.1860625,40.97732222,40.27081667,42.26990625,42.10130833,39.56029688,41.1860625,40.99337917,44.0763125,41.40283125,42.16754323,44.55199948,43.2092375,41.82432604,41.25347491,1.333116585,217.544478,0.18963237,0.0473,0.32,0.190806491,0.039,0.0445,0.176623742,0.201532218
34K,34816,0.75,0.734375,0.71875,0.71875,0.734375,0.703125,0.703125,0.703125,0.6875,0.6875,0.703125,0.6875,0.703125,0.71875,0.703125,0.703125,0.703125,0.703125,0.703125,0.6875,0.703125,0.703125,0.703125,0.6875,0.71875,0.703125,0.703125,0.6875,0.703125,0.703125,50.14904889,51.27945778,49.63522667,51.48498667,50.97116444,51.04456762,50.56010667,49.84075556,51.33084,50.8684,51.99880889,50.82729422,51.41892381,51.89604444,50.56010667,50.25181333,49.63522667,50.25181333,51.69051556,50.66287111,50.75829524,50.8684,50.50872444,51.79328,49.73799111,49.78937333,49.63522667,49.73799111,50.35457778,50.35457778,58.57573333,55.4928,57.54808889,57.805,59.34646667,57.03426667,60.1172,57.805,58.57573333,60.1172,61.2733,61.65866667,58.57573333,57.22695,61.65866667,60.1172,60.1172,58.57573333,56.6489,59.60337778,63.20013333,55.87816667,59.08955556,59.60337778,57.03426667,58.57573333,56.6489,61.65866667,58.57573333,56.6489,43.9318,40.752525,41.36268889,41.54734375,43.58256146,40.10221875,42.26990625,40.64414063,40.27081667,41.330575,43.08278906,42.39033333,41.1860625,41.13187031,43.35375,42.26990625,42.26990625,41.1860625,39.83125781,40.97732222,44.43759375,39.28933594,41.54734375,40.97732222,40.99337917,41.1860625,39.83125781,42.39033333,41.1860625,39.83125781,41.50479285,1.280713945,217.544478,0.190787618,0.0473,0.32,0.191419735,0.039,0.0445,0.177129376,0.20210916
35K,35840,0.703125,0.703125,0.703125,0.703125,0.71875,0.703125,0.71875,0.71875,0.796875,0.71875,0.71875,0.734375,0.71875,0.71875,0.75,0.78125,0.734375,0.734375,0.734375,0.734375,0.734375,0.734375,0.71875,0.71875,0.703125,0.703125,0.703125,0.703125,0.703125,0.703125,50.14904889,49.63522667,50.76563556,49.37097524,50.76563556,50.14904889,50.25181333,49.63522667,49.73799111,48.71034667,50.14904889,50.97116444,50.35457778,50.35457778,49.73799111,50.14904889,50.38393905,50.56010667,51.17669333,49.53246222,49.63522667,50.76563556,50.56010667,49.42969778,51.07392889,50.35457778,50.14904889,51.27945778,50.66287111,50.20777143,60.1172,60.50256667,60.63102222,59.73183333,60.1172,59.08955556,56.6489,57.03426667,58.9611,57.41963333,58.57573333,58.57573333,58.06191111,58.19036667,61.65866667,57.41963333,58.19036667,61.65866667,58.57573333,61.65866667,57.95914667,59.60337778,58.57573333,60.1172,58.19036667,60.1172,58.57573333,56.6489,59.60337778,60.63102222,42.26990625,42.54086719,42.6311875,41.99894531,43.2092375,41.54734375,40.71639688,40.99337917,46.98462656,41.27036146,42.10130833,43.01655417,41.73199861,41.82432604,46.244,44.85908854,42.73355052,45.28058333,43.01655417,45.28058333,42.56374833,43.77123056,42.10130833,43.2092375,40.91510156,42.26990625,41.1860625,39.83125781,41.908625,42.6311875,42.6879488,1.646844876,217.544478,0.196226304,0.0473,0.32,0.1920152,0.039,0.0445,0.177620352,0.202669376
36K,36864,0.703125,0.703125,0.6875,0.71875,0.703125,0.6875,0.71875,0.6875,0.703125,0.703125,0.703125,0.703125,0.6875,0.703125,0.6875,0.703125,0.71875,0.6875,0.703125,0.703125,0.6875,0.703125,0.703125,0.703125,0.6875,0.703125,0.6875,0.703125,0.6875,0.6875,51.38222222,50.8684,51.17669333,50.66287111,50.61148889,51.38222222,50.76563556,50.45734222,51.07392889,50.04628444,50.35457778,50.56010667,51.19871429,51.07392889,50.35457778,50.04261429,50.30319556,50.45734222,50.35457778,49.94352,49.28582756,50.25181333,50.04628444,50.97116444,50.25181333,49.73799111,51.48498667,49.9875619,49.94352,50.8684,57.41963333,57.03426667,56.26353333,58.57573333,61.65866667,60.1172,61.65866667,57.54808889,57.805,58.57573333,57.805,60.63102222,58.57573333,59.34646667,58.06191111,58.57573333,57.805,60.1172,60.50256667,61.14484444,61.14484444,55.4928,60.1172,60.1172,58.9611,60.42549333,58.03622,59.34646667,58.57573333,57.41963333,40.37317969,40.10221875,38.68117917,42.10130833,43.35375,41.330575,44.31716667,39.56431111,40.64414063,41.1860625,40.64414063,42.6311875,40.27081667,41.72798438,39.91756389,41.1860625,41.54734375,41.330575,42.54086719,42.99246875,42.03708056,39.018375,42.26990625,42.26990625,40.53575625,42.486675,39.89990125,41.72798438,40.27081667,39.47599792,41.21451005,1.343439803,217.544478,0.189453258,0.0473,0.32,0.19259389,0.039,0.0445,0.178097496,0.203213809
37K,37888,0.6875,0.703125,0.703125,0.703125,0.703125,0.703125,0.703125,0.6875,0.71875,0.71875,0.703125,0.703125,0.703125,0.71875,0.6875,0.71875,0.71875,0.703125,0.703125,0.734375,0.71875,0.71875,0.71875,0.75,0.765625,0.75,0.71875,0.734375,0.75,0.734375,51.07392889,50.25181333,51.12531111,50.20043111,50.16058367,50.20777143,50.45734222,50.76563556,50.14904889,50.64819048,49.53246222,49.22416889,50.56010667,49.22416889,50.31787619,51.38222222,51.38222222,49.63522667,49.42969778,50.93446286,49.63522667,49.63522667,49.32693333,48.99661905,48.81311111,50.03160381,50.64819048,49.84075556,49.05167143,49.84075556,61.65866667,58.57573333,58.19036667,61.65866667,56.88012,57.41963333,59.60337778,57.805,63.20013333,60.1172,59.08955556,57.34256,57.03426667,61.65866667,59.60337778,57.805,58.57573333,58.57573333,61.65866667,58.9611,58.57573333,58.19036667,59.08955556,58.19036667,59.34646667,56.6489,55.72402,60.1172,58.57573333,58.57573333,42.39033333,41.1860625,40.91510156,43.35375,39.99383438,40.37317969,41.908625,39.7409375,45.42509583,43.2092375,41.54734375,40.3189875,40.10221875,44.31716667,40.97732222,41.54734375,42.10130833,41.1860625,43.35375,43.29955781,42.10130833,41.82432604,42.47061806,43.642775,45.43713854,42.486675,40.05163938,44.14856875,43.9318,43.01655417,42.21195406,1.587554911,217.544478,0.19403827,0.0473,0.32,0.193156723,0.039,0.0445,0.178561566,0.203743325
38K,38912,0.71875,0.734375,0.734375,0.703125,0.703125,0.703125,0.6875,0.71875,0.703125,0.703125,0.734375,0.703125,0.6875,0.703125,0.6875,0.71875,0.703125,0.6875,0.71875,0.703125,0.6875,0.703125,0.71875,0.703125,0.703125,0.703125,0.734375,0.703125,0.6875,0.71875,50.97116444,50.56010667,50.50872444,50.25181333,50.45734222,50.14904889,50.35457778,50.35457778,50.76563556,51.63913333,50.97116444,50.45734222,50.66287111,50.14904889,50.45734222,50.64819048,50.53808571,49.73799111,49.84075556,51.17669333,49.73799111,50.56010667,50.76563556,50.04628444,49.73799111,50.14904889,49.73799111,50.76563556,50.25181333,49.63522667,56.80304667,58.57573333,57.41963333,58.57573333,57.03426667,61.65866667,59.08955556,57.805,58.57573333,61.14484444,56.6489,58.06191111,57.805,58.57573333,57.03426667,57.41963333,58.57573333,55.87816667,60.63102222,57.805,59.08955556,57.54808889,58.19036667,61.65866667,58.9611,60.1172,58.57573333,57.805,58.57573333,58.9611,40.82718979,43.01655417,42.16754323,41.1860625,40.10221875,43.35375,40.62406944,41.54734375,41.1860625,42.99246875,41.60153594,40.82478125,39.7409375,41.1860625,39.21105833,41.27036146,41.1860625,38.41623958,43.57854722,40.64414063,40.62406944,40.4635,41.82432604,43.35375,41.45702344,42.26990625,43.01655417,40.64414063,40.27081667,42.37829063,41.36551223,1.261422525,217.544478,0.190147379,0.0473,0.32,0.193704546,0.039,0.0445,0.179013259,0.204258718
39K,39936,0.734375,0.71875,0.703125,0.734375,0.71875,0.734375,0.703125,0.71875,0.703125,0.71875,0.703125,0.71875,0.71875,0.703125,0.703125,0.71875,0.71875,0.71875,0.71875,0.703125,0.703125,0.703125,0.703125,0.71875,0.703125,0.734375,0.71875,0.703125,0.703125,0.71875,51.07392889,50.66287111,50.14904889,50.31787619,50.25181333,49.63522667,48.99661905,50.35457778,50.66287111,50.66287111,49.53246222,50.97116444,50.16372952,49.87745714,49.94352,51.07392889,50.61148889,50.25181333,50.56010667,49.94352,50.45734222,50.47202286,50.8684,49.22416889,50.25181333,49.42969778,50.97116444,50.76563556,50.66287111,50.66287111,61.14484444,59.34646667,60.1172,58.57573333,60.1172,58.19036667,55.87816667,59.60337778,57.03426667,61.14484444,59.34646667,60.1172,60.1172,56.6489,62.68631111,59.73183333,59.60337778,57.41963333,60.1172,57.805,60.63102222,59.08955556,57.805,57.95914667,57.41963333,58.57573333,55.4928,61.65866667,58.19036667,59.60337778,44.90324514,42.65527292,42.26990625,43.01655417,43.2092375,42.73355052,39.28933594,42.83992778,40.10221875,43.94785694,41.72798438,43.2092375,43.2092375,39.83125781,44.0763125,42.93225521,42.83992778,41.27036146,43.2092375,40.64414063,42.6311875,41.54734375,40.64414063,41.65813667,40.37317969,43.01655417,39.88545,43.35375,40.91510156,42.83992778,42.15939433,1.420259472,217.544478,0.193796665,0.0473,0.32,0.194238138,0.039,0.0445,0.179453218,0.204760723
40K,40960,0.703125,0.703125,0.6875,0.703125,0.71875,0.703125,0.703125,0.703125,0.71875,0.703125,0.703125,0.71875,0.703125,0.6875,0.71875,0.703125,0.71875,0.734375,0.703125,0.734375,0.71875,0.703125,0.71875,0.71875,0.71875,0.765625,0.78125,0.75,0.71875,0.71875,50.20777143,50.8684,50.14904889,49.12140444,49.94352,50.35457778,49.94352,49.84075556,50.25181333,50.25181333,50.66287111,49.84075556,50.9124419,49.94352,49.58384444,49.99490222,49.84075556,51.17669333,50.00517867,49.94352,49.37831556,50.45734222,50.76563556,50.56010667,48.71034667,50.97116444,50.14904889,49.32693333,51.27945778,47.78546667,58.57573333,57.41963333,61.65866667,58.19036667,59.08955556,57.805,61.14484444,60.63102222,56.6489,59.08955556,57.805,58.57573333,58.19036667,56.45621667,58.57573333,58.19036667,60.1172,56.6489,58.06191111,57.34256,61.14484444,56.6489,57.03426667,57.03426667,60.63102222,57.805,59.34646667,60.63102222,57.41963333,60.1172,41.1860625,40.37317969,42.39033333,40.91510156,42.47061806,40.64414063,42.99246875,42.6311875,40.71639688,41.54734375,40.64414063,42.10130833,40.91510156,38.81364896,42.10130833,40.91510156,43.2092375,41.60153594,40.82478125,42.1109425,43.94785694,39.83125781,40.99337917,40.99337917,43.57854722,44.25695313,46.36442708,45.47326667,41.27036146,43.2092375,41.96742018,1.645251939,217.544478,0.192914206,0.0473,0.32,0.19475822,0.039,0.0445,0.179882038,0.205250018
41K,41984,0.75,0.734375,0.71875,0.734375,0.71875,0.71875,0.703125,0.71875,0.71875,0.703125,0.703125,0.71875,0.703125,0.71875,0.703125,0.71875,0.703125,0.703125,0.703125,0.703125,0.703125,0.703125,0.703125,0.78125,0.71875,0.703125,0.6875,0.703125,0.703125,0.71875,51.07392889,49.84075556,50.20777143,49.54714286,50.25181333,50.09766667,51.07392889,50.8684,50.76563556,50.25181333,50.14904889,50.04628444,50.66287111,50.45734222,49.9246449,50.20777143,49.42969778,50.25181333,50.8684,49.87745714,50.64819048,50.35457778,50.97116444,50.35457778,49.87745714,50.76563556,50.8684,50.45734222,50.81334762,50.20777143,55.87816667,60.1172,58.19036667,59.34646667,61.14484444,59.34646667,60.1172,58.06191111,56.6489,59.60337778,57.805,60.63102222,57.03426667,61.65866667,57.03426667,57.57378,58.57573333,57.03426667,60.1172,60.34842,55.72402,59.08955556,56.6489,59.34646667,57.805,60.1172,58.19036667,59.60337778,58.19036667,57.41963333,41.908625,44.14856875,41.82432604,43.58256146,43.94785694,42.65527292,42.26990625,41.73199861,40.71639688,41.908625,40.64414063,43.57854722,40.10221875,44.31716667,40.10221875,41.38115438,41.1860625,40.10221875,42.26990625,42.43248281,39.18095156,41.54734375,39.83125781,46.36442708,41.54734375,42.26990625,40.00587708,41.908625,40.91510156,41.27036146,41.85504833,1.578290438,217.544478,0.192397659,0.0473,0.32,0.195265458,0.039,0.0445,0.180300269,0.20572723