n,Mean Duration 1,Mean Duration 2,Mean Duration 3,Mean Duration 4,Mean Duration 5,Mean Duration 6,Mean Duration 7,Mean Duration 8,Mean Duration 9,Mean Duration 10,Mean Duration 11,Mean Duration 12,Mean Duration 13,Mean Duration 14,Mean Duration 15,Mean Duration 16,Mean Duration 17,Mean Duration 18,Mean Duration 19,Mean Duration 20,Mean Duration 21,Mean Duration 22,Mean Duration 23,Mean Duration 24,Mean Duration 25,Mean Duration 26,Mean Duration 27,Mean Duration 28,Mean Duration 29,Mean Duration 30,220 O.S. 1,220 O.S. 2,220 O.S. 3,220 O.S. 4,220 O.S. 5,220 O.S. 6,220 O.S. 7,220 O.S. 8,220 O.S. 9,220 O.S. 10,220 O.S. 11,220 O.S. 12,220 O.S. 13,220 O.S. 14,220 O.S. 15,220 O.S. 16,220 O.S. 17,220 O.S. 18,220 O.S. 19,220 O.S. 20,220 O.S. 21,220 O.S. 22,220 O.S. 23,220 O.S. 24,220 O.S. 25,220 O.S. 26,220 O.S. 27,220 O.S. 28,220 O.S. 29,220 O.S. 30,220 Alg 1,220 Alg 2,220 Alg 3,220 Alg 4,220 Alg 5,220 Alg 6,220 Alg 7,220 Alg 8,220 Alg 9,220 Alg 10,220 Alg 11,220 Alg 12,220 Alg 13,220 Alg 14,220 Alg 15,220 Alg 16,220 Alg 17,220 Alg 18,220 Alg 19,220 Alg 20,220 Alg 21,220 Alg 22,220 Alg 23,220 Alg 24,220 Alg 25,220 Alg 26,220 Alg 27,220 Alg 28,220 Alg 29,220 Alg 30,J1,J2,J3,J4,J5,J6,J7,J8,J9,J10,J11,J12,J13,J14,J15,J16,J17,J18,J19,J20,J21,J22,J23,J24,J25,J26,J27,J28,J29,J30,AVG,Energon,ATOM,AMD,k,ATOM corretto,,,,AVG T
1048576,0.465,0.463,0.465,0.453,0.454,0.453,0.453,0.453,0.475,0.457,0.451,0.468,0.45,0.452,0.46,0.452,0.452,0.452,0.452,0.453,0.451,0.45,0.45,0.455,0.453,0.469,0.451,0.451,0.449,0.581,4.932693333,5.54928,6.551233333,6.782453333,5.857573333,7.707333333,7.707333333,6.063102222,7.39904,7.39904,6.268631111,6.885217778,7.296275556,8.015626667,6.885217778,6.987982222,7.296275556,5.446515556,5.285028571,4.734504762,6.275971429,6.716390476,6.38607619,6.165866667,7.296275556,6.576924444,6.782453333,5.857573333,7.129283333,7.255169778,9.2488,9.2488,9.2488,6.9366,9.2488,9.2488,9.2488,6.9366,9.2488,9.2488,6.9366,9.2488,9.2488,6.9366,6.9366,9.2488,9.2488,7.707333333,9.2488,9.2488,8.221155556,6.165866667,6.9366,7.707333333,4.6244,9.2488,6.9366,7.707333333,6.9366,7.707333333,4.300692,4.2821944,4.300692,3.1422798,4.1989552,4.1897064,4.1897064,3.1422798,4.39318,4.2267016,3.1284066,4.3284384,4.16196,3.1353432,3.190836,4.1804576,4.1804576,3.483714667,4.1804576,4.1897064,3.707741156,2.77464,3.12147,3.506836667,2.0948532,4.3376872,3.1284066,3.476007333,3.1145334,4.477960667,3.742210063,95.62664754,0.039133549,#REF!,6,0.234801292,,,,0.459766667
2097152,0.942,0.952,0.939,0.927,0.945,0.94,0.936,0.922,0.941,0.942,0.924,0.922,0.94,0.945,0.926,0.921,0.939,0.947,0.92,0.955,0.974,0.94,0.925,0.942,0.94,0.949,0.925,0.936,0.949,0.943,5.7805,6.35855,5.973183333,5.7805,5.876841667,5.395133333,6.35855,7.129283333,5.973183333,6.926323556,6.371395556,6.743916667,3.950008333,5.587816667,6.647575,6.9366,8.0927,7.610991667,5.876841667,6.551233333,8.67075,7.046704762,6.275971429,6.782453333,6.206972444,5.405409778,6.716390476,5.54928,6.47416,5.945657143,6.9366,8.0927,9.2488,8.0927,9.2488,9.2488,9.2488,8.0927,9.2488,8.32392,6.9366,9.2488,1.1561,8.0927,8.0927,8.478066667,8.0927,8.0927,6.9366,6.9366,8.32392,7.39904,7.39904,9.2488,8.32392,9.2488,6.47416,8.32392,9.2488,8.32392,6.5342772,7.7042504,8.6846232,7.5019329,8.740116,8.693872,8.6568768,7.4614694,8.7031208,7.84113264,6.4094184,8.5273936,1.086734,7.6476015,7.4938402,7.8082994,7.5990453,7.6637869,6.381672,6.624453,8.10749808,6.9550976,6.844112,8.7123696,7.8244848,8.7771112,5.988598,7.79118912,8.7771112,7.84945656,7.51303146,95.62664754,0.078566296,#REF!,6,0.471397774,,,,0.938266667
3145728,1.43,1.434,1.435,1.438,1.443,1.444,1.452,1.434,1.444,1.431,1.435,1.438,1.441,1.44,1.435,1.437,1.439,1.436,1.436,1.436,1.432,1.431,1.433,1.435,1.43,1.432,1.428,1.434,1.434,1.441,6.47416,6.782453333,4.6244,6.987982222,6.165866667,5.857573333,5.857573333,4.932693333,6.47416,6.782453333,6.268631111,6.47416,7.810097778,5.240986667,5.754808889,7.39904,4.727164444,7.597228571,7.193511111,6.9366,4.932693333,5.54928,5.240986667,6.165866667,6.371395556,6.063102222,6.165866667,6.454891667,5.754808889,6.268631111,8.588171429,9.2488,6.606285714,7.266914286,8.67075,7.266914286,8.588171429,8.147752381,7.129283333,9.2488,7.266914286,7.927542857,7.266914286,8.67075,8.588171429,8.588171429,9.2488,7.927542857,8.367961905,7.927542857,5.945657143,7.927542857,8.588171429,7.927542857,8.588171429,7.927542857,9.2488,9.2488,7.266914286,8.588171429,12.28108514,13.2627792,9.48002,10.44982274,12.51189225,10.49342423,12.47002491,11.68387691,10.29468513,13.2350328,10.428022,11.39980663,10.47162349,12.48588,12.324026,12.34120234,13.3090232,11.38395154,12.0163933,11.38395154,8.514181029,11.34431383,12.30684966,11.376024,12.28108514,11.35224137,13.2072864,13.2627792,10.42075509,12.37555503,11.67158647,95.62664754,0.122053703,#REF!,6,0.73232222,,,,1.436266667
4194304,1.941,1.948,1.939,1.938,1.944,1.934,1.944,1.939,1.937,1.927,1.949,1.928,1.959,1.931,1.945,1.94,1.946,1.929,1.941,1.928,1.946,1.941,1.945,1.943,1.948,1.936,1.949,1.916,1.933,1.915,5.240986667,7.090746667,5.46119619,5.446515556,5.857573333,6.576924444,5.610938667,6.987982222,5.857573333,7.225625,5.343751111,5.857573333,6.9366,6.606285714,6.371395556,6.647575,5.725447619,7.255169778,5.491475,7.39904,5.960337778,6.576924444,6.371395556,6.987982222,6.47416,5.54928,5.064819048,6.165866667,7.032941667,6.576924444,8.734977778,8.32392,6.9366,8.221155556,8.32392,7.707333333,8.39242963,7.86148,9.2488,8.734977778,7.39904,8.734977778,9.2488,8.32392,8.734977778,8.78636,7.86148,8.221155556,6.165866667,7.553186667,8.221155556,8.221155556,7.39904,8.221155556,9.2488,6.9366,7.39904,9.2488,7.193511111,7.86148,16.95459187,16.21499616,13.4500674,15.93259947,16.18170048,14.90598267,16.3148832,15.24340972,17.9149256,16.83230218,14.42072896,16.84103716,18.1183992,16.07348952,16.98953178,17.0455384,15.29844008,15.85860907,11.9679472,14.56254389,15.99836871,15.95726293,14.3911328,15.97370524,18.0166624,13.4292576,14.42072896,17.7207008,13.90505698,15.0547342,15.73297782,95.62664754,0.164525038,#REF!,6,0.987150228,,,,1.938633333
5242880,2.453,2.458,2.444,2.453,2.469,2.47,2.488,2.454,2.475,2.472,2.5,2.452,2.459,2.477,2.451,2.448,2.438,2.439,2.458,2.446,2.451,2.45,2.466,2.48,2.487,3.013,2.457,2.465,2.443,2.473,5.505238095,6.9366,5.064819048,5.491475,7.266914286,5.7805,6.826495238,5.340080952,6.647575,5.652044444,6.275971429,6.275971429,5.973183333,5.857573333,7.597228571,7.418308333,6.9366,6.35855,6.496180952,6.454891667,5.615342857,6.840258333,5.17492381,6.606285714,5.838305,6.679688889,6.9366,5.945657143,4.727164444,6.9366,8.478066667,8.863433333,8.863433333,8.478066667,8.478066667,8.0927,7.470184615,8.478066667,6.9366,8.478066667,8.06305641,8.0927,8.478066667,8.478066667,9.2488,8.478066667,8.863433333,8.863433333,9.2488,8.478066667,8.478066667,8.0927,8.537353846,7.707333333,8.478066667,8.588171429,9.2488,8.06305641,8.478066667,8.0927,20.79669753,21.78631913,21.66223107,20.79669753,20.9323466,19.988969,18.58581932,20.8051756,17.168085,20.9577808,20.15764103,19.8433004,20.84756593,21.00017113,22.6688088,20.7543072,21.60905047,21.6179139,22.7335504,20.73735107,20.7797414,19.827115,21.05311458,19.11418667,21.0849518,25.87616051,22.7243016,19.87543405,20.71191687,20.0132471,20.88366505,95.62664754,0.218387506,#REF!,6,1.310325035,,,,2.479633333
6291456,2.977,2.946,2.932,2.942,2.948,2.957,2.956,2.96,2.959,2.94,2.926,2.951,2.962,2.959,2.956,2.917,2.922,2.949,2.958,2.944,2.956,2.931,2.938,2.955,2.954,2.945,2.955,2.933,2.943,2.94,5.960337778,5.960337778,6.782453333,5.725447619,6.47416,7.193511111,6.826495238,6.782453333,5.035457778,6.551233333,6.782453333,6.576924444,6.47416,4.514295238,5.285028571,6.47416,7.266914286,5.446515556,5.876841667,6.576924444,8.015626667,6.576924444,4.817083333,7.266914286,6.063102222,5.876841667,4.932693333,5.835552381,6.371395556,7.090746667,8.32392,7.266914286,9.2488,8.940506667,8.588171429,7.707333333,8.632213333,8.015626667,8.588171429,8.588171429,8.015626667,7.927542857,7.912862222,7.707333333,8.32392,7.927542857,8.32392,7.707333333,8.918485714,7.39904,8.940506667,9.2488,8.588171429,8.015626667,7.707333333,8.588171429,8.632213333,7.707333333,7.927542857,8.632213333,24.78030984,21.40832949,27.1174816,26.30297061,25.31792937,22.79058467,25.51682261,23.72625493,25.41239926,25.249224,23.45372363,23.39417897,23.4378979,22.80599933,24.60550752,23.12464251,24.32249424,22.728926,26.38088074,21.78277376,26.42813771,27.1082328,25.23204766,23.6861768,22.76746267,25.29216486,25.5081904,22.60560867,23.33075863,25.3787072,24.36656061,95.62664754,0.254809316,#REF!,6,1.528855894,,,,2.947033333
7340032,3.465,3.458,3.472,3.455,3.493,3.445,3.49,3.455,3.469,3.454,3.472,3.45,3.511,3.438,3.48,3.447,3.466,3.51,3.469,3.447,3.481,3.453,3.479,3.455,3.473,3.453,3.485,3.461,3.498,3.459,5.035457778,7.39904,5.035457778,6.165866667,5.835552381,6.165866667,5.945657143,6.679688889,6.9366,4.829928889,6.826495238,5.835552381,7.090746667,6.576924444,6.782453333,6.165866667,7.900016667,6.782453333,7.090746667,6.885217778,6.823559111,8.015626667,5.54928,7.707333333,6.47416,6.165866667,4.994352,7.912862222,4.6244,6.885217778,8.704752941,7.888682353,7.888682353,8.432729412,8.478066667,8.160705882,8.478066667,8.976776471,8.734977778,8.160705882,8.478066667,8.704752941,8.976776471,8.160705882,7.888682353,9.2488,8.160705882,8.704752941,7.888682353,7.888682353,8.976776471,8.976776471,8.704752941,8.160705882,8.432729412,7.707333333,8.160705882,7.979356863,8.704752941,7.888682353,30.16196894,27.27906358,27.38950513,29.13508012,29.61388687,28.11363176,29.58845267,31.01476271,30.30163791,28.18707812,29.43584747,30.03139765,31.51746219,28.05650682,27.45261459,31.8806136,28.28500659,30.55368282,27.36583908,27.19228807,31.24815889,30.99680915,30.28383548,28.19523882,29.28686925,26.613422,28.44006,27.6165541,30.44922579,27.28695226,29.09911508,95.62664754,0.304299229,#REF!,6,1.825795372,,,,3.4681
8388608,3.999,3.99,3.99,4.001,3.961,3.968,3.963,3.965,3.94,3.966,3.982,3.965,4.181,3.974,3.966,3.97,3.973,4.506,3.977,3.959,3.963,3.961,3.956,3.962,3.974,3.972,4.019,3.994,3.988,3.977,5.879594286,7.090746667,7.225625,5.835552381,4.829928889,6.840258333,6.069525,6.069525,6.35855,5.973183333,5.343751111,5.505238095,4.844609524,8.015626667,6.300745,5.857573333,5.505238095,5.505238095,6.38607619,5.064819048,6.496180952,7.156809524,5.945657143,6.650327619,6.606285714,4.6244,7.225625,5.835552381,4.994352,6.9366,8.246846667,8.031852632,8.0927,8.55514,8.762021053,8.518631579,8.518631579,8.275242105,8.518631579,8.762021053,8.55514,9.01758,4.6244,8.762021053,8.843150877,8.55514,8.015626667,8.846678261,8.478066667,7.938553333,9.01758,7.63026,8.78636,8.32392,7.707333333,4.137621053,8.55514,8.55514,8.762021053,8.031852632,32.97913982,32.047092,32.289873,34.22911514,34.70636539,33.80193011,33.75933695,32.81133495,33.56340842,34.75017549,34.06656748,35.7547047,19.3346164,34.82027166,35.07193638,33.9639058,31.84608475,39.86313224,33.71727113,31.42873265,35.73666954,30.22345986,34.75884016,32.97937104,30.62894267,16.43463082,34.38310766,34.16922916,34.94293996,31.94267792,32.70016211,95.62664754,0.341956588,#REF!,6,2.051739528,,,,3.998733333
9437184,4.552,4.519,4.534,4.507,4.539,4.555,4.533,4.529,4.508,4.499,4.519,4.563,4.546,4.514,4.553,4.526,4.524,4.546,4.562,4.538,4.532,4.519,4.53,4.518,4.531,4.544,4.527,4.533,4.523,4.519,6.840258333,7.51465,5.395133333,7.029088,5.945657143,6.47416,6.47416,6.9366,7.225625,7.817438095,6.165866667,5.945657143,6.606285714,7.912862222,6.35855,6.496180952,6.165866667,6.055761905,6.165866667,6.454891667,7.48712381,7.48712381,7.707333333,7.211861905,6.165866667,5.20245,6.826495238,6.782453333,6.35855,4.910672381,7.9876,8.408,8.444556522,8.408,9.2488,8.8284,8.243495652,7.637266667,8.408,9.04773913,7.7774,8.444556522,8.444556522,8.1978,8.6182,8.176475362,8.6182,8.042434783,8.408,8.1978,8.645617391,7.9876,8.1978,8.243495652,8.057666667,9.0386,8.645617391,7.9876,8.1978,8.243495652,36.3595552,37.995752,38.28761927,37.894856,41.9803032,40.213362,37.36776579,34.58918073,37.903264,40.70577835,35.1460706,38.53251141,38.38895395,37.0048692,39.2386646,37.00672749,38.9887368,36.56090852,38.357296,37.2016164,39.18193802,36.0959644,37.136034,37.24411336,36.50928767,41.0713984,39.13870993,36.2077908,37.0786494,37.25235685,37.88800114,95.62664754,0.396207565,#REF!,6,2.377245388,,,,4.5314
10485760,5.045,5.042,5.054,5.035,5.051,5.056,5.059,5.065,5.044,5.061,5.036,5.067,5.058,5.091,5.068,5.067,5.045,5.032,5.079,5.035,5.045,5.053,5.045,5.042,5.637,5.059,5.046,5.044,5.039,5.057,6.165866667,7.707333333,6.576924444,7.39904,6.885217778,5.343751111,6.268631111,6.063102222,5.652044444,7.296275556,6.47416,6.987982222,5.919232,6.165866667,7.39904,5.652044444,7.090746667,6.741347556,6.063102222,5.199880889,4.727164444,5.960337778,6.275971429,7.39904,6.987982222,7.39904,6.679688889,6.576924444,6.576924444,6.606285714,8.138944,8.32392,8.32392,8.138944,8.32392,8.878848,8.508896,7.953968,8.508896,8.940506667,8.285383333,8.508896,8.508896,8.32392,7.768992,8.755530667,8.32392,8.200602667,8.138944,7.830650667,8.32392,8.508896,8.32392,8.32392,8.0927,8.077285333,7.953968,8.138944,8.693872,7.768992,41.06097248,41.96920464,42.06909168,40.97958304,42.04411992,44.89145549,43.04650486,40.28684792,42.91887142,45.24790424,41.72519047,43.11457603,43.03799597,42.37707672,39.37325146,44.36427389,41.9941764,41.26543262,41.33769658,39.42732611,41.9941764,42.99545149,41.9941764,41.96920464,45.6185499,40.8629865,40.13572253,41.05283354,43.80842101,39.28779254,42.0750289,95.62664754,0.439992721,#REF!,6,2.639956329,,,,5.0719
11534336,5.55,5.571,5.583,5.577,5.574,5.604,5.554,5.595,5.597,5.595,5.576,5.615,5.595,5.62,5.673,5.576,5.587,5.581,5.604,5.576,5.593,5.612,5.567,5.605,5.615,5.565,5.601,5.572,5.639,5.607,7.501804444,8.221155556,7.900016667,7.193511111,7.707333333,8.32392,8.67075,7.225625,8.588171429,8.588171429,6.782453333,8.285383333,8.015626667,8.015626667,7.501804444,7.090746667,7.810097778,7.501804444,8.015626667,8.632213333,9.2488,8.32392,8.632213333,7.156809524,7.090746667,6.743916667,7.090746667,7.39904,8.32392,6.826495238,9.077525926,8.39242963,8.449520988,8.257857143,7.927542857,9.077525926,8.563703704,8.147752381,8.202804762,8.918485714,8.792069136,8.563703704,8.257857143,8.563703704,8.257857143,7.764424691,8.367961905,8.734977778,8.753328571,8.734977778,8.423014286,8.563703704,8.0927,7.762385714,8.049881481,8.221155556,7.872490476,8.734977778,8.257857143,8.588171429,50.38026889,46.75422547,47.17367567,46.05406929,44.18812389,50.87045529,47.56281037,45.58667457,45.91109825,49.89892757,49.0245775,48.0851963,46.20271071,48.12801481,46.84682357,43.29443208,46.75180316,48.74991098,49.05365331,48.70623609,47.1099189,48.05950519,45.0520609,43.50817193,45.20008452,45.75073067,44.09381916,48.67129618,46.56605643,48.1538772,47.04630696,95.62664754,0.491979047,#REF!,6,2.951874284,,,,5.592633333
12582912,6.066,6.06,6.029,6.075,6.074,6.104,6.051,6.066,6.094,6.077,6.066,6.051,6.071,6.061,6.094,6.067,6.078,6.088,6.056,6.08,6.077,6.058,6.249,6.038,6.049,6.069,6.059,6.071,6.02,5.99,8.367961905,7.610991667,7.597228571,7.810097778,8.221155556,8.32392,7.912862222,8.118391111,8.632213333,7.418308333,6.576924444,7.225625,7.912862222,8.015626667,8.381725,8.0927,7.090746667,8.015626667,7.707333333,7.39904,8.478066667,8.529448889,7.090746667,7.707333333,7.266914286,8.632213333,7.377019048,8.0927,6.268631111,8.32392,8.32392,8.015626667,8.32392,8.169773333,8.478066667,8.78636,8.451489655,7.86148,8.78636,8.015626667,8.770413793,7.973103448,8.940506667,8.32392,8.632213333,8.426684444,8.478066667,8.015626667,8.32392,8.632213333,8.78636,8.478066667,8.950451613,8.426684444,8.78636,8.32392,8.478066667,8.734977778,6.21902069,8.632213333,50.49289872,48.5746976,50.18491368,49.631373,51.49577693,53.63194144,51.1399639,47.68773768,53.54407784,48.71096325,53.20133007,48.24524897,54.27781597,50.45127912,52.60470805,51.12469452,51.5296892,48.79913515,50.40965952,52.48385707,53.39470972,51.36012787,55.93137213,50.88032068,53.14869164,50.51787048,51.36860593,53.03005009,37.43850455,51.70695787,50.89996575,95.62664754,0.532278053,#REF!,6,3.193668317,,,,6.0696
13631488,6.658,6.591,6.62,6.608,6.606,6.602,6.638,6.613,6.619,6.608,6.617,6.608,6.646,6.594,6.606,6.614,6.604,6.623,6.596,6.66,6.618,6.61,6.62,6.597,6.645,6.618,6.613,6.613,6.594,6.584,6.38607619,8.67075,7.707333333,7.810097778,6.782453333,7.996358333,5.973183333,6.268631111,6.782453333,8.015626667,7.266914286,7.597228571,7.707333333,7.707333333,6.275971429,7.663291429,8.015626667,7.51465,8.015626667,6.716390476,8.257857143,7.501804444,7.707333333,7.996358333,7.707333333,7.090746667,7.597228571,8.147752381,7.817438095,6.275971429,8.127733333,8.044529167,8.267866667,8.5262375,8.408,8.2372125,8.2372125,7.9876,8.0927,8.688266667,8.8284,7.9876,8.548133333,7.9876,6.306,8.127733333,8.0927,8.67075,8.174444444,8.081022222,7.9876,8.285383333,8.5262375,8.5262375,8.2372125,8.127733333,8.267866667,8.267866667,8.221155556,8.408,54.11444853,53.02149174,54.73327733,56.3413774,55.543248,54.38207693,54.67861658,52.8219988,53.5655813,57.41206613,58.4175228,52.7820608,56.81089413,52.6702344,41.657436,53.75682827,53.4441908,57.42637725,53.91863556,53.819608,52.8619368,54.76638383,56.44369225,56.24758879,54.73627706,53.7893392,54.67540227,54.67540227,54.21029973,55.358272,54.30275216,95.62664754,0.567862134,#REF!,6,3.407172806,,,,6.614766667
14680064,7.151,7.11,7.153,7.083,7.106,7.113,7.15,7.113,7.107,7.137,7.108,7.137,7.095,7.987,7.126,7.113,7.121,7.127,7.112,7.144,7.106,7.121,7.106,7.143,7.098,7.108,7.097,7.119,7.091,7.131,7.39904,8.0927,6.371395556,7.51465,6.069525,7.604568889,6.275971429,7.501804444,7.193511111,6.47416,8.015626667,6.782453333,8.959775,6.885217778,8.0927,7.597228571,8.0927,7.604568889,7.377019048,7.912862222,7.927542857,7.032941667,7.597228571,7.225625,8.588171429,8.0927,6.47416,7.266914286,6.9366,7.604568889,8.456045714,8.191794286,8.191794286,8.296717647,8.720297143,8.764339048,8.456045714,7.835788889,7.927542857,6.606285714,8.456045714,8.720297143,8.059668571,8.893076923,8.32392,8.456045714,8.456045714,8.32392,8.191794286,8.478066667,8.059668571,8.32392,8.059668571,8.720297143,8.32392,8.588171429,7.927542857,8.367961905,8.456045714,8.32392,60.4691829,58.24365737,58.59590453,58.76565109,61.9664315,62.34074365,60.46072686,55.73596637,56.34104709,47.14906114,60.10557294,62.23676071,57.18334851,71.02900538,59.31625392,60.14785317,60.21550153,59.32457784,58.26004096,60.56730827,57.27200487,59.27463432,57.27200487,62.28908249,59.08318416,61.04472251,56.26177166,59.5715208,59.96182016,59.35787352,59.32810717,95.62664754,0.620413961,#REF!,6,3.722483766,,,,7.1471
15728640,7.669,7.688,7.679,7.658,7.658,7.655,7.683,7.679,7.683,7.644,7.662,7.672,7.66,7.706,7.658,7.665,7.639,7.689,7.689,7.701,7.631,7.685,7.68,7.699,7.667,7.691,7.667,7.674,7.71,7.691,8.257857143,6.679688889,7.296275556,7.002662857,7.090746667,7.927542857,7.090746667,6.47416,6.47416,8.0927,6.987982222,8.257857143,6.647575,7.090746667,5.945657143,6.38607619,7.002662857,6.782453333,7.604568889,6.165866667,8.32392,6.47416,7.953968,7.16782,8.037647619,6.576924444,8.588171429,6.782453333,8.118391111,7.597228571,8.153547368,8.762021053,8.762021053,7.707333333,8.396936842,8.275242105,8.640326316,8.040623423,8.275242105,8.24892973,8.396936842,8.315807018,7.910157895,8.396936842,8.437501754,8.421275789,8.518631579,8.315807018,8.112982456,8.843150877,7.873978378,8.640326316,8.275242105,8.396936842,7.910157895,7.991287719,8.275242105,8.640326316,8.153547368,8.153547368,62.52955477,67.36241785,67.28355966,59.02275867,64.30374234,63.34697832,66.38362708,61.74394727,63.57868509,63.05481885,64.33733008,63.79887144,60.59180947,64.70679531,64.61438844,64.54907893,65.07382663,63.94024016,62.38072211,68.10110491,60.08632901,66.40090774,63.55385937,64.64801675,60.64718058,61.46099385,63.44628122,66.30586415,62.86385021,62.70893281,63.76088243,95.62664754,0.666768982,#REF!,6,4.000613892,,,,7.6744
16777216,8.683,8.176,8.162,8.172,8.205,8.138,8.167,8.171,8.149,8.198,8.18,8.158,8.24,8.15,8.17,8.201,8.151,8.153,8.174,8.188,8.148,8.228,8.174,8.171,8.173,8.185,8.152,8.215,8.128,8.179,8.32392,7.912862222,6.38607619,7.266914286,6.535818667,8.015626667,5.857573333,8.632213333,6.268631111,7.51465,7.803675,7.090746667,7.39904,6.35855,7.193511111,7.39904,6.782453333,7.090746667,8.285383333,8.015626667,7.707333333,7.225625,8.959775,7.321966667,6.606285714,7.266914286,7.707333333,6.892558095,7.597228571,6.840258333,8.302411163,8.459268293,8.459268293,8.008107317,7.97709,8.43953,8.67075,8.55514,8.55514,8.55514,8.0927,8.0927,8.67075,7.97709,8.246846667,8.67075,8.32392,8.90197,8.55514,8.32392,7.97709,8.43953,8.55514,8.32392,7.782526829,8.910429268,8.78636,7.782526829,8.90197,8.78636,72.08983613,69.16297756,69.0445478,65.442253,65.45202345,68.68089514,70.81401525,69.90404894,69.71583586,70.13503772,66.198286,66.0202466,71.44698,65.0132835,67.37673727,71.10882075,67.84827192,72.57776141,69.92971436,68.15625696,64.99732932,69.44045284,69.92971436,68.01475032,63.60659178,72.93186356,71.62640672,63.9334579,72.35521216,71.86363844,68.82724157,95.62664754,0.719749603,#REF!,6,4.318497616,,,,8.1913
17825792,8.74,8.76,8.776,8.701,8.747,8.737,8.742,8.735,8.736,8.723,8.759,8.729,8.781,8.744,9.035,8.73,8.771,8.743,8.784,8.741,8.781,8.746,8.777,8.735,8.762,8.754,8.79,8.742,8.737,8.741,8.32392,6.47416,7.39904,8.32392,7.927542857,7.996358333,7.090746667,7.707333333,6.716390476,7.321966667,6.9366,8.588171429,7.225625,8.574408333,6.47416,7.090746667,6.9366,8.257857143,8.285383333,7.707333333,6.9366,6.35855,7.927542857,8.588171429,7.996358333,7.604568889,6.9366,8.015626667,8.257857143,7.900016667,8.209206202,7.8825,9.2488,7.958269767,8.495990698,8.460142636,8.639382946,8.17335814,8.280902326,8.065813953,8.372966667,8.818623256,8.280902326,7.886573643,8.3029,8.388446512,8.495990698,8.17335814,8.280902326,7.958269767,8.101662016,8.280902326,8.5131,8.151849302,8.603534884,8.17335814,7.850725581,7.850725581,8.17335814,8.495990698,71.7484622,69.0507,81.1674688,69.24490525,74.31443063,73.91626621,75.52548571,71.39428335,72.34196272,70.35809512,73.33881503,76.9777624,72.71460332,68.96019994,75.0167015,73.23113805,74.51833441,71.45967021,72.73944603,69.56323604,71.14069416,72.42477174,74.7194787,71.20640366,75.38417265,71.54957715,69.00787786,68.63104303,71.41063007,74.26345469,72.57733569,95.62664754,0.758965598,#REF!,6,4.553793585,,,,8.7593
18874368,9.33,9.273,9.339,9.272,9.299,9.253,9.289,9.291,9.341,9.264,9.271,9.285,9.31,9.275,9.306,9.258,9.303,9.35,9.294,9.311,9.296,9.396,9.31,9.29,9.806,9.295,9.306,9.287,9.308,9.327,6.165866667,6.47416,8.015626667,7.046704762,6.165866667,8.221155556,7.604568889,8.529448889,5.857573333,7.39904,8.32392,8.67075,6.9366,8.574408333,8.529448889,8.0927,6.35855,6.647575,6.679688889,7.156809524,6.275971429,7.321966667,7.266914286,7.604568889,7.39904,7.610991667,8.381725,8.381725,8.0927,8.632213333,8.846678261,8.444556522,8.277005797,8.176475362,8.344026087,8.142965217,8.344026087,8.209985507,8.645617391,8.426684444,8.344026087,8.221155556,8.529448889,8.142965217,8.32392,8.529448889,8.837742222,8.310515942,8.444556522,8.344026087,8.411046377,8.042434783,9.04773913,8.344026087,8.445952778,8.118391111,8.289665185,8.39242963,8.243495652,8.444556522,82.53950817,78.30637263,77.29895714,75.81227956,77.59109858,75.34685716,77.50765832,76.27897535,80.75871205,78.06480469,77.35746585,76.33342933,79.40916916,75.52600239,77.46239952,78.96563781,82.21751589,77.70332406,78.48370831,77.6912269,78.18908712,75.56671722,84.2344513,77.51600235,82.82101294,75.46044538,77.14362421,77.94049397,76.73045753,78.76237868,78.16732579,95.62664754,0.817422003,#REF!,6,4.904532019,,,,9.317833333
19922944,9.808,9.815,9.813,9.87,9.803,9.803,9.778,9.863,9.828,9.825,9.832,9.849,9.799,9.823,9.822,9.854,9.835,9.799,9.848,9.847,9.797,9.859,9.806,9.831,9.812,9.863,9.832,9.85,9.796,9.864,8.32392,5.960337778,6.275971429,7.707333333,8.037647619,7.090746667,7.501804444,8.0927,8.015626667,6.063102222,8.285383333,8.015626667,8.015626667,6.885217778,8.632213333,7.817438095,8.478066667,6.371395556,8.632213333,7.152405333,6.716390476,7.090746667,7.296275556,7.912862222,7.046704762,8.015626667,8.147752381,7.604568889,8.015626667,6.063102222,8.189041667,8.493795918,8.189041667,8.399420408,8.67075,8.682546939,8.381725,8.574408333,8.053376871,8.574408333,7.803675,8.574408333,8.493795918,8.67075,8.493795918,8.305044898,8.525254422,8.478066667,8.028472222,8.273586395,8.381725,8.116293878,8.478066667,8.682546939,7.900016667,8.682546939,7.833167347,8.67075,7.896084354,8.767091667,80.31812067,83.36660694,80.35906588,82.90227943,84.99936225,85.11500764,81.95650705,84.56938939,79.14858789,84.24356188,76.7257326,84.44934768,83.2307062,85.17277725,83.42606351,81.83791242,83.84587724,83.07657527,79.06439444,81.47000523,82.11575983,80.01854134,83.13592173,85.35811896,77.51496353,85.63596046,77.01570136,85.4068875,77.35004233,86.4785922,82.310279,95.62664754,0.860746258,#REF!,6,5.164477546,,,,9.827466667
20971520,10.307,10.359,10.378,10.361,10.359,10.301,10.367,10.319,10.383,10.312,10.355,10.323,10.334,10.335,10.41,10.364,10.379,10.335,10.368,10.326,10.411,10.388,10.332,10.349,10.333,10.359,10.305,10.342,10.322,10.362,7.225625,5.857573333,8.0927,8.32392,7.046704762,6.055761905,7.51465,7.597228571,6.576924444,8.257857143,6.47416,8.32392,8.32392,7.090746667,6.716390476,7.707333333,8.257857143,7.39904,8.381725,7.604568889,8.257857143,8.940506667,7.768992,6.679688889,8.257857143,7.129283333,8.257857143,8.632213333,6.679688889,7.927542857,7.949132026,8.372279739,8.886101961,8.221155556,8.359492308,7.798007843,8.342054902,8.251380392,7.374860131,8.342054902,7.91890719,8.262261333,7.858457516,8.190930719,8.478066667,8.342054902,8.886101961,8.886101961,8.704752941,8.190930719,8.359492308,8.523403922,8.342054902,8.342054902,8.281605229,8.342054902,8.039806536,8.523403922,8.523403922,8.270561538,81.93170379,86.72844581,92.21996615,85.17939271,86.59598082,80.32727879,86.48208317,85.14599427,76.57317274,86.02327015,82.00028395,85.29132374,81.20929997,84.65326898,88.256674,86.457057,92.22885225,91.83786376,90.25087849,84.5795506,87.03067442,88.54111994,86.19011125,86.33192618,85.57382683,86.41534673,82.85020635,88.14904336,87.97857528,85.69955866,85.95775767,95.62664754,0.898889168,#REF!,6,5.39333501,,,,10.34926667
22020096,10.97,10.965,10.981,10.99,11,10.949,10.934,10.961,10.948,11.786,10.98,11.016,10.995,10.987,10.952,10.993,10.977,10.99,10.974,10.971,10.975,10.961,10.964,11.011,11.01,10.985,10.98,10.954,10.97,10.976,7.597228571,8.32392,8.32392,7.597228571,7.377019048,7.225625,8.32392,8.015626667,7.48712381,7.927542857,5.395133333,7.803675,7.51465,8.118391111,8.015626667,7.707333333,7.321966667,8.529448889,5.725447619,8.381725,7.597228571,6.885217778,7.707333333,7.046704762,7.927542857,8.426684444,7.39904,7.193511111,6.716390476,8.529448889,8.249701235,8.39242963,8.23984,8.408,8.249701235,8.820614815,7.992790123,8.135518519,8.306792593,8.151484746,8.478066667,8.39242963,8.135518519,7.81944,8.39242963,8.306792593,8.07842716,7.931546667,8.07842716,8.221155556,7.964244444,8.135518519,8.049881481,8.408,8.66024,8.535158025,7.79297037,8.820614815,8.39242963,8.251050667,90.49922254,92.02299089,90.48168304,92.40392,90.74671358,96.57691161,87.39316721,89.17341848,90.9427653,96.07339921,93.089172,92.4510048,89.45002611,85.91218728,91.9138893,91.31657097,88.67689494,87.16769787,88.65265966,90.1942976,87.40758278,89.17341848,88.25890056,92.580488,95.3492424,93.7587109,85.56681467,96.62101468,92.06495304,90.56353212,90.882775,95.62664754,0.95039173,#REF!,6,5.702350381,,,,11.0035
23068672,11.438,11.413,11.476,11.426,11.413,11.413,11.405,11.451,11.394,11.416,11.39,11.462,11.399,12.034,11.472,11.428,11.465,11.405,11.459,11.389,11.452,11.404,11.436,11.393,11.424,11.393,11.425,11.419,11.445,11.43,7.912862222,7.803675,8.588171429,6.275971429,7.39904,8.015626667,7.803675,7.266914286,7.604568889,8.015626667,7.39904,8.189041667,7.266914286,6.47416,8.037647619,7.817438095,7.707333333,7.803675,8.632213333,7.707333333,8.32392,7.39904,7.266914286,8.959775,7.817438095,8.67075,7.266914286,8.67075,6.679688889,8.918485714,8.505592857,7.762385714,8.031852632,7.734859524,8.680891228,8.037647619,8.423014286,8.599761404,8.505592857,8.835907143,8.010121429,8.285383333,8.423014286,7.16782,8.518631579,8.194112281,8.0927,8.175278571,7.950722807,7.955069048,8.35637193,7.900016667,8.06517381,8.753328571,8.202804762,7.955069048,8.560645238,8.06517381,7.707333333,7.599160234,97.2869711,88.59210816,92.1735408,88.37850492,99.07501159,91.73367228,96.06447793,98.47586783,96.91272501,100.8707159,91.23528307,94.96706377,96.01393984,86.25754588,97.72574147,93.64231514,92.7828055,93.23905211,91.10733265,90.60028138,95.69717134,90.09179007,92.23332769,99.72667241,93.7088416,90.63210166,97.80537185,92.09621973,88.21043,86.85840147,93.47317614,95.62664754,0.977480426,#REF!,6,5.864882554,,,,11.44563333
24117248,12.004,11.927,11.987,11.993,11.955,11.994,11.998,11.954,12.019,11.913,12.009,11.942,11.957,12.024,11.957,11.966,12.146,12.025,11.934,12.009,11.943,11.988,11.981,11.955,11.922,11.982,11.915,11.977,11.996,12.012,8.221155556,7.927542857,6.679688889,7.501804444,8.32392,5.652044444,7.200851429,8.69827619,6.782453333,8.529448889,8.015626667,6.885217778,7.377019048,8.0927,8.588171429,7.501804444,7.597228571,8.426684444,7.912862222,8.32392,8.32392,8.940506667,7.39904,8.015626667,7.572455,7.707333333,7.912862222,8.32392,6.826495238,8.015626667,8.229864407,7.994725424,8.621762712,8.595636158,8.621762712,6.097937627,8.0927,8.046978531,8.349611111,8.026257471,8.478066667,8.595636158,8.621762712,8.543383051,8.438876836,8.386623729,8.272537778,8.569509605,8.360497175,8.308244068,8.856901695,8.700142373,8.229864407,8.424912644,8.770413793,8.25599096,8.308244068,8.386623729,8.632213333,8.778522034,98.79129234,95.35309013,103.3490696,103.0874644,103.0731732,73.1386639,97.0962146,96.19358136,100.3539759,95.61680526,101.8131026,102.649087,103.0904167,102.7256378,100.9036503,100.3543395,100.4782438,103.048353,99.77417329,99.77370301,105.7779769,104.2973068,98.60200546,100.7198307,104.5608732,98.92328369,98.99272807,100.4465924,103.5520311,105.4476067,100.0661424,95.62664754,1.046425291,#REF!,6,6.278551743,,,,11.97946667
25165824,12.404,12.481,12.533,12.516,12.52,12.554,12.499,12.491,12.541,12.483,12.51,12.554,12.489,12.511,12.541,12.483,12.515,12.487,13.018,12.489,12.452,12.454,12.529,12.509,12.471,12.495,12.494,12.493,12.486,12.508,8.32392,7.266914286,7.597228571,7.090746667,7.39904,7.156809524,7.225625,8.940506667,7.266914286,8.32392,8.257857143,7.39904,7.927542857,7.39904,7.090746667,7.032941667,7.39904,8.940506667,7.39904,7.090746667,5.491475,8.32392,8.0927,8.015626667,7.707333333,7.707333333,8.015626667,8.32392,7.707333333,8.32392,7.934762842,8.652103226,8.378617204,8.793940984,8.304030108,8.502929032,8.54124153,8.652103226,8.279167742,8.328892473,8.478066667,8.428341935,8.652103226,8.527791398,8.617051366,8.339081967,8.304030108,8.490701639,8.418779487,8.313812022,7.429363934,8.642321311,8.428341935,8.62724086,8.676965591,8.440161749,8.502929032,8.566511475,8.502929032,8.414891803,98.42279829,107.9869004,105.0092094,110.0649654,103.9664569,106.7457711,106.7569779,108.0734214,103.8290427,103.9695647,106.060614,105.8094047,108.0561172,106.6911982,108.0664412,104.0967602,103.9249368,106.0233914,109.5956714,103.8311983,92.51043971,107.6314696,105.5986961,107.9181559,108.2104379,105.459821,106.2355953,107.0214279,106.1675719,105.2534667,105.6329308,95.62664754,1.104639068,#REF!,6,6.627834406,,,,12.517
26214400,13.022,13.155,13.103,13.094,13.12,13.144,13.108,13.109,13.046,13.145,13.121,13.136,13.115,13.158,13.236,13.856,13.231,13.138,13.098,13.089,13.119,13.154,13.142,13.165,13.126,13.094,13.138,13.145,13.107,13.091,7.460698667,6.826495238,7.707333333,8.588171429,6.885217778,7.046704762,8.632213333,7.51465,7.810097778,8.015626667,7.046704762,7.707333333,8.588171429,8.588171429,7.803675,7.51465,6.844112,6.679688889,7.597228571,8.221155556,7.707333333,7.707333333,7.803675,8.632213333,8.588171429,8.632213333,8.0927,6.371395556,8.632213333,8.0927,8.32392,8.537353846,8.940506667,8.466209231,8.32392,8.442494359,8.5262375,8.821932308,8.45398125,8.347634872,8.58478359,8.679643077,8.679643077,8.608498462,8.679643077,8.818096078,8.347634872,8.608498462,8.727072821,8.59849375,8.893076923,8.285383333,8.561068718,8.608498462,8.300205128,8.59849375,8.347634872,8.489924103,8.429895833,8.405810417,108.3940862,112.3088898,117.1474589,110.8565437,109.2098304,110.9681459,111.7619212,115.6467106,110.2906394,109.7296604,112.6409455,114.0157915,113.833519,113.2706228,114.8837558,122.1835393,110.447557,113.0984528,114.3071998,112.5456847,116.6682762,108.9859324,112.5095651,113.3308822,108.9484925,112.5886772,109.6712269,111.6000523,110.4906447,110.0404642,112.4125056,95.62664754,1.175535361,#REF!,6,7.053212164,,,,13.15016667
27262976,13.664,13.759,13.76,13.717,13.738,13.72,13.738,13.719,13.79,13.742,13.783,13.743,13.748,13.745,13.759,13.735,13.785,13.756,14.273,13.787,13.821,13.77,13.762,13.719,13.806,13.748,13.771,13.723,13.72,13.721,7.604568889,8.67075,7.597228571,8.940506667,7.39904,8.381725,8.959775,7.39904,7.39904,9.2488,7.377019048,8.67075,7.501804444,7.48712381,7.707333333,8.0927,8.015626667,8.918485714,8.67075,8.837742222,6.716390476,8.959775,7.39904,8.381725,8.257857143,8.588171429,7.927542857,9.2488,8.015626667,8.478066667,8.512577114,8.750090196,8.840764706,8.282507463,8.704752941,8.489570149,8.704752941,8.568741176,8.765653731,8.591409804,8.908770588,8.772758824,8.342054902,8.636747059,8.251380392,8.682084314,8.636747059,8.704752941,8.654234286,8.568741176,8.568741176,8.446330588,8.880688557,8.636747059,8.578597101,8.546072549,8.419128235,8.432729412,8.420549254,8.006423881,116.3158537,120.392491,121.6489224,113.6111549,119.5858959,116.4769024,119.5858959,117.5545602,120.878365,118.0631535,122.789585,120.5640245,114.6865708,118.7120883,113.5307428,119.248428,119.0575582,119.7425815,123.521886,118.1372346,118.4285718,116.3059722,122.2160359,118.4875329,118.4361116,117.4914054,115.9398149,115.7223457,115.5299358,109.8561421,118.0839254,95.62664754,1.234843304,#REF!,6,7.409059826,,,,13.7674
28311552,14.295,14.308,14.324,14.338,14.336,14.291,14.3,14.244,14.261,14.277,14.304,14.283,14.294,14.316,14.366,14.313,14.312,14.267,14.289,14.303,14.322,14.284,14.285,14.34,14.281,14.284,14.297,14.271,14.272,14.281,8.478066667,8.381725,8.32392,7.266914286,8.588171429,8.257857143,7.927542857,8.632213333,8.118391111,8.918485714,6.679688889,7.266914286,8.32392,8.32392,7.912862222,8.32392,8.32392,8.381725,8.257857143,7.39904,6.9366,7.225625,8.32392,8.32392,7.321966667,7.597228571,6.47416,8.056732444,8.015626667,8.015626667,8.720297143,8.456045714,8.597476056,8.640897653,8.306551362,8.619186854,8.662608451,8.456045714,8.727740845,8.32392,8.662608451,8.662608451,8.345940952,8.20668169,8.445500469,8.55405446,8.654234286,8.301899048,8.467211268,8.478066667,7.817438095,8.720297143,8.575765258,8.522108571,8.69827619,8.532343662,8.522108571,8.271814085,8.389982857,8.271814085,124.6566477,120.9891021,123.150247,123.8931905,119.0827203,123.1767993,123.8753008,120.4479152,124.4663122,118.8406058,123.9099513,123.7280365,119.29688,117.4868551,121.3280597,122.4341815,123.8594011,118.4431937,120.9879818,121.2617875,111.9613484,124.5607244,122.5048067,122.2070369,124.2200823,121.8759969,121.8405862,118.0470588,119.7418353,118.1297769,121.3468141,95.62664754,1.268964428,#REF!,6,7.613786567,,,,14.29793333
,,,,,,,,,,,,,,,,,,,,,,,,,,,,,,,,,,,,,,,,,,,,,,,,,,,,,,,,,,,,,,,,,,,,,,,,,,,,,,,,,,,,,,,,,,,,,,,,,,,,,,,,,,,,,,,,,,,,,,,,,,,,#REF!,,,,,,
,,,,,,,,,,,,,,,,,,,,,,,,,,,,,,,,,,,,,,,,,,,,,,,,,,,,,,,,,,,,,,,,,,,,,,,,,,,,,,,,,,,,,,,,,,,,,,,,,,,,,,,,,,,,,,,,,,,,,,,,,,,,#REF!,,,,,,
,,,,,,,,,,,,,,,,,,,,,,,,,,,,,,,,,,,,,,,,,,,,,,,,,,,,,,,,,,,,,,,,,,,,,,,,,,,,,,,,,,,,,,,,,,,,,,,,,,,,,,,,,,,,,,,,,,,,,,,,,,,,#REF!,,,,,,
,,,,,,,,,,,,,,,,,,,,,,,,,,,,,,,,,,,,,,,,,,,,,,,,,,,,,,,,,,,,,,,,,,,,,,,,,,,,,,,,,,,,,,,,,,,,,,,,,,,,,,,,,,,,,,,,,,,,,,,,,,,,#REF!,,,,,,
,,,,,,,,,,,,,,,,,,,,,,,,,,,,,,,,,,,,,,,,,,,,,,,,,,,,,,,,,,,,,,,,,,,,,,,,,,,,,,,,,,,,,,,,,,,,,,,,,,,,,,,,,,,,,,,,,,,,,,,,,,,,#REF!,,,,,,
,,,,,,,,,,,,,,,,,,,,,,,,,,,,,,,,,,,,,,,,,,,,,,,,,,,,,,,,,,,,,,,,,,,,,,,,,,,,,,,,,,,,,,,,,,,,,,,,,,,,,,,,,,,,,,,,,,,,,,,,,,,,#REF!,,,,,,
,,,,,,,,,,,,,,,,,,,,,,,,,,,,,,,,,,,,,,,,,,,,,,,,,,,,,,,,,,,,,,,,,,,,,,,,,,,,,,,,,,,,,,,,,,,,,,,,,,,,,,,,,,,,,,,,,,,,,,,,,,,,#REF!,,,,,,
,,,,,,,,,,,,,,,,,,,,,,,,,,,,,,,,,,,,,,,,,,,,,,,,,,,,,,,,,,,,,,,,,,,,,,,,,,,,,,,,,,,,,,,,,,,,,,,,,,,,,,,,,,,,,,,,,,,,,,,,,,,,#REF!,,,,,,
,,,,,,,,,,,,,,,,,,,,,,,,,,,,,,,,,,,,,,,,,,,,,,,,,,,,,,,,,,,,,,,,,,,,,,,,,,,,,,,,,,,,,,,,,,,,,,,,,,,,,,,,,,,,,,,,,,,,,,,,,,,,#REF!,,,,,,
,,,,,,,,,,,,,,,,,,,,,,,,,,,,,,,,,,,,,,,,,,,,,,,,,,,,,,,,,,,,,,,,,,,,,,,,,,,,,,,,,,,,,,,,,,,,,,,,,,,,,,,,,,,,,,,,,,,,,,,,,,,,#REF!,,,,,,
,,,,,,,,,,,,,,,,,,,,,,,,,,,,,,,,,,,,,,,,,,,,,,,,,,,,,,,,,,,,,,,,,,,,,,,,,,,,,,,,,,,,,,,,,,,,,,,,,,,,,,,,,,,,,,,,,,,,,,,,,,,,#REF!,,,,,,
,,,,,,,,,,,,,,,,,,,,,,,,,,,,,,,,,,,,,,,,,,,,,,,,,,,,,,,,,,,,,,,,,,,,,,,,,,,,,,,,,,,,,,,,,,,,,,,,,,,,,,,,,,,,,,,,,,,,,,,,,,,,#REF!,,,,,,
,,,,,,,,,,,,,,,,,,,,,,,,,,,,,,,,,,,,,,,,,,,,,,,,,,,,,,,,,,,,,,,,,,,,,,,,,,,,,,,,,,,,,,,,,,,,,,,,,,,,,,,,,,,,,,,,,,,,,,,,,,,,#REF!,,,,,,
,,,,,,,,,,,,,,,,,,,,,,,,,,,,,,,,,,,,,,,,,,,,,,,,,,,,,,,,,,,,,,,,,,,,,,,,,,,,,,,,,,,,,,,,,,,,,,,,,,,,,,,,,,,,,,,,,,,,,,,,,,,,#REF!,,,,,,