/*---------------------------------------------------------------------------*\
| =========                 |                                                 |
| \\      /  F ield         | OpenFOAM: The Open Source CFD Toolbox           |
|  \\    /   O peration     | Version:  2.3.0                                 |
|   \\  /    A nd           | Web:      www.OpenFOAM.org                      |
|    \\/     M anipulation  |                                                 |
\*---------------------------------------------------------------------------*/
Build  : 2.3.0
Exec   : pimpleDyMFoam -parallel
Date   : Oct 09 2014
Time   : 12:45:48
Host   : "hpc01"
PID    : 1608
Case   : /home/bobo/OpenFOAM/experiment/incompressible/pimpleDyMFoam/mixerVesselAMI2D2
nProcs : 6
Slaves : 
5
(
"hpc01.1609"
"hpc01.1610"
"hpc01.1611"
"hpc01.1612"
"hpc01.1613"
)

Pstream initialized with:
    floatTransfer      : 0
    nProcsSimpleSum    : 0
    commsType          : nonBlocking
    polling iterations : 0
fileModificationChecking : Monitoring run-time modified files using timeStampMaster
allowSystemOperations : Disallowing user-supplied system call operations

// * * * * * * * * * * * * * * * * * * * * * * * * * * * * * * * * * * * * * //
Create time

Create mesh for time = 0.147406

Selecting dynamicFvMesh solidBodyMotionFvMesh
Selecting solid-body motion function rotatingMotion
Applying solid body motion to cellZone rotor

PIMPLE: Operating solver in PISO mode

Reading field p

Reading field U

Reading/calculating face flux field phi

AMI: Creating addressing and weights between 9600 source faces and 9600 target faces
AMI: Patch source sum(weights) min/max/average = 1, 1, 1
AMI: Patch target sum(weights) min/max/average = 1, 1, 1
Selecting incompressible transport model Newtonian
Selecting turbulence model type laminar
Reading/calculating face velocity Uf

No finite volume options present

Courant Number mean: 0.0738533 max: 0.499698

Starting time loop

Courant Number mean: 0.0738533 max: 0.499698
deltaT = 0.000204914
Time = 0.147611

solidBodyMotionFunctions::rotatingMotion::transformation(): Time = 0.147611 transformation: ((0 0 0) (0.894388 (0 0 0.447291)))
AMI: Creating addressing and weights between 9600 source faces and 9600 target faces
AMI: Patch source sum(weights) min/max/average = 1, 1, 1
AMI: Patch target sum(weights) min/max/average = 1, 1, 1
smoothSolver:  Solving for Ux, Initial residual = 0.0028665, Final residual = 8.92314e-07, No Iterations 4
smoothSolver:  Solving for Uy, Initial residual = 0.0028667, Final residual = 8.8127e-07, No Iterations 4
GAMG:  Solving for p, Initial residual = 0.783061, Final residual = 0.00685889, No Iterations 41
time step continuity errors : sum local = 1.05884e-06, global = 5.9749e-07, cumulative = 5.9749e-07
GAMG:  Solving for p, Initial residual = 0.193747, Final residual = 9.0315e-07, No Iterations 108
time step continuity errors : sum local = 5.98231e-07, global = 5.98136e-07, cumulative = 1.19563e-06
ExecutionTime = 45.36 s  ClockTime = 45 s

Courant Number mean: 0.0738572 max: 1.13947
deltaT = 8.99166e-05
Time = 0.147701

solidBodyMotionFunctions::rotatingMotion::transformation(): Time = 0.147701 transformation: ((0 0 0) (0.894262 (0 0 0.447544)))
AMI: Creating addressing and weights between 9600 source faces and 9600 target faces
AMI: Patch source sum(weights) min/max/average = 1, 1, 1
AMI: Patch target sum(weights) min/max/average = 1, 1, 1
smoothSolver:  Solving for Ux, Initial residual = 0.00568797, Final residual = 2.31601e-07, No Iterations 4
smoothSolver:  Solving for Uy, Initial residual = 0.00572654, Final residual = 2.31997e-07, No Iterations 4
GAMG:  Solving for p, Initial residual = 0.847882, Final residual = 0.00812476, No Iterations 21
time step continuity errors : sum local = 4.23694e-07, global = 2.08797e-07, cumulative = 1.40442e-06
GAMG:  Solving for p, Initial residual = 0.131291, Final residual = 9.29499e-07, No Iterations 98
time step continuity errors : sum local = 2.08776e-07, global = 2.08751e-07, cumulative = 1.61317e-06
ExecutionTime = 76.08 s  ClockTime = 76 s

Courant Number mean: 0.0323969 max: 0.397694
deltaT = 0.000101221
Time = 0.147802

solidBodyMotionFunctions::rotatingMotion::transformation(): Time = 0.147802 transformation: ((0 0 0) (0.89412 (0 0 0.447828)))
AMI: Creating addressing and weights between 9600 source faces and 9600 target faces
AMI: Patch source sum(weights) min/max/average = 1, 1, 1
AMI: Patch target sum(weights) min/max/average = 1, 1, 1
smoothSolver:  Solving for Ux, Initial residual = 0.00610093, Final residual = 2.85122e-07, No Iterations 4
smoothSolver:  Solving for Uy, Initial residual = 0.0061445, Final residual = 2.88044e-07, No Iterations 4
GAMG:  Solving for p, Initial residual = 0.331553, Final residual = 0.00325954, No Iterations 35
time step continuity errors : sum local = 2.80049e-07, global = 1.98665e-07, cumulative = 1.81184e-06
GAMG:  Solving for p, Initial residual = 0.0775128, Final residual = 9.41204e-07, No Iterations 53
time step continuity errors : sum local = 1.98697e-07, global = 1.98679e-07, cumulative = 2.01052e-06
ExecutionTime = 100.8 s  ClockTime = 101 s

Courant Number mean: 0.0364718 max: 0.378507
deltaT = 0.000114592
Time = 0.147917

solidBodyMotionFunctions::rotatingMotion::transformation(): Time = 0.147917 transformation: ((0 0 0) (0.893958 (0 0 0.44815)))
AMI: Creating addressing and weights between 9600 source faces and 9600 target faces
AMI: Patch source sum(weights) min/max/average = 1, 1, 1
AMI: Patch target sum(weights) min/max/average = 1, 1, 1
smoothSolver:  Solving for Ux, Initial residual = 0.00284446, Final residual = 2.51784e-07, No Iterations 4
smoothSolver:  Solving for Uy, Initial residual = 0.00286635, Final residual = 2.52132e-07, No Iterations 4
GAMG:  Solving for p, Initial residual = 0.171804, Final residual = 0.00162497, No Iterations 36
time step continuity errors : sum local = 2.23973e-07, global = 1.87359e-07, cumulative = 2.19788e-06
GAMG:  Solving for p, Initial residual = 0.033186, Final residual = 7.91955e-07, No Iterations 96
time step continuity errors : sum local = 1.87374e-07, global = 1.87359e-07, cumulative = 2.38523e-06
ExecutionTime = 133.8 s  ClockTime = 134 s

Courant Number mean: 0.0413014 max: 0.35694
deltaT = 0.000130645
Time = 0.148047

solidBodyMotionFunctions::rotatingMotion::transformation(): Time = 0.148047 transformation: ((0 0 0) (0.893774 (0 0 0.448517)))
AMI: Creating addressing and weights between 9600 source faces and 9600 target faces
AMI: Patch source sum(weights) min/max/average = 1, 1, 1
AMI: Patch target sum(weights) min/max/average = 1, 1, 1
smoothSolver:  Solving for Ux, Initial residual = 0.00186924, Final residual = 2.74564e-07, No Iterations 4
smoothSolver:  Solving for Uy, Initial residual = 0.00189483, Final residual = 2.75576e-07, No Iterations 4
GAMG:  Solving for p, Initial residual = 0.125046, Final residual = 0.00123864, No Iterations 25
time step continuity errors : sum local = 2.04362e-07, global = 1.74877e-07, cumulative = 2.56011e-06
GAMG:  Solving for p, Initial residual = 0.021363, Final residual = 8.19479e-07, No Iterations 71
time step continuity errors : sum local = 1.749e-07, global = 1.74883e-07, cumulative = 2.73499e-06
ExecutionTime = 159.94 s  ClockTime = 160 s

Courant Number mean: 0.0471033 max: 0.333172
deltaT = 0.000150251
Time = 0.148198

solidBodyMotionFunctions::rotatingMotion::transformation(): Time = 0.148198 transformation: ((0 0 0) (0.893563 (0 0 0.448939)))
AMI: Creating addressing and weights between 9600 source faces and 9600 target faces
AMI: Patch source sum(weights) min/max/average = 1, 1, 1
AMI: Patch target sum(weights) min/max/average = 1, 1, 1
smoothSolver:  Solving for Ux, Initial residual = 0.00146119, Final residual = 3.44384e-07, No Iterations 4
smoothSolver:  Solving for Uy, Initial residual = 0.00148853, Final residual = 3.45854e-07, No Iterations 4
GAMG:  Solving for p, Initial residual = 0.10464, Final residual = 0.00100229, No Iterations 30
time step continuity errors : sum local = 1.87311e-07, global = 1.61096e-07, cumulative = 2.89609e-06
GAMG:  Solving for p, Initial residual = 0.016269, Final residual = 9.62231e-07, No Iterations 79
time step continuity errors : sum local = 1.61128e-07, global = 1.61105e-07, cumulative = 3.0572e-06
ExecutionTime = 188.41 s  ClockTime = 188 s

Courant Number mean: 0.0541919 max: 0.367839
deltaT = 0.000170674
Time = 0.148368

solidBodyMotionFunctions::rotatingMotion::transformation(): Time = 0.148368 transformation: ((0 0 0) (0.893322 (0 0 0.449418)))
AMI: Creating addressing and weights between 9600 source faces and 9600 target faces
AMI: Patch source sum(weights) min/max/average = 1, 1, 1
AMI: Patch target sum(weights) min/max/average = 1, 1, 1
smoothSolver:  Solving for Ux, Initial residual = 0.00128363, Final residual = 4.43329e-07, No Iterations 4
smoothSolver:  Solving for Uy, Initial residual = 0.00131065, Final residual = 4.4578e-07, No Iterations 4
GAMG:  Solving for p, Initial residual = 0.0935704, Final residual = 0.000888038, No Iterations 28
time step continuity errors : sum local = 1.69031e-07, global = 1.43459e-07, cumulative = 3.20065e-06
GAMG:  Solving for p, Initial residual = 0.0131552, Final residual = 7.26637e-07, No Iterations 79
time step continuity errors : sum local = 1.43487e-07, global = 1.43468e-07, cumulative = 3.34412e-06
ExecutionTime = 216.55 s  ClockTime = 217 s

Courant Number mean: 0.0615801 max: 0.417142
deltaT = 0.000191132
Time = 0.148559

solidBodyMotionFunctions::rotatingMotion::transformation(): Time = 0.148559 transformation: ((0 0 0) (0.893052 (0 0 0.449954)))
AMI: Creating addressing and weights between 9600 source faces and 9600 target faces
AMI: Patch source sum(weights) min/max/average = 1, 1, 1
AMI: Patch target sum(weights) min/max/average = 1, 1, 1
smoothSolver:  Solving for Ux, Initial residual = 0.00123963, Final residual = 5.80859e-07, No Iterations 4
smoothSolver:  Solving for Uy, Initial residual = 0.00126663, Final residual = 5.86757e-07, No Iterations 4
GAMG:  Solving for p, Initial residual = 0.0870743, Final residual = 0.000863092, No Iterations 26
time step continuity errors : sum local = 1.50739e-07, global = 1.23432e-07, cumulative = 3.46755e-06
GAMG:  Solving for p, Initial residual = 0.0110945, Final residual = 8.99632e-07, No Iterations 53
time step continuity errors : sum local = 1.23468e-07, global = 1.23441e-07, cumulative = 3.59099e-06
ExecutionTime = 239.31 s  ClockTime = 239 s

Courant Number mean: 0.0689851 max: 0.466526
deltaT = 0.000204846
Time = 0.148764

solidBodyMotionFunctions::rotatingMotion::transformation(): Time = 0.148764 transformation: ((0 0 0) (0.892762 (0 0 0.450529)))
AMI: Creating addressing and weights between 9600 source faces and 9600 target faces
AMI: Patch source sum(weights) min/max/average = 1, 1, 1
AMI: Patch target sum(weights) min/max/average = 1, 1, 1
smoothSolver:  Solving for Ux, Initial residual = 0.00123469, Final residual = 6.92235e-07, No Iterations 4
smoothSolver:  Solving for Uy, Initial residual = 0.00125895, Final residual = 7.00335e-07, No Iterations 4
GAMG:  Solving for p, Initial residual = 0.0754703, Final residual = 0.000713722, No Iterations 26
time step continuity errors : sum local = 1.23499e-07, global = 1.00504e-07, cumulative = 3.6915e-06
GAMG:  Solving for p, Initial residual = 0.00893376, Final residual = 4.33427e-07, No Iterations 62
time step continuity errors : sum local = 1.00522e-07, global = 1.00509e-07, cumulative = 3.79201e-06
ExecutionTime = 263.84 s  ClockTime = 264 s

Courant Number mean: 0.0739591 max: 0.499453
deltaT = 0.00020507
Time = 0.148969

solidBodyMotionFunctions::rotatingMotion::transformation(): Time = 0.148969 transformation: ((0 0 0) (0.892471 (0 0 0.451104)))
AMI: Creating addressing and weights between 9600 source faces and 9600 target faces
AMI: Patch source sum(weights) min/max/average = 1, 1, 1
AMI: Patch target sum(weights) min/max/average = 1, 1, 1
smoothSolver:  Solving for Ux, Initial residual = 0.00120123, Final residual = 6.62684e-07, No Iterations 4
smoothSolver:  Solving for Uy, Initial residual = 0.00122079, Final residual = 6.69002e-07, No Iterations 4
GAMG:  Solving for p, Initial residual = 0.058962, Final residual = 0.000557252, No Iterations 23
time step continuity errors : sum local = 9.31258e-08, global = 7.67864e-08, cumulative = 3.86879e-06
GAMG:  Solving for p, Initial residual = 0.00663843, Final residual = 9.83555e-07, No Iterations 65
time step continuity errors : sum local = 7.68148e-08, global = 7.67866e-08, cumulative = 3.94558e-06
ExecutionTime = 294.75 s  ClockTime = 295 s

End

Finalising parallel run
