/*---------------------------------------------------------------------------*\
| =========                 |                                                 |
| \\      /  F ield         | OpenFOAM: The Open Source CFD Toolbox           |
|  \\    /   O peration     | Version:  2.3.0                                 |
|   \\  /    A nd           | Web:      www.OpenFOAM.org                      |
|    \\/     M anipulation  |                                                 |
\*---------------------------------------------------------------------------*/
Build  : 2.3.0
Exec   : pimpleDyMFoam
Date   : Oct 09 2014
Time   : 14:24:18
Host   : "hpc01"
PID    : 1723
Case   : /home/bobo/OpenFOAM/experiment/incompressible/pimpleDyMFoam/mixerVesselAMI2D2
nProcs : 1
fileModificationChecking : Monitoring run-time modified files using timeStampMaster
allowSystemOperations : Disallowing user-supplied system call operations

// * * * * * * * * * * * * * * * * * * * * * * * * * * * * * * * * * * * * * //
Create time

Create mesh for time = 0.150583

Selecting dynamicFvMesh solidBodyMotionFvMesh
Selecting solid-body motion function rotatingMotion
Applying solid body motion to cellZone rotor

PIMPLE: Operating solver in PISO mode

Reading field p

Reading field U

Reading/calculating face flux field phi

AMI: Creating addressing and weights between 9600 source faces and 9600 target faces
AMI: Patch source sum(weights) min/max/average = 1, 1, 1
AMI: Patch target sum(weights) min/max/average = 1, 1, 1
Selecting incompressible transport model Newtonian
Selecting turbulence model type laminar
Reading/calculating face velocity Uf

No finite volume options present

Courant Number mean: 0.074334 max: 0.499565

Starting time loop

Courant Number mean: 0.074334 max: 0.499565
deltaT = 0.00020568
Time = 0.150789

solidBodyMotionFunctions::rotatingMotion::transformation(): Time = 0.150789 transformation: ((0 0 0) (0.889878 (0 0 0.456198)))
AMI: Creating addressing and weights between 9600 source faces and 9600 target faces
AMI: Patch source sum(weights) min/max/average = 1, 1, 1
AMI: Patch target sum(weights) min/max/average = 1, 1, 1
smoothSolver:  Solving for Ux, Initial residual = 0.00286028, Final residual = 8.52352e-07, No Iterations 4
smoothSolver:  Solving for Uy, Initial residual = 0.00286692, Final residual = 8.5444e-07, No Iterations 4
GAMG:  Solving for p, Initial residual = 0.684142, Final residual = 0.00571957, No Iterations 11
time step continuity errors : sum local = 5.12525e-07, global = 4.67557e-08, cumulative = 4.67557e-08
GAMG:  Solving for p, Initial residual = 0.171058, Final residual = 8.28693e-07, No Iterations 53
time step continuity errors : sum local = 4.74356e-08, global = 4.73392e-08, cumulative = 9.40949e-08
ExecutionTime = 103.87 s  ClockTime = 104 s

Courant Number mean: 0.0744139 max: 0.521562
deltaT = 0.000197177
Time = 0.150986

solidBodyMotionFunctions::rotatingMotion::transformation(): Time = 0.150986 transformation: ((0 0 0) (0.889596 (0 0 0.456749)))
AMI: Creating addressing and weights between 9600 source faces and 9600 target faces
AMI: Patch source sum(weights) min/max/average = 1, 1, 1
AMI: Patch target sum(weights) min/max/average = 1, 1, 1
smoothSolver:  Solving for Ux, Initial residual = 0.0121133, Final residual = 3.50892e-07, No Iterations 6
smoothSolver:  Solving for Uy, Initial residual = 0.0121048, Final residual = 3.51139e-07, No Iterations 6
GAMG:  Solving for p, Initial residual = 0.754753, Final residual = 0.00341851, No Iterations 9
time step continuity errors : sum local = 3.44728e-07, global = 4.64898e-10, cumulative = 9.45598e-08
GAMG:  Solving for p, Initial residual = 0.300397, Final residual = 9.87014e-07, No Iterations 81
time step continuity errors : sum local = 3.49249e-10, global = 2.73616e-10, cumulative = 9.48334e-08
ExecutionTime = 171.03 s  ClockTime = 171 s

Courant Number mean: 0.0712903 max: 0.487439
deltaT = 0.000202258
Time = 0.151188

solidBodyMotionFunctions::rotatingMotion::transformation(): Time = 0.151188 transformation: ((0 0 0) (0.889305 (0 0 0.457314)))
AMI: Creating addressing and weights between 9600 source faces and 9600 target faces
AMI: Patch source sum(weights) min/max/average = 1, 1, 1
AMI: Patch target sum(weights) min/max/average = 1, 1, 1
smoothSolver:  Solving for Ux, Initial residual = 0.00715224, Final residual = 8.2477e-07, No Iterations 5
smoothSolver:  Solving for Uy, Initial residual = 0.00714715, Final residual = 8.22705e-07, No Iterations 5
GAMG:  Solving for p, Initial residual = 0.425246, Final residual = 0.003898, No Iterations 11
time step continuity errors : sum local = 1.88392e-07, global = 1.32355e-10, cumulative = 9.49658e-08
GAMG:  Solving for p, Initial residual = 0.168987, Final residual = 9.09309e-07, No Iterations 71
time step continuity errors : sum local = 2.90586e-10, global = 2.60241e-10, cumulative = 9.5226e-08
ExecutionTime = 233.84 s  ClockTime = 234 s

Courant Number mean: 0.0731522 max: 0.495779
deltaT = 0.00020398
Time = 0.151392

solidBodyMotionFunctions::rotatingMotion::transformation(): Time = 0.151392 transformation: ((0 0 0) (0.889012 (0 0 0.457884)))
AMI: Creating addressing and weights between 9600 source faces and 9600 target faces
AMI: Patch source sum(weights) min/max/average = 1, 1, 1
AMI: Patch target sum(weights) min/max/average = 1, 1, 1
smoothSolver:  Solving for Ux, Initial residual = 0.00278871, Final residual = 3.78189e-07, No Iterations 5
smoothSolver:  Solving for Uy, Initial residual = 0.00278632, Final residual = 3.77691e-07, No Iterations 5
GAMG:  Solving for p, Initial residual = 0.19197, Final residual = 0.00108555, No Iterations 6
time step continuity errors : sum local = 3.53975e-08, global = 2.16421e-10, cumulative = 9.54424e-08
GAMG:  Solving for p, Initial residual = 0.0566691, Final residual = 8.24531e-07, No Iterations 34
time step continuity errors : sum local = 2.98843e-10, global = 2.7553e-10, cumulative = 9.5718e-08
ExecutionTime = 275.99 s  ClockTime = 276 s

Courant Number mean: 0.0738082 max: 0.497903
deltaT = 0.000204839
Time = 0.151597

solidBodyMotionFunctions::rotatingMotion::transformation(): Time = 0.151597 transformation: ((0 0 0) (0.888717 (0 0 0.458456)))
AMI: Creating addressing and weights between 9600 source faces and 9600 target faces
AMI: Patch source sum(weights) min/max/average = 1, 1, 1
AMI: Patch target sum(weights) min/max/average = 1, 1, 1
smoothSolver:  Solving for Ux, Initial residual = 0.00176901, Final residual = 2.41132e-07, No Iterations 5
smoothSolver:  Solving for Uy, Initial residual = 0.00176771, Final residual = 2.40936e-07, No Iterations 5
GAMG:  Solving for p, Initial residual = 0.117114, Final residual = 0.00107794, No Iterations 9
time step continuity errors : sum local = 2.97609e-08, global = 1.85631e-10, cumulative = 9.59036e-08
GAMG:  Solving for p, Initial residual = 0.0301692, Final residual = 8.82737e-07, No Iterations 45
time step continuity errors : sum local = 2.36117e-10, global = 2.13726e-10, cumulative = 9.61173e-08
ExecutionTime = 325.19 s  ClockTime = 326 s

Courant Number mean: 0.0741492 max: 0.498724
deltaT = 0.000205363
Time = 0.151802

solidBodyMotionFunctions::rotatingMotion::transformation(): Time = 0.151802 transformation: ((0 0 0) (0.888421 (0 0 0.459029)))
AMI: Creating addressing and weights between 9600 source faces and 9600 target faces
AMI: Patch source sum(weights) min/max/average = 1, 1, 1
AMI: Patch target sum(weights) min/max/average = 1, 1, 1
smoothSolver:  Solving for Ux, Initial residual = 0.00139942, Final residual = 8.11426e-07, No Iterations 4
smoothSolver:  Solving for Uy, Initial residual = 0.00139894, Final residual = 8.10275e-07, No Iterations 4
GAMG:  Solving for p, Initial residual = 0.0839085, Final residual = 0.000816307, No Iterations 8
time step continuity errors : sum local = 2.0136e-08, global = 1.17695e-10, cumulative = 9.6235e-08
GAMG:  Solving for p, Initial residual = 0.0181626, Final residual = 8.64056e-07, No Iterations 28
time step continuity errors : sum local = 1.497e-10, global = 1.29442e-10, cumulative = 9.63645e-08
ExecutionTime = 365.43 s  ClockTime = 366 s

Courant Number mean: 0.0743653 max: 0.499132
deltaT = 0.00020572
Time = 0.152008

solidBodyMotionFunctions::rotatingMotion::transformation(): Time = 0.152008 transformation: ((0 0 0) (0.888124 (0 0 0.459603)))
AMI: Creating addressing and weights between 9600 source faces and 9600 target faces
AMI: Patch source sum(weights) min/max/average = 1, 1, 1
AMI: Patch target sum(weights) min/max/average = 1, 1, 1
smoothSolver:  Solving for Ux, Initial residual = 0.00126183, Final residual = 7.08908e-07, No Iterations 4
smoothSolver:  Solving for Uy, Initial residual = 0.00126152, Final residual = 7.08456e-07, No Iterations 4
GAMG:  Solving for p, Initial residual = 0.0653045, Final residual = 0.000568337, No Iterations 9
time step continuity errors : sum local = 1.31713e-08, global = 3.27347e-11, cumulative = 9.63972e-08
GAMG:  Solving for p, Initial residual = 0.0119141, Final residual = 9.10194e-07, No Iterations 43
time step continuity errors : sum local = 5.55679e-11, global = 3.52729e-11, cumulative = 9.64325e-08
ExecutionTime = 413.49 s  ClockTime = 414 s

Courant Number mean: 0.0745182 max: 0.499344
deltaT = 0.00020599
Time = 0.152214

solidBodyMotionFunctions::rotatingMotion::transformation(): Time = 0.152214 transformation: ((0 0 0) (0.887827 (0 0 0.460178)))
AMI: Creating addressing and weights between 9600 source faces and 9600 target faces
AMI: Patch source sum(weights) min/max/average = 1, 1, 1
AMI: Patch target sum(weights) min/max/average = 1, 1, 1
smoothSolver:  Solving for Ux, Initial residual = 0.00121319, Final residual = 6.7378e-07, No Iterations 4
smoothSolver:  Solving for Uy, Initial residual = 0.00121303, Final residual = 6.73826e-07, No Iterations 4
GAMG:  Solving for p, Initial residual = 0.0544004, Final residual = 0.000351107, No Iterations 7
time step continuity errors : sum local = 7.74187e-09, global = 4.56376e-11, cumulative = 9.64781e-08
GAMG:  Solving for p, Initial residual = 0.00830254, Final residual = 8.91735e-07, No Iterations 38
time step continuity errors : sum local = 6.76068e-11, global = 4.83703e-11, cumulative = 9.65265e-08
ExecutionTime = 457.93 s  ClockTime = 458 s

Courant Number mean: 0.0746377 max: 0.499455
deltaT = 0.000206215
Time = 0.15242

solidBodyMotionFunctions::rotatingMotion::transformation(): Time = 0.15242 transformation: ((0 0 0) (0.887528 (0 0 0.460753)))
AMI: Creating addressing and weights between 9600 source faces and 9600 target faces
AMI: Patch source sum(weights) min/max/average = 1, 1, 1
AMI: Patch target sum(weights) min/max/average = 1, 1, 1
smoothSolver:  Solving for Ux, Initial residual = 0.00119631, Final residual = 6.58552e-07, No Iterations 4
smoothSolver:  Solving for Uy, Initial residual = 0.00119626, Final residual = 6.59015e-07, No Iterations 4
GAMG:  Solving for p, Initial residual = 0.0460831, Final residual = 0.000372477, No Iterations 7
time step continuity errors : sum local = 8.01605e-09, global = 7.90402e-11, cumulative = 9.66055e-08
GAMG:  Solving for p, Initial residual = 0.00645203, Final residual = 8.41191e-07, No Iterations 35
time step continuity errors : sum local = 1.00376e-10, global = 8.27484e-11, cumulative = 9.66883e-08
ExecutionTime = 500.87 s  ClockTime = 501 s

Courant Number mean: 0.0747395 max: 0.499549
deltaT = 0.000206401
Time = 0.152627

solidBodyMotionFunctions::rotatingMotion::transformation(): Time = 0.152627 transformation: ((0 0 0) (0.887229 (0 0 0.461328)))
AMI: Creating addressing and weights between 9600 source faces and 9600 target faces
AMI: Patch source sum(weights) min/max/average = 1, 1, 1
AMI: Patch target sum(weights) min/max/average = 1, 1, 1
smoothSolver:  Solving for Ux, Initial residual = 0.00119189, Final residual = 6.54461e-07, No Iterations 4
smoothSolver:  Solving for Uy, Initial residual = 0.00119197, Final residual = 6.5517e-07, No Iterations 4
GAMG:  Solving for p, Initial residual = 0.0396042, Final residual = 0.000339341, No Iterations 7
time step continuity errors : sum local = 7.17751e-09, global = 8.0336e-11, cumulative = 9.67686e-08
GAMG:  Solving for p, Initial residual = 0.00526419, Final residual = 9.92766e-07, No Iterations 55
time step continuity errors : sum local = 1.03613e-10, global = 8.32183e-11, cumulative = 9.68518e-08
ExecutionTime = 596.42 s  ClockTime = 597 s

End

