/*---------------------------------------------------------------------------*\
| =========                 |                                                 |
| \\      /  F ield         | OpenFOAM: The Open Source CFD Toolbox           |
|  \\    /   O peration     | Version:  2.3.0                                 |
|   \\  /    A nd           | Web:      www.OpenFOAM.org                      |
|    \\/     M anipulation  |                                                 |
\*---------------------------------------------------------------------------*/
Build  : 2.3.0
Exec   : pimpleDyMFoam -parallel
Date   : Oct 09 2014
Time   : 11:58:10
Host   : "hpc01"
PID    : 1539
Case   : /home/bobo/OpenFOAM/experiment/incompressible/pimpleDyMFoam/mixerVesselAMI2D2
nProcs : 3
Slaves : 
2
(
"hpc01.1540"
"hpc01.1541"
)

Pstream initialized with:
    floatTransfer      : 0
    nProcsSimpleSum    : 0
    commsType          : nonBlocking
    polling iterations : 0
fileModificationChecking : Monitoring run-time modified files using timeStampMaster
allowSystemOperations : Disallowing user-supplied system call operations

// * * * * * * * * * * * * * * * * * * * * * * * * * * * * * * * * * * * * * //
Create time

Create mesh for time = 0.14386

Selecting dynamicFvMesh solidBodyMotionFvMesh
Selecting solid-body motion function rotatingMotion
Applying solid body motion to cellZone rotor

PIMPLE: Operating solver in PISO mode

Reading field p

Reading field U

Reading/calculating face flux field phi

AMI: Creating addressing and weights between 9600 source faces and 9600 target faces
AMI: Patch source sum(weights) min/max/average = 1, 1, 1
AMI: Patch target sum(weights) min/max/average = 1, 1, 1
Selecting incompressible transport model Newtonian
Selecting turbulence model type laminar
Reading/calculating face velocity Uf

No finite volume options present

Courant Number mean: 0.0731363 max: 0.499743

Starting time loop

Courant Number mean: 0.0731363 max: 0.499743
deltaT = 0.000203723
Time = 0.144064

solidBodyMotionFunctions::rotatingMotion::transformation(): Time = 0.144064 transformation: ((0 0 0) (0.899317 (0 0 0.437297)))
AMI: Creating addressing and weights between 9600 source faces and 9600 target faces
AMI: Patch source sum(weights) min/max/average = 1, 1, 1
AMI: Patch target sum(weights) min/max/average = 1, 1, 1
smoothSolver:  Solving for Ux, Initial residual = 0.00287548, Final residual = 8.39657e-07, No Iterations 4
smoothSolver:  Solving for Uy, Initial residual = 0.00288609, Final residual = 8.4541e-07, No Iterations 4
GAMG:  Solving for p, Initial residual = 0.720078, Final residual = 0.00664478, No Iterations 47
time step continuity errors : sum local = 1.00755e-06, global = 5.10627e-07, cumulative = 5.10627e-07
GAMG:  Solving for p, Initial residual = 0.179483, Final residual = 9.93261e-07, No Iterations 158
time step continuity errors : sum local = 5.11338e-07, global = 5.11228e-07, cumulative = 1.02186e-06
ExecutionTime = 74.66 s  ClockTime = 75 s

Courant Number mean: 0.0732563 max: 1.23577
deltaT = 8.24276e-05
Time = 0.144146

solidBodyMotionFunctions::rotatingMotion::transformation(): Time = 0.144146 transformation: ((0 0 0) (0.899204 (0 0 0.43753)))
AMI: Creating addressing and weights between 9600 source faces and 9600 target faces
AMI: Patch source sum(weights) min/max/average = 1, 1, 1
AMI: Patch target sum(weights) min/max/average = 1, 1, 1
smoothSolver:  Solving for Ux, Initial residual = 0.0053185, Final residual = 1.55534e-07, No Iterations 4
smoothSolver:  Solving for Uy, Initial residual = 0.00525692, Final residual = 1.47814e-07, No Iterations 4
GAMG:  Solving for p, Initial residual = 0.809589, Final residual = 0.00704311, No Iterations 27
time step continuity errors : sum local = 3.1941e-07, global = 1.43842e-07, cumulative = 1.1657e-06
GAMG:  Solving for p, Initial residual = 0.106078, Final residual = 9.70167e-07, No Iterations 166
time step continuity errors : sum local = 1.43823e-07, global = 1.43796e-07, cumulative = 1.30949e-06
ExecutionTime = 128.97 s  ClockTime = 129 s

Courant Number mean: 0.0295943 max: 0.3476
deltaT = 9.42842e-05
Time = 0.14424

solidBodyMotionFunctions::rotatingMotion::transformation(): Time = 0.14424 transformation: ((0 0 0) (0.899074 (0 0 0.437796)))
AMI: Creating addressing and weights between 9600 source faces and 9600 target faces
AMI: Patch source sum(weights) min/max/average = 1, 1, 1
AMI: Patch target sum(weights) min/max/average = 1, 1, 1
smoothSolver:  Solving for Ux, Initial residual = 0.0063913, Final residual = 2.34164e-07, No Iterations 4
smoothSolver:  Solving for Uy, Initial residual = 0.00632939, Final residual = 2.25379e-07, No Iterations 4
GAMG:  Solving for p, Initial residual = 0.287543, Final residual = 0.00286889, No Iterations 22
time step continuity errors : sum local = 2.16861e-07, global = 1.39697e-07, cumulative = 1.44919e-06
GAMG:  Solving for p, Initial residual = 0.0612784, Final residual = 9.73826e-07, No Iterations 145
time step continuity errors : sum local = 1.39744e-07, global = 1.39723e-07, cumulative = 1.58891e-06
ExecutionTime = 177.09 s  ClockTime = 177 s

Courant Number mean: 0.0338485 max: 0.337754
deltaT = 0.000108242
Time = 0.144349

solidBodyMotionFunctions::rotatingMotion::transformation(): Time = 0.144349 transformation: ((0 0 0) (0.898925 (0 0 0.438102)))
AMI: Creating addressing and weights between 9600 source faces and 9600 target faces
AMI: Patch source sum(weights) min/max/average = 1, 1, 1
AMI: Patch target sum(weights) min/max/average = 1, 1, 1
smoothSolver:  Solving for Ux, Initial residual = 0.0028727, Final residual = 1.96493e-07, No Iterations 4
smoothSolver:  Solving for Uy, Initial residual = 0.0028755, Final residual = 1.92267e-07, No Iterations 4
GAMG:  Solving for p, Initial residual = 0.143845, Final residual = 0.0013754, No Iterations 42
time step continuity errors : sum local = 1.69571e-07, global = 1.34245e-07, cumulative = 1.72316e-06
GAMG:  Solving for p, Initial residual = 0.0258886, Final residual = 9.99e-07, No Iterations 107
time step continuity errors : sum local = 1.34281e-07, global = 1.34258e-07, cumulative = 1.85742e-06
ExecutionTime = 221.18 s  ClockTime = 222 s

Courant Number mean: 0.038867 max: 0.324545
deltaT = 0.000124918
Time = 0.144474

solidBodyMotionFunctions::rotatingMotion::transformation(): Time = 0.144474 transformation: ((0 0 0) (0.898753 (0 0 0.438454)))
AMI: Creating addressing and weights between 9600 source faces and 9600 target faces
AMI: Patch source sum(weights) min/max/average = 1, 1, 1
AMI: Patch target sum(weights) min/max/average = 1, 1, 1
smoothSolver:  Solving for Ux, Initial residual = 0.00188525, Final residual = 2.25249e-07, No Iterations 4
smoothSolver:  Solving for Uy, Initial residual = 0.00189946, Final residual = 2.20089e-07, No Iterations 4
GAMG:  Solving for p, Initial residual = 0.105899, Final residual = 0.000997293, No Iterations 24
time step continuity errors : sum local = 1.5552e-07, global = 1.27302e-07, cumulative = 1.98472e-06
GAMG:  Solving for p, Initial residual = 0.0166513, Final residual = 9.62044e-07, No Iterations 95
time step continuity errors : sum local = 1.27335e-07, global = 1.2731e-07, cumulative = 2.11203e-06
ExecutionTime = 258.31 s  ClockTime = 259 s

Courant Number mean: 0.0448678 max: 0.308018
deltaT = 0.000145195
Time = 0.144619

solidBodyMotionFunctions::rotatingMotion::transformation(): Time = 0.144619 transformation: ((0 0 0) (0.898553 (0 0 0.438864)))
AMI: Creating addressing and weights between 9600 source faces and 9600 target faces
AMI: Patch source sum(weights) min/max/average = 1, 1, 1
AMI: Patch target sum(weights) min/max/average = 1, 1, 1
smoothSolver:  Solving for Ux, Initial residual = 0.00147694, Final residual = 2.94798e-07, No Iterations 4
smoothSolver:  Solving for Uy, Initial residual = 0.00149497, Final residual = 2.89779e-07, No Iterations 4
GAMG:  Solving for p, Initial residual = 0.0962497, Final residual = 0.000946671, No Iterations 13
time step continuity errors : sum local = 1.49334e-07, global = 1.18817e-07, cumulative = 2.23085e-06
GAMG:  Solving for p, Initial residual = 0.0129237, Final residual = 9.95073e-07, No Iterations 109
time step continuity errors : sum local = 1.18852e-07, global = 1.18822e-07, cumulative = 2.34967e-06
ExecutionTime = 296.28 s  ClockTime = 297 s

Courant Number mean: 0.052168 max: 0.357218
deltaT = 0.000165518
Time = 0.144784

solidBodyMotionFunctions::rotatingMotion::transformation(): Time = 0.144784 transformation: ((0 0 0) (0.898325 (0 0 0.439332)))
AMI: Creating addressing and weights between 9600 source faces and 9600 target faces
AMI: Patch source sum(weights) min/max/average = 1, 1, 1
AMI: Patch target sum(weights) min/max/average = 1, 1, 1
smoothSolver:  Solving for Ux, Initial residual = 0.00128784, Final residual = 3.85124e-07, No Iterations 4
smoothSolver:  Solving for Uy, Initial residual = 0.00130636, Final residual = 3.80795e-07, No Iterations 4
GAMG:  Solving for p, Initial residual = 0.0882352, Final residual = 0.000503825, No Iterations 8
time step continuity errors : sum local = 1.24451e-07, global = 1.06454e-07, cumulative = 2.45612e-06
GAMG:  Solving for p, Initial residual = 0.0101674, Final residual = 9.93967e-07, No Iterations 97
time step continuity errors : sum local = 1.06487e-07, global = 1.06454e-07, cumulative = 2.56258e-06
ExecutionTime = 330.45 s  ClockTime = 331 s

Courant Number mean: 0.0594897 max: 0.406599
deltaT = 0.000185872
Time = 0.14497

solidBodyMotionFunctions::rotatingMotion::transformation(): Time = 0.14497 transformation: ((0 0 0) (0.898068 (0 0 0.439856)))
AMI: Creating addressing and weights between 9600 source faces and 9600 target faces
AMI: Patch source sum(weights) min/max/average = 1, 1, 1
AMI: Patch target sum(weights) min/max/average = 1, 1, 1
smoothSolver:  Solving for Ux, Initial residual = 0.00123843, Final residual = 5.12013e-07, No Iterations 4
smoothSolver:  Solving for Uy, Initial residual = 0.00125614, Final residual = 5.1072e-07, No Iterations 4
GAMG:  Solving for p, Initial residual = 0.0851868, Final residual = 0.000798406, No Iterations 27
time step continuity errors : sum local = 1.23161e-07, global = 9.22193e-08, cumulative = 2.6548e-06
GAMG:  Solving for p, Initial residual = 0.00904733, Final residual = 8.88546e-07, No Iterations 96
time step continuity errors : sum local = 9.22565e-08, global = 9.22245e-08, cumulative = 2.74702e-06
ExecutionTime = 368.61 s  ClockTime = 369 s

Courant Number mean: 0.0668274 max: 0.456075
deltaT = 0.000203774
Time = 0.145174

solidBodyMotionFunctions::rotatingMotion::transformation(): Time = 0.145174 transformation: ((0 0 0) (0.897787 (0 0 0.440431)))
AMI: Creating addressing and weights between 9600 source faces and 9600 target faces
AMI: Patch source sum(weights) min/max/average = 1, 1, 1
AMI: Patch target sum(weights) min/max/average = 1, 1, 1
smoothSolver:  Solving for Ux, Initial residual = 0.00125243, Final residual = 6.69113e-07, No Iterations 4
smoothSolver:  Solving for Uy, Initial residual = 0.00126741, Final residual = 6.7041e-07, No Iterations 4
GAMG:  Solving for p, Initial residual = 0.0801336, Final residual = 0.000779608, No Iterations 24
time step continuity errors : sum local = 1.08108e-07, global = 7.68235e-08, cumulative = 2.82384e-06
GAMG:  Solving for p, Initial residual = 0.00778741, Final residual = 9.10067e-07, No Iterations 61
time step continuity errors : sum local = 7.68649e-08, global = 7.68304e-08, cumulative = 2.90067e-06
ExecutionTime = 397.96 s  ClockTime = 398 s

Courant Number mean: 0.0732875 max: 0.499544
deltaT = 0.00020396
Time = 0.145378

solidBodyMotionFunctions::rotatingMotion::transformation(): Time = 0.145378 transformation: ((0 0 0) (0.897504 (0 0 0.441006)))
AMI: Creating addressing and weights between 9600 source faces and 9600 target faces
AMI: Patch source sum(weights) min/max/average = 1, 1, 1
AMI: Patch target sum(weights) min/max/average = 1, 1, 1
smoothSolver:  Solving for Ux, Initial residual = 0.0012121, Final residual = 6.38095e-07, No Iterations 4
smoothSolver:  Solving for Uy, Initial residual = 0.00122298, Final residual = 6.40813e-07, No Iterations 4
GAMG:  Solving for p, Initial residual = 0.0600895, Final residual = 0.000594375, No Iterations 23
time step continuity errors : sum local = 8.06041e-08, global = 5.87458e-08, cumulative = 2.95942e-06
GAMG:  Solving for p, Initial residual = 0.00581522, Final residual = 9.68851e-07, No Iterations 91
time step continuity errors : sum local = 5.87845e-08, global = 5.87504e-08, cumulative = 3.01817e-06
ExecutionTime = 447.04 s  ClockTime = 447 s

End

Finalising parallel run
