/*---------------------------------------------------------------------------*\
| =========                 |                                                 |
| \\      /  F ield         | OpenFOAM: The Open Source CFD Toolbox           |
|  \\    /   O peration     | Version:  2.3.0                                 |
|   \\  /    A nd           | Web:      www.OpenFOAM.org                      |
|    \\/     M anipulation  |                                                 |
\*---------------------------------------------------------------------------*/
Build  : 2.3.0
Exec   : pimpleDyMFoam -parallel
Date   : Oct 09 2014
Time   : 10:34:36
Host   : "hpc01"
PID    : 1376
Case   : /home/bobo/OpenFOAM/experiment/incompressible/pimpleDyMFoam/mixerVesselAMI2D2
nProcs : 6
Slaves : 
5
(
"hpc01.1377"
"hpc01.1378"
"hpc01.1379"
"hpc01.1380"
"hpc01.1381"
)

Pstream initialized with:
    floatTransfer      : 0
    nProcsSimpleSum    : 0
    commsType          : nonBlocking
    polling iterations : 0
fileModificationChecking : Monitoring run-time modified files using timeStampMaster
allowSystemOperations : Disallowing user-supplied system call operations

// * * * * * * * * * * * * * * * * * * * * * * * * * * * * * * * * * * * * * //
Create time

Create mesh for time = 0.137182

Selecting dynamicFvMesh solidBodyMotionFvMesh
Selecting solid-body motion function rotatingMotion
Applying solid body motion to cellZone rotor

PIMPLE: Operating solver in PISO mode

Reading field p

Reading field U

Reading/calculating face flux field phi

AMI: Creating addressing and weights between 9600 source faces and 9600 target faces
AMI: Patch source sum(weights) min/max/average = 1, 1, 1
AMI: Patch target sum(weights) min/max/average = 1, 1, 1
Selecting incompressible transport model Newtonian
Selecting turbulence model type laminar
Reading/calculating face velocity Uf

No finite volume options present

Courant Number mean: 0.0719863 max: 0.499919

Starting time loop

Courant Number mean: 0.0719863 max: 0.499919
deltaT = 0.000202023
Time = 0.137384

solidBodyMotionFunctions::rotatingMotion::transformation(): Time = 0.137384 transformation: ((0 0 0) (0.908295 (0 0 0.41833)))
AMI: Creating addressing and weights between 9600 source faces and 9600 target faces
AMI: Patch source sum(weights) min/max/average = 1, 1, 1
AMI: Patch target sum(weights) min/max/average = 1, 1, 1
smoothSolver:  Solving for Ux, Initial residual = 0.00290348, Final residual = 8.50577e-07, No Iterations 4
smoothSolver:  Solving for Uy, Initial residual = 0.0029035, Final residual = 8.45603e-07, No Iterations 4
GAMG:  Solving for p, Initial residual = 0.781984, Final residual = 0.00749105, No Iterations 41
time step continuity errors : sum local = 1.08392e-06, global = 5.84015e-07, cumulative = 5.84015e-07
GAMG:  Solving for p, Initial residual = 0.194856, Final residual = 8.69554e-07, No Iterations 99
time step continuity errors : sum local = 5.84368e-07, global = 5.84278e-07, cumulative = 1.16829e-06
ExecutionTime = 44.7 s  ClockTime = 45 s

Courant Number mean: 0.072115 max: 1.11895
deltaT = 9.02731e-05
Time = 0.137474

solidBodyMotionFunctions::rotatingMotion::transformation(): Time = 0.137474 transformation: ((0 0 0) (0.908177 (0 0 0.418587)))
AMI: Creating addressing and weights between 9600 source faces and 9600 target faces
AMI: Patch source sum(weights) min/max/average = 1, 1, 1
AMI: Patch target sum(weights) min/max/average = 1, 1, 1
smoothSolver:  Solving for Ux, Initial residual = 0.00598388, Final residual = 2.22712e-07, No Iterations 4
smoothSolver:  Solving for Uy, Initial residual = 0.00602325, Final residual = 2.2359e-07, No Iterations 4
GAMG:  Solving for p, Initial residual = 0.84824, Final residual = 0.00828942, No Iterations 22
time step continuity errors : sum local = 4.25595e-07, global = 2.06023e-07, cumulative = 1.37432e-06
GAMG:  Solving for p, Initial residual = 0.133577, Final residual = 8.28486e-07, No Iterations 78
time step continuity errors : sum local = 2.0604e-07, global = 2.06017e-07, cumulative = 1.58033e-06
ExecutionTime = 72.61 s  ClockTime = 73 s

Courant Number mean: 0.0321691 max: 0.394526
deltaT = 0.000101714
Time = 0.137576

solidBodyMotionFunctions::rotatingMotion::transformation(): Time = 0.137576 transformation: ((0 0 0) (0.908043 (0 0 0.418878)))
AMI: Creating addressing and weights between 9600 source faces and 9600 target faces
AMI: Patch source sum(weights) min/max/average = 1, 1, 1
AMI: Patch target sum(weights) min/max/average = 1, 1, 1
smoothSolver:  Solving for Ux, Initial residual = 0.006519, Final residual = 2.93569e-07, No Iterations 4
smoothSolver:  Solving for Uy, Initial residual = 0.00656534, Final residual = 2.96355e-07, No Iterations 4
GAMG:  Solving for p, Initial residual = 0.334092, Final residual = 0.00334074, No Iterations 40
time step continuity errors : sum local = 2.81378e-07, global = 1.96158e-07, cumulative = 1.77649e-06
GAMG:  Solving for p, Initial residual = 0.0793159, Final residual = 7.66141e-07, No Iterations 105
time step continuity errors : sum local = 1.96181e-07, global = 1.96166e-07, cumulative = 1.97266e-06
ExecutionTime = 109.42 s  ClockTime = 109 s

Courant Number mean: 0.0362404 max: 0.375661
deltaT = 0.000115252
Time = 0.137691

solidBodyMotionFunctions::rotatingMotion::transformation(): Time = 0.137691 transformation: ((0 0 0) (0.907891 (0 0 0.419206)))
AMI: Creating addressing and weights between 9600 source faces and 9600 target faces
AMI: Patch source sum(weights) min/max/average = 1, 1, 1
AMI: Patch target sum(weights) min/max/average = 1, 1, 1
smoothSolver:  Solving for Ux, Initial residual = 0.00291765, Final residual = 2.30568e-07, No Iterations 4
smoothSolver:  Solving for Uy, Initial residual = 0.00293964, Final residual = 2.30908e-07, No Iterations 4
GAMG:  Solving for p, Initial residual = 0.172609, Final residual = 0.00167856, No Iterations 35
time step continuity errors : sum local = 2.22708e-07, global = 1.85048e-07, cumulative = 2.15771e-06
GAMG:  Solving for p, Initial residual = 0.0337153, Final residual = 9.6978e-07, No Iterations 55
time step continuity errors : sum local = 1.85076e-07, global = 1.85057e-07, cumulative = 2.34276e-06
ExecutionTime = 135.29 s  ClockTime = 135 s

Courant Number mean: 0.0410702 max: 0.354387
deltaT = 0.000131512
Time = 0.137823

solidBodyMotionFunctions::rotatingMotion::transformation(): Time = 0.137823 transformation: ((0 0 0) (0.907718 (0 0 0.419581)))
AMI: Creating addressing and weights between 9600 source faces and 9600 target faces
AMI: Patch source sum(weights) min/max/average = 1, 1, 1
AMI: Patch target sum(weights) min/max/average = 1, 1, 1
smoothSolver:  Solving for Ux, Initial residual = 0.00190233, Final residual = 2.48402e-07, No Iterations 4
smoothSolver:  Solving for Uy, Initial residual = 0.00192795, Final residual = 2.49603e-07, No Iterations 4
GAMG:  Solving for p, Initial residual = 0.124884, Final residual = 0.00114709, No Iterations 25
time step continuity errors : sum local = 2.00125e-07, global = 1.726e-07, cumulative = 2.51536e-06
GAMG:  Solving for p, Initial residual = 0.021465, Final residual = 9.75806e-07, No Iterations 68
time step continuity errors : sum local = 1.7263e-07, global = 1.72609e-07, cumulative = 2.68797e-06
ExecutionTime = 161.79 s  ClockTime = 162 s

Courant Number mean: 0.0468769 max: 0.330602
deltaT = 0.000151402
Time = 0.137974

solidBodyMotionFunctions::rotatingMotion::transformation(): Time = 0.137974 transformation: ((0 0 0) (0.907518 (0 0 0.420013)))
AMI: Creating addressing and weights between 9600 source faces and 9600 target faces
AMI: Patch source sum(weights) min/max/average = 1, 1, 1
AMI: Patch target sum(weights) min/max/average = 1, 1, 1
smoothSolver:  Solving for Ux, Initial residual = 0.00149563, Final residual = 3.14907e-07, No Iterations 4
smoothSolver:  Solving for Uy, Initial residual = 0.00152419, Final residual = 3.16498e-07, No Iterations 4
GAMG:  Solving for p, Initial residual = 0.104766, Final residual = 0.00101197, No Iterations 29
time step continuity errors : sum local = 1.85902e-07, global = 1.58845e-07, cumulative = 2.84682e-06
GAMG:  Solving for p, Initial residual = 0.0163196, Final residual = 9.56354e-07, No Iterations 62
time step continuity errors : sum local = 1.58878e-07, global = 1.58855e-07, cumulative = 3.00567e-06
ExecutionTime = 187.88 s  ClockTime = 188 s

Courant Number mean: 0.0539831 max: 0.375907
deltaT = 0.000171541
Time = 0.138146

solidBodyMotionFunctions::rotatingMotion::transformation(): Time = 0.138146 transformation: ((0 0 0) (0.907292 (0 0 0.420502)))
AMI: Creating addressing and weights between 9600 source faces and 9600 target faces
AMI: Patch source sum(weights) min/max/average = 1, 1, 1
AMI: Patch target sum(weights) min/max/average = 1, 1, 1
smoothSolver:  Solving for Ux, Initial residual = 0.0013181, Final residual = 4.09352e-07, No Iterations 4
smoothSolver:  Solving for Uy, Initial residual = 0.00134678, Final residual = 4.12685e-07, No Iterations 4
GAMG:  Solving for p, Initial residual = 0.0925008, Final residual = 0.000900757, No Iterations 27
time step continuity errors : sum local = 1.67298e-07, global = 1.40839e-07, cumulative = 3.14651e-06
GAMG:  Solving for p, Initial residual = 0.0130434, Final residual = 9.32698e-07, No Iterations 59
time step continuity errors : sum local = 1.40873e-07, global = 1.40848e-07, cumulative = 3.28736e-06
ExecutionTime = 212.91 s  ClockTime = 213 s

Courant Number mean: 0.0611838 max: 0.425025
deltaT = 0.000191721
Time = 0.138337

solidBodyMotionFunctions::rotatingMotion::transformation(): Time = 0.138337 transformation: ((0 0 0) (0.907038 (0 0 0.421048)))
AMI: Creating addressing and weights between 9600 source faces and 9600 target faces
AMI: Patch source sum(weights) min/max/average = 1, 1, 1
AMI: Patch target sum(weights) min/max/average = 1, 1, 1
smoothSolver:  Solving for Ux, Initial residual = 0.00127838, Final residual = 5.50015e-07, No Iterations 4
smoothSolver:  Solving for Uy, Initial residual = 0.00130648, Final residual = 5.57157e-07, No Iterations 4
GAMG:  Solving for p, Initial residual = 0.085799, Final residual = 0.000831381, No Iterations 24
time step continuity errors : sum local = 1.46851e-07, global = 1.20733e-07, cumulative = 3.40809e-06
GAMG:  Solving for p, Initial residual = 0.0108864, Final residual = 9.06876e-07, No Iterations 70
time step continuity errors : sum local = 1.20765e-07, global = 1.20738e-07, cumulative = 3.52883e-06
ExecutionTime = 239.53 s  ClockTime = 240 s

Courant Number mean: 0.0684049 max: 0.4743
deltaT = 0.000202109
Time = 0.13854

solidBodyMotionFunctions::rotatingMotion::transformation(): Time = 0.13854 transformation: ((0 0 0) (0.906771 (0 0 0.421624)))
AMI: Creating addressing and weights between 9600 source faces and 9600 target faces
AMI: Patch source sum(weights) min/max/average = 1, 1, 1
AMI: Patch target sum(weights) min/max/average = 1, 1, 1
smoothSolver:  Solving for Ux, Initial residual = 0.00125826, Final residual = 6.30093e-07, No Iterations 4
smoothSolver:  Solving for Uy, Initial residual = 0.00128241, Final residual = 6.38423e-07, No Iterations 4
GAMG:  Solving for p, Initial residual = 0.071377, Final residual = 0.000708897, No Iterations 24
time step continuity errors : sum local = 1.19297e-07, global = 9.68745e-08, cumulative = 3.6257e-06
GAMG:  Solving for p, Initial residual = 0.00852786, Final residual = 8.57336e-07, No Iterations 63
time step continuity errors : sum local = 9.69e-08, global = 9.68745e-08, cumulative = 3.72258e-06
ExecutionTime = 264.77 s  ClockTime = 265 s

Courant Number mean: 0.0721359 max: 0.499632
deltaT = 0.000202258
Time = 0.138742

solidBodyMotionFunctions::rotatingMotion::transformation(): Time = 0.138742 transformation: ((0 0 0) (0.906503 (0 0 0.4222)))
AMI: Creating addressing and weights between 9600 source faces and 9600 target faces
AMI: Patch source sum(weights) min/max/average = 1, 1, 1
AMI: Patch target sum(weights) min/max/average = 1, 1, 1
smoothSolver:  Solving for Ux, Initial residual = 0.00122444, Final residual = 6.09933e-07, No Iterations 4
smoothSolver:  Solving for Uy, Initial residual = 0.00124377, Final residual = 6.16375e-07, No Iterations 4
GAMG:  Solving for p, Initial residual = 0.0581537, Final residual = 0.000550285, No Iterations 22
time step continuity errors : sum local = 9.03615e-08, global = 7.42128e-08, cumulative = 3.79679e-06
GAMG:  Solving for p, Initial residual = 0.00641789, Final residual = 9.36064e-07, No Iterations 49
time step continuity errors : sum local = 7.42414e-08, global = 7.42152e-08, cumulative = 3.87101e-06
ExecutionTime = 293.32 s  ClockTime = 293 s

End

Finalising parallel run
