/*---------------------------------------------------------------------------*\
| =========                 |                                                 |
| \\      /  F ield         | OpenFOAM: The Open Source CFD Toolbox           |
|  \\    /   O peration     | Version:  2.3.0                                 |
|   \\  /    A nd           | Web:      www.OpenFOAM.org                      |
|    \\/     M anipulation  |                                                 |
\*---------------------------------------------------------------------------*/
Build  : 2.3.0
Exec   : pimpleDyMFoam
Date   : Oct 09 2014
Time   : 11:12:27
Host   : "hpc01"
PID    : 1456
Case   : /home/bobo/OpenFOAM/experiment/incompressible/pimpleDyMFoam/mixerVesselAMI2D2
nProcs : 1
fileModificationChecking : Monitoring run-time modified files using timeStampMaster
allowSystemOperations : Disallowing user-supplied system call operations

// * * * * * * * * * * * * * * * * * * * * * * * * * * * * * * * * * * * * * //
Create time

Create mesh for time = 0.140298

Selecting dynamicFvMesh solidBodyMotionFvMesh
Selecting solid-body motion function rotatingMotion
Applying solid body motion to cellZone rotor

PIMPLE: Operating solver in PISO mode

Reading field p

Reading field U

Reading/calculating face flux field phi

AMI: Creating addressing and weights between 9600 source faces and 9600 target faces
AMI: Patch source sum(weights) min/max/average = 1, 1, 1
AMI: Patch target sum(weights) min/max/average = 1, 1, 1
Selecting incompressible transport model Newtonian
Selecting turbulence model type laminar
Reading/calculating face velocity Uf

No finite volume options present

Courant Number mean: 0.0724736 max: 0.499816

Starting time loop

Courant Number mean: 0.0724736 max: 0.499816
deltaT = 0.000202696
Time = 0.140501

solidBodyMotionFunctions::rotatingMotion::transformation(): Time = 0.140501 transformation: ((0 0 0) (0.904156 (0 0 0.427203)))
AMI: Creating addressing and weights between 9600 source faces and 9600 target faces
AMI: Patch source sum(weights) min/max/average = 1, 1, 1
AMI: Patch target sum(weights) min/max/average = 1, 1, 1
smoothSolver:  Solving for Ux, Initial residual = 0.00288368, Final residual = 8.11065e-07, No Iterations 4
smoothSolver:  Solving for Uy, Initial residual = 0.00289485, Final residual = 8.13906e-07, No Iterations 4
GAMG:  Solving for p, Initial residual = 0.669121, Final residual = 0.00251804, No Iterations 12
time step continuity errors : sum local = 2.48988e-07, global = 4.51696e-08, cumulative = 4.51696e-08
GAMG:  Solving for p, Initial residual = 0.167481, Final residual = 9.21685e-07, No Iterations 53
time step continuity errors : sum local = 4.55593e-08, global = 4.5453e-08, cumulative = 9.06226e-08
ExecutionTime = 103.81 s  ClockTime = 104 s

Courant Number mean: 0.072529 max: 0.521423
deltaT = 0.000194368
Time = 0.140695

solidBodyMotionFunctions::rotatingMotion::transformation(): Time = 0.140695 transformation: ((0 0 0) (0.903895 (0 0 0.427755)))
AMI: Creating addressing and weights between 9600 source faces and 9600 target faces
AMI: Patch source sum(weights) min/max/average = 1, 1, 1
AMI: Patch target sum(weights) min/max/average = 1, 1, 1
smoothSolver:  Solving for Ux, Initial residual = 0.0120974, Final residual = 2.79689e-07, No Iterations 6
smoothSolver:  Solving for Uy, Initial residual = 0.0120974, Final residual = 2.80045e-07, No Iterations 6
GAMG:  Solving for p, Initial residual = 0.743785, Final residual = 0.00638884, No Iterations 12
time step continuity errors : sum local = 6.42972e-07, global = 4.71539e-10, cumulative = 9.10942e-08
GAMG:  Solving for p, Initial residual = 0.296514, Final residual = 8.11146e-07, No Iterations 65
time step continuity errors : sum local = 3.40015e-10, global = 2.78286e-10, cumulative = 9.13725e-08
ExecutionTime = 163.81 s  ClockTime = 164 s

Courant Number mean: 0.0695325 max: 0.488022
deltaT = 0.000199138
Time = 0.140894

solidBodyMotionFunctions::rotatingMotion::transformation(): Time = 0.140894 transformation: ((0 0 0) (0.903627 (0 0 0.42832)))
AMI: Creating addressing and weights between 9600 source faces and 9600 target faces
AMI: Patch source sum(weights) min/max/average = 1, 1, 1
AMI: Patch target sum(weights) min/max/average = 1, 1, 1
smoothSolver:  Solving for Ux, Initial residual = 0.00715488, Final residual = 6.57625e-07, No Iterations 5
smoothSolver:  Solving for Uy, Initial residual = 0.00713738, Final residual = 6.55444e-07, No Iterations 5
GAMG:  Solving for p, Initial residual = 0.422025, Final residual = 0.00344315, No Iterations 11
time step continuity errors : sum local = 1.66108e-07, global = 1.78964e-10, cumulative = 9.15514e-08
GAMG:  Solving for p, Initial residual = 0.160644, Final residual = 9.96199e-07, No Iterations 74
time step continuity errors : sum local = 3.78812e-10, global = 3.45517e-10, cumulative = 9.1897e-08
ExecutionTime = 227.47 s  ClockTime = 228 s

Courant Number mean: 0.071249 max: 0.495485
deltaT = 0.000200953
Time = 0.141095

solidBodyMotionFunctions::rotatingMotion::transformation(): Time = 0.141095 transformation: ((0 0 0) (0.903356 (0 0 0.428891)))
AMI: Creating addressing and weights between 9600 source faces and 9600 target faces
AMI: Patch source sum(weights) min/max/average = 1, 1, 1
AMI: Patch target sum(weights) min/max/average = 1, 1, 1
smoothSolver:  Solving for Ux, Initial residual = 0.00284359, Final residual = 3.13905e-07, No Iterations 5
smoothSolver:  Solving for Uy, Initial residual = 0.00284081, Final residual = 3.13679e-07, No Iterations 5
GAMG:  Solving for p, Initial residual = 0.190633, Final residual = 0.0015723, No Iterations 6
time step continuity errors : sum local = 5.18647e-08, global = 2.33225e-10, cumulative = 9.21302e-08
GAMG:  Solving for p, Initial residual = 0.055332, Final residual = 9.79792e-07, No Iterations 38
time step continuity errors : sum local = 3.12165e-10, global = 2.84213e-10, cumulative = 9.24144e-08
ExecutionTime = 271.09 s  ClockTime = 272 s

Courant Number mean: 0.071923 max: 0.497555
deltaT = 0.00020194
Time = 0.141297

solidBodyMotionFunctions::rotatingMotion::transformation(): Time = 0.141297 transformation: ((0 0 0) (0.903084 (0 0 0.429464)))
AMI: Creating addressing and weights between 9600 source faces and 9600 target faces
AMI: Patch source sum(weights) min/max/average = 1, 1, 1
AMI: Patch target sum(weights) min/max/average = 1, 1, 1
smoothSolver:  Solving for Ux, Initial residual = 0.00180781, Final residual = 9.1701e-07, No Iterations 4
smoothSolver:  Solving for Uy, Initial residual = 0.00180648, Final residual = 9.15613e-07, No Iterations 4
GAMG:  Solving for p, Initial residual = 0.116848, Final residual = 0.00108903, No Iterations 7
time step continuity errors : sum local = 3.03211e-08, global = 1.63744e-10, cumulative = 9.25781e-08
GAMG:  Solving for p, Initial residual = 0.028867, Final residual = 8.88335e-07, No Iterations 39
time step continuity errors : sum local = 2.08798e-10, global = 1.86196e-10, cumulative = 9.27643e-08
ExecutionTime = 315.42 s  ClockTime = 316 s

Courant Number mean: 0.0723027 max: 0.498462
deltaT = 0.000202563
Time = 0.1415

solidBodyMotionFunctions::rotatingMotion::transformation(): Time = 0.1415 transformation: ((0 0 0) (0.902811 (0 0 0.430038)))
AMI: Creating addressing and weights between 9600 source faces and 9600 target faces
AMI: Patch source sum(weights) min/max/average = 1, 1, 1
AMI: Patch target sum(weights) min/max/average = 1, 1, 1
smoothSolver:  Solving for Ux, Initial residual = 0.00143346, Final residual = 7.21243e-07, No Iterations 4
smoothSolver:  Solving for Uy, Initial residual = 0.00143281, Final residual = 7.20659e-07, No Iterations 4
GAMG:  Solving for p, Initial residual = 0.0835873, Final residual = 0.000502058, No Iterations 9
time step continuity errors : sum local = 1.25753e-08, global = 7.5377e-11, cumulative = 9.28397e-08
GAMG:  Solving for p, Initial residual = 0.0172157, Final residual = 9.17904e-07, No Iterations 44
time step continuity errors : sum local = 1.04587e-10, global = 8.28659e-11, cumulative = 9.29226e-08
ExecutionTime = 363.22 s  ClockTime = 364 s

Courant Number mean: 0.0725509 max: 0.499216
deltaT = 0.000202881
Time = 0.141703

solidBodyMotionFunctions::rotatingMotion::transformation(): Time = 0.141703 transformation: ((0 0 0) (0.902536 (0 0 0.430614)))
AMI: Creating addressing and weights between 9600 source faces and 9600 target faces
AMI: Patch source sum(weights) min/max/average = 1, 1, 1
AMI: Patch target sum(weights) min/max/average = 1, 1, 1
smoothSolver:  Solving for Ux, Initial residual = 0.00129205, Final residual = 6.46827e-07, No Iterations 4
smoothSolver:  Solving for Uy, Initial residual = 0.00129166, Final residual = 6.46468e-07, No Iterations 4
GAMG:  Solving for p, Initial residual = 0.0653372, Final residual = 0.000322834, No Iterations 9
time step continuity errors : sum local = 7.5042e-09, global = 1.55937e-11, cumulative = 9.29382e-08
GAMG:  Solving for p, Initial residual = 0.0112691, Final residual = 9.89329e-07, No Iterations 31
time step continuity errors : sum local = 3.88366e-11, global = 1.67056e-11, cumulative = 9.29549e-08
ExecutionTime = 404.58 s  ClockTime = 405 s

Courant Number mean: 0.0726889 max: 0.499518
deltaT = 0.000203077
Time = 0.141906

solidBodyMotionFunctions::rotatingMotion::transformation(): Time = 0.141906 transformation: ((0 0 0) (0.902261 (0 0 0.431189)))
AMI: Creating addressing and weights between 9600 source faces and 9600 target faces
AMI: Patch source sum(weights) min/max/average = 1, 1, 1
AMI: Patch target sum(weights) min/max/average = 1, 1, 1
smoothSolver:  Solving for Ux, Initial residual = 0.00123846, Final residual = 6.19667e-07, No Iterations 4
smoothSolver:  Solving for Uy, Initial residual = 0.00123845, Final residual = 6.1981e-07, No Iterations 4
GAMG:  Solving for p, Initial residual = 0.054352, Final residual = 0.000406949, No Iterations 6
time step continuity errors : sum local = 9.06517e-09, global = 7.46295e-11, cumulative = 9.30295e-08
GAMG:  Solving for p, Initial residual = 0.00808499, Final residual = 7.70474e-07, No Iterations 49
time step continuity errors : sum local = 9.45116e-11, global = 7.7889e-11, cumulative = 9.31074e-08
ExecutionTime = 453.17 s  ClockTime = 454 s

Courant Number mean: 0.0727817 max: 0.499632
deltaT = 0.000203227
Time = 0.142109

solidBodyMotionFunctions::rotatingMotion::transformation(): Time = 0.142109 transformation: ((0 0 0) (0.901986 (0 0 0.431765)))
AMI: Creating addressing and weights between 9600 source faces and 9600 target faces
AMI: Patch source sum(weights) min/max/average = 1, 1, 1
AMI: Patch target sum(weights) min/max/average = 1, 1, 1
smoothSolver:  Solving for Ux, Initial residual = 0.00121683, Final residual = 6.09287e-07, No Iterations 4
smoothSolver:  Solving for Uy, Initial residual = 0.00121687, Final residual = 6.09836e-07, No Iterations 4
GAMG:  Solving for p, Initial residual = 0.0462306, Final residual = 0.000271621, No Iterations 7
time step continuity errors : sum local = 5.90421e-09, global = 9.59498e-11, cumulative = 9.32033e-08
GAMG:  Solving for p, Initial residual = 0.00615693, Final residual = 9.97837e-07, No Iterations 39
time step continuity errors : sum local = 1.19468e-10, global = 9.87068e-11, cumulative = 9.3302e-08
ExecutionTime = 497.41 s  ClockTime = 498 s

Courant Number mean: 0.0728571 max: 0.499688
deltaT = 0.000203353
Time = 0.142312

solidBodyMotionFunctions::rotatingMotion::transformation(): Time = 0.142312 transformation: ((0 0 0) (0.90171 (0 0 0.432342)))
AMI: Creating addressing and weights between 9600 source faces and 9600 target faces
AMI: Patch source sum(weights) min/max/average = 1, 1, 1
AMI: Patch target sum(weights) min/max/average = 1, 1, 1
smoothSolver:  Solving for Ux, Initial residual = 0.00120964, Final residual = 6.08839e-07, No Iterations 4
smoothSolver:  Solving for Uy, Initial residual = 0.00120996, Final residual = 6.09537e-07, No Iterations 4
GAMG:  Solving for p, Initial residual = 0.0392718, Final residual = 0.000353778, No Iterations 6
time step continuity errors : sum local = 7.40064e-09, global = 8.50414e-11, cumulative = 9.33871e-08
GAMG:  Solving for p, Initial residual = 0.00512904, Final residual = 7.48894e-07, No Iterations 43
time step continuity errors : sum local = 1.02708e-10, global = 8.72713e-11, cumulative = 9.34744e-08
ExecutionTime = 581.46 s  ClockTime = 582 s

End

