/*---------------------------------------------------------------------------*\
| =========                 |                                                 |
| \\      /  F ield         | OpenFOAM: The Open Source CFD Toolbox           |
|  \\    /   O peration     | Version:  2.3.0                                 |
|   \\  /    A nd           | Web:      www.OpenFOAM.org                      |
|    \\/     M anipulation  |                                                 |
\*---------------------------------------------------------------------------*/
Build  : 2.3.0
Exec   : pimpleDyMFoam
Date   : Oct 10 2014
Time   : 01:06:23
Host   : "hpc01"
PID    : 2731
Case   : /home/bobo/OpenFOAM/experiment/incompressible/pimpleDyMFoam/mixerVesselAMI2D2
nProcs : 1
fileModificationChecking : Monitoring run-time modified files using timeStampMaster
allowSystemOperations : Disallowing user-supplied system call operations

// * * * * * * * * * * * * * * * * * * * * * * * * * * * * * * * * * * * * * //
Create time

Create mesh for time = 0.161146

Selecting dynamicFvMesh solidBodyMotionFvMesh
Selecting solid-body motion function rotatingMotion
Applying solid body motion to cellZone rotor

PIMPLE: Operating solver in PISO mode

Reading field p

Reading field U

Reading/calculating face flux field phi

AMI: Creating addressing and weights between 9600 source faces and 9600 target faces
AMI: Patch source sum(weights) min/max/average = 1, 1, 1
AMI: Patch target sum(weights) min/max/average = 1, 1, 1
Selecting incompressible transport model Newtonian
Selecting turbulence model type laminar
Reading/calculating face velocity Uf

No finite volume options present

Courant Number mean: 0.0761782 max: 0.49966

Starting time loop

Courant Number mean: 0.0761782 max: 0.49966
deltaT = 0.000208764
Time = 0.161355

solidBodyMotionFunctions::rotatingMotion::transformation(): Time = 0.161355 transformation: ((0 0 0) (0.874248 (0 0 0.48548)))
AMI: Creating addressing and weights between 9600 source faces and 9600 target faces
AMI: Patch source sum(weights) min/max/average = 1, 1, 1
AMI: Patch target sum(weights) min/max/average = 1, 1, 1
smoothSolver:  Solving for Ux, Initial residual = 0.00283132, Final residual = 8.92069e-07, No Iterations 4
smoothSolver:  Solving for Uy, Initial residual = 0.00283239, Final residual = 8.93139e-07, No Iterations 4
GAMG:  Solving for p, Initial residual = 0.693573, Final residual = 0.00626206, No Iterations 17
time step continuity errors : sum local = 5.48269e-07, global = 4.70562e-08, cumulative = 4.70562e-08
GAMG:  Solving for p, Initial residual = 0.174225, Final residual = 8.90805e-07, No Iterations 50
time step continuity errors : sum local = 4.74904e-08, global = 4.73871e-08, cumulative = 9.44433e-08
ExecutionTime = 104.1 s  ClockTime = 104 s

Courant Number mean: 0.0761675 max: 0.52104
deltaT = 0.000200334
Time = 0.161555

solidBodyMotionFunctions::rotatingMotion::transformation(): Time = 0.161555 transformation: ((0 0 0) (0.873942 (0 0 0.48603)))
AMI: Creating addressing and weights between 9600 source faces and 9600 target faces
AMI: Patch source sum(weights) min/max/average = 1, 1, 1
AMI: Patch target sum(weights) min/max/average = 1, 1, 1
smoothSolver:  Solving for Ux, Initial residual = 0.0120486, Final residual = 4.25099e-07, No Iterations 6
smoothSolver:  Solving for Uy, Initial residual = 0.0120283, Final residual = 4.25168e-07, No Iterations 6
GAMG:  Solving for p, Initial residual = 0.761588, Final residual = 0.00672927, No Iterations 13
time step continuity errors : sum local = 6.85194e-07, global = 9.50661e-10, cumulative = 9.53939e-08
GAMG:  Solving for p, Initial residual = 0.309509, Final residual = 7.40813e-07, No Iterations 78
time step continuity errors : sum local = 6.12157e-10, global = 5.54554e-10, cumulative = 9.59485e-08
ExecutionTime = 170.5 s  ClockTime = 170 s

Courant Number mean: 0.0730753 max: 0.487587
deltaT = 0.000205434
Time = 0.161761

solidBodyMotionFunctions::rotatingMotion::transformation(): Time = 0.161761 transformation: ((0 0 0) (0.873628 (0 0 0.486594)))
AMI: Creating addressing and weights between 9600 source faces and 9600 target faces
AMI: Patch source sum(weights) min/max/average = 1, 1, 1
AMI: Patch target sum(weights) min/max/average = 1, 1, 1
smoothSolver:  Solving for Ux, Initial residual = 0.0070646, Final residual = 9.75463e-07, No Iterations 5
smoothSolver:  Solving for Uy, Initial residual = 0.00706346, Final residual = 9.75243e-07, No Iterations 5
GAMG:  Solving for p, Initial residual = 0.430734, Final residual = 0.00423784, No Iterations 12
time step continuity errors : sum local = 2.04782e-07, global = 2.33636e-10, cumulative = 9.61821e-08
GAMG:  Solving for p, Initial residual = 0.17493, Final residual = 9.07195e-07, No Iterations 57
time step continuity errors : sum local = 5.24196e-10, global = 4.94304e-10, cumulative = 9.66764e-08
ExecutionTime = 226.1 s  ClockTime = 226 s

Courant Number mean: 0.0749752 max: 0.495804
deltaT = 0.000207172
Time = 0.161968

solidBodyMotionFunctions::rotatingMotion::transformation(): Time = 0.161968 transformation: ((0 0 0) (0.873311 (0 0 0.487163)))
AMI: Creating addressing and weights between 9600 source faces and 9600 target faces
AMI: Patch source sum(weights) min/max/average = 1, 1, 1
AMI: Patch target sum(weights) min/max/average = 1, 1, 1
smoothSolver:  Solving for Ux, Initial residual = 0.00273469, Final residual = 4.52151e-07, No Iterations 5
smoothSolver:  Solving for Uy, Initial residual = 0.00273299, Final residual = 4.51703e-07, No Iterations 5
GAMG:  Solving for p, Initial residual = 0.193606, Final residual = 0.00168313, No Iterations 7
time step continuity errors : sum local = 5.45912e-08, global = 2.77623e-10, cumulative = 9.69541e-08
GAMG:  Solving for p, Initial residual = 0.0592671, Final residual = 8.80432e-07, No Iterations 56
time step continuity errors : sum local = 3.76151e-10, global = 3.51211e-10, cumulative = 9.73053e-08
ExecutionTime = 278.89 s  ClockTime = 279 s

Courant Number mean: 0.0756502 max: 0.49775
deltaT = 0.000208109
Time = 0.162176

solidBodyMotionFunctions::rotatingMotion::transformation(): Time = 0.162176 transformation: ((0 0 0) (0.872993 (0 0 0.487733)))
AMI: Creating addressing and weights between 9600 source faces and 9600 target faces
AMI: Patch source sum(weights) min/max/average = 1, 1, 1
AMI: Patch target sum(weights) min/max/average = 1, 1, 1
smoothSolver:  Solving for Ux, Initial residual = 0.00173536, Final residual = 2.87202e-07, No Iterations 5
smoothSolver:  Solving for Uy, Initial residual = 0.00173416, Final residual = 2.86679e-07, No Iterations 5
GAMG:  Solving for p, Initial residual = 0.118266, Final residual = 0.000497202, No Iterations 11
time step continuity errors : sum local = 1.37404e-08, global = 1.64091e-10, cumulative = 9.74694e-08
GAMG:  Solving for p, Initial residual = 0.0306491, Final residual = 8.1935e-07, No Iterations 46
time step continuity errors : sum local = 2.14752e-10, global = 1.94043e-10, cumulative = 9.76634e-08
ExecutionTime = 328.72 s  ClockTime = 329 s

Courant Number mean: 0.0760257 max: 0.498863
deltaT = 0.000208583
Time = 0.162384

solidBodyMotionFunctions::rotatingMotion::transformation(): Time = 0.162384 transformation: ((0 0 0) (0.872673 (0 0 0.488305)))
AMI: Creating addressing and weights between 9600 source faces and 9600 target faces
AMI: Patch source sum(weights) min/max/average = 1, 1, 1
AMI: Patch target sum(weights) min/max/average = 1, 1, 1
smoothSolver:  Solving for Ux, Initial residual = 0.00137309, Final residual = 9.17103e-07, No Iterations 4
smoothSolver:  Solving for Uy, Initial residual = 0.00137228, Final residual = 9.15823e-07, No Iterations 4
GAMG:  Solving for p, Initial residual = 0.084701, Final residual = 0.000730725, No Iterations 9
time step continuity errors : sum local = 1.80812e-08, global = 5.73019e-11, cumulative = 9.77207e-08
GAMG:  Solving for p, Initial residual = 0.0187326, Final residual = 9.82026e-07, No Iterations 48
time step continuity errors : sum local = 8.72141e-11, global = 6.44031e-11, cumulative = 9.77851e-08
ExecutionTime = 378.33 s  ClockTime = 378 s

Courant Number mean: 0.0762263 max: 0.499265
deltaT = 0.00020889
Time = 0.162593

solidBodyMotionFunctions::rotatingMotion::transformation(): Time = 0.162593 transformation: ((0 0 0) (0.872352 (0 0 0.488878)))
AMI: Creating addressing and weights between 9600 source faces and 9600 target faces
AMI: Patch source sum(weights) min/max/average = 1, 1, 1
AMI: Patch target sum(weights) min/max/average = 1, 1, 1
smoothSolver:  Solving for Ux, Initial residual = 0.00123765, Final residual = 7.77127e-07, No Iterations 4
smoothSolver:  Solving for Uy, Initial residual = 0.00123726, Final residual = 7.7636e-07, No Iterations 4
GAMG:  Solving for p, Initial residual = 0.0661755, Final residual = 0.000542055, No Iterations 9
time step continuity errors : sum local = 1.25006e-08, global = 3.90765e-11, cumulative = 9.78242e-08
GAMG:  Solving for p, Initial residual = 0.0123082, Final residual = 9.7061e-07, No Iterations 38
time step continuity errors : sum local = 6.42016e-11, global = 4.24381e-11, cumulative = 9.78666e-08
ExecutionTime = 422.98 s  ClockTime = 423 s

Courant Number mean: 0.0763617 max: 0.49948
deltaT = 0.000209107
Time = 0.162802

solidBodyMotionFunctions::rotatingMotion::transformation(): Time = 0.162802 transformation: ((0 0 0) (0.872031 (0 0 0.489451)))
AMI: Creating addressing and weights between 9600 source faces and 9600 target faces
AMI: Patch source sum(weights) min/max/average = 1, 1, 1
AMI: Patch target sum(weights) min/max/average = 1, 1, 1
smoothSolver:  Solving for Ux, Initial residual = 0.00118973, Final residual = 7.32047e-07, No Iterations 4
smoothSolver:  Solving for Uy, Initial residual = 0.00118975, Final residual = 7.32047e-07, No Iterations 4
GAMG:  Solving for p, Initial residual = 0.0548585, Final residual = 0.00040388, No Iterations 7
time step continuity errors : sum local = 8.94819e-09, global = 8.18971e-11, cumulative = 9.79485e-08
GAMG:  Solving for p, Initial residual = 0.00865557, Final residual = 8.73124e-07, No Iterations 29
time step continuity errors : sum local = 1.06203e-10, global = 8.74216e-11, cumulative = 9.80359e-08
ExecutionTime = 462.26 s  ClockTime = 462 s

Courant Number mean: 0.0764615 max: 0.499595
deltaT = 0.000209277
Time = 0.163012

solidBodyMotionFunctions::rotatingMotion::transformation(): Time = 0.163012 transformation: ((0 0 0) (0.871709 (0 0 0.490024)))
AMI: Creating addressing and weights between 9600 source faces and 9600 target faces
AMI: Patch source sum(weights) min/max/average = 1, 1, 1
AMI: Patch target sum(weights) min/max/average = 1, 1, 1
smoothSolver:  Solving for Ux, Initial residual = 0.00117364, Final residual = 7.10835e-07, No Iterations 4
smoothSolver:  Solving for Uy, Initial residual = 0.0011737, Final residual = 7.11273e-07, No Iterations 4
GAMG:  Solving for p, Initial residual = 0.045416, Final residual = 0.000429901, No Iterations 7
time step continuity errors : sum local = 9.27254e-09, global = 8.36919e-11, cumulative = 9.81196e-08
GAMG:  Solving for p, Initial residual = 0.00663775, Final residual = 9.97683e-07, No Iterations 42
time step continuity errors : sum local = 1.09209e-10, global = 8.84109e-11, cumulative = 9.8208e-08
ExecutionTime = 507.9 s  ClockTime = 508 s

Courant Number mean: 0.076542 max: 0.499651
deltaT = 0.000209423
Time = 0.163221

solidBodyMotionFunctions::rotatingMotion::transformation(): Time = 0.163221 transformation: ((0 0 0) (0.871386 (0 0 0.490598)))
AMI: Creating addressing and weights between 9600 source faces and 9600 target faces
AMI: Patch source sum(weights) min/max/average = 1, 1, 1
AMI: Patch target sum(weights) min/max/average = 1, 1, 1
smoothSolver:  Solving for Ux, Initial residual = 0.00117053, Final residual = 7.02257e-07, No Iterations 4
smoothSolver:  Solving for Uy, Initial residual = 0.00117064, Final residual = 7.02777e-07, No Iterations 4
GAMG:  Solving for p, Initial residual = 0.0393525, Final residual = 0.000384534, No Iterations 6
time step continuity errors : sum local = 8.0286e-09, global = 6.2079e-11, cumulative = 9.82701e-08
GAMG:  Solving for p, Initial residual = 0.00534607, Final residual = 9.84889e-07, No Iterations 19
time step continuity errors : sum local = 8.4968e-11, global = 6.48003e-11, cumulative = 9.83349e-08
ExecutionTime = 580.11 s  ClockTime = 580 s

End

