/*---------------------------------------------------------------------------*\
| =========                 |                                                 |
| \\      /  F ield         | OpenFOAM: The Open Source CFD Toolbox           |
|  \\    /   O peration     | Version:  2.3.0                                 |
|   \\  /    A nd           | Web:      www.OpenFOAM.org                      |
|    \\/     M anipulation  |                                                 |
\*---------------------------------------------------------------------------*/
Build  : 2.3.0
Exec   : pimpleDyMFoam -parallel
Date   : Oct 10 2014
Time   : 00:48:13
Host   : "hpc01"
PID    : 2687
Case   : /home/bobo/OpenFOAM/experiment/incompressible/pimpleDyMFoam/mixerVesselAMI2D2
nProcs : 3
Slaves : 
2
(
"hpc01.2688"
"hpc01.2689"
)

Pstream initialized with:
    floatTransfer      : 0
    nProcsSimpleSum    : 0
    commsType          : nonBlocking
    polling iterations : 0
fileModificationChecking : Monitoring run-time modified files using timeStampMaster
allowSystemOperations : Disallowing user-supplied system call operations

// * * * * * * * * * * * * * * * * * * * * * * * * * * * * * * * * * * * * * //
Create time

Create mesh for time = 0.159472

Selecting dynamicFvMesh solidBodyMotionFvMesh
Selecting solid-body motion function rotatingMotion
Applying solid body motion to cellZone rotor

PIMPLE: Operating solver in PISO mode

Reading field p

Reading field U

Reading/calculating face flux field phi

AMI: Creating addressing and weights between 9600 source faces and 9600 target faces
AMI: Patch source sum(weights) min/max/average = 1, 1, 1
AMI: Patch target sum(weights) min/max/average = 1, 1, 1
Selecting incompressible transport model Newtonian
Selecting turbulence model type laminar
Reading/calculating face velocity Uf

No finite volume options present

Courant Number mean: 0.0759031 max: 0.499518

Starting time loop

Courant Number mean: 0.0759031 max: 0.499518
deltaT = 0.000208342
Time = 0.15968

solidBodyMotionFunctions::rotatingMotion::transformation(): Time = 0.15968 transformation: ((0 0 0) (0.876789 (0 0 0.480874)))
AMI: Creating addressing and weights between 9600 source faces and 9600 target faces
AMI: Patch source sum(weights) min/max/average = 1, 1, 1
AMI: Patch target sum(weights) min/max/average = 1, 1, 1
smoothSolver:  Solving for Ux, Initial residual = 0.00283108, Final residual = 9.0372e-07, No Iterations 4
smoothSolver:  Solving for Uy, Initial residual = 0.00284184, Final residual = 9.05927e-07, No Iterations 4
GAMG:  Solving for p, Initial residual = 0.725408, Final residual = 0.00711592, No Iterations 43
time step continuity errors : sum local = 1.04726e-06, global = 5.01682e-07, cumulative = 5.01682e-07
GAMG:  Solving for p, Initial residual = 0.179531, Final residual = 9.97649e-07, No Iterations 127
time step continuity errors : sum local = 5.02538e-07, global = 5.02423e-07, cumulative = 1.00411e-06
ExecutionTime = 67.33 s  ClockTime = 67 s

Courant Number mean: 0.0759508 max: 1.06152
deltaT = 9.8134e-05
Time = 0.159778

solidBodyMotionFunctions::rotatingMotion::transformation(): Time = 0.159778 transformation: ((0 0 0) (0.876641 (0 0 0.481145)))
AMI: Creating addressing and weights between 9600 source faces and 9600 target faces
AMI: Patch source sum(weights) min/max/average = 1, 1, 1
AMI: Patch target sum(weights) min/max/average = 1, 1, 1
smoothSolver:  Solving for Ux, Initial residual = 0.00604741, Final residual = 3.78807e-07, No Iterations 4
smoothSolver:  Solving for Uy, Initial residual = 0.00602676, Final residual = 3.65855e-07, No Iterations 4
GAMG:  Solving for p, Initial residual = 0.80425, Final residual = 0.00794152, No Iterations 33
time step continuity errors : sum local = 4.31035e-07, global = 1.75785e-07, cumulative = 1.17989e-06
GAMG:  Solving for p, Initial residual = 0.129226, Final residual = 9.69871e-07, No Iterations 148
time step continuity errors : sum local = 1.75715e-07, global = 1.75682e-07, cumulative = 1.35557e-06
ExecutionTime = 119.46 s  ClockTime = 119 s

Courant Number mean: 0.0357353 max: 0.371137
deltaT = 0.000111355
Time = 0.15989

solidBodyMotionFunctions::rotatingMotion::transformation(): Time = 0.15989 transformation: ((0 0 0) (0.876473 (0 0 0.481451)))
AMI: Creating addressing and weights between 9600 source faces and 9600 target faces
AMI: Patch source sum(weights) min/max/average = 1, 1, 1
AMI: Patch target sum(weights) min/max/average = 1, 1, 1
smoothSolver:  Solving for Ux, Initial residual = 0.00640652, Final residual = 4.9596e-07, No Iterations 4
smoothSolver:  Solving for Uy, Initial residual = 0.00636445, Final residual = 4.84163e-07, No Iterations 4
GAMG:  Solving for p, Initial residual = 0.291348, Final residual = 0.00269341, No Iterations 24
time step continuity errors : sum local = 2.52447e-07, global = 1.65078e-07, cumulative = 1.52065e-06
GAMG:  Solving for p, Initial residual = 0.0691648, Final residual = 9.89484e-07, No Iterations 138
time step continuity errors : sum local = 1.65158e-07, global = 1.65133e-07, cumulative = 1.68578e-06
ExecutionTime = 167.68 s  ClockTime = 168 s

Courant Number mean: 0.0405601 max: 0.348852
deltaT = 0.000127315
Time = 0.160017

solidBodyMotionFunctions::rotatingMotion::transformation(): Time = 0.160017 transformation: ((0 0 0) (0.87628 (0 0 0.481802)))
AMI: Creating addressing and weights between 9600 source faces and 9600 target faces
AMI: Patch source sum(weights) min/max/average = 1, 1, 1
AMI: Patch target sum(weights) min/max/average = 1, 1, 1
smoothSolver:  Solving for Ux, Initial residual = 0.00284517, Final residual = 4.10465e-07, No Iterations 4
smoothSolver:  Solving for Uy, Initial residual = 0.00286047, Final residual = 4.02946e-07, No Iterations 4
GAMG:  Solving for p, Initial residual = 0.147624, Final residual = 0.00131154, No Iterations 14
time step continuity errors : sum local = 1.94266e-07, global = 1.53743e-07, cumulative = 1.83953e-06
GAMG:  Solving for p, Initial residual = 0.0288454, Final residual = 9.22304e-07, No Iterations 94
time step continuity errors : sum local = 1.53792e-07, global = 1.53766e-07, cumulative = 1.99329e-06
ExecutionTime = 203.13 s  ClockTime = 203 s

Courant Number mean: 0.0463931 max: 0.324839
deltaT = 0.000146912
Time = 0.160164

solidBodyMotionFunctions::rotatingMotion::transformation(): Time = 0.160164 transformation: ((0 0 0) (0.876058 (0 0 0.482206)))
AMI: Creating addressing and weights between 9600 source faces and 9600 target faces
AMI: Patch source sum(weights) min/max/average = 1, 1, 1
AMI: Patch target sum(weights) min/max/average = 1, 1, 1
smoothSolver:  Solving for Ux, Initial residual = 0.00189659, Final residual = 4.68577e-07, No Iterations 4
smoothSolver:  Solving for Uy, Initial residual = 0.00191299, Final residual = 4.59889e-07, No Iterations 4
GAMG:  Solving for p, Initial residual = 0.113553, Final residual = 0.0011148, No Iterations 23
time step continuity errors : sum local = 1.78987e-07, global = 1.41366e-07, cumulative = 2.13466e-06
GAMG:  Solving for p, Initial residual = 0.0192748, Final residual = 9.8426e-07, No Iterations 115
time step continuity errors : sum local = 1.41409e-07, global = 1.41379e-07, cumulative = 2.27604e-06
ExecutionTime = 245.61 s  ClockTime = 245 s

Courant Number mean: 0.0535571 max: 0.354058
deltaT = 0.000167658
Time = 0.160332

solidBodyMotionFunctions::rotatingMotion::transformation(): Time = 0.160332 transformation: ((0 0 0) (0.875804 (0 0 0.482668)))
AMI: Creating addressing and weights between 9600 source faces and 9600 target faces
AMI: Patch source sum(weights) min/max/average = 1, 1, 1
AMI: Patch target sum(weights) min/max/average = 1, 1, 1
smoothSolver:  Solving for Ux, Initial residual = 0.00147682, Final residual = 5.56644e-07, No Iterations 4
smoothSolver:  Solving for Uy, Initial residual = 0.00148892, Final residual = 5.47779e-07, No Iterations 4
GAMG:  Solving for p, Initial residual = 0.100506, Final residual = 0.000968047, No Iterations 8
time step continuity errors : sum local = 1.61719e-07, global = 1.25741e-07, cumulative = 2.40178e-06
GAMG:  Solving for p, Initial residual = 0.0145391, Final residual = 9.04984e-07, No Iterations 109
time step continuity errors : sum local = 1.25776e-07, global = 1.25745e-07, cumulative = 2.52752e-06
ExecutionTime = 283.05 s  ClockTime = 283 s

Courant Number mean: 0.0611451 max: 0.403071
deltaT = 0.000188456
Time = 0.16052

solidBodyMotionFunctions::rotatingMotion::transformation(): Time = 0.16052 transformation: ((0 0 0) (0.875518 (0 0 0.483186)))
AMI: Creating addressing and weights between 9600 source faces and 9600 target faces
AMI: Patch source sum(weights) min/max/average = 1, 1, 1
AMI: Patch target sum(weights) min/max/average = 1, 1, 1
smoothSolver:  Solving for Ux, Initial residual = 0.00130939, Final residual = 6.74651e-07, No Iterations 4
smoothSolver:  Solving for Uy, Initial residual = 0.00131427, Final residual = 6.65518e-07, No Iterations 4
GAMG:  Solving for p, Initial residual = 0.0940099, Final residual = 0.000894616, No Iterations 19
time step continuity errors : sum local = 1.434e-07, global = 1.08016e-07, cumulative = 2.63554e-06
GAMG:  Solving for p, Initial residual = 0.0118744, Final residual = 9.92807e-07, No Iterations 97
time step continuity errors : sum local = 1.08058e-07, global = 1.08021e-07, cumulative = 2.74356e-06
ExecutionTime = 320.65 s  ClockTime = 321 s

Courant Number mean: 0.068755 max: 0.452442
deltaT = 0.000208265
Time = 0.160728

solidBodyMotionFunctions::rotatingMotion::transformation(): Time = 0.160728 transformation: ((0 0 0) (0.875201 (0 0 0.483759)))
AMI: Creating addressing and weights between 9600 source faces and 9600 target faces
AMI: Patch source sum(weights) min/max/average = 1, 1, 1
AMI: Patch target sum(weights) min/max/average = 1, 1, 1
smoothSolver:  Solving for Ux, Initial residual = 0.00126979, Final residual = 8.23339e-07, No Iterations 4
smoothSolver:  Solving for Uy, Initial residual = 0.00127343, Final residual = 8.15988e-07, No Iterations 4
GAMG:  Solving for p, Initial residual = 0.0891885, Final residual = 0.00084596, No Iterations 26
time step continuity errors : sum local = 1.24729e-07, global = 8.97223e-08, cumulative = 2.83328e-06
GAMG:  Solving for p, Initial residual = 0.00995175, Final residual = 9.37465e-07, No Iterations 125
time step continuity errors : sum local = 8.97693e-08, global = 8.97329e-08, cumulative = 2.92301e-06
ExecutionTime = 366.28 s  ClockTime = 366 s

Courant Number mean: 0.0760071 max: 0.499507
deltaT = 0.000208471
Time = 0.160937

solidBodyMotionFunctions::rotatingMotion::transformation(): Time = 0.160937 transformation: ((0 0 0) (0.874884 (0 0 0.484332)))
AMI: Creating addressing and weights between 9600 source faces and 9600 target faces
AMI: Patch source sum(weights) min/max/average = 1, 1, 1
AMI: Patch target sum(weights) min/max/average = 1, 1, 1
smoothSolver:  Solving for Ux, Initial residual = 0.00119826, Final residual = 7.43848e-07, No Iterations 4
smoothSolver:  Solving for Uy, Initial residual = 0.00120126, Final residual = 7.38319e-07, No Iterations 4
GAMG:  Solving for p, Initial residual = 0.0656913, Final residual = 0.000612384, No Iterations 25
time step continuity errors : sum local = 9.09758e-08, global = 6.7949e-08, cumulative = 2.99096e-06
GAMG:  Solving for p, Initial residual = 0.00709791, Final residual = 9.58195e-07, No Iterations 103
time step continuity errors : sum local = 6.79902e-08, global = 6.7956e-08, cumulative = 3.05892e-06
ExecutionTime = 406.55 s  ClockTime = 406 s

Courant Number mean: 0.0761037 max: 0.499637
deltaT = 0.000208622
Time = 0.161146

solidBodyMotionFunctions::rotatingMotion::transformation(): Time = 0.161146 transformation: ((0 0 0) (0.874567 (0 0 0.484905)))
AMI: Creating addressing and weights between 9600 source faces and 9600 target faces
AMI: Patch source sum(weights) min/max/average = 1, 1, 1
AMI: Patch target sum(weights) min/max/average = 1, 1, 1
smoothSolver:  Solving for Ux, Initial residual = 0.00117808, Final residual = 7.13837e-07, No Iterations 4
smoothSolver:  Solving for Uy, Initial residual = 0.00118012, Final residual = 7.10292e-07, No Iterations 4
GAMG:  Solving for p, Initial residual = 0.0627098, Final residual = 0.000358768, No Iterations 7
time step continuity errors : sum local = 6.41747e-08, global = 5.17513e-08, cumulative = 3.11067e-06
GAMG:  Solving for p, Initial residual = 0.00544463, Final residual = 9.71438e-07, No Iterations 98
time step continuity errors : sum local = 5.1787e-08, global = 5.17549e-08, cumulative = 3.16243e-06
ExecutionTime = 454.82 s  ClockTime = 455 s

End

Finalising parallel run
