/*---------------------------------------------------------------------------*\
| =========                 |                                                 |
| \\      /  F ield         | OpenFOAM: The Open Source CFD Toolbox           |
|  \\    /   O peration     | Version:  2.3.0                                 |
|   \\  /    A nd           | Web:      www.OpenFOAM.org                      |
|    \\/     M anipulation  |                                                 |
\*---------------------------------------------------------------------------*/
Build  : 2.3.0
Exec   : adjointShapeOptimizationFoam -parallel
Date   : Oct 09 2014
Time   : 23:54:49
Host   : "hpc01"
PID    : 2572
Case   : /home/bobo/OpenFOAM/experiment/incompressible/adjointShapeOptimizationFoam/pitzDaily1
nProcs : 6
Slaves : 
5
(
"hpc01.2573"
"hpc01.2574"
"hpc01.2575"
"hpc01.2576"
"hpc01.2577"
)

Pstream initialized with:
    floatTransfer      : 0
    nProcsSimpleSum    : 0
    commsType          : nonBlocking
    polling iterations : 0
fileModificationChecking : Monitoring run-time modified files using timeStampMaster
allowSystemOperations : Disallowing user-supplied system call operations

// * * * * * * * * * * * * * * * * * * * * * * * * * * * * * * * * * * * * * //
Create time

Create mesh for time = 1

Reading field p

Reading field U

Reading/calculating face flux field phi

Reading field pa

Reading field Ua

Reading/calculating face flux field phia

Selecting incompressible transport model Newtonian
Selecting RAS turbulence model kEpsilon
kEpsilonCoeffs
{
    Cmu             0.09;
    C1              1.44;
    C2              1.92;
    sigmaEps        1.3;
}


SIMPLE: no convergence criteria found. Calculations will run for 10 steps.


Starting time loop

Time = 2

smoothSolver:  Solving for Ux, Initial residual = 0.892871110569, Final residual = 0.0724060794739, No Iterations 4
smoothSolver:  Solving for Uy, Initial residual = 0.585313791062, Final residual = 0.0482438691453, No Iterations 4
GAMG:  Solving for p, Initial residual = 0.0222935273431, Final residual = 0.000220874890018, No Iterations 121
time step continuity errors : sum local = 1.88492962269, global = -0.365274503379, cumulative = -0.365274503379
smoothSolver:  Solving for Uax, Initial residual = 0.899117017024, Final residual = 0.0838800827012, No Iterations 4
smoothSolver:  Solving for Uay, Initial residual = 0.594448653846, Final residual = 0.0533297042812, No Iterations 4
GAMG:  Solving for pa, Initial residual = 0.0470699018961, Final residual = 0.0004517664122, No Iterations 84
Adjoint continuity errors : sum local = 0.387204985326, global = -0.0684101002638, cumulative = -0.0684101002638
smoothSolver:  Solving for epsilon, Initial residual = 0.566655631432, Final residual = 0.0218700429392, No Iterations 4
smoothSolver:  Solving for k, Initial residual = 0.856198922822, Final residual = 0.0281836760693, No Iterations 4
ExecutionTime = 76.11 s


Time = 3

smoothSolver:  Solving for Ux, Initial residual = 0.508363544267, Final residual = 0.0372541291664, No Iterations 4
smoothSolver:  Solving for Uy, Initial residual = 0.216235503389, Final residual = 0.0168319836276, No Iterations 4
GAMG:  Solving for p, Initial residual = 0.02124318587, Final residual = 0.000211220504441, No Iterations 255
time step continuity errors : sum local = 1.21786516755, global = -0.243222976607, cumulative = -0.608497479986
smoothSolver:  Solving for Uax, Initial residual = 0.560837901922, Final residual = 0.0515637191097, No Iterations 4
smoothSolver:  Solving for Uay, Initial residual = 0.23810552219, Final residual = 0.0212399440976, No Iterations 4
GAMG:  Solving for pa, Initial residual = 0.175591262616, Final residual = 0.00174510616299, No Iterations 81
Adjoint continuity errors : sum local = 1.29283677855, global = -0.221252826695, cumulative = -0.289662926959
smoothSolver:  Solving for epsilon, Initial residual = 0.235752886381, Final residual = 0.0162250246656, No Iterations 2
smoothSolver:  Solving for k, Initial residual = 0.461494346557, Final residual = 0.027626065988, No Iterations 4
ExecutionTime = 172.39 s


Time = 4

smoothSolver:  Solving for Ux, Initial residual = 0.137865585798, Final residual = 0.00956490749037, No Iterations 4
smoothSolver:  Solving for Uy, Initial residual = 0.0889525963165, Final residual = 0.00664616866522, No Iterations 4
GAMG:  Solving for p, Initial residual = 0.205683291503, Final residual = 0.00205061227669, No Iterations 136
time step continuity errors : sum local = 3.20254785174, global = 0.602979163913, cumulative = -0.00551831607349
smoothSolver:  Solving for Uax, Initial residual = 0.0975698778013, Final residual = 0.00871579514212, No Iterations 4
smoothSolver:  Solving for Uay, Initial residual = 0.0907669931195, Final residual = 0.00748733996034, No Iterations 4
GAMG:  Solving for pa, Initial residual = 0.385891777279, Final residual = 0.00381241950342, No Iterations 54
Adjoint continuity errors : sum local = 1.77792907339, global = -0.288854386522, cumulative = -0.578517313481
smoothSolver:  Solving for epsilon, Initial residual = 0.18966451517, Final residual = 0.0108675384983, No Iterations 4
smoothSolver:  Solving for k, Initial residual = 0.199103866653, Final residual = 0.0136021941647, No Iterations 4
ExecutionTime = 231.33 s


Time = 5

smoothSolver:  Solving for Ux, Initial residual = 0.445841372354, Final residual = 0.0331987251241, No Iterations 4
smoothSolver:  Solving for Uy, Initial residual = 0.154324339551, Final residual = 0.0119621405032, No Iterations 4
GAMG:  Solving for p, Initial residual = 0.0507802645558, Final residual = 0.000493411769579, No Iterations 92
time step continuity errors : sum local = 2.49820062839, global = -0.412527047503, cumulative = -0.418045363576
smoothSolver:  Solving for Uax, Initial residual = 0.521055524262, Final residual = 0.0482025504418, No Iterations 4
smoothSolver:  Solving for Uay, Initial residual = 0.119865816993, Final residual = 0.0088661237578, No Iterations 4
GAMG:  Solving for pa, Initial residual = 0.134411506238, Final residual = 0.00129642364165, No Iterations 55
Adjoint continuity errors : sum local = 0.923215680996, global = 0.13937312874, cumulative = -0.439144184741
smoothSolver:  Solving for epsilon, Initial residual = 0.0932666904346, Final residual = 0.00438474928022, No Iterations 4
smoothSolver:  Solving for k, Initial residual = 0.106339752521, Final residual = 0.00701185124094, No Iterations 4
ExecutionTime = 279.3 s


Time = 6

smoothSolver:  Solving for Ux, Initial residual = 0.387579880148, Final residual = 0.0288951814599, No Iterations 4
smoothSolver:  Solving for Uy, Initial residual = 0.262464406216, Final residual = 0.0207755095856, No Iterations 4
GAMG:  Solving for p, Initial residual = 0.0461577954708, Final residual = 0.000457160984687, No Iterations 210
time step continuity errors : sum local = 1.36107955629, global = -0.265994535204, cumulative = -0.684039898781
smoothSolver:  Solving for Uax, Initial residual = 0.534172929694, Final residual = 0.0495207844121, No Iterations 4
smoothSolver:  Solving for Uay, Initial residual = 0.245647939618, Final residual = 0.0214680572941, No Iterations 4
GAMG:  Solving for pa, Initial residual = 0.216434850463, Final residual = 0.0020385454115, No Iterations 51
Adjoint continuity errors : sum local = 1.13173612379, global = 0.170743268089, cumulative = -0.268400916651
smoothSolver:  Solving for epsilon, Initial residual = 0.0498952310872, Final residual = 0.00239371272388, No Iterations 4
smoothSolver:  Solving for k, Initial residual = 0.0556642687572, Final residual = 0.00362822472254, No Iterations 4
ExecutionTime = 355.84 s


Time = 7

smoothSolver:  Solving for Ux, Initial residual = 0.240348442092, Final residual = 0.0179372463117, No Iterations 4
smoothSolver:  Solving for Uy, Initial residual = 0.190132301764, Final residual = 0.0146458814425, No Iterations 4
GAMG:  Solving for p, Initial residual = 0.0938464518783, Final residual = 0.000932490438276, No Iterations 174
time step continuity errors : sum local = 1.31321080348, global = -0.254437074991, cumulative = -0.938476973771
smoothSolver:  Solving for Uax, Initial residual = 0.164499793835, Final residual = 0.0151048843585, No Iterations 4
smoothSolver:  Solving for Uay, Initial residual = 0.313393947393, Final residual = 0.0276994866815, No Iterations 4
GAMG:  Solving for pa, Initial residual = 0.580125828786, Final residual = 0.00577571149531, No Iterations 49
Adjoint continuity errors : sum local = 1.37953851866, global = 0.226455397936, cumulative = -0.0419455187155
smoothSolver:  Solving for epsilon, Initial residual = 0.0279909032268, Final residual = 0.00136965167277, No Iterations 4
smoothSolver:  Solving for k, Initial residual = 0.0327765107327, Final residual = 0.00220660487531, No Iterations 4
ExecutionTime = 422.31 s


Time = 8

smoothSolver:  Solving for Ux, Initial residual = 0.394490218777, Final residual = 0.0298257559196, No Iterations 4
smoothSolver:  Solving for Uy, Initial residual = 0.15267098238, Final residual = 0.0121244723366, No Iterations 4
GAMG:  Solving for p, Initial residual = 0.037087516051, Final residual = 0.000368392122609, No Iterations 116
time step continuity errors : sum local = 1.12688658871, global = 0.176526820616, cumulative = -0.761950153155
smoothSolver:  Solving for Uax, Initial residual = 0.472446216121, Final residual = 0.0439086599046, No Iterations 4
smoothSolver:  Solving for Uay, Initial residual = 0.186776350809, Final residual = 0.0162819594969, No Iterations 4
GAMG:  Solving for pa, Initial residual = 0.1955856507, Final residual = 0.00194148251391, No Iterations 72
Adjoint continuity errors : sum local = 0.899954495109, global = 0.173889850642, cumulative = 0.131944331926
smoothSolver:  Solving for epsilon, Initial residual = 0.0187457698439, Final residual = 0.000942160867423, No Iterations 4
smoothSolver:  Solving for k, Initial residual = 0.0238881652462, Final residual = 0.00155444798527, No Iterations 4
ExecutionTime = 479.46 s


Time = 9

smoothSolver:  Solving for Ux, Initial residual = 0.172286450821, Final residual = 0.0129901615698, No Iterations 4
smoothSolver:  Solving for Uy, Initial residual = 0.151216809027, Final residual = 0.0120540636292, No Iterations 4
GAMG:  Solving for p, Initial residual = 0.049240032227, Final residual = 0.000490456838474, No Iterations 232
time step continuity errors : sum local = 0.705794652715, global = 0.117145027015, cumulative = -0.64480512614
smoothSolver:  Solving for Uax, Initial residual = 0.285395824396, Final residual = 0.0265260905027, No Iterations 4
smoothSolver:  Solving for Uay, Initial residual = 0.237575481647, Final residual = 0.0211947854996, No Iterations 4
GAMG:  Solving for pa, Initial residual = 0.107824870869, Final residual = 0.00106536601496, No Iterations 83
Adjoint continuity errors : sum local = 0.448809716581, global = -0.0620451506033, cumulative = 0.069899181323
smoothSolver:  Solving for epsilon, Initial residual = 0.0130397606156, Final residual = 0.000684027420223, No Iterations 4
smoothSolver:  Solving for k, Initial residual = 0.01988911768, Final residual = 0.00116974497701, No Iterations 4
ExecutionTime = 568.54 s


Time = 10

smoothSolver:  Solving for Ux, Initial residual = 0.144825044998, Final residual = 0.0108242759371, No Iterations 4
smoothSolver:  Solving for Uy, Initial residual = 0.0826027138035, Final residual = 0.00639982554298, No Iterations 4
GAMG:  Solving for p, Initial residual = 0.0948332435657, Final residual = 0.000543214475323, No Iterations 96
time step continuity errors : sum local = 0.604091768132, global = -0.0105981434852, cumulative = -0.655403269625
smoothSolver:  Solving for Uax, Initial residual = 0.0828381335723, Final residual = 0.00764478490512, No Iterations 4
smoothSolver:  Solving for Uay, Initial residual = 0.202564309079, Final residual = 0.0178730485015, No Iterations 4
GAMG:  Solving for pa, Initial residual = 0.183586641971, Final residual = 0.00173496099638, No Iterations 67
Adjoint continuity errors : sum local = 0.443276623385, global = 0.0669570310071, cumulative = 0.13685621233
smoothSolver:  Solving for epsilon, Initial residual = 0.0111845809649, Final residual = 0.000518687846238, No Iterations 4
smoothSolver:  Solving for k, Initial residual = 0.018085623761, Final residual = 0.000951151269109, No Iterations 4
ExecutionTime = 619.28 s


End

Finalising parallel run
