/*---------------------------------------------------------------------------*\
| =========                 |                                                 |
| \\      /  F ield         | OpenFOAM: The Open Source CFD Toolbox           |
|  \\    /   O peration     | Version:  2.3.0                                 |
|   \\  /    A nd           | Web:      www.OpenFOAM.org                      |
|    \\/     M anipulation  |                                                 |
\*---------------------------------------------------------------------------*/
Build  : 2.3.0
Exec   : pimpleDyMFoam -parallel
Date   : Oct 09 2014
Time   : 23:53:37
Host   : "hpc01"
PID    : 2568
Case   : /home/bobo/OpenFOAM/experiment/incompressible/pimpleDyMFoam/mixerVesselAMI2D2
nProcs : 3
Slaves : 
2
(
"hpc01.2569"
"hpc01.2570"
)

Pstream initialized with:
    floatTransfer      : 0
    nProcsSimpleSum    : 0
    commsType          : nonBlocking
    polling iterations : 0
fileModificationChecking : Monitoring run-time modified files using timeStampMaster
allowSystemOperations : Disallowing user-supplied system call operations

// * * * * * * * * * * * * * * * * * * * * * * * * * * * * * * * * * * * * * //
Create time

Create mesh for time = 0.15421

Selecting dynamicFvMesh solidBodyMotionFvMesh
Selecting solid-body motion function rotatingMotion
Applying solid body motion to cellZone rotor

PIMPLE: Operating solver in PISO mode

Reading field p

Reading field U

Reading/calculating face flux field phi

AMI: Creating addressing and weights between 9600 source faces and 9600 target faces
AMI: Patch source sum(weights) min/max/average = 1, 1, 1
AMI: Patch target sum(weights) min/max/average = 1, 1, 1
Selecting incompressible transport model Newtonian
Selecting turbulence model type laminar
Reading/calculating face velocity Uf

No finite volume options present

Courant Number mean: 0.0750363 max: 0.499815

Starting time loop

Courant Number mean: 0.0750363 max: 0.499815
deltaT = 0.000206784
Time = 0.154417

solidBodyMotionFunctions::rotatingMotion::transformation(): Time = 0.154417 transformation: ((0 0 0) (0.884621 (0 0 0.466311)))
AMI: Creating addressing and weights between 9600 source faces and 9600 target faces
AMI: Patch source sum(weights) min/max/average = 1, 1, 1
AMI: Patch target sum(weights) min/max/average = 1, 1, 1
smoothSolver:  Solving for Ux, Initial residual = 0.00284751, Final residual = 8.8227e-07, No Iterations 4
smoothSolver:  Solving for Uy, Initial residual = 0.00285814, Final residual = 8.85994e-07, No Iterations 4
GAMG:  Solving for p, Initial residual = 0.723559, Final residual = 0.00690583, No Iterations 43
time step continuity errors : sum local = 1.00859e-06, global = 4.87572e-07, cumulative = 4.87572e-07
GAMG:  Solving for p, Initial residual = 0.179526, Final residual = 9.93428e-07, No Iterations 125
time step continuity errors : sum local = 4.883e-07, global = 4.88187e-07, cumulative = 9.7576e-07
ExecutionTime = 65.91 s  ClockTime = 66 s

Courant Number mean: 0.075046 max: 1.08076
deltaT = 9.56655e-05
Time = 0.154512

solidBodyMotionFunctions::rotatingMotion::transformation(): Time = 0.154512 transformation: ((0 0 0) (0.884481 (0 0 0.466577)))
AMI: Creating addressing and weights between 9600 source faces and 9600 target faces
AMI: Patch source sum(weights) min/max/average = 1, 1, 1
AMI: Patch target sum(weights) min/max/average = 1, 1, 1
smoothSolver:  Solving for Ux, Initial residual = 0.00592687, Final residual = 3.22403e-07, No Iterations 4
smoothSolver:  Solving for Uy, Initial residual = 0.00590207, Final residual = 3.10438e-07, No Iterations 4
GAMG:  Solving for p, Initial residual = 0.801752, Final residual = 0.00771034, No Iterations 17
time step continuity errors : sum local = 4.05162e-07, global = 1.68017e-07, cumulative = 1.14378e-06
GAMG:  Solving for p, Initial residual = 0.126054, Final residual = 9.90971e-07, No Iterations 122
time step continuity errors : sum local = 1.67966e-07, global = 1.67934e-07, cumulative = 1.31171e-06
ExecutionTime = 107.41 s  ClockTime = 108 s

Courant Number mean: 0.034688 max: 0.371815
deltaT = 0.00010853
Time = 0.154621

solidBodyMotionFunctions::rotatingMotion::transformation(): Time = 0.154621 transformation: ((0 0 0) (0.884322 (0 0 0.466878)))
AMI: Creating addressing and weights between 9600 source faces and 9600 target faces
AMI: Patch source sum(weights) min/max/average = 1, 1, 1
AMI: Patch target sum(weights) min/max/average = 1, 1, 1
smoothSolver:  Solving for Ux, Initial residual = 0.00625389, Final residual = 4.13274e-07, No Iterations 4
smoothSolver:  Solving for Uy, Initial residual = 0.00622739, Final residual = 4.03853e-07, No Iterations 4
GAMG:  Solving for p, Initial residual = 0.284552, Final residual = 0.00270833, No Iterations 30
time step continuity errors : sum local = 2.42505e-07, global = 1.58465e-07, cumulative = 1.47017e-06
GAMG:  Solving for p, Initial residual = 0.0662369, Final residual = 9.23734e-07, No Iterations 112
time step continuity errors : sum local = 1.58535e-07, global = 1.58512e-07, cumulative = 1.62869e-06
ExecutionTime = 150.25 s  ClockTime = 151 s

Courant Number mean: 0.0393592 max: 0.350955
deltaT = 0.000123992
Time = 0.154745

solidBodyMotionFunctions::rotatingMotion::transformation(): Time = 0.154745 transformation: ((0 0 0) (0.88414 (0 0 0.467223)))
AMI: Creating addressing and weights between 9600 source faces and 9600 target faces
AMI: Patch source sum(weights) min/max/average = 1, 1, 1
AMI: Patch target sum(weights) min/max/average = 1, 1, 1
smoothSolver:  Solving for Ux, Initial residual = 0.00286347, Final residual = 3.56119e-07, No Iterations 4
smoothSolver:  Solving for Uy, Initial residual = 0.00287586, Final residual = 3.49015e-07, No Iterations 4
GAMG:  Solving for p, Initial residual = 0.145997, Final residual = 0.00142037, No Iterations 13
time step continuity errors : sum local = 1.91132e-07, global = 1.48225e-07, cumulative = 1.77691e-06
GAMG:  Solving for p, Initial residual = 0.0282812, Final residual = 7.77202e-07, No Iterations 85
time step continuity errors : sum local = 1.48267e-07, global = 1.48246e-07, cumulative = 1.92516e-06
ExecutionTime = 182.69 s  ClockTime = 183 s

Courant Number mean: 0.0449828 max: 0.328225
deltaT = 0.000142881
Time = 0.154888

solidBodyMotionFunctions::rotatingMotion::transformation(): Time = 0.154888 transformation: ((0 0 0) (0.88393 (0 0 0.467619)))
AMI: Creating addressing and weights between 9600 source faces and 9600 target faces
AMI: Patch source sum(weights) min/max/average = 1, 1, 1
AMI: Patch target sum(weights) min/max/average = 1, 1, 1
smoothSolver:  Solving for Ux, Initial residual = 0.00190088, Final residual = 4.03646e-07, No Iterations 4
smoothSolver:  Solving for Uy, Initial residual = 0.00191794, Final residual = 3.95781e-07, No Iterations 4
GAMG:  Solving for p, Initial residual = 0.11129, Final residual = 0.000557694, No Iterations 17
time step continuity errors : sum local = 1.55213e-07, global = 1.36895e-07, cumulative = 2.06205e-06
GAMG:  Solving for p, Initial residual = 0.01817, Final residual = 9.84625e-07, No Iterations 93
time step continuity errors : sum local = 1.36939e-07, global = 1.36909e-07, cumulative = 2.19896e-06
ExecutionTime = 217.98 s  ClockTime = 218 s

Courant Number mean: 0.0518558 max: 0.347141
deltaT = 0.00016346
Time = 0.155051

solidBodyMotionFunctions::rotatingMotion::transformation(): Time = 0.155051 transformation: ((0 0 0) (0.88369 (0 0 0.468073)))
AMI: Creating addressing and weights between 9600 source faces and 9600 target faces
AMI: Patch source sum(weights) min/max/average = 1, 1, 1
AMI: Patch target sum(weights) min/max/average = 1, 1, 1
smoothSolver:  Solving for Ux, Initial residual = 0.00148344, Final residual = 4.87834e-07, No Iterations 4
smoothSolver:  Solving for Uy, Initial residual = 0.00149865, Final residual = 4.80081e-07, No Iterations 4
GAMG:  Solving for p, Initial residual = 0.0990917, Final residual = 0.000962165, No Iterations 21
time step continuity errors : sum local = 1.5754e-07, global = 1.22799e-07, cumulative = 2.32176e-06
GAMG:  Solving for p, Initial residual = 0.014219, Final residual = 8.27747e-07, No Iterations 104
time step continuity errors : sum local = 1.22834e-07, global = 1.22806e-07, cumulative = 2.44457e-06
ExecutionTime = 256.58 s  ClockTime = 257 s

Courant Number mean: 0.0593476 max: 0.396226
deltaT = 0.000184087
Time = 0.155235

solidBodyMotionFunctions::rotatingMotion::transformation(): Time = 0.155235 transformation: ((0 0 0) (0.883419 (0 0 0.468584)))
AMI: Creating addressing and weights between 9600 source faces and 9600 target faces
AMI: Patch source sum(weights) min/max/average = 1, 1, 1
AMI: Patch target sum(weights) min/max/average = 1, 1, 1
smoothSolver:  Solving for Ux, Initial residual = 0.00130999, Final residual = 5.99404e-07, No Iterations 4
smoothSolver:  Solving for Uy, Initial residual = 0.00132025, Final residual = 5.92141e-07, No Iterations 4
GAMG:  Solving for p, Initial residual = 0.0923326, Final residual = 0.000908691, No Iterations 28
time step continuity errors : sum local = 1.41622e-07, global = 1.06248e-07, cumulative = 2.55081e-06
GAMG:  Solving for p, Initial residual = 0.0115809, Final residual = 9.77982e-07, No Iterations 110
time step continuity errors : sum local = 1.06285e-07, global = 1.06249e-07, cumulative = 2.65706e-06
ExecutionTime = 298.28 s  ClockTime = 299 s

Courant Number mean: 0.0668607 max: 0.445435
deltaT = 0.000204751
Time = 0.15544

solidBodyMotionFunctions::rotatingMotion::transformation(): Time = 0.15544 transformation: ((0 0 0) (0.883117 (0 0 0.469152)))
AMI: Creating addressing and weights between 9600 source faces and 9600 target faces
AMI: Patch source sum(weights) min/max/average = 1, 1, 1
AMI: Patch target sum(weights) min/max/average = 1, 1, 1
smoothSolver:  Solving for Ux, Initial residual = 0.00127515, Final residual = 7.5877e-07, No Iterations 4
smoothSolver:  Solving for Uy, Initial residual = 0.00128408, Final residual = 7.54159e-07, No Iterations 4
GAMG:  Solving for p, Initial residual = 0.0890734, Final residual = 0.000833737, No Iterations 18
time step continuity errors : sum local = 1.23988e-07, global = 8.9225e-08, cumulative = 2.74629e-06
GAMG:  Solving for p, Initial residual = 0.009767, Final residual = 8.59675e-07, No Iterations 89
time step continuity errors : sum local = 8.92668e-08, global = 8.92334e-08, cumulative = 2.83552e-06
ExecutionTime = 332.76 s  ClockTime = 333 s

Courant Number mean: 0.0743907 max: 0.494712
deltaT = 0.00020694
Time = 0.155647

solidBodyMotionFunctions::rotatingMotion::transformation(): Time = 0.155647 transformation: ((0 0 0) (0.882812 (0 0 0.469726)))
AMI: Creating addressing and weights between 9600 source faces and 9600 target faces
AMI: Patch source sum(weights) min/max/average = 1, 1, 1
AMI: Patch target sum(weights) min/max/average = 1, 1, 1
smoothSolver:  Solving for Ux, Initial residual = 0.00121177, Final residual = 7.15838e-07, No Iterations 4
smoothSolver:  Solving for Uy, Initial residual = 0.00121824, Final residual = 7.12814e-07, No Iterations 4
GAMG:  Solving for p, Initial residual = 0.0664714, Final residual = 0.000366625, No Iterations 16
time step continuity errors : sum local = 8.21717e-08, global = 6.83355e-08, cumulative = 2.90386e-06
GAMG:  Solving for p, Initial residual = 0.00687988, Final residual = 9.73313e-07, No Iterations 101
time step continuity errors : sum local = 6.83777e-08, global = 6.83426e-08, cumulative = 2.9722e-06
ExecutionTime = 369.54 s  ClockTime = 370 s

Courant Number mean: 0.0752083 max: 0.499518
deltaT = 0.000207139
Time = 0.155854

solidBodyMotionFunctions::rotatingMotion::transformation(): Time = 0.155854 transformation: ((0 0 0) (0.882506 (0 0 0.470301)))
AMI: Creating addressing and weights between 9600 source faces and 9600 target faces
AMI: Patch source sum(weights) min/max/average = 1, 1, 1
AMI: Patch target sum(weights) min/max/average = 1, 1, 1
smoothSolver:  Solving for Ux, Initial residual = 0.00119066, Final residual = 6.88069e-07, No Iterations 4
smoothSolver:  Solving for Uy, Initial residual = 0.00119495, Final residual = 6.86549e-07, No Iterations 4
GAMG:  Solving for p, Initial residual = 0.0624847, Final residual = 0.000553655, No Iterations 14
time step continuity errors : sum local = 7.15433e-08, global = 5.21432e-08, cumulative = 3.02434e-06
GAMG:  Solving for p, Initial residual = 0.00564641, Final residual = 9.85969e-07, No Iterations 79
time step continuity errors : sum local = 5.21805e-08, global = 5.21477e-08, cumulative = 3.07649e-06
ExecutionTime = 413.56 s  ClockTime = 414 s

End

Finalising parallel run
