/*---------------------------------------------------------------------------*\
| =========                 |                                                 |
| \\      /  F ield         | OpenFOAM: The Open Source CFD Toolbox           |
|  \\    /   O peration     | Version:  2.3.0                                 |
|   \\  /    A nd           | Web:      www.OpenFOAM.org                      |
|    \\/     M anipulation  |                                                 |
\*---------------------------------------------------------------------------*/
Build  : 2.3.0
Exec   : pimpleDyMFoam
Date   : Oct 10 2014
Time   : 08:33:08
Host   : "hpc01"
PID    : 3605
Case   : /home/bobo/OpenFOAM/experiment/incompressible/pimpleDyMFoam/mixerVesselAMI2D2
nProcs : 1
fileModificationChecking : Monitoring run-time modified files using timeStampMaster
allowSystemOperations : Disallowing user-supplied system call operations

// * * * * * * * * * * * * * * * * * * * * * * * * * * * * * * * * * * * * * //
Create time

Create mesh for time = 0.181318

Selecting dynamicFvMesh solidBodyMotionFvMesh
Selecting solid-body motion function rotatingMotion
Applying solid body motion to cellZone rotor

PIMPLE: Operating solver in PISO mode

Reading field p

Reading field U

Reading/calculating face flux field phi

AMI: Creating addressing and weights between 9600 source faces and 9600 target faces
AMI: Patch source sum(weights) min/max/average = 1, 1, 1
AMI: Patch target sum(weights) min/max/average = 1, 1, 1
Selecting incompressible transport model Newtonian
Selecting turbulence model type laminar
Reading/calculating face velocity Uf

No finite volume options present

Courant Number mean: 0.0525711 max: 0.331332

Starting time loop

Courant Number mean: 0.0525711 max: 0.331332
deltaT = 0.000163878
Time = 0.181482

solidBodyMotionFunctions::rotatingMotion::transformation(): Time = 0.181482 transformation: ((0 0 0) (0.841824 (0 0 0.539753)))
AMI: Creating addressing and weights between 9600 source faces and 9600 target faces
AMI: Patch source sum(weights) min/max/average = 1, 1, 1
AMI: Patch target sum(weights) min/max/average = 1, 1, 1
smoothSolver:  Solving for Ux, Initial residual = 0.00213952, Final residual = 3.0326e-07, No Iterations 4
smoothSolver:  Solving for Uy, Initial residual = 0.00214416, Final residual = 3.02094e-07, No Iterations 4
GAMG:  Solving for p, Initial residual = 0.73317, Final residual = 0.00614708, No Iterations 12
time step continuity errors : sum local = 4.18399e-07, global = 3.35188e-08, cumulative = 3.35188e-08
GAMG:  Solving for p, Initial residual = 0.151446, Final residual = 8.53864e-07, No Iterations 66
time step continuity errors : sum local = 3.39822e-08, global = 3.39032e-08, cumulative = 6.7422e-08
ExecutionTime = 110.31 s  ClockTime = 110 s

Courant Number mean: 0.0603566 max: 0.397837
deltaT = 0.000184474
Time = 0.181666

solidBodyMotionFunctions::rotatingMotion::transformation(): Time = 0.181666 transformation: ((0 0 0) (0.841511 (0 0 0.540241)))
AMI: Creating addressing and weights between 9600 source faces and 9600 target faces
AMI: Patch source sum(weights) min/max/average = 1, 1, 1
AMI: Patch target sum(weights) min/max/average = 1, 1, 1
smoothSolver:  Solving for Ux, Initial residual = 0.0139073, Final residual = 3.81425e-07, No Iterations 6
smoothSolver:  Solving for Uy, Initial residual = 0.0138834, Final residual = 3.81501e-07, No Iterations 6
GAMG:  Solving for p, Initial residual = 0.801424, Final residual = 0.00663386, No Iterations 12
time step continuity errors : sum local = 6.85905e-07, global = 2.79935e-09, cumulative = 7.02213e-08
GAMG:  Solving for p, Initial residual = 0.327534, Final residual = 8.59518e-07, No Iterations 64
time step continuity errors : sum local = 1.7122e-09, global = 1.64903e-09, cumulative = 7.18704e-08
ExecutionTime = 170.39 s  ClockTime = 170 s

Courant Number mean: 0.0680006 max: 0.436291
deltaT = 0.000205615
Time = 0.181872

solidBodyMotionFunctions::rotatingMotion::transformation(): Time = 0.181872 transformation: ((0 0 0) (0.841161 (0 0 0.540784)))
AMI: Creating addressing and weights between 9600 source faces and 9600 target faces
AMI: Patch source sum(weights) min/max/average = 1, 1, 1
AMI: Patch target sum(weights) min/max/average = 1, 1, 1
smoothSolver:  Solving for Ux, Initial residual = 0.00768631, Final residual = 2.89547e-07, No Iterations 6
smoothSolver:  Solving for Uy, Initial residual = 0.00765043, Final residual = 2.88626e-07, No Iterations 6
GAMG:  Solving for p, Initial residual = 0.481871, Final residual = 0.00403343, No Iterations 9
time step continuity errors : sum local = 2.04179e-07, global = 2.42673e-10, cumulative = 7.2113e-08
GAMG:  Solving for p, Initial residual = 0.209361, Final residual = 8.13231e-07, No Iterations 66
time step continuity errors : sum local = 6.69404e-10, global = 6.4269e-10, cumulative = 7.27557e-08
ExecutionTime = 230.06 s  ClockTime = 230 s

Courant Number mean: 0.0758524 max: 0.481915
deltaT = 0.000213331
Time = 0.182085

solidBodyMotionFunctions::rotatingMotion::transformation(): Time = 0.182085 transformation: ((0 0 0) (0.840799 (0 0 0.541348)))
AMI: Creating addressing and weights between 9600 source faces and 9600 target faces
AMI: Patch source sum(weights) min/max/average = 1, 1, 1
AMI: Patch target sum(weights) min/max/average = 1, 1, 1
smoothSolver:  Solving for Ux, Initial residual = 0.00291761, Final residual = 6.6008e-07, No Iterations 5
smoothSolver:  Solving for Uy, Initial residual = 0.0029155, Final residual = 6.58154e-07, No Iterations 5
GAMG:  Solving for p, Initial residual = 0.215874, Final residual = 0.00176343, No Iterations 7
time step continuity errors : sum local = 5.90919e-08, global = 1.74575e-10, cumulative = 7.29303e-08
GAMG:  Solving for p, Initial residual = 0.0707635, Final residual = 9.52524e-07, No Iterations 62
time step continuity errors : sum local = 2.64964e-10, global = 2.37588e-10, cumulative = 7.31679e-08
ExecutionTime = 286.46 s  ClockTime = 286 s

Courant Number mean: 0.078751 max: 0.497747
deltaT = 0.000214296
Time = 0.1823

solidBodyMotionFunctions::rotatingMotion::transformation(): Time = 0.1823 transformation: ((0 0 0) (0.840434 (0 0 0.541914)))
AMI: Creating addressing and weights between 9600 source faces and 9600 target faces
AMI: Patch source sum(weights) min/max/average = 1, 1, 1
AMI: Patch target sum(weights) min/max/average = 1, 1, 1
smoothSolver:  Solving for Ux, Initial residual = 0.00176065, Final residual = 4.0347e-07, No Iterations 5
smoothSolver:  Solving for Uy, Initial residual = 0.00175938, Final residual = 4.02149e-07, No Iterations 5
GAMG:  Solving for p, Initial residual = 0.127772, Final residual = 0.00054026, No Iterations 11
time step continuity errors : sum local = 1.49801e-08, global = 6.13188e-12, cumulative = 7.3174e-08
GAMG:  Solving for p, Initial residual = 0.0357904, Final residual = 9.20517e-07, No Iterations 47
time step continuity errors : sum local = 3.07601e-11, global = 7.44865e-12, cumulative = 7.31815e-08
ExecutionTime = 337.64 s  ClockTime = 337 s

Courant Number mean: 0.0791454 max: 0.498716
deltaT = 0.000214848
Time = 0.182514

solidBodyMotionFunctions::rotatingMotion::transformation(): Time = 0.182514 transformation: ((0 0 0) (0.840068 (0 0 0.542481)))
AMI: Creating addressing and weights between 9600 source faces and 9600 target faces
AMI: Patch source sum(weights) min/max/average = 1, 1, 1
AMI: Patch target sum(weights) min/max/average = 1, 1, 1
smoothSolver:  Solving for Ux, Initial residual = 0.00136088, Final residual = 2.82867e-07, No Iterations 5
smoothSolver:  Solving for Uy, Initial residual = 0.00135991, Final residual = 2.81468e-07, No Iterations 5
GAMG:  Solving for p, Initial residual = 0.0899696, Final residual = 0.000629359, No Iterations 9
time step continuity errors : sum local = 1.57113e-08, global = 8.85463e-11, cumulative = 7.327e-08
GAMG:  Solving for p, Initial residual = 0.0214079, Final residual = 9.20183e-07, No Iterations 33
time step continuity errors : sum local = 1.25447e-10, global = 1.03837e-10, cumulative = 7.33739e-08
ExecutionTime = 380.75 s  ClockTime = 381 s

Courant Number mean: 0.0793767 max: 0.499185
deltaT = 0.000215199
Time = 0.18273

solidBodyMotionFunctions::rotatingMotion::transformation(): Time = 0.18273 transformation: ((0 0 0) (0.839701 (0 0 0.543049)))
AMI: Creating addressing and weights between 9600 source faces and 9600 target faces
AMI: Patch source sum(weights) min/max/average = 1, 1, 1
AMI: Patch target sum(weights) min/max/average = 1, 1, 1
smoothSolver:  Solving for Ux, Initial residual = 0.00120811, Final residual = 9.41468e-07, No Iterations 4
smoothSolver:  Solving for Uy, Initial residual = 0.00120746, Final residual = 9.36791e-07, No Iterations 4
GAMG:  Solving for p, Initial residual = 0.0683077, Final residual = 0.000614239, No Iterations 8
time step continuity errors : sum local = 1.4319e-08, global = 9.35281e-11, cumulative = 7.34674e-08
GAMG:  Solving for p, Initial residual = 0.0138312, Final residual = 9.12319e-07, No Iterations 27
time step continuity errors : sum local = 1.26514e-10, global = 1.05919e-10, cumulative = 7.35733e-08
ExecutionTime = 420.07 s  ClockTime = 420 s

Courant Number mean: 0.0795268 max: 0.499399
deltaT = 0.000215458
Time = 0.182945

solidBodyMotionFunctions::rotatingMotion::transformation(): Time = 0.182945 transformation: ((0 0 0) (0.839333 (0 0 0.543617)))
AMI: Creating addressing and weights between 9600 source faces and 9600 target faces
AMI: Patch source sum(weights) min/max/average = 1, 1, 1
AMI: Patch target sum(weights) min/max/average = 1, 1, 1
smoothSolver:  Solving for Ux, Initial residual = 0.00115768, Final residual = 8.57707e-07, No Iterations 4
smoothSolver:  Solving for Uy, Initial residual = 0.00115738, Final residual = 8.55473e-07, No Iterations 4
GAMG:  Solving for p, Initial residual = 0.0552594, Final residual = 0.000472865, No Iterations 8
time step continuity errors : sum local = 1.05355e-08, global = 7.0148e-11, cumulative = 7.36434e-08
GAMG:  Solving for p, Initial residual = 0.00960912, Final residual = 9.13067e-07, No Iterations 29
time step continuity errors : sum local = 9.68499e-11, global = 7.70938e-11, cumulative = 7.37205e-08
ExecutionTime = 460.44 s  ClockTime = 460 s

Courant Number mean: 0.0796385 max: 0.49951
deltaT = 0.000215669
Time = 0.183161

solidBodyMotionFunctions::rotatingMotion::transformation(): Time = 0.183161 transformation: ((0 0 0) (0.838965 (0 0 0.544185)))
AMI: Creating addressing and weights between 9600 source faces and 9600 target faces
AMI: Patch source sum(weights) min/max/average = 1, 1, 1
AMI: Patch target sum(weights) min/max/average = 1, 1, 1
smoothSolver:  Solving for Ux, Initial residual = 0.0011438, Final residual = 8.26681e-07, No Iterations 4
smoothSolver:  Solving for Uy, Initial residual = 0.00114364, Final residual = 8.26261e-07, No Iterations 4
GAMG:  Solving for p, Initial residual = 0.0453368, Final residual = 0.00043584, No Iterations 8
time step continuity errors : sum local = 9.39565e-09, global = 3.55934e-11, cumulative = 7.37561e-08
GAMG:  Solving for p, Initial residual = 0.00716881, Final residual = 6.54201e-07, No Iterations 44
time step continuity errors : sum local = 5.18964e-11, global = 3.79573e-11, cumulative = 7.37941e-08
ExecutionTime = 508.25 s  ClockTime = 508 s

Courant Number mean: 0.0797299 max: 0.499568
deltaT = 0.000215855
Time = 0.183377

solidBodyMotionFunctions::rotatingMotion::transformation(): Time = 0.183377 transformation: ((0 0 0) (0.838596 (0 0 0.544754)))
AMI: Creating addressing and weights between 9600 source faces and 9600 target faces
AMI: Patch source sum(weights) min/max/average = 1, 1, 1
AMI: Patch target sum(weights) min/max/average = 1, 1, 1
smoothSolver:  Solving for Ux, Initial residual = 0.00114057, Final residual = 8.10833e-07, No Iterations 4
smoothSolver:  Solving for Uy, Initial residual = 0.00114041, Final residual = 8.11655e-07, No Iterations 4
GAMG:  Solving for p, Initial residual = 0.0395488, Final residual = 0.000339085, No Iterations 7
time step continuity errors : sum local = 7.2033e-09, global = 9.21222e-12, cumulative = 7.38033e-08
GAMG:  Solving for p, Initial residual = 0.00566197, Final residual = 9.67759e-07, No Iterations 27
time step continuity errors : sum local = 3.0205e-11, global = 9.65986e-12, cumulative = 7.3813e-08
ExecutionTime = 590.72 s  ClockTime = 591 s

End

