/*---------------------------------------------------------------------------*\
| =========                 |                                                 |
| \\      /  F ield         | OpenFOAM: The Open Source CFD Toolbox           |
|  \\    /   O peration     | Version:  2.3.0                                 |
|   \\  /    A nd           | Web:      www.OpenFOAM.org                      |
|    \\/     M anipulation  |                                                 |
\*---------------------------------------------------------------------------*/
Build  : 2.3.0
Exec   : pimpleDyMFoam -parallel
Date   : Oct 10 2014
Time   : 06:18:27
Host   : "hpc01"
PID    : 3331
Case   : /home/bobo/OpenFOAM/experiment/incompressible/pimpleDyMFoam/mixerVesselAMI2D2
nProcs : 6
Slaves : 
5
(
"hpc01.3332"
"hpc01.3333"
"hpc01.3334"
"hpc01.3335"
"hpc01.3336"
)

Pstream initialized with:
    floatTransfer      : 0
    nProcsSimpleSum    : 0
    commsType          : nonBlocking
    polling iterations : 0
fileModificationChecking : Monitoring run-time modified files using timeStampMaster
allowSystemOperations : Disallowing user-supplied system call operations

// * * * * * * * * * * * * * * * * * * * * * * * * * * * * * * * * * * * * * //
Create time

Create mesh for time = 0.168627

Selecting dynamicFvMesh solidBodyMotionFvMesh
Selecting solid-body motion function rotatingMotion
Applying solid body motion to cellZone rotor

PIMPLE: Operating solver in PISO mode

Reading field p

Reading field U

Reading/calculating face flux field phi

AMI: Creating addressing and weights between 9600 source faces and 9600 target faces
AMI: Patch source sum(weights) min/max/average = 1, 1, 1
AMI: Patch target sum(weights) min/max/average = 1, 1, 1
Selecting incompressible transport model Newtonian
Selecting turbulence model type laminar
Reading/calculating face velocity Uf

No finite volume options present

Courant Number mean: 0.0775518 max: 0.499473

Starting time loop

Courant Number mean: 0.0775518 max: 0.499473
deltaT = 0.000211427
Time = 0.168838

solidBodyMotionFunctions::rotatingMotion::transformation(): Time = 0.168838 transformation: ((0 0 0) (0.862593 (0 0 0.505898)))
AMI: Creating addressing and weights between 9600 source faces and 9600 target faces
AMI: Patch source sum(weights) min/max/average = 1, 1, 1
AMI: Patch target sum(weights) min/max/average = 1, 1, 1
smoothSolver:  Solving for Ux, Initial residual = 0.00281422, Final residual = 9.88311e-07, No Iterations 4
smoothSolver:  Solving for Uy, Initial residual = 0.00281439, Final residual = 9.6954e-07, No Iterations 4
GAMG:  Solving for p, Initial residual = 0.790941, Final residual = 0.00757889, No Iterations 42
time step continuity errors : sum local = 1.13873e-06, global = 6.17629e-07, cumulative = 6.17629e-07
GAMG:  Solving for p, Initial residual = 0.191628, Final residual = 6.5998e-07, No Iterations 136
time step continuity errors : sum local = 6.18017e-07, global = 6.17944e-07, cumulative = 1.23557e-06
ExecutionTime = 52.05 s  ClockTime = 52 s

Courant Number mean: 0.0774373 max: 1.14194
deltaT = 9.25734e-05
Time = 0.168931

solidBodyMotionFunctions::rotatingMotion::transformation(): Time = 0.168931 transformation: ((0 0 0) (0.862446 (0 0 0.506149)))
AMI: Creating addressing and weights between 9600 source faces and 9600 target faces
AMI: Patch source sum(weights) min/max/average = 1, 1, 1
AMI: Patch target sum(weights) min/max/average = 1, 1, 1
smoothSolver:  Solving for Ux, Initial residual = 0.00550914, Final residual = 3.10122e-07, No Iterations 4
smoothSolver:  Solving for Uy, Initial residual = 0.00553354, Final residual = 3.04812e-07, No Iterations 4
GAMG:  Solving for p, Initial residual = 0.851473, Final residual = 0.00818507, No Iterations 22
time step continuity errors : sum local = 4.40597e-07, global = 2.1942e-07, cumulative = 1.45499e-06
GAMG:  Solving for p, Initial residual = 0.132611, Final residual = 8.39667e-07, No Iterations 128
time step continuity errors : sum local = 2.19387e-07, global = 2.19363e-07, cumulative = 1.67436e-06
ExecutionTime = 89.61 s  ClockTime = 90 s

Courant Number mean: 0.0339095 max: 0.405343
deltaT = 0.000103993
Time = 0.169035

solidBodyMotionFunctions::rotatingMotion::transformation(): Time = 0.169035 transformation: ((0 0 0) (0.862281 (0 0 0.506431)))
AMI: Creating addressing and weights between 9600 source faces and 9600 target faces
AMI: Patch source sum(weights) min/max/average = 1, 1, 1
AMI: Patch target sum(weights) min/max/average = 1, 1, 1
smoothSolver:  Solving for Ux, Initial residual = 0.0057576, Final residual = 3.6795e-07, No Iterations 4
smoothSolver:  Solving for Uy, Initial residual = 0.00578841, Final residual = 3.67296e-07, No Iterations 4
GAMG:  Solving for p, Initial residual = 0.324213, Final residual = 0.00298952, No Iterations 37
time step continuity errors : sum local = 2.84815e-07, global = 2.07864e-07, cumulative = 1.88222e-06
GAMG:  Solving for p, Initial residual = 0.075881, Final residual = 9.79425e-07, No Iterations 106
time step continuity errors : sum local = 2.07922e-07, global = 2.07903e-07, cumulative = 2.09012e-06
ExecutionTime = 125.7 s  ClockTime = 126 s

Courant Number mean: 0.0381086 max: 0.384168
deltaT = 0.000117527
Time = 0.169153

solidBodyMotionFunctions::rotatingMotion::transformation(): Time = 0.169153 transformation: ((0 0 0) (0.862094 (0 0 0.506749)))
AMI: Creating addressing and weights between 9600 source faces and 9600 target faces
AMI: Patch source sum(weights) min/max/average = 1, 1, 1
AMI: Patch target sum(weights) min/max/average = 1, 1, 1
smoothSolver:  Solving for Ux, Initial residual = 0.00272797, Final residual = 3.34883e-07, No Iterations 4
smoothSolver:  Solving for Uy, Initial residual = 0.00274846, Final residual = 3.3226e-07, No Iterations 4
GAMG:  Solving for p, Initial residual = 0.170235, Final residual = 0.00158214, No Iterations 28
time step continuity errors : sum local = 2.31755e-07, global = 1.95321e-07, cumulative = 2.28544e-06
GAMG:  Solving for p, Initial residual = 0.032897, Final residual = 9.35877e-07, No Iterations 72
time step continuity errors : sum local = 1.9536e-07, global = 1.95341e-07, cumulative = 2.48079e-06
ExecutionTime = 153.34 s  ClockTime = 154 s

Courant Number mean: 0.043091 max: 0.371078
deltaT = 0.000133363
Time = 0.169286

solidBodyMotionFunctions::rotatingMotion::transformation(): Time = 0.169286 transformation: ((0 0 0) (0.861881 (0 0 0.50711)))
AMI: Creating addressing and weights between 9600 source faces and 9600 target faces
AMI: Patch source sum(weights) min/max/average = 1, 1, 1
AMI: Patch target sum(weights) min/max/average = 1, 1, 1
smoothSolver:  Solving for Ux, Initial residual = 0.00179709, Final residual = 3.64668e-07, No Iterations 4
smoothSolver:  Solving for Uy, Initial residual = 0.00182092, Final residual = 3.626e-07, No Iterations 4
GAMG:  Solving for p, Initial residual = 0.125879, Final residual = 0.0011927, No Iterations 33
time step continuity errors : sum local = 2.10201e-07, global = 1.81058e-07, cumulative = 2.66184e-06
GAMG:  Solving for p, Initial residual = 0.0214077, Final residual = 9.96492e-07, No Iterations 94
time step continuity errors : sum local = 1.81094e-07, global = 1.81072e-07, cumulative = 2.84291e-06
ExecutionTime = 186.24 s  ClockTime = 187 s

Courant Number mean: 0.0489217 max: 0.384423
deltaT = 0.000150709
Time = 0.169437

solidBodyMotionFunctions::rotatingMotion::transformation(): Time = 0.169437 transformation: ((0 0 0) (0.861641 (0 0 0.507518)))
AMI: Creating addressing and weights between 9600 source faces and 9600 target faces
AMI: Patch source sum(weights) min/max/average = 1, 1, 1
AMI: Patch target sum(weights) min/max/average = 1, 1, 1
smoothSolver:  Solving for Ux, Initial residual = 0.00138097, Final residual = 4.2149e-07, No Iterations 4
smoothSolver:  Solving for Uy, Initial residual = 0.0014058, Final residual = 4.20168e-07, No Iterations 4
GAMG:  Solving for p, Initial residual = 0.10342, Final residual = 0.00103259, No Iterations 31
time step continuity errors : sum local = 1.91245e-07, global = 1.64039e-07, cumulative = 3.00695e-06
GAMG:  Solving for p, Initial residual = 0.0161315, Final residual = 8.55879e-07, No Iterations 48
time step continuity errors : sum local = 1.64071e-07, global = 1.6405e-07, cumulative = 3.171e-06
ExecutionTime = 209.76 s  ClockTime = 210 s

Courant Number mean: 0.0553093 max: 0.395885
deltaT = 0.000169744
Time = 0.169606

solidBodyMotionFunctions::rotatingMotion::transformation(): Time = 0.169606 transformation: ((0 0 0) (0.86137 (0 0 0.507978)))
AMI: Creating addressing and weights between 9600 source faces and 9600 target faces
AMI: Patch source sum(weights) min/max/average = 1, 1, 1
AMI: Patch target sum(weights) min/max/average = 1, 1, 1
smoothSolver:  Solving for Ux, Initial residual = 0.00120648, Final residual = 5.11681e-07, No Iterations 4
smoothSolver:  Solving for Uy, Initial residual = 0.00122979, Final residual = 5.10359e-07, No Iterations 4
GAMG:  Solving for p, Initial residual = 0.0954717, Final residual = 0.000899461, No Iterations 29
time step continuity errors : sum local = 1.70896e-07, global = 1.45185e-07, cumulative = 3.31619e-06
GAMG:  Solving for p, Initial residual = 0.0131921, Final residual = 9.48606e-07, No Iterations 52
time step continuity errors : sum local = 1.45217e-07, global = 1.45192e-07, cumulative = 3.46138e-06
ExecutionTime = 233.65 s  ClockTime = 234 s

Courant Number mean: 0.0623191 max: 0.407982
deltaT = 0.000190547
Time = 0.169797

solidBodyMotionFunctions::rotatingMotion::transformation(): Time = 0.169797 transformation: ((0 0 0) (0.861066 (0 0 0.508493)))
AMI: Creating addressing and weights between 9600 source faces and 9600 target faces
AMI: Patch source sum(weights) min/max/average = 1, 1, 1
AMI: Patch target sum(weights) min/max/average = 1, 1, 1
smoothSolver:  Solving for Ux, Initial residual = 0.00116665, Final residual = 6.48442e-07, No Iterations 4
smoothSolver:  Solving for Uy, Initial residual = 0.00118894, Final residual = 6.47805e-07, No Iterations 4
GAMG:  Solving for p, Initial residual = 0.090722, Final residual = 0.00088072, No Iterations 26
time step continuity errors : sum local = 1.52441e-07, global = 1.25482e-07, cumulative = 3.58686e-06
GAMG:  Solving for p, Initial residual = 0.0113291, Final residual = 9.83002e-07, No Iterations 115
time step continuity errors : sum local = 1.25511e-07, global = 1.25482e-07, cumulative = 3.71235e-06
ExecutionTime = 269.29 s  ClockTime = 270 s

Courant Number mean: 0.0699805 max: 0.450925
deltaT = 0.000211284
Time = 0.170008

solidBodyMotionFunctions::rotatingMotion::transformation(): Time = 0.170008 transformation: ((0 0 0) (0.860728 (0 0 0.509065)))
AMI: Creating addressing and weights between 9600 source faces and 9600 target faces
AMI: Patch source sum(weights) min/max/average = 1, 1, 1
AMI: Patch target sum(weights) min/max/average = 1, 1, 1
smoothSolver:  Solving for Ux, Initial residual = 0.00119719, Final residual = 8.40265e-07, No Iterations 4
smoothSolver:  Solving for Uy, Initial residual = 0.00121885, Final residual = 8.41424e-07, No Iterations 4
GAMG:  Solving for p, Initial residual = 0.0849293, Final residual = 0.000759079, No Iterations 25
time step continuity errors : sum local = 1.30191e-07, global = 1.05267e-07, cumulative = 3.81761e-06
GAMG:  Solving for p, Initial residual = 0.00970578, Final residual = 8.83563e-07, No Iterations 62
time step continuity errors : sum local = 1.05301e-07, global = 1.05274e-07, cumulative = 3.92289e-06
ExecutionTime = 294.39 s  ClockTime = 295 s

Courant Number mean: 0.0776199 max: 0.499401
deltaT = 0.000211538
Time = 0.17022

solidBodyMotionFunctions::rotatingMotion::transformation(): Time = 0.17022 transformation: ((0 0 0) (0.86039 (0 0 0.509636)))
AMI: Creating addressing and weights between 9600 source faces and 9600 target faces
AMI: Patch source sum(weights) min/max/average = 1, 1, 1
AMI: Patch target sum(weights) min/max/average = 1, 1, 1
smoothSolver:  Solving for Ux, Initial residual = 0.00116345, Final residual = 7.90691e-07, No Iterations 4
smoothSolver:  Solving for Uy, Initial residual = 0.0011801, Final residual = 7.90511e-07, No Iterations 4
GAMG:  Solving for p, Initial residual = 0.0630592, Final residual = 0.000624578, No Iterations 25
time step continuity errors : sum local = 9.88784e-08, global = 8.01731e-08, cumulative = 4.00306e-06
GAMG:  Solving for p, Initial residual = 0.00724862, Final residual = 9.8536e-07, No Iterations 72
time step continuity errors : sum local = 8.02071e-08, global = 8.01786e-08, cumulative = 4.08324e-06
ExecutionTime = 327.82 s  ClockTime = 328 s

End

Finalising parallel run
