/*---------------------------------------------------------------------------*\
| =========                 |                                                 |
| \\      /  F ield         | OpenFOAM: The Open Source CFD Toolbox           |
|  \\    /   O peration     | Version:  2.3.0                                 |
|   \\  /    A nd           | Web:      www.OpenFOAM.org                      |
|    \\/     M anipulation  |                                                 |
\*---------------------------------------------------------------------------*/
Build  : 2.3.0
Exec   : pimpleDyMFoam
Date   : Oct 10 2014
Time   : 10:14:19
Host   : "hpc01"
PID    : 3858
Case   : /home/bobo/OpenFOAM/experiment/incompressible/pimpleDyMFoam/mixerVesselAMI2D1
nProcs : 1
fileModificationChecking : Monitoring run-time modified files using timeStampMaster
allowSystemOperations : Disallowing user-supplied system call operations

// * * * * * * * * * * * * * * * * * * * * * * * * * * * * * * * * * * * * * //
Create time

Create mesh for time = 0.0452846

Selecting dynamicFvMesh solidBodyMotionFvMesh
Selecting solid-body motion function rotatingMotion
Applying solid body motion to cellZone rotor

PIMPLE: Operating solver in PISO mode

Reading field p

Reading field U

Reading/calculating face flux field phi

AMI: Creating addressing and weights between 9600 source faces and 9600 target faces
AMI: Patch source sum(weights) min/max/average = 1, 1, 1
AMI: Patch target sum(weights) min/max/average = 1, 1, 1
Selecting incompressible transport model Newtonian
Selecting turbulence model type laminar
Reading/calculating face velocity Uf

No finite volume options present

Courant Number mean: 0.0506853 max: 0.499561

Starting time loop

Courant Number mean: 0.0506853 max: 0.499561
deltaT = 0.000169256
Time = 0.0454539

solidBodyMotionFunctions::rotatingMotion::transformation(): Time = 0.0454539 transformation: ((0 0 0) (0.989822 (0 0 0.142313)))
AMI: Creating addressing and weights between 9600 source faces and 9600 target faces
AMI: Patch source sum(weights) min/max/average = 1, 1, 1
AMI: Patch target sum(weights) min/max/average = 1, 1, 1
smoothSolver:  Solving for Ux, Initial residual = 0.003194, Final residual = 6.23957e-07, No Iterations 4
smoothSolver:  Solving for Uy, Initial residual = 0.0031879, Final residual = 6.23465e-07, No Iterations 4
GAMG:  Solving for p, Initial residual = 0.731646, Final residual = 0.00665017, No Iterations 13
time step continuity errors : sum local = 5.1311e-07, global = 5.68698e-08, cumulative = 5.68698e-08
GAMG:  Solving for p, Initial residual = 0.17935, Final residual = 9.57387e-07, No Iterations 62
time step continuity errors : sum local = 5.70145e-08, global = 5.69167e-08, cumulative = 1.13786e-07
ExecutionTime = 108.54 s  ClockTime = 109 s

Courant Number mean: 0.0510715 max: 0.522404
deltaT = 0.000161997
Time = 0.0456159

solidBodyMotionFunctions::rotatingMotion::transformation(): Time = 0.0456159 transformation: ((0 0 0) (0.989749 (0 0 0.142817)))
AMI: Creating addressing and weights between 9600 source faces and 9600 target faces
AMI: Patch source sum(weights) min/max/average = 1, 1, 1
AMI: Patch target sum(weights) min/max/average = 1, 1, 1
smoothSolver:  Solving for Ux, Initial residual = 0.0202933, Final residual = 5.5784e-07, No Iterations 5
smoothSolver:  Solving for Uy, Initial residual = 0.0204229, Final residual = 5.6254e-07, No Iterations 5
GAMG:  Solving for p, Initial residual = 0.791873, Final residual = 0.00729613, No Iterations 8
time step continuity errors : sum local = 6.59678e-07, global = 1.15696e-10, cumulative = 1.13902e-07
GAMG:  Solving for p, Initial residual = 0.291219, Final residual = 8.92501e-07, No Iterations 84
time step continuity errors : sum local = 1.39514e-10, global = 7.71578e-11, cumulative = 1.13979e-07
ExecutionTime = 175.6 s  ClockTime = 176 s

Courant Number mean: 0.0487291 max: 0.486348
deltaT = 0.000166544
Time = 0.0457824

solidBodyMotionFunctions::rotatingMotion::transformation(): Time = 0.0457824 transformation: ((0 0 0) (0.989674 (0 0 0.143335)))
AMI: Creating addressing and weights between 9600 source faces and 9600 target faces
AMI: Patch source sum(weights) min/max/average = 1, 1, 1
AMI: Patch target sum(weights) min/max/average = 1, 1, 1
smoothSolver:  Solving for Ux, Initial residual = 0.0118667, Final residual = 3.36989e-07, No Iterations 5
smoothSolver:  Solving for Uy, Initial residual = 0.0119834, Final residual = 3.41191e-07, No Iterations 5
GAMG:  Solving for p, Initial residual = 0.451262, Final residual = 0.00176241, No Iterations 13
time step continuity errors : sum local = 7.68731e-08, global = 1.00782e-11, cumulative = 1.13989e-07
GAMG:  Solving for p, Initial residual = 0.168315, Final residual = 7.87303e-07, No Iterations 37
time step continuity errors : sum local = 3.58056e-11, global = 1.27997e-11, cumulative = 1.14002e-07
ExecutionTime = 222.05 s  ClockTime = 222 s

Courant Number mean: 0.050047 max: 0.495253
deltaT = 0.000168141
Time = 0.0459505

solidBodyMotionFunctions::rotatingMotion::transformation(): Time = 0.0459505 transformation: ((0 0 0) (0.989598 (0 0 0.143857)))
AMI: Creating addressing and weights between 9600 source faces and 9600 target faces
AMI: Patch source sum(weights) min/max/average = 1, 1, 1
AMI: Patch target sum(weights) min/max/average = 1, 1, 1
smoothSolver:  Solving for Ux, Initial residual = 0.00449292, Final residual = 6.55986e-07, No Iterations 4
smoothSolver:  Solving for Uy, Initial residual = 0.00449176, Final residual = 6.55292e-07, No Iterations 4
GAMG:  Solving for p, Initial residual = 0.198028, Final residual = 0.00169442, No Iterations 8
time step continuity errors : sum local = 4.92548e-08, global = 2.09884e-11, cumulative = 1.14023e-07
GAMG:  Solving for p, Initial residual = 0.0570407, Final residual = 9.29555e-07, No Iterations 76
time step continuity errors : sum local = 4.59127e-11, global = 2.25535e-11, cumulative = 1.14046e-07
ExecutionTime = 284.95 s  ClockTime = 285 s

Courant Number mean: 0.0505117 max: 0.49779
deltaT = 0.000168887
Time = 0.0461194

solidBodyMotionFunctions::rotatingMotion::transformation(): Time = 0.0461194 transformation: ((0 0 0) (0.989522 (0 0 0.144382)))
AMI: Creating addressing and weights between 9600 source faces and 9600 target faces
AMI: Patch source sum(weights) min/max/average = 1, 1, 1
AMI: Patch target sum(weights) min/max/average = 1, 1, 1
smoothSolver:  Solving for Ux, Initial residual = 0.00262891, Final residual = 4.2011e-07, No Iterations 4
smoothSolver:  Solving for Uy, Initial residual = 0.00263034, Final residual = 4.19753e-07, No Iterations 4
GAMG:  Solving for p, Initial residual = 0.112754, Final residual = 0.000980125, No Iterations 6
time step continuity errors : sum local = 2.42826e-08, global = 3.67451e-11, cumulative = 1.14082e-07
GAMG:  Solving for p, Initial residual = 0.0285776, Final residual = 9.66718e-07, No Iterations 56
time step continuity errors : sum local = 6.086e-11, global = 3.84482e-11, cumulative = 1.14121e-07
ExecutionTime = 337.06 s  ClockTime = 338 s

Courant Number mean: 0.0507361 max: 0.498701
deltaT = 0.000169327
Time = 0.0462888

solidBodyMotionFunctions::rotatingMotion::transformation(): Time = 0.0462888 transformation: ((0 0 0) (0.989445 (0 0 0.144909)))
AMI: Creating addressing and weights between 9600 source faces and 9600 target faces
AMI: Patch source sum(weights) min/max/average = 1, 1, 1
AMI: Patch target sum(weights) min/max/average = 1, 1, 1
smoothSolver:  Solving for Ux, Initial residual = 0.00197373, Final residual = 3.65146e-07, No Iterations 4
smoothSolver:  Solving for Uy, Initial residual = 0.00197473, Final residual = 3.64821e-07, No Iterations 4
GAMG:  Solving for p, Initial residual = 0.0742968, Final residual = 0.000613257, No Iterations 9
time step continuity errors : sum local = 1.40009e-08, global = 4.18998e-11, cumulative = 1.14163e-07
GAMG:  Solving for p, Initial residual = 0.016918, Final residual = 9.61808e-07, No Iterations 51
time step continuity errors : sum local = 6.41841e-11, global = 4.30324e-11, cumulative = 1.14206e-07
ExecutionTime = 388.16 s  ClockTime = 389 s

Courant Number mean: 0.050876 max: 0.499133
deltaT = 0.000169621
Time = 0.0464584

solidBodyMotionFunctions::rotatingMotion::transformation(): Time = 0.0464584 transformation: ((0 0 0) (0.989368 (0 0 0.145436)))
AMI: Creating addressing and weights between 9600 source faces and 9600 target faces
AMI: Patch source sum(weights) min/max/average = 1, 1, 1
AMI: Patch target sum(weights) min/max/average = 1, 1, 1
smoothSolver:  Solving for Ux, Initial residual = 0.00169331, Final residual = 3.51717e-07, No Iterations 4
smoothSolver:  Solving for Uy, Initial residual = 0.00169356, Final residual = 3.51363e-07, No Iterations 4
GAMG:  Solving for p, Initial residual = 0.0534844, Final residual = 0.000449355, No Iterations 8
time step continuity errors : sum local = 9.8817e-09, global = 3.83409e-11, cumulative = 1.14244e-07
GAMG:  Solving for p, Initial residual = 0.0111143, Final residual = 9.65982e-07, No Iterations 49
time step continuity errors : sum local = 6.00093e-11, global = 3.90705e-11, cumulative = 1.14283e-07
ExecutionTime = 437.66 s  ClockTime = 438 s

Courant Number mean: 0.0509766 max: 0.499333
deltaT = 0.000169848
Time = 0.0466282

solidBodyMotionFunctions::rotatingMotion::transformation(): Time = 0.0466282 transformation: ((0 0 0) (0.98929 (0 0 0.145964)))
AMI: Creating addressing and weights between 9600 source faces and 9600 target faces
AMI: Patch source sum(weights) min/max/average = 1, 1, 1
AMI: Patch target sum(weights) min/max/average = 1, 1, 1
smoothSolver:  Solving for Ux, Initial residual = 0.00155198, Final residual = 3.48617e-07, No Iterations 4
smoothSolver:  Solving for Uy, Initial residual = 0.00155209, Final residual = 3.4823e-07, No Iterations 4
GAMG:  Solving for p, Initial residual = 0.0418699, Final residual = 0.000385917, No Iterations 7
time step continuity errors : sum local = 8.23387e-09, global = 2.72399e-11, cumulative = 1.1431e-07
GAMG:  Solving for p, Initial residual = 0.00802281, Final residual = 9.13416e-07, No Iterations 30
time step continuity errors : sum local = 4.69909e-11, global = 2.76454e-11, cumulative = 1.14338e-07
ExecutionTime = 477.4 s  ClockTime = 478 s

Courant Number mean: 0.0510596 max: 0.499407
deltaT = 0.00017005
Time = 0.0467983

solidBodyMotionFunctions::rotatingMotion::transformation(): Time = 0.0467983 transformation: ((0 0 0) (0.989212 (0 0 0.146492)))
AMI: Creating addressing and weights between 9600 source faces and 9600 target faces
AMI: Patch source sum(weights) min/max/average = 1, 1, 1
AMI: Patch target sum(weights) min/max/average = 1, 1, 1
smoothSolver:  Solving for Ux, Initial residual = 0.00147709, Final residual = 3.49034e-07, No Iterations 4
smoothSolver:  Solving for Uy, Initial residual = 0.00147708, Final residual = 3.48638e-07, No Iterations 4
GAMG:  Solving for p, Initial residual = 0.0346146, Final residual = 0.000284522, No Iterations 7
time step continuity errors : sum local = 5.98308e-09, global = 1.02763e-11, cumulative = 1.14348e-07
GAMG:  Solving for p, Initial residual = 0.00623216, Final residual = 9.94287e-07, No Iterations 28
time step continuity errors : sum local = 3.10599e-11, global = 1.03323e-11, cumulative = 1.14359e-07
ExecutionTime = 516.11 s  ClockTime = 517 s

Courant Number mean: 0.051137 max: 0.499409
deltaT = 0.000170251
Time = 0.0469685

solidBodyMotionFunctions::rotatingMotion::transformation(): Time = 0.0469685 transformation: ((0 0 0) (0.989133 (0 0 0.147021)))
AMI: Creating addressing and weights between 9600 source faces and 9600 target faces
AMI: Patch source sum(weights) min/max/average = 1, 1, 1
AMI: Patch target sum(weights) min/max/average = 1, 1, 1
smoothSolver:  Solving for Ux, Initial residual = 0.00143446, Final residual = 3.50338e-07, No Iterations 4
smoothSolver:  Solving for Uy, Initial residual = 0.00143463, Final residual = 3.49954e-07, No Iterations 4
GAMG:  Solving for p, Initial residual = 0.0303155, Final residual = 0.000246288, No Iterations 7
time step continuity errors : sum local = 5.12877e-09, global = 1.21039e-11, cumulative = 1.14371e-07
GAMG:  Solving for p, Initial residual = 0.00522866, Final residual = 9.40656e-07, No Iterations 17
time step continuity errors : sum local = 3.15914e-11, global = 1.21784e-11, cumulative = 1.14383e-07
ExecutionTime = 587.97 s  ClockTime = 589 s

End

