/*---------------------------------------------------------------------------*\
| =========                 |                                                 |
| \\      /  F ield         | OpenFOAM: The Open Source CFD Toolbox           |
|  \\    /   O peration     | Version:  2.3.0                                 |
|   \\  /    A nd           | Web:      www.OpenFOAM.org                      |
|    \\/     M anipulation  |                                                 |
\*---------------------------------------------------------------------------*/
Build  : 2.3.0
Exec   : pimpleDyMFoam -parallel
Date   : Oct 10 2014
Time   : 10:16:36
Host   : "hpc01"
PID    : 3860
Case   : /home/bobo/OpenFOAM/experiment/incompressible/pimpleDyMFoam/mixerVesselAMI2D2
nProcs : 6
Slaves : 
5
(
"hpc01.3861"
"hpc01.3862"
"hpc01.3863"
"hpc01.3864"
"hpc01.3865"
)

Pstream initialized with:
    floatTransfer      : 0
    nProcsSimpleSum    : 0
    commsType          : nonBlocking
    polling iterations : 0
fileModificationChecking : Monitoring run-time modified files using timeStampMaster
allowSystemOperations : Disallowing user-supplied system call operations

// * * * * * * * * * * * * * * * * * * * * * * * * * * * * * * * * * * * * * //
Create time

Create mesh for time = 0.192678

Selecting dynamicFvMesh solidBodyMotionFvMesh
Selecting solid-body motion function rotatingMotion
Applying solid body motion to cellZone rotor

PIMPLE: Operating solver in PISO mode

Reading field p

Reading field U

Reading/calculating face flux field phi

AMI: Creating addressing and weights between 9600 source faces and 9600 target faces
AMI: Patch source sum(weights) min/max/average = 0.999999, 1, 1
AMI: Patch target sum(weights) min/max/average = 1, 1, 1
Selecting incompressible transport model Newtonian
Selecting turbulence model type laminar
Reading/calculating face velocity Uf

No finite volume options present

Courant Number mean: 0.0809912 max: 0.499618

Starting time loop

Courant Number mean: 0.0809912 max: 0.499618
deltaT = 0.000218755
Time = 0.192897

solidBodyMotionFunctions::rotatingMotion::transformation(): Time = 0.192897 transformation: ((0 0 0) (0.82193 (0 0 0.569588)))
AMI: Creating addressing and weights between 9600 source faces and 9600 target faces
AMI: Patch source sum(weights) min/max/average = 1, 1, 1
AMI: Patch target sum(weights) min/max/average = 1, 1, 1
smoothSolver:  Solving for Ux, Initial residual = 0.0027719, Final residual = 2.12089e-07, No Iterations 5
smoothSolver:  Solving for Uy, Initial residual = 0.00277277, Final residual = 2.08762e-07, No Iterations 5
GAMG:  Solving for p, Initial residual = 0.794811, Final residual = 0.00750469, No Iterations 42
time step continuity errors : sum local = 1.18514e-06, global = 6.5227e-07, cumulative = 6.5227e-07
GAMG:  Solving for p, Initial residual = 0.193897, Final residual = 8.84207e-07, No Iterations 107
time step continuity errors : sum local = 6.52948e-07, global = 6.52849e-07, cumulative = 1.30512e-06
ExecutionTime = 45.4 s  ClockTime = 46 s

Courant Number mean: 0.0807319 max: 1.25683
deltaT = 8.70269e-05
Time = 0.192984

solidBodyMotionFunctions::rotatingMotion::transformation(): Time = 0.192984 transformation: ((0 0 0) (0.821775 (0 0 0.569813)))
AMI: Creating addressing and weights between 9600 source faces and 9600 target faces
AMI: Patch source sum(weights) min/max/average = 1, 1, 1
AMI: Patch target sum(weights) min/max/average = 1, 1, 1
smoothSolver:  Solving for Ux, Initial residual = 0.00492142, Final residual = 2.50089e-07, No Iterations 4
smoothSolver:  Solving for Uy, Initial residual = 0.00491544, Final residual = 2.4981e-07, No Iterations 4
GAMG:  Solving for p, Initial residual = 0.857004, Final residual = 0.00854473, No Iterations 41
time step continuity errors : sum local = 4.24508e-07, global = 2.20859e-07, cumulative = 1.52598e-06
GAMG:  Solving for p, Initial residual = 0.123644, Final residual = 8.91894e-07, No Iterations 103
time step continuity errors : sum local = 2.20825e-07, global = 2.20802e-07, cumulative = 1.74678e-06
ExecutionTime = 80.87 s  ClockTime = 81 s

Courant Number mean: 0.0321296 max: 0.425047
deltaT = 9.72643e-05
Time = 0.193081

solidBodyMotionFunctions::rotatingMotion::transformation(): Time = 0.193081 transformation: ((0 0 0) (0.8216 (0 0 0.570064)))
AMI: Creating addressing and weights between 9600 source faces and 9600 target faces
AMI: Patch source sum(weights) min/max/average = 1, 1, 1
AMI: Patch target sum(weights) min/max/average = 1, 1, 1
smoothSolver:  Solving for Ux, Initial residual = 0.00539128, Final residual = 3.13284e-07, No Iterations 4
smoothSolver:  Solving for Uy, Initial residual = 0.00537601, Final residual = 3.11921e-07, No Iterations 4
GAMG:  Solving for p, Initial residual = 0.314619, Final residual = 0.00304845, No Iterations 37
time step continuity errors : sum local = 2.81012e-07, global = 2.10045e-07, cumulative = 1.95682e-06
GAMG:  Solving for p, Initial residual = 0.069079, Final residual = 9.20714e-07, No Iterations 99
time step continuity errors : sum local = 2.10095e-07, global = 2.10078e-07, cumulative = 2.1669e-06
ExecutionTime = 114.76 s  ClockTime = 115 s

Courant Number mean: 0.0359322 max: 0.404404
deltaT = 0.00010929
Time = 0.19319

solidBodyMotionFunctions::rotatingMotion::transformation(): Time = 0.19319 transformation: ((0 0 0) (0.821405 (0 0 0.570346)))
AMI: Creating addressing and weights between 9600 source faces and 9600 target faces
AMI: Patch source sum(weights) min/max/average = 1, 1, 1
AMI: Patch target sum(weights) min/max/average = 1, 1, 1
smoothSolver:  Solving for Ux, Initial residual = 0.00259148, Final residual = 2.89697e-07, No Iterations 4
smoothSolver:  Solving for Uy, Initial residual = 0.00259925, Final residual = 2.89293e-07, No Iterations 4
GAMG:  Solving for p, Initial residual = 0.162443, Final residual = 0.00148714, No Iterations 30
time step continuity errors : sum local = 2.29645e-07, global = 1.98269e-07, cumulative = 2.36517e-06
GAMG:  Solving for p, Initial residual = 0.0299629, Final residual = 8.78599e-07, No Iterations 67
time step continuity errors : sum local = 1.98301e-07, global = 1.98285e-07, cumulative = 2.56346e-06
ExecutionTime = 141.24 s  ClockTime = 141 s

Courant Number mean: 0.0404011 max: 0.3817
deltaT = 0.000123606
Time = 0.193314

solidBodyMotionFunctions::rotatingMotion::transformation(): Time = 0.193314 transformation: ((0 0 0) (0.821183 (0 0 0.570665)))
AMI: Creating addressing and weights between 9600 source faces and 9600 target faces
AMI: Patch source sum(weights) min/max/average = 1, 1, 1
AMI: Patch target sum(weights) min/max/average = 1, 1, 1
smoothSolver:  Solving for Ux, Initial residual = 0.00171186, Final residual = 3.18357e-07, No Iterations 4
smoothSolver:  Solving for Uy, Initial residual = 0.00173057, Final residual = 3.20289e-07, No Iterations 4
GAMG:  Solving for p, Initial residual = 0.123311, Final residual = 0.00120845, No Iterations 27
time step continuity errors : sum local = 2.12167e-07, global = 1.85358e-07, cumulative = 2.74881e-06
GAMG:  Solving for p, Initial residual = 0.0197342, Final residual = 9.14885e-07, No Iterations 98
time step continuity errors : sum local = 1.85386e-07, global = 1.85368e-07, cumulative = 2.93418e-06
ExecutionTime = 172.97 s  ClockTime = 173 s

Courant Number mean: 0.0457196 max: 0.356905
deltaT = 0.000140923
Time = 0.193455

solidBodyMotionFunctions::rotatingMotion::transformation(): Time = 0.193455 transformation: ((0 0 0) (0.82093 (0 0 0.571028)))
AMI: Creating addressing and weights between 9600 source faces and 9600 target faces
AMI: Patch source sum(weights) min/max/average = 1, 1, 1
AMI: Patch target sum(weights) min/max/average = 1, 1, 1
smoothSolver:  Solving for Ux, Initial residual = 0.00131239, Final residual = 3.83144e-07, No Iterations 4
smoothSolver:  Solving for Uy, Initial residual = 0.00133955, Final residual = 3.87998e-07, No Iterations 4
GAMG:  Solving for p, Initial residual = 0.103032, Final residual = 0.000978982, No Iterations 26
time step continuity errors : sum local = 1.95327e-07, global = 1.71158e-07, cumulative = 3.10534e-06
GAMG:  Solving for p, Initial residual = 0.0152225, Final residual = 9.93286e-07, No Iterations 91
time step continuity errors : sum local = 1.71188e-07, global = 1.71166e-07, cumulative = 3.27651e-06
ExecutionTime = 203.19 s  ClockTime = 203 s

Courant Number mean: 0.0521497 max: 0.330675
deltaT = 0.000162231
Time = 0.193617

solidBodyMotionFunctions::rotatingMotion::transformation(): Time = 0.193617 transformation: ((0 0 0) (0.820639 (0 0 0.571447)))
AMI: Creating addressing and weights between 9600 source faces and 9600 target faces
AMI: Patch source sum(weights) min/max/average = 1, 1, 1
AMI: Patch target sum(weights) min/max/average = 1, 1, 1
smoothSolver:  Solving for Ux, Initial residual = 0.00114885, Final residual = 5.0308e-07, No Iterations 4
smoothSolver:  Solving for Uy, Initial residual = 0.00118166, Final residual = 5.12012e-07, No Iterations 4
GAMG:  Solving for p, Initial residual = 0.0975648, Final residual = 0.000969902, No Iterations 29
time step continuity errors : sum local = 1.82745e-07, global = 1.55758e-07, cumulative = 3.43226e-06
GAMG:  Solving for p, Initial residual = 0.0130759, Final residual = 8.84211e-07, No Iterations 65
time step continuity errors : sum local = 1.55785e-07, global = 1.55762e-07, cumulative = 3.58803e-06
ExecutionTime = 228.98 s  ClockTime = 229 s

Courant Number mean: 0.0600588 max: 0.37132
deltaT = 0.000184076
Time = 0.193801

solidBodyMotionFunctions::rotatingMotion::transformation(): Time = 0.193801 transformation: ((0 0 0) (0.820309 (0 0 0.571921)))
AMI: Creating addressing and weights between 9600 source faces and 9600 target faces
AMI: Patch source sum(weights) min/max/average = 1, 1, 1
AMI: Patch target sum(weights) min/max/average = 1, 1, 1
smoothSolver:  Solving for Ux, Initial residual = 0.00110017, Final residual = 6.44995e-07, No Iterations 4
smoothSolver:  Solving for Uy, Initial residual = 0.00113365, Final residual = 6.57741e-07, No Iterations 4
GAMG:  Solving for p, Initial residual = 0.0908279, Final residual = 0.000873826, No Iterations 28
time step continuity errors : sum local = 1.63032e-07, global = 1.36551e-07, cumulative = 3.72458e-06
GAMG:  Solving for p, Initial residual = 0.0113113, Final residual = 9.48041e-07, No Iterations 76
time step continuity errors : sum local = 1.3658e-07, global = 1.36553e-07, cumulative = 3.86113e-06
ExecutionTime = 256.76 s  ClockTime = 257 s

Courant Number mean: 0.0681678 max: 0.420844
deltaT = 0.000205946
Time = 0.194007

solidBodyMotionFunctions::rotatingMotion::transformation(): Time = 0.194007 transformation: ((0 0 0) (0.819938 (0 0 0.572452)))
AMI: Creating addressing and weights between 9600 source faces and 9600 target faces
AMI: Patch source sum(weights) min/max/average = 1, 1, 1
AMI: Patch target sum(weights) min/max/average = 1, 1, 1
smoothSolver:  Solving for Ux, Initial residual = 0.001118, Final residual = 8.22092e-07, No Iterations 4
smoothSolver:  Solving for Uy, Initial residual = 0.00114983, Final residual = 8.3872e-07, No Iterations 4
GAMG:  Solving for p, Initial residual = 0.0862095, Final residual = 0.000831563, No Iterations 26
time step continuity errors : sum local = 1.42934e-07, global = 1.15607e-07, cumulative = 3.97674e-06
GAMG:  Solving for p, Initial residual = 0.00993523, Final residual = 9.57425e-07, No Iterations 65
time step continuity errors : sum local = 1.15643e-07, global = 1.15613e-07, cumulative = 4.09235e-06
ExecutionTime = 282.05 s  ClockTime = 282 s

Courant Number mean: 0.076286 max: 0.470415
deltaT = 0.000218898
Time = 0.194226

solidBodyMotionFunctions::rotatingMotion::transformation(): Time = 0.194226 transformation: ((0 0 0) (0.819545 (0 0 0.573015)))
AMI: Creating addressing and weights between 9600 source faces and 9600 target faces
AMI: Patch source sum(weights) min/max/average = 1, 1, 1
AMI: Patch target sum(weights) min/max/average = 1, 1, 1
smoothSolver:  Solving for Ux, Initial residual = 0.00113916, Final residual = 9.37264e-07, No Iterations 4
smoothSolver:  Solving for Uy, Initial residual = 0.00116504, Final residual = 9.52776e-07, No Iterations 4
GAMG:  Solving for p, Initial residual = 0.0734878, Final residual = 0.00072909, No Iterations 25
time step continuity errors : sum local = 1.16177e-07, global = 9.20766e-08, cumulative = 4.18443e-06
GAMG:  Solving for p, Initial residual = 0.00817527, Final residual = 9.02317e-07, No Iterations 59
time step continuity errors : sum local = 9.21124e-08, global = 9.20835e-08, cumulative = 4.27651e-06
ExecutionTime = 312.39 s  ClockTime = 313 s

End

Finalising parallel run
