/*---------------------------------------------------------------------------*\
| =========                 |                                                 |
| \\      /  F ield         | OpenFOAM: The Open Source CFD Toolbox           |
|  \\    /   O peration     | Version:  2.3.0                                 |
|   \\  /    A nd           | Web:      www.OpenFOAM.org                      |
|    \\/     M anipulation  |                                                 |
\*---------------------------------------------------------------------------*/
Build  : 2.3.0
Exec   : pimpleDyMFoam -parallel
Date   : Oct 10 2014
Time   : 09:50:11
Host   : "hpc01"
PID    : 3792
Case   : /home/bobo/OpenFOAM/experiment/incompressible/pimpleDyMFoam/mixerVesselAMI2D2
nProcs : 3
Slaves : 
2
(
"hpc01.3793"
"hpc01.3794"
)

Pstream initialized with:
    floatTransfer      : 0
    nProcsSimpleSum    : 0
    commsType          : nonBlocking
    polling iterations : 0
fileModificationChecking : Monitoring run-time modified files using timeStampMaster
allowSystemOperations : Disallowing user-supplied system call operations

// * * * * * * * * * * * * * * * * * * * * * * * * * * * * * * * * * * * * * //
Create time

Create mesh for time = 0.189523

Selecting dynamicFvMesh solidBodyMotionFvMesh
Selecting solid-body motion function rotatingMotion
Applying solid body motion to cellZone rotor

PIMPLE: Operating solver in PISO mode

Reading field p

Reading field U

Reading/calculating face flux field phi

AMI: Creating addressing and weights between 9600 source faces and 9600 target faces
AMI: Patch source sum(weights) min/max/average = 1, 1, 1
AMI: Patch target sum(weights) min/max/average = 1, 1, 1
Selecting incompressible transport model Newtonian
Selecting turbulence model type laminar
Reading/calculating face velocity Uf

No finite volume options present

Courant Number mean: 0.0804864 max: 0.499519

Starting time loop

Courant Number mean: 0.0804864 max: 0.499519
deltaT = 0.000217616
Time = 0.189741

solidBodyMotionFunctions::rotatingMotion::transformation(): Time = 0.189741 transformation: ((0 0 0) (0.827538 (0 0 0.56141)))
AMI: Creating addressing and weights between 9600 source faces and 9600 target faces
AMI: Patch source sum(weights) min/max/average = 1, 1, 1
AMI: Patch target sum(weights) min/max/average = 1, 1, 1
smoothSolver:  Solving for Ux, Initial residual = 0.00276013, Final residual = 1.9572e-07, No Iterations 5
smoothSolver:  Solving for Uy, Initial residual = 0.00277283, Final residual = 1.95967e-07, No Iterations 5
GAMG:  Solving for p, Initial residual = 0.713276, Final residual = 0.00693583, No Iterations 41
time step continuity errors : sum local = 1.11382e-06, global = 5.47297e-07, cumulative = 5.47297e-07
GAMG:  Solving for p, Initial residual = 0.174612, Final residual = 9.33947e-07, No Iterations 130
time step continuity errors : sum local = 5.47913e-07, global = 5.478e-07, cumulative = 1.0951e-06
ExecutionTime = 67.1 s  ClockTime = 68 s

Courant Number mean: 0.0802986 max: 1.97017
deltaT = 5.52279e-05
Time = 0.189796

solidBodyMotionFunctions::rotatingMotion::transformation(): Time = 0.189796 transformation: ((0 0 0) (0.82744 (0 0 0.561554)))
AMI: Creating addressing and weights between 9600 source faces and 9600 target faces
AMI: Patch source sum(weights) min/max/average = 1, 1, 1
AMI: Patch target sum(weights) min/max/average = 1, 1, 1
smoothSolver:  Solving for Ux, Initial residual = 0.00302132, Final residual = 3.90116e-07, No Iterations 3
smoothSolver:  Solving for Uy, Initial residual = 0.00299523, Final residual = 3.87021e-07, No Iterations 3
GAMG:  Solving for p, Initial residual = 0.816283, Final residual = 0.00783934, No Iterations 40
time step continuity errors : sum local = 2.077e-07, global = 1.1466e-07, cumulative = 1.20976e-06
GAMG:  Solving for p, Initial residual = 0.0725326, Final residual = 9.87241e-07, No Iterations 167
time step continuity errors : sum local = 1.14664e-07, global = 1.1465e-07, cumulative = 1.32441e-06
ExecutionTime = 124.72 s  ClockTime = 125 s

Courant Number mean: 0.0203754 max: 0.412336
deltaT = 6.19249e-05
Time = 0.189858

solidBodyMotionFunctions::rotatingMotion::transformation(): Time = 0.189858 transformation: ((0 0 0) (0.827331 (0 0 0.561715)))
AMI: Creating addressing and weights between 9600 source faces and 9600 target faces
AMI: Patch source sum(weights) min/max/average = 1, 1, 1
AMI: Patch target sum(weights) min/max/average = 1, 1, 1
smoothSolver:  Solving for Ux, Initial residual = 0.00487336, Final residual = 6.45941e-07, No Iterations 3
smoothSolver:  Solving for Uy, Initial residual = 0.00485719, Final residual = 6.38083e-07, No Iterations 3
GAMG:  Solving for p, Initial residual = 0.275887, Final residual = 0.0025902, No Iterations 38
time step continuity errors : sum local = 1.50511e-07, global = 1.14409e-07, cumulative = 1.43882e-06
GAMG:  Solving for p, Initial residual = 0.0463056, Final residual = 9.86664e-07, No Iterations 144
time step continuity errors : sum local = 1.14427e-07, global = 1.14416e-07, cumulative = 1.55323e-06
ExecutionTime = 176.7 s  ClockTime = 177 s

Courant Number mean: 0.0228554 max: 0.411497
deltaT = 6.94492e-05
Time = 0.189927

solidBodyMotionFunctions::rotatingMotion::transformation(): Time = 0.189927 transformation: ((0 0 0) (0.827208 (0 0 0.561895)))
AMI: Creating addressing and weights between 9600 source faces and 9600 target faces
AMI: Patch source sum(weights) min/max/average = 1, 1, 1
AMI: Patch target sum(weights) min/max/average = 1, 1, 1
smoothSolver:  Solving for Ux, Initial residual = 0.00235214, Final residual = 5.30865e-07, No Iterations 3
smoothSolver:  Solving for Uy, Initial residual = 0.00234115, Final residual = 5.23112e-07, No Iterations 3
GAMG:  Solving for p, Initial residual = 0.149302, Final residual = 0.00138505, No Iterations 37
time step continuity errors : sum local = 1.29758e-07, global = 1.13164e-07, cumulative = 1.6664e-06
GAMG:  Solving for p, Initial residual = 0.0210232, Final residual = 9.88153e-07, No Iterations 98
time step continuity errors : sum local = 1.13178e-07, global = 1.13168e-07, cumulative = 1.77956e-06
ExecutionTime = 217.68 s  ClockTime = 218 s

Courant Number mean: 0.0256452 max: 0.407007
deltaT = 7.79809e-05
Time = 0.190005

solidBodyMotionFunctions::rotatingMotion::transformation(): Time = 0.190005 transformation: ((0 0 0) (0.827071 (0 0 0.562098)))
AMI: Creating addressing and weights between 9600 source faces and 9600 target faces
AMI: Patch source sum(weights) min/max/average = 1, 1, 1
AMI: Patch target sum(weights) min/max/average = 1, 1, 1
smoothSolver:  Solving for Ux, Initial residual = 0.00154848, Final residual = 5.36351e-07, No Iterations 3
smoothSolver:  Solving for Uy, Initial residual = 0.00153861, Final residual = 5.27461e-07, No Iterations 3
GAMG:  Solving for p, Initial residual = 0.10844, Final residual = 0.00102971, No Iterations 33
time step continuity errors : sum local = 1.23488e-07, global = 1.10837e-07, cumulative = 1.8904e-06
GAMG:  Solving for p, Initial residual = 0.0137415, Final residual = 9.98873e-07, No Iterations 110
time step continuity errors : sum local = 1.10851e-07, global = 1.1084e-07, cumulative = 2.00124e-06
ExecutionTime = 260.55 s  ClockTime = 261 s

Courant Number mean: 0.0288097 max: 0.398633
deltaT = 8.7762e-05
Time = 0.190093

solidBodyMotionFunctions::rotatingMotion::transformation(): Time = 0.190093 transformation: ((0 0 0) (0.826916 (0 0 0.562326)))
AMI: Creating addressing and weights between 9600 source faces and 9600 target faces
AMI: Patch source sum(weights) min/max/average = 1, 1, 1
AMI: Patch target sum(weights) min/max/average = 1, 1, 1
smoothSolver:  Solving for Ux, Initial residual = 0.00116573, Final residual = 5.86697e-07, No Iterations 3
smoothSolver:  Solving for Uy, Initial residual = 0.0011607, Final residual = 5.7589e-07, No Iterations 3
GAMG:  Solving for p, Initial residual = 0.0920807, Final residual = 0.000877709, No Iterations 25
time step continuity errors : sum local = 1.18801e-07, global = 1.07427e-07, cumulative = 2.10867e-06
GAMG:  Solving for p, Initial residual = 0.0104403, Final residual = 9.07025e-07, No Iterations 82
time step continuity errors : sum local = 1.0744e-07, global = 1.07429e-07, cumulative = 2.2161e-06
ExecutionTime = 295.01 s  ClockTime = 296 s

Courant Number mean: 0.0324377 max: 0.386367
deltaT = 9.91193e-05
Time = 0.190192

solidBodyMotionFunctions::rotatingMotion::transformation(): Time = 0.190192 transformation: ((0 0 0) (0.82674 (0 0 0.562584)))
AMI: Creating addressing and weights between 9600 source faces and 9600 target faces
AMI: Patch source sum(weights) min/max/average = 1, 1, 1
AMI: Patch target sum(weights) min/max/average = 1, 1, 1
smoothSolver:  Solving for Ux, Initial residual = 0.000961204, Final residual = 6.80027e-07, No Iterations 3
smoothSolver:  Solving for Uy, Initial residual = 0.000960213, Final residual = 6.65175e-07, No Iterations 3
GAMG:  Solving for p, Initial residual = 0.0842115, Final residual = 0.000780037, No Iterations 23
time step continuity errors : sum local = 1.14037e-07, global = 1.02977e-07, cumulative = 2.31907e-06
GAMG:  Solving for p, Initial residual = 0.00869605, Final residual = 9.3149e-07, No Iterations 105
time step continuity errors : sum local = 1.02991e-07, global = 1.02979e-07, cumulative = 2.42205e-06
ExecutionTime = 334.32 s  ClockTime = 335 s

Courant Number mean: 0.0366501 max: 0.370392
deltaT = 0.0001125
Time = 0.190305

solidBodyMotionFunctions::rotatingMotion::transformation(): Time = 0.190305 transformation: ((0 0 0) (0.826542 (0 0 0.562876)))
AMI: Creating addressing and weights between 9600 source faces and 9600 target faces
AMI: Patch source sum(weights) min/max/average = 1, 1, 1
AMI: Patch target sum(weights) min/max/average = 1, 1, 1
smoothSolver:  Solving for Ux, Initial residual = 0.000862768, Final residual = 8.34654e-07, No Iterations 3
smoothSolver:  Solving for Uy, Initial residual = 0.000864517, Final residual = 8.1449e-07, No Iterations 3
GAMG:  Solving for p, Initial residual = 0.0814306, Final residual = 0.00076142, No Iterations 22
time step continuity errors : sum local = 1.09687e-07, global = 9.75307e-08, cumulative = 2.51958e-06
GAMG:  Solving for p, Initial residual = 0.00777403, Final residual = 9.9669e-07, No Iterations 99
time step continuity errors : sum local = 9.75474e-08, global = 9.75326e-08, cumulative = 2.61711e-06
ExecutionTime = 372.18 s  ClockTime = 373 s

Courant Number mean: 0.0416123 max: 0.351176
deltaT = 0.000128517
Time = 0.190433

solidBodyMotionFunctions::rotatingMotion::transformation(): Time = 0.190433 transformation: ((0 0 0) (0.826314 (0 0 0.563209)))
AMI: Creating addressing and weights between 9600 source faces and 9600 target faces
AMI: Patch source sum(weights) min/max/average = 1, 1, 1
AMI: Patch target sum(weights) min/max/average = 1, 1, 1
smoothSolver:  Solving for Ux, Initial residual = 0.000839158, Final residual = 1.69768e-07, No Iterations 4
smoothSolver:  Solving for Uy, Initial residual = 0.000843211, Final residual = 1.6475e-07, No Iterations 4
GAMG:  Solving for p, Initial residual = 0.0809624, Final residual = 0.000797589, No Iterations 25
time step continuity errors : sum local = 1.05501e-07, global = 9.1138e-08, cumulative = 2.70825e-06
GAMG:  Solving for p, Initial residual = 0.00738156, Final residual = 9.46142e-07, No Iterations 109
time step continuity errors : sum local = 9.11553e-08, global = 9.11395e-08, cumulative = 2.79939e-06
ExecutionTime = 413.08 s  ClockTime = 414 s

Courant Number mean: 0.0475516 max: 0.328531
deltaT = 0.000148077
Time = 0.190581

solidBodyMotionFunctions::rotatingMotion::transformation(): Time = 0.190581 transformation: ((0 0 0) (0.826052 (0 0 0.563594)))
AMI: Creating addressing and weights between 9600 source faces and 9600 target faces
AMI: Patch source sum(weights) min/max/average = 1, 1, 1
AMI: Patch target sum(weights) min/max/average = 1, 1, 1
smoothSolver:  Solving for Ux, Initial residual = 0.000868819, Final residual = 2.53445e-07, No Iterations 4
smoothSolver:  Solving for Uy, Initial residual = 0.000873758, Final residual = 2.45707e-07, No Iterations 4
GAMG:  Solving for p, Initial residual = 0.0817859, Final residual = 0.000760197, No Iterations 25
time step continuity errors : sum local = 9.96057e-08, global = 8.39016e-08, cumulative = 2.88329e-06
GAMG:  Solving for p, Initial residual = 0.00714198, Final residual = 9.72672e-07, No Iterations 72
time step continuity errors : sum local = 8.39207e-08, global = 8.3902e-08, cumulative = 2.9672e-06
ExecutionTime = 457.72 s  ClockTime = 458 s

End

Finalising parallel run
