/*---------------------------------------------------------------------------*\
| =========                 |                                                 |
| \\      /  F ield         | OpenFOAM: The Open Source CFD Toolbox           |
|  \\    /   O peration     | Version:  2.3.0                                 |
|   \\  /    A nd           | Web:      www.OpenFOAM.org                      |
|    \\/     M anipulation  |                                                 |
\*---------------------------------------------------------------------------*/
Build  : 2.3.0
Exec   : pimpleDyMFoam -parallel
Date   : Oct 10 2014
Time   : 09:36:45
Host   : "hpc01"
PID    : 3751
Case   : /home/bobo/OpenFOAM/experiment/incompressible/pimpleDyMFoam/mixerVesselAMI2D2
nProcs : 6
Slaves : 
5
(
"hpc01.3752"
"hpc01.3753"
"hpc01.3754"
"hpc01.3755"
"hpc01.3756"
)

Pstream initialized with:
    floatTransfer      : 0
    nProcsSimpleSum    : 0
    commsType          : nonBlocking
    polling iterations : 0
fileModificationChecking : Monitoring run-time modified files using timeStampMaster
allowSystemOperations : Disallowing user-supplied system call operations

// * * * * * * * * * * * * * * * * * * * * * * * * * * * * * * * * * * * * * //
Create time

Create mesh for time = 0.188039

Selecting dynamicFvMesh solidBodyMotionFvMesh
Selecting solid-body motion function rotatingMotion
Applying solid body motion to cellZone rotor

PIMPLE: Operating solver in PISO mode

Reading field p

Reading field U

Reading/calculating face flux field phi

AMI: Creating addressing and weights between 9600 source faces and 9600 target faces
AMI: Patch source sum(weights) min/max/average = 1, 1, 1
AMI: Patch target sum(weights) min/max/average = 1, 1, 1
Selecting incompressible transport model Newtonian
Selecting turbulence model type laminar
Reading/calculating face velocity Uf

No finite volume options present

Courant Number mean: 0.0804015 max: 0.499732

Starting time loop

Courant Number mean: 0.0804015 max: 0.499732
deltaT = 0.000217297
Time = 0.188256

solidBodyMotionFunctions::rotatingMotion::transformation(): Time = 0.188256 transformation: ((0 0 0) (0.830146 (0 0 0.557545)))
AMI: Creating addressing and weights between 9600 source faces and 9600 target faces
AMI: Patch source sum(weights) min/max/average = 1, 1, 1
AMI: Patch target sum(weights) min/max/average = 1, 1, 1
smoothSolver:  Solving for Ux, Initial residual = 0.00277165, Final residual = 2.07758e-07, No Iterations 5
smoothSolver:  Solving for Uy, Initial residual = 0.00277233, Final residual = 2.03622e-07, No Iterations 5
GAMG:  Solving for p, Initial residual = 0.794427, Final residual = 0.00755931, No Iterations 42
time step continuity errors : sum local = 1.23669e-06, global = 7.02907e-07, cumulative = 7.02907e-07
GAMG:  Solving for p, Initial residual = 0.1941, Final residual = 5.4019e-07, No Iterations 111
time step continuity errors : sum local = 7.03757e-07, global = 7.03696e-07, cumulative = 1.4066e-06
ExecutionTime = 46.1 s  ClockTime = 46 s

Courant Number mean: 0.0801224 max: 1.3546
deltaT = 8.02072e-05
Time = 0.188337

solidBodyMotionFunctions::rotatingMotion::transformation(): Time = 0.188337 transformation: ((0 0 0) (0.830006 (0 0 0.557755)))
AMI: Creating addressing and weights between 9600 source faces and 9600 target faces
AMI: Patch source sum(weights) min/max/average = 1, 1, 1
AMI: Patch target sum(weights) min/max/average = 1, 1, 1
smoothSolver:  Solving for Ux, Initial residual = 0.00457268, Final residual = 1.69239e-07, No Iterations 4
smoothSolver:  Solving for Uy, Initial residual = 0.00456988, Final residual = 1.69112e-07, No Iterations 4
GAMG:  Solving for p, Initial residual = 0.860436, Final residual = 0.00795752, No Iterations 41
time step continuity errors : sum local = 3.72242e-07, global = 2.03345e-07, cumulative = 1.60995e-06
GAMG:  Solving for p, Initial residual = 0.112571, Final residual = 9.62627e-07, No Iterations 118
time step continuity errors : sum local = 2.0333e-07, global = 2.03308e-07, cumulative = 1.81326e-06
ExecutionTime = 85 s  ClockTime = 85 s

Courant Number mean: 0.0295892 max: 0.391371
deltaT = 9.04541e-05
Time = 0.188427

solidBodyMotionFunctions::rotatingMotion::transformation(): Time = 0.188427 transformation: ((0 0 0) (0.829847 (0 0 0.55799)))
AMI: Creating addressing and weights between 9600 source faces and 9600 target faces
AMI: Patch source sum(weights) min/max/average = 1, 1, 1
AMI: Patch target sum(weights) min/max/average = 1, 1, 1
smoothSolver:  Solving for Ux, Initial residual = 0.00536243, Final residual = 2.27604e-07, No Iterations 4
smoothSolver:  Solving for Uy, Initial residual = 0.00534984, Final residual = 2.26957e-07, No Iterations 4
GAMG:  Solving for p, Initial residual = 0.324876, Final residual = 0.0031048, No Iterations 35
time step continuity errors : sum local = 2.63831e-07, global = 1.97073e-07, cumulative = 2.01033e-06
GAMG:  Solving for p, Initial residual = 0.068251, Final residual = 9.69117e-07, No Iterations 58
time step continuity errors : sum local = 1.97101e-07, global = 1.97085e-07, cumulative = 2.20742e-06
ExecutionTime = 111.02 s  ClockTime = 111 s

Courant Number mean: 0.0333889 max: 0.379392
deltaT = 0.000102375
Time = 0.188529

solidBodyMotionFunctions::rotatingMotion::transformation(): Time = 0.188529 transformation: ((0 0 0) (0.829668 (0 0 0.558257)))
AMI: Creating addressing and weights between 9600 source faces and 9600 target faces
AMI: Patch source sum(weights) min/max/average = 1, 1, 1
AMI: Patch target sum(weights) min/max/average = 1, 1, 1
smoothSolver:  Solving for Ux, Initial residual = 0.00259924, Final residual = 2.24454e-07, No Iterations 4
smoothSolver:  Solving for Uy, Initial residual = 0.00260642, Final residual = 2.23832e-07, No Iterations 4
GAMG:  Solving for p, Initial residual = 0.165518, Final residual = 0.0016089, No Iterations 32
time step continuity errors : sum local = 2.2005e-07, global = 1.89143e-07, cumulative = 2.39656e-06
GAMG:  Solving for p, Initial residual = 0.0294847, Final residual = 9.66828e-07, No Iterations 92
time step continuity errors : sum local = 1.8916e-07, global = 1.89144e-07, cumulative = 2.5857e-06
ExecutionTime = 143 s  ClockTime = 143 s

Courant Number mean: 0.0378129 max: 0.364105
deltaT = 0.000116434
Time = 0.188646

solidBodyMotionFunctions::rotatingMotion::transformation(): Time = 0.188646 transformation: ((0 0 0) (0.829464 (0 0 0.558561)))
AMI: Creating addressing and weights between 9600 source faces and 9600 target faces
AMI: Patch source sum(weights) min/max/average = 1, 1, 1
AMI: Patch target sum(weights) min/max/average = 1, 1, 1
smoothSolver:  Solving for Ux, Initial residual = 0.00172157, Final residual = 2.54084e-07, No Iterations 4
smoothSolver:  Solving for Uy, Initial residual = 0.00173857, Final residual = 2.55231e-07, No Iterations 4
GAMG:  Solving for p, Initial residual = 0.123247, Final residual = 0.00114537, No Iterations 28
time step continuity errors : sum local = 2.02959e-07, global = 1.79463e-07, cumulative = 2.76517e-06
GAMG:  Solving for p, Initial residual = 0.0192863, Final residual = 9.15451e-07, No Iterations 80
time step continuity errors : sum local = 1.79483e-07, global = 1.79467e-07, cumulative = 2.94463e-06
ExecutionTime = 171.95 s  ClockTime = 172 s

Courant Number mean: 0.0430299 max: 0.345475
deltaT = 0.000133285
Time = 0.188779

solidBodyMotionFunctions::rotatingMotion::transformation(): Time = 0.188779 transformation: ((0 0 0) (0.82923 (0 0 0.558908)))
AMI: Creating addressing and weights between 9600 source faces and 9600 target faces
AMI: Patch source sum(weights) min/max/average = 1, 1, 1
AMI: Patch target sum(weights) min/max/average = 1, 1, 1
smoothSolver:  Solving for Ux, Initial residual = 0.00131605, Final residual = 3.12962e-07, No Iterations 4
smoothSolver:  Solving for Uy, Initial residual = 0.0013412, Final residual = 3.16256e-07, No Iterations 4
GAMG:  Solving for p, Initial residual = 0.102101, Final residual = 0.000990394, No Iterations 26
time step continuity errors : sum local = 1.90593e-07, global = 1.68085e-07, cumulative = 3.11272e-06
GAMG:  Solving for p, Initial residual = 0.0149178, Final residual = 8.13062e-07, No Iterations 83
time step continuity errors : sum local = 1.68107e-07, global = 1.68091e-07, cumulative = 3.28081e-06
ExecutionTime = 201.01 s  ClockTime = 201 s

Courant Number mean: 0.0492817 max: 0.324561
deltaT = 0.000153818
Time = 0.188933

solidBodyMotionFunctions::rotatingMotion::transformation(): Time = 0.188933 transformation: ((0 0 0) (0.82896 (0 0 0.559309)))
AMI: Creating addressing and weights between 9600 source faces and 9600 target faces
AMI: Patch source sum(weights) min/max/average = 1, 1, 1
AMI: Patch target sum(weights) min/max/average = 1, 1, 1
smoothSolver:  Solving for Ux, Initial residual = 0.00113884, Final residual = 4.16925e-07, No Iterations 4
smoothSolver:  Solving for Uy, Initial residual = 0.00116884, Final residual = 4.23468e-07, No Iterations 4
GAMG:  Solving for p, Initial residual = 0.0956941, Final residual = 0.000920279, No Iterations 30
time step continuity errors : sum local = 1.7843e-07, global = 1.5501e-07, cumulative = 3.43582e-06
GAMG:  Solving for p, Initial residual = 0.0127662, Final residual = 9.87487e-07, No Iterations 95
time step continuity errors : sum local = 1.55041e-07, global = 1.55017e-07, cumulative = 3.59083e-06
ExecutionTime = 233.2 s  ClockTime = 233 s

Courant Number mean: 0.0568975 max: 0.354561
deltaT = 0.000175509
Time = 0.189108

solidBodyMotionFunctions::rotatingMotion::transformation(): Time = 0.189108 transformation: ((0 0 0) (0.828651 (0 0 0.559766)))
AMI: Creating addressing and weights between 9600 source faces and 9600 target faces
AMI: Patch source sum(weights) min/max/average = 1, 1, 1
AMI: Patch target sum(weights) min/max/average = 1, 1, 1
smoothSolver:  Solving for Ux, Initial residual = 0.00108285, Final residual = 5.48668e-07, No Iterations 4
smoothSolver:  Solving for Uy, Initial residual = 0.00111473, Final residual = 5.58473e-07, No Iterations 4
GAMG:  Solving for p, Initial residual = 0.0894725, Final residual = 0.000845176, No Iterations 29
time step continuity errors : sum local = 1.62409e-07, global = 1.38071e-07, cumulative = 3.7289e-06
GAMG:  Solving for p, Initial residual = 0.0111148, Final residual = 9.96077e-07, No Iterations 102
time step continuity errors : sum local = 1.38105e-07, global = 1.38079e-07, cumulative = 3.86698e-06
ExecutionTime = 266.6 s  ClockTime = 266 s

Courant Number mean: 0.0649433 max: 0.404059
deltaT = 0.000197227
Time = 0.189306

solidBodyMotionFunctions::rotatingMotion::transformation(): Time = 0.189306 transformation: ((0 0 0) (0.828304 (0 0 0.560279)))
AMI: Creating addressing and weights between 9600 source faces and 9600 target faces
AMI: Patch source sum(weights) min/max/average = 1, 1, 1
AMI: Patch target sum(weights) min/max/average = 1, 1, 1
smoothSolver:  Solving for Ux, Initial residual = 0.00109366, Final residual = 7.09084e-07, No Iterations 4
smoothSolver:  Solving for Uy, Initial residual = 0.0011246, Final residual = 7.21878e-07, No Iterations 4
GAMG:  Solving for p, Initial residual = 0.0846507, Final residual = 0.000811883, No Iterations 27
time step continuity errors : sum local = 1.4416e-07, global = 1.18538e-07, cumulative = 3.98552e-06
GAMG:  Solving for p, Initial residual = 0.00981766, Final residual = 9.63536e-07, No Iterations 48
time step continuity errors : sum local = 1.18573e-07, global = 1.18545e-07, cumulative = 4.10407e-06
ExecutionTime = 289.03 s  ClockTime = 289 s

Courant Number mean: 0.0729997 max: 0.453591
deltaT = 0.000217407
Time = 0.189523

solidBodyMotionFunctions::rotatingMotion::transformation(): Time = 0.189523 transformation: ((0 0 0) (0.827921 (0 0 0.560845)))
AMI: Creating addressing and weights between 9600 source faces and 9600 target faces
AMI: Patch source sum(weights) min/max/average = 1, 1, 1
AMI: Patch target sum(weights) min/max/average = 1, 1, 1
smoothSolver:  Solving for Ux, Initial residual = 0.00114703, Final residual = 9.19713e-07, No Iterations 4
smoothSolver:  Solving for Uy, Initial residual = 0.00117386, Final residual = 9.3426e-07, No Iterations 4
GAMG:  Solving for p, Initial residual = 0.0789167, Final residual = 0.00077155, No Iterations 10
time step continuity errors : sum local = 1.23993e-07, global = 9.79763e-08, cumulative = 4.20204e-06
GAMG:  Solving for p, Initial residual = 0.00864633, Final residual = 9.80651e-07, No Iterations 71
time step continuity errors : sum local = 9.80091e-08, global = 9.7978e-08, cumulative = 4.30002e-06
ExecutionTime = 319.1 s  ClockTime = 319 s

End

Finalising parallel run
