/*---------------------------------------------------------------------------*\
| =========                 |                                                 |
| \\      /  F ield         | OpenFOAM: The Open Source CFD Toolbox           |
|  \\    /   O peration     | Version:  2.3.0                                 |
|   \\  /    A nd           | Web:      www.OpenFOAM.org                      |
|    \\/     M anipulation  |                                                 |
\*---------------------------------------------------------------------------*/
Build  : 2.3.0
Exec   : pimpleDyMFoam -parallel
Date   : Oct 10 2014
Time   : 09:50:08
Host   : "hpc01"
PID    : 3788
Case   : /home/bobo/OpenFOAM/experiment/incompressible/pimpleDyMFoam/mixerVesselAMI2D1
nProcs : 3
Slaves : 
2
(
"hpc01.3789"
"hpc01.3790"
)

Pstream initialized with:
    floatTransfer      : 0
    nProcsSimpleSum    : 0
    commsType          : nonBlocking
    polling iterations : 0
fileModificationChecking : Monitoring run-time modified files using timeStampMaster
allowSystemOperations : Disallowing user-supplied system call operations

// * * * * * * * * * * * * * * * * * * * * * * * * * * * * * * * * * * * * * //
Create time

Create mesh for time = 0.0419479

Selecting dynamicFvMesh solidBodyMotionFvMesh
Selecting solid-body motion function rotatingMotion
Applying solid body motion to cellZone rotor

PIMPLE: Operating solver in PISO mode

Reading field p

Reading field U

Reading/calculating face flux field phi

AMI: Creating addressing and weights between 9600 source faces and 9600 target faces
AMI: Patch source sum(weights) min/max/average = 1, 1, 1
AMI: Patch target sum(weights) min/max/average = 1, 1, 1
Selecting incompressible transport model Newtonian
Selecting turbulence model type laminar
Reading/calculating face velocity Uf

No finite volume options present

Courant Number mean: 0.0497178 max: 0.499879

Starting time loop

Courant Number mean: 0.0497178 max: 0.499879
deltaT = 0.000167113
Time = 0.042115

solidBodyMotionFunctions::rotatingMotion::transformation(): Time = 0.042115 transformation: ((0 0 0) (0.99126 (0 0 0.131923)))
AMI: Creating addressing and weights between 9600 source faces and 9600 target faces
AMI: Patch source sum(weights) min/max/average = 1, 1, 1
AMI: Patch target sum(weights) min/max/average = 1, 1, 1
smoothSolver:  Solving for Ux, Initial residual = 0.00320466, Final residual = 6.25026e-07, No Iterations 4
smoothSolver:  Solving for Uy, Initial residual = 0.00319933, Final residual = 6.25643e-07, No Iterations 4
GAMG:  Solving for p, Initial residual = 0.728463, Final residual = 0.00700905, No Iterations 41
time step continuity errors : sum local = 7.08633e-07, global = 2.22044e-07, cumulative = 2.22044e-07
GAMG:  Solving for p, Initial residual = 0.177029, Final residual = 8.94507e-07, No Iterations 131
time step continuity errors : sum local = 2.22178e-07, global = 2.22084e-07, cumulative = 4.44128e-07
ExecutionTime = 66.21 s  ClockTime = 66 s

Courant Number mean: 0.0500533 max: 0.522692
deltaT = 0.000159858
Time = 0.0422749

solidBodyMotionFunctions::rotatingMotion::transformation(): Time = 0.0422749 transformation: ((0 0 0) (0.991194 (0 0 0.132421)))
AMI: Creating addressing and weights between 9600 source faces and 9600 target faces
AMI: Patch source sum(weights) min/max/average = 1, 1, 1
AMI: Patch target sum(weights) min/max/average = 1, 1, 1
smoothSolver:  Solving for Ux, Initial residual = 0.0212904, Final residual = 5.61046e-07, No Iterations 5
smoothSolver:  Solving for Uy, Initial residual = 0.021035, Final residual = 5.53703e-07, No Iterations 5
GAMG:  Solving for p, Initial residual = 0.788698, Final residual = 0.00737762, No Iterations 39
time step continuity errors : sum local = 8.33019e-07, global = 1.4321e-07, cumulative = 5.87338e-07
GAMG:  Solving for p, Initial residual = 0.276901, Final residual = 9.09678e-07, No Iterations 147
time step continuity errors : sum local = 1.43227e-07, global = 1.4316e-07, cumulative = 7.30498e-07
ExecutionTime = 118.62 s  ClockTime = 119 s

Courant Number mean: 0.0477406 max: 0.486842
deltaT = 0.000164179
Time = 0.0424391

solidBodyMotionFunctions::rotatingMotion::transformation(): Time = 0.0424391 transformation: ((0 0 0) (0.991125 (0 0 0.132932)))
AMI: Creating addressing and weights between 9600 source faces and 9600 target faces
AMI: Patch source sum(weights) min/max/average = 1, 1, 1
AMI: Patch target sum(weights) min/max/average = 1, 1, 1
smoothSolver:  Solving for Ux, Initial residual = 0.0123437, Final residual = 3.36092e-07, No Iterations 5
smoothSolver:  Solving for Uy, Initial residual = 0.0122512, Final residual = 3.32729e-07, No Iterations 5
GAMG:  Solving for p, Initial residual = 0.374962, Final residual = 0.0036261, No Iterations 39
time step continuity errors : sum local = 2.97152e-07, global = 1.19458e-07, cumulative = 8.49956e-07
GAMG:  Solving for p, Initial residual = 0.137452, Final residual = 7.50357e-07, No Iterations 121
time step continuity errors : sum local = 1.19495e-07, global = 1.19468e-07, cumulative = 9.69424e-07
ExecutionTime = 165.16 s  ClockTime = 165 s

Courant Number mean: 0.0489817 max: 0.49477
deltaT = 0.000165915
Time = 0.042605

solidBodyMotionFunctions::rotatingMotion::transformation(): Time = 0.042605 transformation: ((0 0 0) (0.991056 (0 0 0.133448)))
AMI: Creating addressing and weights between 9600 source faces and 9600 target faces
AMI: Patch source sum(weights) min/max/average = 1, 1, 1
AMI: Patch target sum(weights) min/max/average = 1, 1, 1
smoothSolver:  Solving for Ux, Initial residual = 0.00464379, Final residual = 6.53934e-07, No Iterations 4
smoothSolver:  Solving for Uy, Initial residual = 0.00461776, Final residual = 6.49537e-07, No Iterations 4
GAMG:  Solving for p, Initial residual = 0.16545, Final residual = 0.00161493, No Iterations 37
time step continuity errors : sum local = 1.55439e-07, global = 9.83791e-08, cumulative = 1.0678e-06
GAMG:  Solving for p, Initial residual = 0.0455545, Final residual = 9.92712e-07, No Iterations 124
time step continuity errors : sum local = 9.84117e-08, global = 9.83803e-08, cumulative = 1.16618e-06
ExecutionTime = 211.78 s  ClockTime = 212 s

Courant Number mean: 0.0494846 max: 0.49683
deltaT = 0.000166973
Time = 0.0427719

solidBodyMotionFunctions::rotatingMotion::transformation(): Time = 0.0427719 transformation: ((0 0 0) (0.990986 (0 0 0.133968)))
AMI: Creating addressing and weights between 9600 source faces and 9600 target faces
AMI: Patch source sum(weights) min/max/average = 1, 1, 1
AMI: Patch target sum(weights) min/max/average = 1, 1, 1
smoothSolver:  Solving for Ux, Initial residual = 0.00273734, Final residual = 4.24032e-07, No Iterations 4
smoothSolver:  Solving for Uy, Initial residual = 0.00272434, Final residual = 4.21093e-07, No Iterations 4
GAMG:  Solving for p, Initial residual = 0.101313, Final residual = 0.000986497, No Iterations 35
time step continuity errors : sum local = 1.11481e-07, global = 8.08819e-08, cumulative = 1.24707e-06
GAMG:  Solving for p, Initial residual = 0.0233756, Final residual = 9.71004e-07, No Iterations 118
time step continuity errors : sum local = 8.09112e-08, global = 8.08824e-08, cumulative = 1.32795e-06
ExecutionTime = 256.48 s  ClockTime = 257 s

Courant Number mean: 0.0497999 max: 0.498339
deltaT = 0.00016753
Time = 0.0429395

solidBodyMotionFunctions::rotatingMotion::transformation(): Time = 0.0429395 transformation: ((0 0 0) (0.990915 (0 0 0.13449)))
AMI: Creating addressing and weights between 9600 source faces and 9600 target faces
AMI: Patch source sum(weights) min/max/average = 1, 1, 1
AMI: Patch target sum(weights) min/max/average = 1, 1, 1
smoothSolver:  Solving for Ux, Initial residual = 0.00202934, Final residual = 3.6794e-07, No Iterations 4
smoothSolver:  Solving for Uy, Initial residual = 0.00202389, Final residual = 3.66262e-07, No Iterations 4
GAMG:  Solving for p, Initial residual = 0.0716031, Final residual = 0.00069378, No Iterations 33
time step continuity errors : sum local = 8.63809e-08, global = 6.64976e-08, cumulative = 1.39445e-06
GAMG:  Solving for p, Initial residual = 0.0140982, Final residual = 9.71553e-07, No Iterations 89
time step continuity errors : sum local = 6.65254e-08, global = 6.64984e-08, cumulative = 1.46094e-06
ExecutionTime = 293.93 s  ClockTime = 294 s

Courant Number mean: 0.0499731 max: 0.499422
deltaT = 0.000167723
Time = 0.0431072

solidBodyMotionFunctions::rotatingMotion::transformation(): Time = 0.0431072 transformation: ((0 0 0) (0.990844 (0 0 0.135012)))
AMI: Creating addressing and weights between 9600 source faces and 9600 target faces
AMI: Patch source sum(weights) min/max/average = 1, 1, 1
AMI: Patch target sum(weights) min/max/average = 1, 1, 1
smoothSolver:  Solving for Ux, Initial residual = 0.00172915, Final residual = 3.527e-07, No Iterations 4
smoothSolver:  Solving for Uy, Initial residual = 0.00172342, Final residual = 3.51347e-07, No Iterations 4
GAMG:  Solving for p, Initial residual = 0.0554886, Final residual = 0.000519925, No Iterations 31
time step continuity errors : sum local = 6.87833e-08, global = 5.46803e-08, cumulative = 1.51562e-06
GAMG:  Solving for p, Initial residual = 0.009515, Final residual = 8.95897e-07, No Iterations 86
time step continuity errors : sum local = 5.4705e-08, global = 5.46809e-08, cumulative = 1.5703e-06
ExecutionTime = 330.4 s  ClockTime = 331 s

Courant Number mean: 0.0500423 max: 0.499628
deltaT = 0.000167849
Time = 0.043275

solidBodyMotionFunctions::rotatingMotion::transformation(): Time = 0.043275 transformation: ((0 0 0) (0.990773 (0 0 0.135534)))
AMI: Creating addressing and weights between 9600 source faces and 9600 target faces
AMI: Patch source sum(weights) min/max/average = 1, 1, 1
AMI: Patch target sum(weights) min/max/average = 1, 1, 1
smoothSolver:  Solving for Ux, Initial residual = 0.0015775, Final residual = 3.48e-07, No Iterations 4
smoothSolver:  Solving for Uy, Initial residual = 0.00157208, Final residual = 3.47022e-07, No Iterations 4
GAMG:  Solving for p, Initial residual = 0.0463225, Final residual = 0.000454218, No Iterations 27
time step continuity errors : sum local = 5.68557e-08, global = 4.50394e-08, cumulative = 1.61534e-06
GAMG:  Solving for p, Initial residual = 0.00706913, Final residual = 9.75521e-07, No Iterations 76
time step continuity errors : sum local = 4.50653e-08, global = 4.50399e-08, cumulative = 1.66038e-06
ExecutionTime = 363.63 s  ClockTime = 364 s

Courant Number mean: 0.0500937 max: 0.499704
deltaT = 0.000167948
Time = 0.043443

solidBodyMotionFunctions::rotatingMotion::transformation(): Time = 0.043443 transformation: ((0 0 0) (0.990701 (0 0 0.136057)))
AMI: Creating addressing and weights between 9600 source faces and 9600 target faces
AMI: Patch source sum(weights) min/max/average = 1, 1, 1
AMI: Patch target sum(weights) min/max/average = 1, 1, 1
smoothSolver:  Solving for Ux, Initial residual = 0.00149614, Final residual = 3.4707e-07, No Iterations 4
smoothSolver:  Solving for Uy, Initial residual = 0.00149128, Final residual = 3.46281e-07, No Iterations 4
GAMG:  Solving for p, Initial residual = 0.0405075, Final residual = 0.00039729, No Iterations 24
time step continuity errors : sum local = 4.72763e-08, global = 3.71603e-08, cumulative = 1.69754e-06
GAMG:  Solving for p, Initial residual = 0.00565797, Final residual = 7.26511e-07, No Iterations 72
time step continuity errors : sum local = 3.71784e-08, global = 3.71605e-08, cumulative = 1.7347e-06
ExecutionTime = 395.29 s  ClockTime = 396 s

Courant Number mean: 0.0501393 max: 0.499706
deltaT = 0.000168047
Time = 0.043611

solidBodyMotionFunctions::rotatingMotion::transformation(): Time = 0.043611 transformation: ((0 0 0) (0.990629 (0 0 0.13658)))
AMI: Creating addressing and weights between 9600 source faces and 9600 target faces
AMI: Patch source sum(weights) min/max/average = 1, 1, 1
AMI: Patch target sum(weights) min/max/average = 1, 1, 1
smoothSolver:  Solving for Ux, Initial residual = 0.00144925, Final residual = 3.47156e-07, No Iterations 4
smoothSolver:  Solving for Uy, Initial residual = 0.00144524, Final residual = 3.4654e-07, No Iterations 4
GAMG:  Solving for p, Initial residual = 0.0368014, Final residual = 0.000363203, No Iterations 21
time step continuity errors : sum local = 3.95637e-08, global = 3.07042e-08, cumulative = 1.76541e-06
GAMG:  Solving for p, Initial residual = 0.00482775, Final residual = 9.84193e-07, No Iterations 80
time step continuity errors : sum local = 3.07284e-08, global = 3.07043e-08, cumulative = 1.79611e-06
ExecutionTime = 441.12 s  ClockTime = 441 s

End

Finalising parallel run
