/*---------------------------------------------------------------------------*\
| =========                 |                                                 |
| \\      /  F ield         | OpenFOAM: The Open Source CFD Toolbox           |
|  \\    /   O peration     | Version:  2.3.0                                 |
|   \\  /    A nd           | Web:      www.OpenFOAM.org                      |
|    \\/     M anipulation  |                                                 |
\*---------------------------------------------------------------------------*/
Build  : 2.3.0
Exec   : pimpleDyMFoam
Date   : Oct 10 2014
Time   : 10:01:12
Host   : "hpc01"
PID    : 3830
Case   : /home/bobo/OpenFOAM/experiment/incompressible/pimpleDyMFoam/mixerVesselAMI2D2
nProcs : 1
fileModificationChecking : Monitoring run-time modified files using timeStampMaster
allowSystemOperations : Disallowing user-supplied system call operations

// * * * * * * * * * * * * * * * * * * * * * * * * * * * * * * * * * * * * * //
Create time

Create mesh for time = 0.190581

Selecting dynamicFvMesh solidBodyMotionFvMesh
Selecting solid-body motion function rotatingMotion
Applying solid body motion to cellZone rotor

PIMPLE: Operating solver in PISO mode

Reading field p

Reading field U

Reading/calculating face flux field phi

AMI: Creating addressing and weights between 9600 source faces and 9600 target faces
AMI: Patch source sum(weights) min/max/average = 1, 1, 1
AMI: Patch target sum(weights) min/max/average = 1, 1, 1
Selecting incompressible transport model Newtonian
Selecting turbulence model type laminar
Reading/calculating face velocity Uf

No finite volume options present

Courant Number mean: 0.0548035 max: 0.340197

Starting time loop

Courant Number mean: 0.0548035 max: 0.340197
deltaT = 0.00016984
Time = 0.190751

solidBodyMotionFunctions::rotatingMotion::transformation(): Time = 0.190751 transformation: ((0 0 0) (0.825752 (0 0 0.564034)))
AMI: Creating addressing and weights between 9600 source faces and 9600 target faces
AMI: Patch source sum(weights) min/max/average = 1, 1, 1
AMI: Patch target sum(weights) min/max/average = 1, 1, 1
smoothSolver:  Solving for Ux, Initial residual = 0.00217483, Final residual = 3.47621e-07, No Iterations 4
smoothSolver:  Solving for Uy, Initial residual = 0.00217953, Final residual = 3.45575e-07, No Iterations 4
GAMG:  Solving for p, Initial residual = 0.732483, Final residual = 0.0050755, No Iterations 9
time step continuity errors : sum local = 3.92851e-07, global = 6.22681e-08, cumulative = 6.22681e-08
GAMG:  Solving for p, Initial residual = 0.151912, Final residual = 8.47249e-07, No Iterations 75
time step continuity errors : sum local = 6.25962e-08, global = 6.25135e-08, cumulative = 1.24782e-07
ExecutionTime = 112.66 s  ClockTime = 112 s

Courant Number mean: 0.0626709 max: 0.406749
deltaT = 0.000190718
Time = 0.190942

solidBodyMotionFunctions::rotatingMotion::transformation(): Time = 0.190942 transformation: ((0 0 0) (0.825414 (0 0 0.564529)))
AMI: Creating addressing and weights between 9600 source faces and 9600 target faces
AMI: Patch source sum(weights) min/max/average = 1, 1, 1
AMI: Patch target sum(weights) min/max/average = 1, 1, 1
smoothSolver:  Solving for Ux, Initial residual = 0.0136589, Final residual = 4.66788e-07, No Iterations 6
smoothSolver:  Solving for Uy, Initial residual = 0.0136224, Final residual = 4.67617e-07, No Iterations 6
GAMG:  Solving for p, Initial residual = 0.787501, Final residual = 0.00695573, No Iterations 13
time step continuity errors : sum local = 7.50719e-07, global = 2.51885e-09, cumulative = 1.273e-07
GAMG:  Solving for p, Initial residual = 0.32277, Final residual = 9.96848e-07, No Iterations 54
time step continuity errors : sum local = 1.54135e-09, global = 1.46271e-09, cumulative = 1.28763e-07
ExecutionTime = 167.39 s  ClockTime = 167 s

Courant Number mean: 0.0704547 max: 0.445039
deltaT = 0.000212145
Time = 0.191154

solidBodyMotionFunctions::rotatingMotion::transformation(): Time = 0.191154 transformation: ((0 0 0) (0.825037 (0 0 0.565079)))
AMI: Creating addressing and weights between 9600 source faces and 9600 target faces
AMI: Patch source sum(weights) min/max/average = 1, 1, 1
AMI: Patch target sum(weights) min/max/average = 1, 1, 1
smoothSolver:  Solving for Ux, Initial residual = 0.00758565, Final residual = 3.54218e-07, No Iterations 6
smoothSolver:  Solving for Uy, Initial residual = 0.00752662, Final residual = 3.52837e-07, No Iterations 6
GAMG:  Solving for p, Initial residual = 0.496687, Final residual = 0.00261398, No Iterations 15
time step continuity errors : sum local = 1.40321e-07, global = 2.28831e-10, cumulative = 1.28992e-07
GAMG:  Solving for p, Initial residual = 0.208963, Final residual = 8.88526e-07, No Iterations 63
time step continuity errors : sum local = 6.87266e-10, global = 6.56879e-10, cumulative = 1.29649e-07
ExecutionTime = 227.73 s  ClockTime = 227 s

Courant Number mean: 0.0784374 max: 0.490678
deltaT = 0.000216176
Time = 0.19137

solidBodyMotionFunctions::rotatingMotion::transformation(): Time = 0.19137 transformation: ((0 0 0) (0.824653 (0 0 0.565639)))
AMI: Creating addressing and weights between 9600 source faces and 9600 target faces
AMI: Patch source sum(weights) min/max/average = 1, 1, 1
AMI: Patch target sum(weights) min/max/average = 1, 1, 1
smoothSolver:  Solving for Ux, Initial residual = 0.00282741, Final residual = 7.21575e-07, No Iterations 5
smoothSolver:  Solving for Uy, Initial residual = 0.00282426, Final residual = 7.1978e-07, No Iterations 5
GAMG:  Solving for p, Initial residual = 0.21856, Final residual = 0.00110821, No Iterations 8
time step continuity errors : sum local = 3.75494e-08, global = 2.02172e-10, cumulative = 1.29851e-07
GAMG:  Solving for p, Initial residual = 0.0697362, Final residual = 8.25536e-07, No Iterations 43
time step continuity errors : sum local = 3.03354e-10, global = 2.7973e-10, cumulative = 1.30131e-07
ExecutionTime = 274.48 s  ClockTime = 274 s

Courant Number mean: 0.0799814 max: 0.497755
deltaT = 0.000217151
Time = 0.191587

solidBodyMotionFunctions::rotatingMotion::transformation(): Time = 0.191587 transformation: ((0 0 0) (0.824267 (0 0 0.566201)))
AMI: Creating addressing and weights between 9600 source faces and 9600 target faces
AMI: Patch source sum(weights) min/max/average = 1, 1, 1
AMI: Patch target sum(weights) min/max/average = 1, 1, 1
smoothSolver:  Solving for Ux, Initial residual = 0.00172113, Final residual = 4.43169e-07, No Iterations 5
smoothSolver:  Solving for Uy, Initial residual = 0.00171975, Final residual = 4.41965e-07, No Iterations 5
GAMG:  Solving for p, Initial residual = 0.127966, Final residual = 0.000659729, No Iterations 9
time step continuity errors : sum local = 1.84546e-08, global = 4.83921e-11, cumulative = 1.30179e-07
GAMG:  Solving for p, Initial residual = 0.03585, Final residual = 9.41586e-07, No Iterations 48
time step continuity errors : sum local = 8.33478e-11, global = 5.94342e-11, cumulative = 1.30239e-07
ExecutionTime = 324.27 s  ClockTime = 324 s

Courant Number mean: 0.0803795 max: 0.498606
deltaT = 0.000217758
Time = 0.191805

solidBodyMotionFunctions::rotatingMotion::transformation(): Time = 0.191805 transformation: ((0 0 0) (0.82388 (0 0 0.566765)))
AMI: Creating addressing and weights between 9600 source faces and 9600 target faces
AMI: Patch source sum(weights) min/max/average = 1, 1, 1
AMI: Patch target sum(weights) min/max/average = 1, 1, 1
smoothSolver:  Solving for Ux, Initial residual = 0.00134163, Final residual = 3.09523e-07, No Iterations 5
smoothSolver:  Solving for Uy, Initial residual = 0.00134062, Final residual = 3.08479e-07, No Iterations 5
GAMG:  Solving for p, Initial residual = 0.0903675, Final residual = 0.000854249, No Iterations 8
time step continuity errors : sum local = 2.14951e-08, global = 5.52318e-11, cumulative = 1.30294e-07
GAMG:  Solving for p, Initial residual = 0.0215757, Final residual = 8.93149e-07, No Iterations 36
time step continuity errors : sum local = 8.60862e-11, global = 6.48926e-11, cumulative = 1.30359e-07
ExecutionTime = 367.67 s  ClockTime = 367 s

Courant Number mean: 0.08063 max: 0.499273
deltaT = 0.000218075
Time = 0.192023

solidBodyMotionFunctions::rotatingMotion::transformation(): Time = 0.192023 transformation: ((0 0 0) (0.823491 (0 0 0.567329)))
AMI: Creating addressing and weights between 9600 source faces and 9600 target faces
AMI: Patch source sum(weights) min/max/average = 1, 1, 1
AMI: Patch target sum(weights) min/max/average = 1, 1, 1
smoothSolver:  Solving for Ux, Initial residual = 0.00119632, Final residual = 2.40297e-07, No Iterations 5
smoothSolver:  Solving for Uy, Initial residual = 0.00119536, Final residual = 2.39003e-07, No Iterations 5
GAMG:  Solving for p, Initial residual = 0.0689294, Final residual = 0.00062489, No Iterations 9
time step continuity errors : sum local = 1.47103e-08, global = 7.61002e-11, cumulative = 1.30435e-07
GAMG:  Solving for p, Initial residual = 0.0139675, Final residual = 8.99494e-07, No Iterations 34
time step continuity errors : sum local = 1.0763e-10, global = 8.72803e-11, cumulative = 1.30522e-07
ExecutionTime = 410.93 s  ClockTime = 411 s

Courant Number mean: 0.0807661 max: 0.499512
deltaT = 0.000218288
Time = 0.192241

solidBodyMotionFunctions::rotatingMotion::transformation(): Time = 0.192241 transformation: ((0 0 0) (0.823102 (0 0 0.567894)))
AMI: Creating addressing and weights between 9600 source faces and 9600 target faces
AMI: Patch source sum(weights) min/max/average = 1, 1, 1
AMI: Patch target sum(weights) min/max/average = 1, 1, 1
smoothSolver:  Solving for Ux, Initial residual = 0.00114838, Final residual = 9.11485e-07, No Iterations 4
smoothSolver:  Solving for Uy, Initial residual = 0.00114777, Final residual = 9.0893e-07, No Iterations 4
GAMG:  Solving for p, Initial residual = 0.0553533, Final residual = 0.000467698, No Iterations 8
time step continuity errors : sum local = 1.04837e-08, global = 6.18116e-11, cumulative = 1.30584e-07
GAMG:  Solving for p, Initial residual = 0.00964467, Final residual = 8.70125e-07, No Iterations 28
time step continuity errors : sum local = 8.83697e-11, global = 6.92916e-11, cumulative = 1.30653e-07
ExecutionTime = 450.85 s  ClockTime = 451 s

Courant Number mean: 0.0808592 max: 0.499628
deltaT = 0.000218451
Time = 0.19246

solidBodyMotionFunctions::rotatingMotion::transformation(): Time = 0.19246 transformation: ((0 0 0) (0.822712 (0 0 0.568459)))
AMI: Creating addressing and weights between 9600 source faces and 9600 target faces
AMI: Patch source sum(weights) min/max/average = 1, 1, 1
AMI: Patch target sum(weights) min/max/average = 1, 1, 1
smoothSolver:  Solving for Ux, Initial residual = 0.00113596, Final residual = 8.78993e-07, No Iterations 4
smoothSolver:  Solving for Uy, Initial residual = 0.00113561, Final residual = 8.78325e-07, No Iterations 4
GAMG:  Solving for p, Initial residual = 0.04574, Final residual = 0.000372522, No Iterations 7
time step continuity errors : sum local = 8.18858e-09, global = 3.34412e-11, cumulative = 1.30687e-07
GAMG:  Solving for p, Initial residual = 0.00713967, Final residual = 7.93567e-07, No Iterations 31
time step continuity errors : sum local = 5.43659e-11, global = 3.7117e-11, cumulative = 1.30724e-07
ExecutionTime = 491.28 s  ClockTime = 491 s

Courant Number mean: 0.0809308 max: 0.499686
deltaT = 0.000218588
Time = 0.192678

solidBodyMotionFunctions::rotatingMotion::transformation(): Time = 0.192678 transformation: ((0 0 0) (0.822321 (0 0 0.569023)))
AMI: Creating addressing and weights between 9600 source faces and 9600 target faces
AMI: Patch source sum(weights) min/max/average = 1, 1, 1
AMI: Patch target sum(weights) min/max/average = 1, 1, 1
smoothSolver:  Solving for Ux, Initial residual = 0.00113403, Final residual = 8.61301e-07, No Iterations 4
smoothSolver:  Solving for Uy, Initial residual = 0.00113374, Final residual = 8.61898e-07, No Iterations 4
GAMG:  Solving for p, Initial residual = 0.0393282, Final residual = 0.000372772, No Iterations 6
time step continuity errors : sum local = 8.01383e-09, global = 3.96137e-12, cumulative = 1.30728e-07
GAMG:  Solving for p, Initial residual = 0.00559463, Final residual = 9.48849e-07, No Iterations 27
time step continuity errors : sum local = 2.4636e-11, global = 4.32164e-12, cumulative = 1.30732e-07
ExecutionTime = 567.51 s  ClockTime = 568 s

End

