/*---------------------------------------------------------------------------*\
| =========                 |                                                 |
| \\      /  F ield         | OpenFOAM: The Open Source CFD Toolbox           |
|  \\    /   O peration     | Version:  2.3.0                                 |
|   \\  /    A nd           | Web:      www.OpenFOAM.org                      |
|    \\/     M anipulation  |                                                 |
\*---------------------------------------------------------------------------*/
Build  : 2.3.0
Exec   : pimpleDyMFoam -parallel
Date   : Oct 10 2014
Time   : 08:59:37
Host   : "hpc01"
PID    : 3639
Case   : /home/bobo/OpenFOAM/experiment/incompressible/pimpleDyMFoam/mixerVesselAMI2D1
nProcs : 6
Slaves : 
5
(
"hpc01.3640"
"hpc01.3641"
"hpc01.3642"
"hpc01.3643"
"hpc01.3644"
)

Pstream initialized with:
    floatTransfer      : 0
    nProcsSimpleSum    : 0
    commsType          : nonBlocking
    polling iterations : 0
fileModificationChecking : Monitoring run-time modified files using timeStampMaster
allowSystemOperations : Disallowing user-supplied system call operations

// * * * * * * * * * * * * * * * * * * * * * * * * * * * * * * * * * * * * * //
Create time

Create mesh for time = 0.0356826

Selecting dynamicFvMesh solidBodyMotionFvMesh
Selecting solid-body motion function rotatingMotion
Applying solid body motion to cellZone rotor

PIMPLE: Operating solver in PISO mode

Reading field p

Reading field U

Reading/calculating face flux field phi

AMI: Creating addressing and weights between 9600 source faces and 9600 target faces
AMI: Patch source sum(weights) min/max/average = 1, 1, 1
AMI: Patch target sum(weights) min/max/average = 1, 1, 1
Selecting incompressible transport model Newtonian
Selecting turbulence model type laminar
Reading/calculating face velocity Uf

No finite volume options present

Courant Number mean: 0.047731 max: 0.499719

Starting time loop

Courant Number mean: 0.047731 max: 0.499719
deltaT = 0.000162522
Time = 0.0358451

solidBodyMotionFunctions::rotatingMotion::transformation(): Time = 0.0358451 transformation: ((0 0 0) (0.993666 (0 0 0.112373)))
AMI: Creating addressing and weights between 9600 source faces and 9600 target faces
AMI: Patch source sum(weights) min/max/average = 1, 1, 1
AMI: Patch target sum(weights) min/max/average = 1, 1, 1
smoothSolver:  Solving for Ux, Initial residual = 0.00321146, Final residual = 7.03247e-07, No Iterations 4
smoothSolver:  Solving for Uy, Initial residual = 0.00321111, Final residual = 6.481e-07, No Iterations 4
GAMG:  Solving for p, Initial residual = 0.765918, Final residual = 0.00717399, No Iterations 39
time step continuity errors : sum local = 8.43028e-07, global = 3.79459e-07, cumulative = 3.79459e-07
GAMG:  Solving for p, Initial residual = 0.17927, Final residual = 7.87146e-07, No Iterations 97
time step continuity errors : sum local = 3.79563e-07, global = 3.79485e-07, cumulative = 7.58943e-07
ExecutionTime = 44.03 s  ClockTime = 44 s

Courant Number mean: 0.0480736 max: 0.711896
deltaT = 0.000114148
Time = 0.0359593

solidBodyMotionFunctions::rotatingMotion::transformation(): Time = 0.0359593 transformation: ((0 0 0) (0.993626 (0 0 0.11273)))
AMI: Creating addressing and weights between 9600 source faces and 9600 target faces
AMI: Patch source sum(weights) min/max/average = 1, 1, 1
AMI: Patch target sum(weights) min/max/average = 1, 1, 1
smoothSolver:  Solving for Ux, Initial residual = 0.0162405, Final residual = 7.74932e-07, No Iterations 4
smoothSolver:  Solving for Uy, Initial residual = 0.0160381, Final residual = 7.57961e-07, No Iterations 4
GAMG:  Solving for p, Initial residual = 0.833814, Final residual = 0.00806474, No Iterations 35
time step continuity errors : sum local = 6.07705e-07, global = 1.83015e-07, cumulative = 9.41958e-07
GAMG:  Solving for p, Initial residual = 0.205766, Final residual = 9.24977e-07, No Iterations 117
time step continuity errors : sum local = 1.83043e-07, global = 1.83e-07, cumulative = 1.12496e-06
ExecutionTime = 82.01 s  ClockTime = 82 s

Courant Number mean: 0.033661 max: 0.358518
deltaT = 0.000130067
Time = 0.0360893

solidBodyMotionFunctions::rotatingMotion::transformation(): Time = 0.0360893 transformation: ((0 0 0) (0.99358 (0 0 0.113136)))
AMI: Creating addressing and weights between 9600 source faces and 9600 target faces
AMI: Patch source sum(weights) min/max/average = 1, 1, 1
AMI: Patch target sum(weights) min/max/average = 1, 1, 1
smoothSolver:  Solving for Ux, Initial residual = 0.0130115, Final residual = 9.0759e-07, No Iterations 4
smoothSolver:  Solving for Uy, Initial residual = 0.0129535, Final residual = 8.82121e-07, No Iterations 4
GAMG:  Solving for p, Initial residual = 0.374641, Final residual = 0.00360928, No Iterations 40
time step continuity errors : sum local = 3.13349e-07, global = 1.71143e-07, cumulative = 1.2961e-06
GAMG:  Solving for p, Initial residual = 0.117921, Final residual = 9.32109e-07, No Iterations 109
time step continuity errors : sum local = 1.71174e-07, global = 1.71147e-07, cumulative = 1.46725e-06
ExecutionTime = 119.36 s  ClockTime = 119 s

Courant Number mean: 0.0383142 max: 0.404322
deltaT = 0.000146151
Time = 0.0362355

solidBodyMotionFunctions::rotatingMotion::transformation(): Time = 0.0362355 transformation: ((0 0 0) (0.993528 (0 0 0.113592)))
AMI: Creating addressing and weights between 9600 source faces and 9600 target faces
AMI: Patch source sum(weights) min/max/average = 1, 1, 1
AMI: Patch target sum(weights) min/max/average = 1, 1, 1
smoothSolver:  Solving for Ux, Initial residual = 0.00545094, Final residual = 5.5375e-07, No Iterations 4
smoothSolver:  Solving for Uy, Initial residual = 0.0053937, Final residual = 5.33598e-07, No Iterations 4
GAMG:  Solving for p, Initial residual = 0.182973, Final residual = 0.00181917, No Iterations 37
time step continuity errors : sum local = 2.17207e-07, global = 1.55405e-07, cumulative = 1.62265e-06
GAMG:  Solving for p, Initial residual = 0.0465701, Final residual = 9.88262e-07, No Iterations 87
time step continuity errors : sum local = 1.55436e-07, global = 1.55406e-07, cumulative = 1.77806e-06
ExecutionTime = 151.85 s  ClockTime = 152 s

Courant Number mean: 0.0430341 max: 0.451264
deltaT = 0.000161936
Time = 0.0363974

solidBodyMotionFunctions::rotatingMotion::transformation(): Time = 0.0363974 transformation: ((0 0 0) (0.99347 (0 0 0.114097)))
AMI: Creating addressing and weights between 9600 source faces and 9600 target faces
AMI: Patch source sum(weights) min/max/average = 1, 1, 1
AMI: Patch target sum(weights) min/max/average = 1, 1, 1
smoothSolver:  Solving for Ux, Initial residual = 0.00331785, Final residual = 4.98229e-07, No Iterations 4
smoothSolver:  Solving for Uy, Initial residual = 0.00328501, Final residual = 4.76548e-07, No Iterations 4
GAMG:  Solving for p, Initial residual = 0.125259, Final residual = 0.00117885, No Iterations 34
time step continuity errors : sum local = 1.78395e-07, global = 1.37182e-07, cumulative = 1.91524e-06
GAMG:  Solving for p, Initial residual = 0.0268711, Final residual = 8.49448e-07, No Iterations 101
time step continuity errors : sum local = 1.37209e-07, global = 1.37182e-07, cumulative = 2.05242e-06
ExecutionTime = 186.43 s  ClockTime = 186 s

Courant Number mean: 0.0476769 max: 0.497421
deltaT = 0.000162775
Time = 0.0365602

solidBodyMotionFunctions::rotatingMotion::transformation(): Time = 0.0365602 transformation: ((0 0 0) (0.993411 (0 0 0.114605)))
AMI: Creating addressing and weights between 9600 source faces and 9600 target faces
AMI: Patch source sum(weights) min/max/average = 1, 1, 1
AMI: Patch target sum(weights) min/max/average = 1, 1, 1
smoothSolver:  Solving for Ux, Initial residual = 0.00226377, Final residual = 4.02216e-07, No Iterations 4
smoothSolver:  Solving for Uy, Initial residual = 0.00225758, Final residual = 3.84815e-07, No Iterations 4
GAMG:  Solving for p, Initial residual = 0.0836178, Final residual = 0.000834436, No Iterations 30
time step continuity errors : sum local = 1.36912e-07, global = 1.10318e-07, cumulative = 2.16274e-06
GAMG:  Solving for p, Initial residual = 0.0154549, Final residual = 9.47975e-07, No Iterations 66
time step continuity errors : sum local = 1.10347e-07, global = 1.10318e-07, cumulative = 2.27306e-06
ExecutionTime = 213.31 s  ClockTime = 213 s

Courant Number mean: 0.0479277 max: 0.49917
deltaT = 0.000163046
Time = 0.0367232

solidBodyMotionFunctions::rotatingMotion::transformation(): Time = 0.0367232 transformation: ((0 0 0) (0.993352 (0 0 0.115114)))
AMI: Creating addressing and weights between 9600 source faces and 9600 target faces
AMI: Patch source sum(weights) min/max/average = 1, 1, 1
AMI: Patch target sum(weights) min/max/average = 1, 1, 1
smoothSolver:  Solving for Ux, Initial residual = 0.00185134, Final residual = 3.7766e-07, No Iterations 4
smoothSolver:  Solving for Uy, Initial residual = 0.0018563, Final residual = 3.60837e-07, No Iterations 4
GAMG:  Solving for p, Initial residual = 0.0662697, Final residual = 0.00062986, No Iterations 27
time step continuity errors : sum local = 1.07402e-07, global = 8.87434e-08, cumulative = 2.3618e-06
GAMG:  Solving for p, Initial residual = 0.0103592, Final residual = 9.40925e-07, No Iterations 61
time step continuity errors : sum local = 8.87709e-08, global = 8.87437e-08, cumulative = 2.45055e-06
ExecutionTime = 238.57 s  ClockTime = 238 s

Courant Number mean: 0.0480157 max: 0.499569
deltaT = 0.000163186
Time = 0.0368864

solidBodyMotionFunctions::rotatingMotion::transformation(): Time = 0.0368864 transformation: ((0 0 0) (0.993293 (0 0 0.115623)))
AMI: Creating addressing and weights between 9600 source faces and 9600 target faces
AMI: Patch source sum(weights) min/max/average = 1, 1, 1
AMI: Patch target sum(weights) min/max/average = 1, 1, 1
smoothSolver:  Solving for Ux, Initial residual = 0.00164985, Final residual = 3.67669e-07, No Iterations 4
smoothSolver:  Solving for Uy, Initial residual = 0.00165646, Final residual = 3.51886e-07, No Iterations 4
GAMG:  Solving for p, Initial residual = 0.0561411, Final residual = 0.000546584, No Iterations 23
time step continuity errors : sum local = 8.69371e-08, global = 7.15789e-08, cumulative = 2.52212e-06
GAMG:  Solving for p, Initial residual = 0.00765761, Final residual = 9.34368e-07, No Iterations 63
time step continuity errors : sum local = 7.1605e-08, global = 7.15792e-08, cumulative = 2.5937e-06
ExecutionTime = 263.48 s  ClockTime = 263 s

Courant Number mean: 0.0480685 max: 0.499665
deltaT = 0.000163296
Time = 0.0370497

solidBodyMotionFunctions::rotatingMotion::transformation(): Time = 0.0370497 transformation: ((0 0 0) (0.993234 (0 0 0.116133)))
AMI: Creating addressing and weights between 9600 source faces and 9600 target faces
AMI: Patch source sum(weights) min/max/average = 1, 1, 1
AMI: Patch target sum(weights) min/max/average = 1, 1, 1
smoothSolver:  Solving for Ux, Initial residual = 0.00154249, Final residual = 3.63706e-07, No Iterations 4
smoothSolver:  Solving for Uy, Initial residual = 0.00154911, Final residual = 3.49026e-07, No Iterations 4
GAMG:  Solving for p, Initial residual = 0.0479516, Final residual = 0.000472057, No Iterations 19
time step continuity errors : sum local = 7.07433e-08, global = 5.7908e-08, cumulative = 2.65161e-06
GAMG:  Solving for p, Initial residual = 0.00605805, Final residual = 8.88147e-07, No Iterations 47
time step continuity errors : sum local = 5.79319e-08, global = 5.79082e-08, cumulative = 2.70952e-06
ExecutionTime = 284.43 s  ClockTime = 284 s

Courant Number mean: 0.048114 max: 0.499677
deltaT = 0.000163401
Time = 0.0372131

solidBodyMotionFunctions::rotatingMotion::transformation(): Time = 0.0372131 transformation: ((0 0 0) (0.993174 (0 0 0.116643)))
AMI: Creating addressing and weights between 9600 source faces and 9600 target faces
AMI: Patch source sum(weights) min/max/average = 1, 1, 1
AMI: Patch target sum(weights) min/max/average = 1, 1, 1
smoothSolver:  Solving for Ux, Initial residual = 0.001482, Final residual = 3.62376e-07, No Iterations 4
smoothSolver:  Solving for Uy, Initial residual = 0.00148811, Final residual = 3.48438e-07, No Iterations 4
GAMG:  Solving for p, Initial residual = 0.042108, Final residual = 0.000384076, No Iterations 17
time step continuity errors : sum local = 5.70086e-08, global = 4.6974e-08, cumulative = 2.75649e-06
GAMG:  Solving for p, Initial residual = 0.00505476, Final residual = 9.85718e-07, No Iterations 89
time step continuity errors : sum local = 4.69991e-08, global = 4.69741e-08, cumulative = 2.80347e-06
ExecutionTime = 319.75 s  ClockTime = 320 s

End

Finalising parallel run
