/*---------------------------------------------------------------------------*\
| =========                 |                                                 |
| \\      /  F ield         | OpenFOAM: The Open Source CFD Toolbox           |
|  \\    /   O peration     | Version:  2.3.0                                 |
|   \\  /    A nd           | Web:      www.OpenFOAM.org                      |
|    \\/     M anipulation  |                                                 |
\*---------------------------------------------------------------------------*/
Build  : 2.3.0
Exec   : pimpleDyMFoam -parallel
Date   : Oct 10 2014
Time   : 09:10:35
Host   : "hpc01"
PID    : 3684
Case   : /home/bobo/OpenFOAM/experiment/incompressible/pimpleDyMFoam/mixerVesselAMI2D2
nProcs : 3
Slaves : 
2
(
"hpc01.3685"
"hpc01.3686"
)

Pstream initialized with:
    floatTransfer      : 0
    nProcsSimpleSum    : 0
    commsType          : nonBlocking
    polling iterations : 0
fileModificationChecking : Monitoring run-time modified files using timeStampMaster
allowSystemOperations : Disallowing user-supplied system call operations

// * * * * * * * * * * * * * * * * * * * * * * * * * * * * * * * * * * * * * //
Create time

Create mesh for time = 0.184913

Selecting dynamicFvMesh solidBodyMotionFvMesh
Selecting solid-body motion function rotatingMotion
Applying solid body motion to cellZone rotor

PIMPLE: Operating solver in PISO mode

Reading field p

Reading field U

Reading/calculating face flux field phi

AMI: Creating addressing and weights between 9600 source faces and 9600 target faces
AMI: Patch source sum(weights) min/max/average = 1, 1, 1
AMI: Patch target sum(weights) min/max/average = 1, 1, 1
Selecting incompressible transport model Newtonian
Selecting turbulence model type laminar
Reading/calculating face velocity Uf

No finite volume options present

Courant Number mean: 0.0799192 max: 0.499469

Starting time loop

Courant Number mean: 0.0799192 max: 0.499469
deltaT = 0.000216334
Time = 0.185129

solidBodyMotionFunctions::rotatingMotion::transformation(): Time = 0.185129 transformation: ((0 0 0) (0.835583 (0 0 0.549364)))
AMI: Creating addressing and weights between 9600 source faces and 9600 target faces
AMI: Patch source sum(weights) min/max/average = 1, 1, 1
AMI: Patch target sum(weights) min/max/average = 1, 1, 1
smoothSolver:  Solving for Ux, Initial residual = 0.00276796, Final residual = 1.92553e-07, No Iterations 5
smoothSolver:  Solving for Uy, Initial residual = 0.00277988, Final residual = 9.97158e-07, No Iterations 4
GAMG:  Solving for p, Initial residual = 0.714858, Final residual = 0.00693992, No Iterations 40
time step continuity errors : sum local = 1.08652e-06, global = 5.37907e-07, cumulative = 5.37907e-07
GAMG:  Solving for p, Initial residual = 0.17617, Final residual = 9.48029e-07, No Iterations 140
time step continuity errors : sum local = 5.38809e-07, global = 5.38696e-07, cumulative = 1.0766e-06
ExecutionTime = 69.34 s  ClockTime = 70 s

Courant Number mean: 0.0797581 max: 1.97592
deltaT = 5.47426e-05
Time = 0.185184

solidBodyMotionFunctions::rotatingMotion::transformation(): Time = 0.185184 transformation: ((0 0 0) (0.835489 (0 0 0.549507)))
AMI: Creating addressing and weights between 9600 source faces and 9600 target faces
AMI: Patch source sum(weights) min/max/average = 1, 1, 1
AMI: Patch target sum(weights) min/max/average = 1, 1, 1
smoothSolver:  Solving for Ux, Initial residual = 0.00304005, Final residual = 3.7643e-07, No Iterations 3
smoothSolver:  Solving for Uy, Initial residual = 0.00301824, Final residual = 3.7484e-07, No Iterations 3
GAMG:  Solving for p, Initial residual = 0.818543, Final residual = 0.00812622, No Iterations 39
time step continuity errors : sum local = 2.08016e-07, global = 1.11959e-07, cumulative = 1.18856e-06
GAMG:  Solving for p, Initial residual = 0.0728753, Final residual = 9.30246e-07, No Iterations 127
time step continuity errors : sum local = 1.11961e-07, global = 1.11947e-07, cumulative = 1.30051e-06
ExecutionTime = 117.68 s  ClockTime = 118 s

Courant Number mean: 0.0201781 max: 0.41063
deltaT = 6.14083e-05
Time = 0.185245

solidBodyMotionFunctions::rotatingMotion::transformation(): Time = 0.185245 transformation: ((0 0 0) (0.835383 (0 0 0.549668)))
AMI: Creating addressing and weights between 9600 source faces and 9600 target faces
AMI: Patch source sum(weights) min/max/average = 1, 1, 1
AMI: Patch target sum(weights) min/max/average = 1, 1, 1
smoothSolver:  Solving for Ux, Initial residual = 0.00491498, Final residual = 6.24548e-07, No Iterations 3
smoothSolver:  Solving for Uy, Initial residual = 0.00490182, Final residual = 6.18457e-07, No Iterations 3
GAMG:  Solving for p, Initial residual = 0.279754, Final residual = 0.00274715, No Iterations 37
time step continuity errors : sum local = 1.48937e-07, global = 1.11837e-07, cumulative = 1.41235e-06
GAMG:  Solving for p, Initial residual = 0.0470185, Final residual = 8.93844e-07, No Iterations 91
time step continuity errors : sum local = 1.11852e-07, global = 1.11843e-07, cumulative = 1.52419e-06
ExecutionTime = 157.11 s  ClockTime = 158 s

Courant Number mean: 0.0226436 max: 0.410246
deltaT = 6.88927e-05
Time = 0.185314

solidBodyMotionFunctions::rotatingMotion::transformation(): Time = 0.185314 transformation: ((0 0 0) (0.835264 (0 0 0.549849)))
AMI: Creating addressing and weights between 9600 source faces and 9600 target faces
AMI: Patch source sum(weights) min/max/average = 1, 1, 1
AMI: Patch target sum(weights) min/max/average = 1, 1, 1
smoothSolver:  Solving for Ux, Initial residual = 0.00237109, Final residual = 5.11859e-07, No Iterations 3
smoothSolver:  Solving for Uy, Initial residual = 0.00236168, Final residual = 5.05298e-07, No Iterations 3
GAMG:  Solving for p, Initial residual = 0.150328, Final residual = 0.00140107, No Iterations 37
time step continuity errors : sum local = 1.2721e-07, global = 1.10796e-07, cumulative = 1.63499e-06
GAMG:  Solving for p, Initial residual = 0.0212602, Final residual = 9.77333e-07, No Iterations 127
time step continuity errors : sum local = 1.10808e-07, global = 1.10798e-07, cumulative = 1.74578e-06
ExecutionTime = 205.07 s  ClockTime = 206 s

Courant Number mean: 0.0254155 max: 0.406414
deltaT = 7.73684e-05
Time = 0.185392

solidBodyMotionFunctions::rotatingMotion::transformation(): Time = 0.185392 transformation: ((0 0 0) (0.83513 (0 0 0.550052)))
AMI: Creating addressing and weights between 9600 source faces and 9600 target faces
AMI: Patch source sum(weights) min/max/average = 1, 1, 1
AMI: Patch target sum(weights) min/max/average = 1, 1, 1
smoothSolver:  Solving for Ux, Initial residual = 0.00156031, Final residual = 5.16039e-07, No Iterations 3
smoothSolver:  Solving for Uy, Initial residual = 0.00155136, Final residual = 5.08682e-07, No Iterations 3
GAMG:  Solving for p, Initial residual = 0.108855, Final residual = 0.00107223, No Iterations 33
time step continuity errors : sum local = 1.21595e-07, global = 1.08722e-07, cumulative = 1.85451e-06
GAMG:  Solving for p, Initial residual = 0.0139057, Final residual = 9.80037e-07, No Iterations 105
time step continuity errors : sum local = 1.08733e-07, global = 1.08723e-07, cumulative = 1.96323e-06
ExecutionTime = 246.83 s  ClockTime = 247 s

Courant Number mean: 0.0285558 max: 0.398801
deltaT = 8.70685e-05
Time = 0.185479

solidBodyMotionFunctions::rotatingMotion::transformation(): Time = 0.185479 transformation: ((0 0 0) (0.83498 (0 0 0.550281)))
AMI: Creating addressing and weights between 9600 source faces and 9600 target faces
AMI: Patch source sum(weights) min/max/average = 1, 1, 1
AMI: Patch target sum(weights) min/max/average = 1, 1, 1
smoothSolver:  Solving for Ux, Initial residual = 0.00117464, Final residual = 5.63805e-07, No Iterations 3
smoothSolver:  Solving for Uy, Initial residual = 0.00117011, Final residual = 5.55008e-07, No Iterations 3
GAMG:  Solving for p, Initial residual = 0.091853, Final residual = 0.000873019, No Iterations 25
time step continuity errors : sum local = 1.16642e-07, global = 1.05592e-07, cumulative = 2.06882e-06
GAMG:  Solving for p, Initial residual = 0.0104942, Final residual = 8.35969e-07, No Iterations 109
time step continuity errors : sum local = 1.05603e-07, global = 1.05593e-07, cumulative = 2.17441e-06
ExecutionTime = 287.73 s  ClockTime = 288 s

Courant Number mean: 0.0321501 max: 0.387321
deltaT = 9.83083e-05
Time = 0.185577

solidBodyMotionFunctions::rotatingMotion::transformation(): Time = 0.185577 transformation: ((0 0 0) (0.83481 (0 0 0.550538)))
AMI: Creating addressing and weights between 9600 source faces and 9600 target faces
AMI: Patch source sum(weights) min/max/average = 1, 1, 1
AMI: Patch target sum(weights) min/max/average = 1, 1, 1
smoothSolver:  Solving for Ux, Initial residual = 0.000967265, Final residual = 6.52815e-07, No Iterations 3
smoothSolver:  Solving for Uy, Initial residual = 0.000966493, Final residual = 6.40855e-07, No Iterations 3
GAMG:  Solving for p, Initial residual = 0.0836469, Final residual = 0.000780914, No Iterations 24
time step continuity errors : sum local = 1.12374e-07, global = 1.01423e-07, cumulative = 2.27584e-06
GAMG:  Solving for p, Initial residual = 0.00871321, Final residual = 5.27625e-07, No Iterations 81
time step continuity errors : sum local = 1.01431e-07, global = 1.01424e-07, cumulative = 2.37726e-06
ExecutionTime = 321.19 s  ClockTime = 322 s

Courant Number mean: 0.0363148 max: 0.372029
deltaT = 0.000111521
Time = 0.185689

solidBodyMotionFunctions::rotatingMotion::transformation(): Time = 0.185689 transformation: ((0 0 0) (0.834617 (0 0 0.550831)))
AMI: Creating addressing and weights between 9600 source faces and 9600 target faces
AMI: Patch source sum(weights) min/max/average = 1, 1, 1
AMI: Patch target sum(weights) min/max/average = 1, 1, 1
smoothSolver:  Solving for Ux, Initial residual = 0.000866305, Final residual = 8.0089e-07, No Iterations 3
smoothSolver:  Solving for Uy, Initial residual = 0.000867781, Final residual = 7.84352e-07, No Iterations 3
GAMG:  Solving for p, Initial residual = 0.0804589, Final residual = 0.000785116, No Iterations 22
time step continuity errors : sum local = 1.08522e-07, global = 9.62672e-08, cumulative = 2.47353e-06
GAMG:  Solving for p, Initial residual = 0.00778597, Final residual = 9.68436e-07, No Iterations 91
time step continuity errors : sum local = 9.6283e-08, global = 9.6269e-08, cumulative = 2.5698e-06
ExecutionTime = 356.55 s  ClockTime = 357 s

Courant Number mean: 0.0412099 max: 0.353466
deltaT = 0.000127296
Time = 0.185816

solidBodyMotionFunctions::rotatingMotion::transformation(): Time = 0.185816 transformation: ((0 0 0) (0.834397 (0 0 0.551165)))
AMI: Creating addressing and weights between 9600 source faces and 9600 target faces
AMI: Patch source sum(weights) min/max/average = 1, 1, 1
AMI: Patch target sum(weights) min/max/average = 1, 1, 1
smoothSolver:  Solving for Ux, Initial residual = 0.000840442, Final residual = 1.61005e-07, No Iterations 4
smoothSolver:  Solving for Uy, Initial residual = 0.000844296, Final residual = 1.56809e-07, No Iterations 4
GAMG:  Solving for p, Initial residual = 0.0798926, Final residual = 0.000763532, No Iterations 27
time step continuity errors : sum local = 1.03706e-07, global = 9.02481e-08, cumulative = 2.66004e-06
GAMG:  Solving for p, Initial residual = 0.00733018, Final residual = 9.35911e-07, No Iterations 103
time step continuity errors : sum local = 9.02659e-08, global = 9.02505e-08, cumulative = 2.75029e-06
ExecutionTime = 395.93 s  ClockTime = 396 s

Courant Number mean: 0.0470538 max: 0.331707
deltaT = 0.000146484
Time = 0.185962

solidBodyMotionFunctions::rotatingMotion::transformation(): Time = 0.185962 transformation: ((0 0 0) (0.834143 (0 0 0.551549)))
AMI: Creating addressing and weights between 9600 source faces and 9600 target faces
AMI: Patch source sum(weights) min/max/average = 1, 1, 1
AMI: Patch target sum(weights) min/max/average = 1, 1, 1
smoothSolver:  Solving for Ux, Initial residual = 0.000867761, Final residual = 2.39995e-07, No Iterations 4
smoothSolver:  Solving for Uy, Initial residual = 0.000872557, Final residual = 2.33646e-07, No Iterations 4
GAMG:  Solving for p, Initial residual = 0.0803821, Final residual = 0.000776932, No Iterations 25
time step continuity errors : sum local = 9.90245e-08, global = 8.33253e-08, cumulative = 2.83362e-06
GAMG:  Solving for p, Initial residual = 0.00710122, Final residual = 9.74283e-07, No Iterations 63
time step continuity errors : sum local = 8.33466e-08, global = 8.33283e-08, cumulative = 2.91695e-06
ExecutionTime = 438.44 s  ClockTime = 439 s

End

Finalising parallel run
