/*---------------------------------------------------------------------------*\
| =========                 |                                                 |
| \\      /  F ield         | OpenFOAM: The Open Source CFD Toolbox           |
|  \\    /   O peration     | Version:  2.3.0                                 |
|   \\  /    A nd           | Web:      www.OpenFOAM.org                      |
|    \\/     M anipulation  |                                                 |
\*---------------------------------------------------------------------------*/
Build  : 2.3.0
Exec   : pimpleDyMFoam
Date   : Oct 10 2014
Time   : 09:21:12
Host   : "hpc01"
PID    : 3717
Case   : /home/bobo/OpenFOAM/experiment/incompressible/pimpleDyMFoam/mixerVesselAMI2D2
nProcs : 1
fileModificationChecking : Monitoring run-time modified files using timeStampMaster
allowSystemOperations : Disallowing user-supplied system call operations

// * * * * * * * * * * * * * * * * * * * * * * * * * * * * * * * * * * * * * //
Create time

Create mesh for time = 0.185962

Selecting dynamicFvMesh solidBodyMotionFvMesh
Selecting solid-body motion function rotatingMotion
Applying solid body motion to cellZone rotor

PIMPLE: Operating solver in PISO mode

Reading field p

Reading field U

Reading/calculating face flux field phi

AMI: Creating addressing and weights between 9600 source faces and 9600 target faces
AMI: Patch source sum(weights) min/max/average = 1, 1, 1
AMI: Patch target sum(weights) min/max/average = 1, 1, 1
Selecting incompressible transport model Newtonian
Selecting turbulence model type laminar
Reading/calculating face velocity Uf

No finite volume options present

Courant Number mean: 0.054161 max: 0.338688

Starting time loop

Courant Number mean: 0.054161 max: 0.338688
deltaT = 0.000168109
Time = 0.18613

solidBodyMotionFunctions::rotatingMotion::transformation(): Time = 0.18613 transformation: ((0 0 0) (0.833852 (0 0 0.551988)))
AMI: Creating addressing and weights between 9600 source faces and 9600 target faces
AMI: Patch source sum(weights) min/max/average = 1, 1, 1
AMI: Patch target sum(weights) min/max/average = 1, 1, 1
smoothSolver:  Solving for Ux, Initial residual = 0.00216918, Final residual = 3.35462e-07, No Iterations 4
smoothSolver:  Solving for Uy, Initial residual = 0.00217374, Final residual = 3.33878e-07, No Iterations 4
GAMG:  Solving for p, Initial residual = 0.733808, Final residual = 0.00462349, No Iterations 11
time step continuity errors : sum local = 3.69738e-07, global = 7.14982e-08, cumulative = 7.14982e-08
GAMG:  Solving for p, Initial residual = 0.152526, Final residual = 8.27035e-07, No Iterations 74
time step continuity errors : sum local = 7.20711e-08, global = 7.19922e-08, cumulative = 1.4349e-07
ExecutionTime = 113.16 s  ClockTime = 113 s

Courant Number mean: 0.0619672 max: 0.449532
deltaT = 0.000186807
Time = 0.186317

solidBodyMotionFunctions::rotatingMotion::transformation(): Time = 0.186317 transformation: ((0 0 0) (0.833528 (0 0 0.552477)))
AMI: Creating addressing and weights between 9600 source faces and 9600 target faces
AMI: Patch source sum(weights) min/max/average = 1, 1, 1
AMI: Patch target sum(weights) min/max/average = 1, 1, 1
smoothSolver:  Solving for Ux, Initial residual = 0.0134981, Final residual = 4.03019e-07, No Iterations 6
smoothSolver:  Solving for Uy, Initial residual = 0.0134448, Final residual = 4.03112e-07, No Iterations 6
GAMG:  Solving for p, Initial residual = 0.788705, Final residual = 0.00283015, No Iterations 13
time step continuity errors : sum local = 2.99956e-07, global = 1.3735e-09, cumulative = 1.44864e-07
GAMG:  Solving for p, Initial residual = 0.310365, Final residual = 9.98409e-07, No Iterations 55
time step continuity errors : sum local = 8.80782e-10, global = 8.04385e-10, cumulative = 1.45668e-07
ExecutionTime = 187.08 s  ClockTime = 187 s

Courant Number mean: 0.0689473 max: 0.438928
deltaT = 0.000208087
Time = 0.186525

solidBodyMotionFunctions::rotatingMotion::transformation(): Time = 0.186525 transformation: ((0 0 0) (0.833167 (0 0 0.553022)))
AMI: Creating addressing and weights between 9600 source faces and 9600 target faces
AMI: Patch source sum(weights) min/max/average = 1, 1, 1
AMI: Patch target sum(weights) min/max/average = 1, 1, 1
smoothSolver:  Solving for Ux, Initial residual = 0.00755464, Final residual = 3.04023e-07, No Iterations 6
smoothSolver:  Solving for Uy, Initial residual = 0.00747951, Final residual = 3.0303e-07, No Iterations 6
GAMG:  Solving for p, Initial residual = 0.507641, Final residual = 0.00433094, No Iterations 10
time step continuity errors : sum local = 2.30888e-07, global = 5.44648e-11, cumulative = 1.45723e-07
GAMG:  Solving for p, Initial residual = 0.212022, Final residual = 8.89909e-07, No Iterations 42
time step continuity errors : sum local = 1.87388e-10, global = 1.57442e-10, cumulative = 1.4588e-07
ExecutionTime = 312.48 s  ClockTime = 313 s

Courant Number mean: 0.0768647 max: 0.48436
deltaT = 0.000214806
Time = 0.18674

solidBodyMotionFunctions::rotatingMotion::transformation(): Time = 0.18674 transformation: ((0 0 0) (0.832793 (0 0 0.553584)))
AMI: Creating addressing and weights between 9600 source faces and 9600 target faces
AMI: Patch source sum(weights) min/max/average = 1, 1, 1
AMI: Patch target sum(weights) min/max/average = 1, 1, 1
smoothSolver:  Solving for Ux, Initial residual = 0.00288045, Final residual = 6.93998e-07, No Iterations 5
smoothSolver:  Solving for Uy, Initial residual = 0.00287617, Final residual = 6.91516e-07, No Iterations 5
GAMG:  Solving for p, Initial residual = 0.224913, Final residual = 0.00212512, No Iterations 10
time step continuity errors : sum local = 7.20016e-08, global = 2.04001e-10, cumulative = 1.46084e-07
GAMG:  Solving for p, Initial residual = 0.0720012, Final residual = 7.54565e-07, No Iterations 53
time step continuity errors : sum local = 3.03081e-10, global = 2.81484e-10, cumulative = 1.46366e-07
ExecutionTime = 453.46 s  ClockTime = 454 s

Courant Number mean: 0.0794 max: 0.497797
deltaT = 0.000215757
Time = 0.186956

solidBodyMotionFunctions::rotatingMotion::transformation(): Time = 0.186956 transformation: ((0 0 0) (0.832418 (0 0 0.554148)))
AMI: Creating addressing and weights between 9600 source faces and 9600 target faces
AMI: Patch source sum(weights) min/max/average = 1, 1, 1
AMI: Patch target sum(weights) min/max/average = 1, 1, 1
smoothSolver:  Solving for Ux, Initial residual = 0.00173685, Final residual = 4.24099e-07, No Iterations 5
smoothSolver:  Solving for Uy, Initial residual = 0.00173537, Final residual = 4.23014e-07, No Iterations 5
GAMG:  Solving for p, Initial residual = 0.128318, Final residual = 0.00125981, No Iterations 7
time step continuity errors : sum local = 3.50662e-08, global = 1.79344e-10, cumulative = 1.46545e-07
GAMG:  Solving for p, Initial residual = 0.0365591, Final residual = 8.27454e-07, No Iterations 35
time step continuity errors : sum local = 2.4015e-10, global = 2.1918e-10, cumulative = 1.46764e-07
ExecutionTime = 533.09 s  ClockTime = 534 s

Courant Number mean: 0.0797896 max: 0.498829
deltaT = 0.000216264
Time = 0.187172

solidBodyMotionFunctions::rotatingMotion::transformation(): Time = 0.187172 transformation: ((0 0 0) (0.832041 (0 0 0.554714)))
AMI: Creating addressing and weights between 9600 source faces and 9600 target faces
AMI: Patch source sum(weights) min/max/average = 1, 1, 1
AMI: Patch target sum(weights) min/max/average = 1, 1, 1
smoothSolver:  Solving for Ux, Initial residual = 0.00134662, Final residual = 2.96082e-07, No Iterations 5
smoothSolver:  Solving for Uy, Initial residual = 0.00134533, Final residual = 2.94719e-07, No Iterations 5
GAMG:  Solving for p, Initial residual = 0.0897852, Final residual = 0.000875443, No Iterations 10
time step continuity errors : sum local = 2.19176e-08, global = 1.06114e-10, cumulative = 1.4687e-07
GAMG:  Solving for p, Initial residual = 0.0216515, Final residual = 8.96014e-07, No Iterations 33
time step continuity errors : sum local = 1.45771e-10, global = 1.24489e-10, cumulative = 1.46995e-07
ExecutionTime = 575.86 s  ClockTime = 576 s

Courant Number mean: 0.0800043 max: 0.499239
deltaT = 0.000216593
Time = 0.187388

solidBodyMotionFunctions::rotatingMotion::transformation(): Time = 0.187388 transformation: ((0 0 0) (0.831664 (0 0 0.55528)))
AMI: Creating addressing and weights between 9600 source faces and 9600 target faces
AMI: Patch source sum(weights) min/max/average = 1, 1, 1
AMI: Patch target sum(weights) min/max/average = 1, 1, 1
smoothSolver:  Solving for Ux, Initial residual = 0.00120093, Final residual = 9.72993e-07, No Iterations 4
smoothSolver:  Solving for Uy, Initial residual = 0.00119977, Final residual = 9.68081e-07, No Iterations 4
GAMG:  Solving for p, Initial residual = 0.0685489, Final residual = 0.000538636, No Iterations 9
time step continuity errors : sum local = 1.25416e-08, global = 3.37602e-11, cumulative = 1.47028e-07
GAMG:  Solving for p, Initial residual = 0.013904, Final residual = 9.80401e-07, No Iterations 42
time step continuity errors : sum local = 6.06067e-11, global = 3.84546e-11, cumulative = 1.47067e-07
ExecutionTime = 622.34 s  ClockTime = 623 s

Courant Number mean: 0.0801464 max: 0.499453
deltaT = 0.000216831
Time = 0.187605

solidBodyMotionFunctions::rotatingMotion::transformation(): Time = 0.187605 transformation: ((0 0 0) (0.831285 (0 0 0.555846)))
AMI: Creating addressing and weights between 9600 source faces and 9600 target faces
AMI: Patch source sum(weights) min/max/average = 1, 1, 1
AMI: Patch target sum(weights) min/max/average = 1, 1, 1
smoothSolver:  Solving for Ux, Initial residual = 0.00115288, Final residual = 8.83656e-07, No Iterations 4
smoothSolver:  Solving for Uy, Initial residual = 0.00115218, Final residual = 8.80363e-07, No Iterations 4
GAMG:  Solving for p, Initial residual = 0.0549731, Final residual = 0.00045493, No Iterations 7
time step continuity errors : sum local = 1.01311e-08, global = 2.39424e-11, cumulative = 1.47091e-07
GAMG:  Solving for p, Initial residual = 0.009625, Final residual = 9.74757e-07, No Iterations 29
time step continuity errors : sum local = 4.80618e-11, global = 2.67649e-11, cumulative = 1.47118e-07
ExecutionTime = 661.46 s  ClockTime = 662 s

Courant Number mean: 0.0802495 max: 0.499567
deltaT = 0.000217019
Time = 0.187822

solidBodyMotionFunctions::rotatingMotion::transformation(): Time = 0.187822 transformation: ((0 0 0) (0.830906 (0 0 0.556413)))
AMI: Creating addressing and weights between 9600 source faces and 9600 target faces
AMI: Patch source sum(weights) min/max/average = 1, 1, 1
AMI: Patch target sum(weights) min/max/average = 1, 1, 1
smoothSolver:  Solving for Ux, Initial residual = 0.00113949, Final residual = 8.51186e-07, No Iterations 4
smoothSolver:  Solving for Uy, Initial residual = 0.00113918, Final residual = 8.50489e-07, No Iterations 4
GAMG:  Solving for p, Initial residual = 0.045787, Final residual = 0.000381015, No Iterations 7
time step continuity errors : sum local = 8.29557e-09, global = 4.70296e-11, cumulative = 1.47165e-07
GAMG:  Solving for p, Initial residual = 0.00712566, Final residual = 9.17941e-07, No Iterations 58
time step continuity errors : sum local = 7.02788e-11, global = 5.07257e-11, cumulative = 1.47215e-07
ExecutionTime = 714.55 s  ClockTime = 715 s

Courant Number mean: 0.0803312 max: 0.499626
deltaT = 0.000217181
Time = 0.188039

solidBodyMotionFunctions::rotatingMotion::transformation(): Time = 0.188039 transformation: ((0 0 0) (0.830526 (0 0 0.55698)))
AMI: Creating addressing and weights between 9600 source faces and 9600 target faces
AMI: Patch source sum(weights) min/max/average = 1, 1, 1
AMI: Patch target sum(weights) min/max/average = 1, 1, 1
smoothSolver:  Solving for Ux, Initial residual = 0.00113498, Final residual = 8.34237e-07, No Iterations 4
smoothSolver:  Solving for Uy, Initial residual = 0.00113494, Final residual = 8.35511e-07, No Iterations 4
GAMG:  Solving for p, Initial residual = 0.0390971, Final residual = 0.000213237, No Iterations 7
time step continuity errors : sum local = 4.58622e-09, global = 4.87975e-11, cumulative = 1.47264e-07
GAMG:  Solving for p, Initial residual = 0.00555504, Final residual = 8.96834e-07, No Iterations 24
time step continuity errors : sum local = 7.04435e-11, global = 5.13761e-11, cumulative = 1.47316e-07
ExecutionTime = 789.26 s  ClockTime = 791 s

End

