0;average;MSE;introduced program
1;0,0595596831119884;0,389618676744721;4;
2;0,0453954980947121;0,207647973738094;7;
3;0,00398474257890145;0,116772754516708;6;
4;0,0122395835538824;0,103801006009198;2;
5;0,0153514769444877;0,10070398026882;3;
6;0,00212269892842418;0,0776219350055264;9;
7;-0,00405101962988079;0,0747447906503035;8;
8;-0,000536965200716104;0,0550173929385503;1;
