total error;
avg err;MSE;
0.172083568490181;1.03979007840029;
programs error;
program;avg err;MSE;
0;-0.00246425245657747;0.294263287606211
1;-0.226103835861803;0.317432129034756
2;0.423068699674942;0.799251575035702
3;0.104824682323543;0.43495876627621
4;-0.215027724455252;0.450929360229032
5;-0.10343710563179;0.434174283395725
6;-0.122867699419215;0.404672465063792
7;-0.289523130894757;0.527772413316075
8;0.262356586520547;0.629727989120288
9;1.89000946510217;2.92900315282308

programs splitup;
program;splitup;
0;1.74130288266868;0;
1;1.09522431584752;0;
2;0.900813804683832;0.261162006808036;
3;1.27117943731949;0;
4;0.488737599613245;0;
5;1.07103815331753;0;
6;1.0367524213457;0;
7;0.965525214968848;0;
8;0.506219634724344;0.41425918045847;
9;0.968569675313597;0.0303273141599981;

buckets;
bucket;number;
-72;1;
-71;0;
-70;2;
-69;6;
-68;11;
-67;11;
-66;6;
-65;2;
-64;2;
-63;5;
-62;21;
-61;20;
-60;32;
-59;32;
-58;40;
-57;26;
-56;25;
-55;27;
-54;25;
-53;29;
-52;29;
-51;27;
-50;33;
-49;25;
-48;23;
-47;42;
-46;61;
-45;54;
-44;54;
-43;63;
-42;62;
-41;73;
-40;76;
-39;69;
-38;69;
-37;58;
-36;74;
-35;62;
-34;85;
-33;77;
-32;86;
-31;98;
-30;108;
-29;96;
-28;81;
-27;76;
-26;87;
-25;63;
-24;78;
-23;72;
-22;86;
-21;79;
-20;91;
-19;74;
-18;74;
-17;95;
-16;96;
-15;99;
-14;79;
-13;86;
-12;88;
-11;118;
-10;86;
-9;90;
-8;90;
-7;75;
-6;68;
-5;95;
-4;79;
-3;93;
-2;92;
-1;93;
0;163;
1;70;
2;75;
3;58;
4;57;
5;71;
6;69;
7;79;
8;65;
9;34;
10;56;
11;44;
12;43;
13;54;
14;47;
15;45;
16;35;
17;55;
18;45;
19;64;
20;38;
21;44;
22;43;
23;39;
24;29;
25;38;
26;35;
27;22;
28;27;
29;28;
30;28;
31;29;
32;27;
33;23;
34;17;
35;19;
36;14;
37;21;
38;21;
39;19;
40;10;
41;15;
42;17;
43;19;
44;9;
45;16;
46;19;
47;8;
48;10;
49;11;
50;9;
51;8;
52;8;
53;9;
54;11;
55;8;
56;7;
57;11;
58;8;
59;10;
60;15;
61;9;
62;6;
63;17;
64;9;
65;9;
66;10;
67;7;
68;15;
69;9;
70;8;
71;10;
72;6;
73;8;
74;7;
75;6;
76;7;
77;2;
78;9;
79;9;
80;8;
81;11;
82;10;
83;12;
84;16;
85;9;
86;13;
87;23;
88;13;
89;12;
90;10;
91;14;
92;13;
93;12;
94;12;
95;12;
96;10;
97;12;
98;10;
99;8;
100;5;
101;10;
102;10;
103;7;
104;10;
105;5;
106;11;
107;4;
108;8;
109;2;
110;7;
111;6;
112;8;
113;8;
114;6;
115;6;
116;2;
117;7;
118;3;
119;4;
120;5;
121;4;
122;8;
123;8;
124;6;
125;2;
126;7;
127;3;
128;2;
129;5;
130;6;
131;4;
132;7;
133;7;
134;5;
135;6;
136;2;
137;5;
138;3;
139;4;
140;3;
141;2;
142;4;
143;2;
144;3;
145;3;
146;5;
147;0;
148;3;
149;1;
150;1;
151;4;
152;2;
153;5;
154;2;
155;2;
156;0;
157;1;
158;1;
159;3;
160;1;
161;0;
162;1;
163;1;
164;1;
165;0;
166;1;
167;1;
168;1;
169;1;
170;2;
171;1;
172;1;
173;2;
174;0;
175;2;
176;0;
177;0;
178;0;
179;0;
180;0;
181;1;
182;1;
183;2;
184;5;
185;2;
186;1;
187;1;
188;1;
189;1;
190;1;
191;1;
192;4;
193;0;
194;2;
195;1;
196;2;
197;0;
198;0;
199;0;
200;0;
201;0;
202;2;
203;0;
204;1;
205;0;
206;0;
207;1;
208;0;
209;0;
210;0;
211;0;
212;0;
213;0;
214;0;
215;1;
216;0;
217;1;
218;1;
219;0;
220;0;
221;0;
222;0;
223;0;
224;1;
225;1;
226;0;
227;0;
228;0;
229;1;
230;0;
231;0;
232;1;
233;0;
234;0;
235;0;
236;0;
237;0;
238;0;
239;0;
240;2;
241;0;
242;0;
243;2;
244;0;
245;1;
246;0;
247;1;
248;0;
249;3;
250;1;
251;1;
252;1;
253;0;
254;2;
255;0;
256;0;
257;1;
258;0;
259;0;
260;0;
261;0;
262;1;
263;0;
264;0;
265;1;
266;1;
267;0;
268;0;
269;3;
270;0;
271;1;
272;0;
273;3;
274;1;
275;1;
276;2;
277;1;
278;0;
279;0;
280;0;
281;1;
282;1;
283;2;
284;0;
285;1;
286;0;
287;0;
288;0;
289;0;
290;0;
291;0;
292;0;
293;0;
294;0;
295;0;
296;0;
297;1;
298;0;
299;0;
300;1;
301;0;
302;1;
303;0;
304;0;
305;1;
306;1;
307;0;
308;1;
309;1;
310;1;
311;1;
312;0;
313;0;
314;0;
315;0;
316;0;
317;0;
318;0;
319;0;
320;0;
321;0;
322;0;
323;1;
324;0;
325;0;
326;0;
327;0;
328;0;
329;1;
330;0;
331;0;
332;0;
333;0;
334;0;
335;0;
336;0;
337;0;
338;0;
339;0;
340;4;
341;0;
342;0;
343;1;
344;2;
345;0;
346;0;
347;2;
348;3;
349;0;
350;0;
351;0;
352;0;
353;0;
354;1;
355;1;
356;2;
357;0;
358;0;
359;0;
360;1;
361;0;
362;0;
363;0;
364;0;
365;0;
366;1;
367;1;
368;1;
369;1;
370;1;
371;0;
372;0;
373;0;
374;1;
375;1;
376;2;
377;1;
378;1;
379;0;
380;1;
381;0;
382;1;
383;1;
384;1;
385;0;
386;1;
387;1;
388;0;
389;1;
390;1;
391;0;
392;0;
393;0;
394;1;
395;1;
396;0;
397;1;
398;0;
399;1;
400;1;
401;0;
402;0;
403;0;
404;0;
405;0;
406;0;
407;1;
408;2;
409;3;
410;1;
411;1;
412;0;
413;0;
414;2;
415;1;
416;0;
417;1;
418;0;
419;1;
420;2;
421;0;
422;1;
423;0;
424;0;
425;0;
426;0;
427;1;
428;1;
429;1;
430;1;
431;2;
432;1;
433;0;
434;0;
435;0;
436;1;
437;0;
438;0;
439;0;
440;0;
441;1;
442;0;
443;0;
444;0;
445;2;
446;0;
447;1;
448;2;
449;1;
450;0;
451;4;
452;0;
453;1;
454;1;
455;3;
456;2;
457;0;
458;1;
459;7;
460;2;
461;1;
462;1;
463;3;
464;2;
465;2;
466;2;
467;4;
468;2;
469;0;
470;1;
471;4;
472;2;
473;1;
474;1;
475;0;
476;0;
477;2;
478;0;
479;1;
480;1;
481;0;
482;0;
483;3;
484;0;
485;0;
486;0;
487;2;
488;1;
489;0;
490;1;
491;0;
492;2;
493;3;
494;1;
495;2;
496;0;
497;3;
498;0;
499;0;
500;0;
501;1;
502;0;
503;4;
504;0;
505;1;
506;1;
507;1;
508;2;
509;0;
510;0;
511;2;
512;0;
513;0;
514;1;
515;0;
516;1;
517;2;
518;2;
519;0;
520;0;
521;1;
522;1;
523;0;
524;0;
525;0;
526;0;
527;0;
528;0;
529;0;
530;1;
531;0;
532;1;
533;1;
534;1;
535;1;
536;0;
537;0;
538;0;
539;0;
540;0;
541;1;
542;1;
543;0;
544;0;
545;0;
546;0;
547;0;
548;0;
549;1;
550;0;
551;2;
552;1;
553;0;
554;0;
555;0;
556;0;
557;0;
558;1;
559;0;
560;1;
561;0;
562;0;
563;1;
564;0;
565;1;
566;0;
567;0;
568;1;
569;0;
570;0;
571;0;
572;1;
573;0;
574;0;
575;0;
576;0;
577;1;
578;1;
579;0;
580;0;
581;0;
582;1;
583;1;
584;0;
585;0;
586;0;
587;0;
588;0;
589;0;
590;1;
591;0;
592;0;
593;0;
594;0;
595;1;
596;0;
597;0;
598;0;
599;0;
600;0;
601;0;
602;0;
603;0;
604;0;
605;0;
606;0;
607;0;
608;0;
609;0;
610;0;
611;0;
612;0;
613;0;
614;0;
615;0;
616;1;
617;0;
618;0;
619;0;
620;0;
621;0;
622;0;
623;0;
624;0;
625;2;
626;0;
627;0;
628;0;
629;0;
630;0;
631;0;
632;1;
633;1;
634;0;
635;0;
636;0;
637;1;
638;0;
639;0;
640;0;
641;1;
642;0;
643;1;
644;0;
645;0;
646;0;
647;0;
648;0;
649;0;
650;0;
651;0;
652;0;
653;0;
654;0;
655;0;
656;0;
657;0;
658;0;
659;1;
660;1;
661;0;
662;0;
663;0;
664;0;
665;0;
666;0;
667;0;
668;0;
669;0;
670;0;
671;0;
672;0;
673;0;
674;0;
675;1;
676;0;
677;0;
678;0;
679;0;
680;0;
681;0;
682;0;
683;0;
684;1;
685;1;
686;0;
687;0;
688;0;
689;0;
690;1;
691;0;
692;0;
693;0;
694;0;
695;0;
696;0;
697;0;
698;0;
699;1;
700;0;
701;0;
702;1;
703;0;
704;0;
705;0;
706;0;
707;0;
708;0;
709;0;
710;1;
711;0;
712;0;
713;0;
714;0;
715;0;
716;0;
717;0;
718;0;
719;0;
720;0;
721;1;
722;0;
723;0;
724;0;
725;0;
726;0;
727;0;
728;0;
729;0;
730;0;
731;0;
732;0;
733;0;
734;1;
735;0;
736;0;
737;0;
738;0;
739;0;
740;0;
741;0;
742;0;
743;0;
744;0;
745;0;
746;0;
747;1;
748;0;
749;0;
750;0;
751;0;
752;0;
753;0;
754;0;
755;0;
756;0;
757;0;
758;0;
759;0;
760;0;
761;0;
762;0;
763;0;
764;0;
765;0;
766;0;
767;0;
768;0;
769;0;
770;0;
771;0;
772;0;
773;0;
774;0;
775;0;
776;0;
777;0;
778;0;
779;0;
780;0;
781;0;
782;0;
783;0;
784;0;
785;0;
786;0;
787;0;
788;0;
789;0;
790;0;
791;0;
792;0;
793;0;
794;0;
795;2;
796;0;
797;0;
798;0;
799;0;
800;0;
801;0;
802;0;
803;0;
804;0;
805;0;
806;0;
807;0;
808;0;
809;0;
810;0;
811;0;
812;0;
813;0;
814;0;
815;0;
816;0;
817;0;
818;0;
819;0;
820;0;
821;0;
822;0;
823;0;
824;0;
825;0;
826;0;
827;0;
828;0;
829;0;
830;0;
831;0;
832;0;
833;0;
834;0;
835;0;
836;0;
837;0;
838;0;
839;0;
840;0;
841;0;
842;0;
843;0;
844;0;
845;0;
846;0;
847;0;
848;0;
849;0;
850;0;
851;0;
852;0;
853;0;
854;0;
855;0;
856;0;
857;0;
858;0;
859;0;
860;0;
861;0;
862;0;
863;0;
864;0;
865;0;
866;0;
867;0;
868;0;
869;0;
870;0;
871;0;
872;0;
873;0;
874;0;
875;0;
876;0;
877;0;
878;0;
879;0;
880;0;
881;0;
882;0;
883;0;
884;0;
885;0;
886;0;
887;0;
888;0;
889;0;
890;0;
891;0;
892;0;
893;0;
894;0;
895;0;
896;0;
897;0;
898;0;
899;0;
900;0;
901;0;
902;0;
903;0;
904;0;
905;0;
906;0;
907;0;
908;0;
909;0;
910;0;
911;0;
912;0;
913;0;
914;0;
915;0;
916;0;
917;0;
918;0;
919;0;
920;0;
921;0;
922;0;
923;0;
924;0;
925;0;
926;0;
927;0;
928;0;
929;0;
930;0;
931;0;
932;0;
933;0;
934;0;
935;0;
936;0;
937;0;
938;0;
939;0;
940;0;
941;0;
942;0;
943;0;
944;0;
945;0;
946;0;
947;0;
948;0;
949;0;
950;0;
951;0;
952;0;
953;0;
954;0;
955;0;
956;0;
957;0;
958;0;
959;0;
960;0;
961;0;
962;0;
963;0;
964;0;
965;0;
966;0;
967;0;
968;0;
969;0;
970;0;
971;0;
972;0;
973;0;
974;0;
975;0;
976;0;
977;0;
978;0;
979;0;
980;0;
981;0;
982;0;
983;0;
984;0;
985;0;
986;0;
987;0;
988;0;
989;0;
990;0;
991;0;
992;0;
993;0;
994;0;
995;0;
996;0;
997;0;
998;0;
999;0;
1000;0;
1001;0;
1002;0;
1003;0;
1004;0;
1005;0;
1006;0;
1007;0;
1008;0;
1009;0;
1010;0;
1011;0;
1012;0;
1013;1;
1014;1;
1015;0;
1016;0;
1017;0;
1018;0;
1019;0;
1020;0;
1021;0;
1022;0;
1023;0;
1024;1;
1025;0;
1026;0;
1027;0;
1028;0;
1029;0;
1030;0;
1031;0;
1032;0;
1033;0;
1034;0;
1035;0;
1036;0;
1037;0;
1038;0;
1039;0;
1040;0;
1041;0;
1042;0;
1043;0;
1044;0;
1045;0;
1046;0;
1047;0;
1048;0;
1049;0;
1050;0;
1051;0;
1052;0;
1053;0;
1054;0;
1055;0;
1056;0;
1057;0;
1058;0;
1059;0;
1060;0;
1061;0;
1062;0;
1063;0;
1064;0;
1065;0;
1066;0;
1067;0;
1068;0;
1069;0;
1070;0;
1071;0;
1072;0;
1073;0;
1074;0;
1075;0;
1076;0;
1077;0;
1078;0;
1079;0;
1080;0;
1081;0;
1082;0;
1083;0;
1084;0;
1085;0;
1086;0;
1087;0;
1088;0;
1089;0;
1090;0;
1091;0;
1092;0;
1093;0;
1094;0;
1095;0;
1096;0;
1097;0;
1098;0;
1099;0;
1100;0;
1101;0;
1102;0;
1103;0;
1104;0;
1105;0;
1106;0;
1107;0;
1108;0;
1109;0;
1110;0;
1111;0;
1112;0;
1113;0;
1114;1;
1115;0;
1116;0;
1117;0;
1118;0;
1119;0;
1120;0;
1121;0;
1122;0;
1123;0;
1124;0;
1125;0;
1126;0;
1127;0;
1128;0;
1129;0;
1130;0;
1131;0;
1132;0;
1133;0;
1134;1;
1135;0;
1136;0;
1137;0;
1138;0;
1139;0;
1140;0;
1141;0;
1142;0;
1143;0;
1144;0;
1145;1;
1146;0;
1147;0;
1148;0;
1149;0;
1150;0;
1151;0;
1152;0;
1153;0;
1154;0;
1155;0;
1156;0;
1157;0;
1158;0;
1159;0;
1160;0;
1161;0;
1162;0;
1163;0;
1164;0;
1165;0;
1166;0;
1167;0;
1168;0;
1169;0;
1170;0;
1171;0;
1172;0;
1173;0;
1174;0;
1175;0;
1176;0;
1177;0;
1178;0;
1179;0;
1180;0;
1181;0;
1182;0;
1183;0;
1184;0;
1185;1;
1186;0;
1187;0;
1188;0;
1189;0;
1190;1;
1191;0;
1192;0;
1193;0;
1194;0;
1195;0;
1196;0;
1197;0;
1198;0;
1199;0;
1200;0;
1201;0;
1202;0;
1203;0;
1204;1;
