total error;
avg err;MSE;
-0.0687964987914173;0.246328980210687;
programs error;
program;avg err;MSE;
0;-0.136455821481023;0.242372935934966
1;-0.142880386229692;0.261128014904238
2;0.00125651606099426;0.210541036173063
3;-0.0310374116889967;0.210761590937199
4;-0.113140386636643;0.19315626450959
5;-0.0783075988161382;0.315142971814167
6;0.0189895972515789;0.270083547996801

programs splitup;
program;splitup;
0;0;0;0.885187406488436;0;0.620794576103811;
1;0.189243145246972;0.247363106850215;0;0.0520099424125422;0.45847864303301;
2;0;0;0;0.527691875730238;0.412588182565887;
3;0.247171360608932;0;0;0;0.238446937856104;
4;0;0;0.217981475963284;0.248653594543575;0.446457186658932;
5;0.788367726239753;0;0;0.117236008485137;0.123529133611765;
6;0.0886254596362901;0.0255719418183385;0.152753949872687;0.60321933807431;0;

buckets;
bucket;number;
-65;1;
-64;1;
-63;0;
-62;1;
-61;2;
-60;1;
-59;7;
-58;12;
-57;7;
-56;10;
-55;12;
-54;12;
-53;15;
-52;16;
-51;7;
-50;24;
-49;13;
-48;20;
-47;14;
-46;16;
-45;17;
-44;11;
-43;9;
-42;10;
-41;9;
-40;9;
-39;9;
-38;13;
-37;12;
-36;11;
-35;35;
-34;26;
-33;53;
-32;45;
-31;48;
-30;70;
-29;51;
-28;62;
-27;73;
-26;68;
-25;51;
-24;86;
-23;82;
-22;82;
-21;77;
-20;82;
-19;85;
-18;79;
-17;101;
-16;119;
-15;119;
-14;121;
-13;100;
-12;97;
-11;91;
-10;89;
-9;105;
-8;83;
-7;79;
-6;100;
-5;116;
-4;129;
-3;121;
-2;126;
-1;118;
0;256;
1;138;
2;83;
3;73;
4;71;
5;72;
6;75;
7;59;
8;53;
9;52;
10;56;
11;53;
12;49;
13;42;
14;47;
15;41;
16;43;
17;39;
18;28;
19;23;
20;28;
21;31;
22;17;
23;38;
24;20;
25;14;
26;23;
27;19;
28;24;
29;18;
30;14;
31;6;
32;8;
33;13;
34;9;
35;7;
36;7;
37;8;
38;9;
39;7;
40;12;
41;6;
42;3;
43;1;
44;11;
45;4;
46;3;
47;3;
48;1;
49;4;
50;3;
51;2;
52;2;
53;2;
54;1;
55;1;
56;3;
57;2;
58;2;
59;3;
60;2;
61;3;
62;1;
63;4;
64;1;
65;0;
66;1;
67;2;
68;1;
69;3;
70;3;
71;1;
72;0;
73;1;
74;1;
75;0;
76;0;
77;0;
78;1;
79;0;
80;2;
81;2;
82;1;
83;0;
84;3;
85;0;
86;0;
87;0;
88;0;
89;1;
90;0;
91;2;
92;0;
93;1;
94;0;
95;0;
96;0;
97;1;
98;0;
99;0;
100;1;
101;0;
102;0;
103;0;
104;0;
105;0;
106;1;
107;0;
108;0;
109;0;
110;0;
111;1;
112;0;
113;0;
114;0;
115;0;
116;0;
117;0;
118;0;
119;0;
120;0;
121;1;
122;0;
123;1;
124;0;
125;0;
126;0;
127;0;
128;0;
129;0;
130;1;
131;0;
132;0;
133;0;
134;0;
135;0;
136;0;
137;0;
138;0;
139;0;
140;0;
141;0;
142;0;
143;0;
144;0;
145;0;
146;0;
147;0;
148;0;
149;0;
150;0;
151;0;
152;0;
153;0;
154;0;
155;0;
156;0;
157;0;
158;0;
159;0;
160;0;
161;0;
162;0;
163;0;
164;0;
165;0;
166;0;
167;0;
168;0;
169;0;
170;0;
171;0;
172;1;
173;0;
174;0;
175;0;
176;0;
177;0;
178;0;
179;0;
180;0;
181;0;
182;0;
183;0;
184;0;
185;0;
186;0;
187;0;
188;0;
189;0;
190;0;
191;0;
192;0;
193;0;
194;0;
195;0;
196;0;
197;0;
198;0;
199;0;
200;0;
201;0;
202;0;
203;0;
204;0;
205;0;
206;0;
207;0;
208;0;
209;0;
210;0;
211;0;
212;0;
213;0;
214;0;
215;0;
216;0;
217;0;
218;0;
219;0;
220;0;
221;0;
222;0;
223;0;
224;0;
225;0;
226;0;
227;0;
228;0;
229;0;
230;0;
231;0;
232;0;
233;0;
234;0;
235;0;
236;0;
237;0;
238;0;
239;0;
240;0;
241;0;
242;0;
243;0;
244;0;
245;0;
246;0;
247;0;
248;0;
249;0;
250;0;
251;0;
252;0;
253;0;
254;0;
255;0;
256;0;
257;0;
258;0;
259;0;
260;0;
261;0;
262;0;
263;0;
264;0;
265;0;
266;0;
267;0;
268;0;
269;0;
270;0;
271;0;
272;0;
273;0;
274;0;
275;0;
276;0;
277;0;
278;0;
279;0;
280;0;
281;0;
282;0;
283;1;
284;0;
285;0;
286;0;
287;0;
288;0;
289;0;
290;0;
291;0;
292;0;
293;0;
294;0;
295;0;
296;0;
297;0;
298;0;
299;0;
300;0;
301;0;
302;1;
303;0;
304;0;
305;0;
306;0;
307;0;
308;0;
309;0;
310;0;
311;0;
312;0;
313;0;
314;0;
315;0;
316;0;
317;0;
318;0;
319;0;
320;0;
321;0;
322;0;
323;0;
324;0;
325;0;
326;0;
327;0;
328;0;
329;0;
330;0;
331;0;
332;0;
333;0;
334;0;
335;0;
336;0;
337;0;
338;0;
339;0;
340;0;
341;0;
342;0;
343;0;
344;0;
345;0;
346;0;
347;0;
348;0;
349;0;
350;0;
351;0;
352;0;
353;0;
354;0;
355;0;
356;0;
357;0;
358;0;
359;0;
360;0;
361;0;
362;0;
363;0;
364;0;
365;0;
366;0;
367;0;
368;0;
369;0;
370;0;
371;0;
372;0;
373;0;
374;0;
375;0;
376;0;
377;0;
378;0;
379;0;
380;0;
381;0;
382;0;
383;0;
384;0;
385;0;
386;0;
387;0;
388;0;
389;0;
390;0;
391;0;
392;0;
393;0;
394;0;
395;0;
396;0;
397;0;
398;0;
399;0;
400;0;
401;0;
402;0;
403;1;
404;0;
405;0;
406;0;
407;0;
408;0;
409;0;
410;0;
411;0;
412;0;
413;0;
414;0;
415;0;
416;0;
417;0;
418;0;
419;0;
420;0;
421;0;
422;0;
423;0;
424;0;
425;0;
426;0;
427;0;
428;0;
429;0;
430;1;
