total error;
avg err;MSE;
-0.0585175528229032;0.215891689417201;
programs error;
program;avg err;MSE;
0;-0.136455821481023;0.242372935934966
1;0.00125651606099424;0.210541036173063
2;0.0207911131830492;0.175035610733826
3;-0.113140386636643;0.19315626450959
4;-0.104308623613866;0.224180449748014
5;-0.0192481144499288;0.242285489287098

programs splitup;
program;splitup;
0;0;0;0.885187406488436;0;0.620794576103811;0;
1;0;0;0;0.527691875730238;0.412588182565887;0;
2;0.0926129781731728;0;0.0187974659281727;0;0.239212052090595;0.123151514745181;
3;0;0;0.217981475963284;0.248653594543575;0.446457186658932;0;
4;0.19460172210484;0;0;0.339018744705559;0.100118465401072;0.271291129161327;
5;0.00669911753555793;0.0247254857737358;0.17458087731756;0.634832136694553;0;0.0168609336589327;

buckets;
bucket;number;
-66;1;
-65;2;
-64;0;
-63;1;
-62;1;
-61;1;
-60;1;
-59;5;
-58;6;
-57;3;
-56;7;
-55;13;
-54;20;
-53;17;
-52;14;
-51;14;
-50;27;
-49;7;
-48;8;
-47;12;
-46;6;
-45;9;
-44;5;
-43;8;
-42;7;
-41;7;
-40;7;
-39;7;
-38;12;
-37;9;
-36;13;
-35;25;
-34;21;
-33;41;
-32;27;
-31;24;
-30;39;
-29;32;
-28;47;
-27;36;
-26;46;
-25;48;
-24;72;
-23;60;
-22;68;
-21;50;
-20;56;
-19;59;
-18;57;
-17;82;
-16;105;
-15;102;
-14;106;
-13;92;
-12;104;
-11;91;
-10;75;
-9;77;
-8;70;
-7;75;
-6;81;
-5;95;
-4;94;
-3;74;
-2;91;
-1;87;
0;205;
1;105;
2;82;
3;90;
4;106;
5;95;
6;92;
7;92;
8;86;
9;68;
10;42;
11;44;
12;45;
13;40;
14;44;
15;39;
16;44;
17;42;
18;35;
19;29;
20;37;
21;26;
22;18;
23;31;
24;21;
25;16;
26;22;
27;15;
28;20;
29;12;
30;11;
31;10;
32;8;
33;16;
34;7;
35;3;
36;8;
37;4;
38;3;
39;5;
40;9;
41;5;
42;1;
43;5;
44;6;
45;0;
46;3;
47;4;
48;0;
49;2;
50;2;
51;1;
52;0;
53;4;
54;1;
55;1;
56;0;
57;0;
58;0;
59;1;
60;0;
61;0;
62;0;
63;0;
64;0;
65;0;
66;0;
67;2;
68;0;
69;1;
70;0;
71;0;
72;1;
73;0;
74;0;
75;1;
76;0;
77;0;
78;0;
79;0;
80;0;
81;0;
82;0;
83;0;
84;0;
85;0;
86;0;
87;1;
88;0;
89;0;
90;0;
91;0;
92;0;
93;0;
94;1;
95;0;
96;0;
97;0;
98;0;
99;0;
100;0;
101;0;
102;0;
103;0;
104;0;
105;0;
106;0;
107;0;
108;0;
109;0;
110;0;
111;1;
112;0;
113;0;
114;0;
115;0;
116;0;
117;0;
118;0;
119;0;
120;0;
121;1;
122;0;
123;1;
124;0;
125;0;
126;0;
127;0;
128;0;
129;0;
130;1;
131;0;
132;0;
133;0;
134;0;
135;0;
136;0;
137;0;
138;0;
139;0;
140;0;
141;0;
142;0;
143;0;
144;0;
145;0;
146;0;
147;0;
148;0;
149;0;
150;0;
151;0;
152;0;
153;0;
154;0;
155;0;
156;0;
157;0;
158;0;
159;1;
160;0;
161;0;
162;0;
163;0;
164;0;
165;0;
166;0;
167;0;
168;0;
169;0;
170;0;
171;0;
172;1;
173;1;
174;1;
175;0;
176;0;
177;0;
178;0;
179;0;
180;0;
181;0;
182;0;
183;0;
184;0;
185;0;
186;0;
187;0;
188;0;
189;0;
190;0;
191;0;
192;0;
193;0;
194;0;
195;0;
196;0;
197;0;
198;0;
199;0;
200;1;
