0.446199128913818,0.198723424175664,0.17155211777857
0.282636935219874,0.216268015088797,0.239309214226841
0.329940168884983,0.215159527555574,0.22875722971199
0.233415255837081,0.213126192918178,0.267401475975486
0.589860899983967,0.349087510044137,0.0093794877745433
0.217743599233585,0.214446575953258,0.3024797278517
0.256883295719656,0.337865799133049,0.223960047638326
0.192825754535746,0.204188777314529,0.349102725528288
0.436551138608294,0.225018758565816,0.170929634874945
0.277149862351705,0.259739795333993,0.248083807825805
0.248425211282484,0.209764371160969,0.302283182160245
0.255226886839974,0.212686913418633,0.287878395655541
0.342251752718816,0.251628213898539,0.174854131853184
0.324098408633627,0.333422326798284,0.167891958269548
0.445226048873645,0.481195851555291,0.035435284381712
0.24585676428722,0.302978624763403,0.224710636289346
0.360929395936299,0.436530781219646,0.0602718778195845
0.393582875093785,0.224386319393139,0.206793357597677
0.222245222907205,0.262479931762753,0.224806454313234
0.30659758766788,0.277131874257794,0.190486746654754
0.208582081409424,0.334637322196105,0.241747475032629
0.205456003999238,0.23275520578274,0.308577703331406
0.338634272670439,0.362352968822761,0.0556790218285559
0.520943648660388,0.378810606226861,0.0368572695346208
0.224007977994404,0.256152172134267,0.269574817487996
0.412741464291155,0.351207877664362,0.0860356179378386
0.324066793172514,0.378488173799384,0.137217901724424
0.20763913755808,0.26412028748064,0.26412028748064
0.441677510442725,0.422330419271928,0.0540283458337831
