/*---------------------------------------------------------------------------*\
| =========                 |                                                 |
| \\      /  F ield         | OpenFOAM: The Open Source CFD Toolbox           |
|  \\    /   O peration     | Version:  2.3.0                                 |
|   \\  /    A nd           | Web:      www.OpenFOAM.org                      |
|    \\/     M anipulation  |                                                 |
\*---------------------------------------------------------------------------*/
Build  : 2.3.0
Exec   : icoFoam
Date   : Oct 08 2014
Time   : 21:52:21
Host   : "hpc01"
PID    : 373
Case   : /home/bobo/OpenFOAM/experiment/incompressible/icoFoam/cavity1
nProcs : 1
fileModificationChecking : Monitoring run-time modified files using timeStampMaster
allowSystemOperations : Disallowing user-supplied system call operations

// * * * * * * * * * * * * * * * * * * * * * * * * * * * * * * * * * * * * * //
Create time

Create mesh for time = 0.5

Reading transportProperties

Reading field p

Reading field U

Reading/calculating face flux field phi


Starting time loop

Time = 0.5001

Courant Number mean: 0.0595081 max: 0.352
smoothSolver:  Solving for Ux, Initial residual = 0.395839, Final residual = 9.80477e-06, No Iterations 211
smoothSolver:  Solving for Uy, Initial residual = 0.459956, Final residual = 9.73037e-06, No Iterations 235
DICPCG:  Solving for p, Initial residual = 0.968205, Final residual = 2.92038e-06, No Iterations 1001
time step continuity errors : sum local = 9.15841e-10, global = -2.51319e-21, cumulative = -2.51319e-21
DICPCG:  Solving for p, Initial residual = 0.917835, Final residual = 2.90253e-06, No Iterations 1001
time step continuity errors : sum local = 8.6536e-10, global = -9.49031e-21, cumulative = -1.20035e-20
ExecutionTime = 60.41 s  ClockTime = 60 s

Time = 0.5002

Courant Number mean: 0.0629131 max: 0.578306
smoothSolver:  Solving for Ux, Initial residual = 0.0495291, Final residual = 9.80551e-06, No Iterations 254
smoothSolver:  Solving for Uy, Initial residual = 0.128349, Final residual = 9.82417e-06, No Iterations 297
DICPCG:  Solving for p, Initial residual = 0.972276, Final residual = 1.56583e-06, No Iterations 1001
time step continuity errors : sum local = 4.79108e-10, global = -5.4357e-21, cumulative = -1.74392e-20
DICPCG:  Solving for p, Initial residual = 0.936416, Final residual = 1.52474e-06, No Iterations 1001
time step continuity errors : sum local = 4.63524e-10, global = -7.31424e-21, cumulative = -2.47534e-20
ExecutionTime = 130.21 s  ClockTime = 130 s

Time = 0.5003

Courant Number mean: 0.0650396 max: 0.680961
smoothSolver:  Solving for Ux, Initial residual = 0.0326741, Final residual = 9.84218e-06, No Iterations 236
smoothSolver:  Solving for Uy, Initial residual = 0.115605, Final residual = 9.90489e-06, No Iterations 264
DICPCG:  Solving for p, Initial residual = 0.973547, Final residual = 9.83475e-07, No Iterations 997
time step continuity errors : sum local = 2.47142e-10, global = -1.91914e-21, cumulative = -2.66726e-20
DICPCG:  Solving for p, Initial residual = 0.941327, Final residual = 9.60664e-07, No Iterations 997
time step continuity errors : sum local = 2.39199e-10, global = -7.94901e-22, cumulative = -2.74675e-20
ExecutionTime = 197.85 s  ClockTime = 198 s

Time = 0.5004

Courant Number mean: 0.066473 max: 0.5943
smoothSolver:  Solving for Ux, Initial residual = 0.0330456, Final residual = 9.75731e-06, No Iterations 228
smoothSolver:  Solving for Uy, Initial residual = 0.123945, Final residual = 9.82635e-06, No Iterations 274
DICPCG:  Solving for p, Initial residual = 0.974539, Final residual = 1.20117e-06, No Iterations 1001
time step continuity errors : sum local = 2.96958e-10, global = 7.07998e-21, cumulative = -2.03875e-20
DICPCG:  Solving for p, Initial residual = 0.92794, Final residual = 1.16019e-06, No Iterations 1001
time step continuity errors : sum local = 2.88529e-10, global = -1.19336e-20, cumulative = -3.23211e-20
ExecutionTime = 265.94 s  ClockTime = 266 s

Time = 0.5005

Courant Number mean: 0.0680457 max: 0.788771
smoothSolver:  Solving for Ux, Initial residual = 0.0382347, Final residual = 9.92974e-06, No Iterations 231
smoothSolver:  Solving for Uy, Initial residual = 0.146835, Final residual = 9.70829e-06, No Iterations 269
DICPCG:  Solving for p, Initial residual = 0.979294, Final residual = 1.51275e-06, No Iterations 1001
time step continuity errors : sum local = 4.22244e-10, global = -6.13352e-21, cumulative = -3.84546e-20
DICPCG:  Solving for p, Initial residual = 0.941775, Final residual = 1.47656e-06, No Iterations 1001
time step continuity errors : sum local = 4.11101e-10, global = -7.68811e-21, cumulative = -4.61427e-20
ExecutionTime = 334.45 s  ClockTime = 334 s

Time = 0.5006

Courant Number mean: 0.0690013 max: 0.611931
smoothSolver:  Solving for Ux, Initial residual = 0.0481084, Final residual = 9.86877e-06, No Iterations 230
smoothSolver:  Solving for Uy, Initial residual = 0.17666, Final residual = 9.88426e-06, No Iterations 271
DICPCG:  Solving for p, Initial residual = 0.982367, Final residual = 1.75519e-06, No Iterations 1001
time step continuity errors : sum local = 6.04967e-10, global = -1.74604e-21, cumulative = -4.78888e-20
DICPCG:  Solving for p, Initial residual = 0.935194, Final residual = 1.69424e-06, No Iterations 1001
time step continuity errors : sum local = 5.89764e-10, global = -1.62357e-20, cumulative = -6.41244e-20
ExecutionTime = 403.82 s  ClockTime = 404 s

Time = 0.5007

Courant Number mean: 0.0707075 max: 1.02441
smoothSolver:  Solving for Ux, Initial residual = 0.060741, Final residual = 9.89594e-06, No Iterations 234
smoothSolver:  Solving for Uy, Initial residual = 0.22267, Final residual = 9.71042e-06, No Iterations 273
DICPCG:  Solving for p, Initial residual = 0.985379, Final residual = 9.35925e-07, No Iterations 800
time step continuity errors : sum local = 4.53363e-10, global = 7.20157e-21, cumulative = -5.69229e-20
DICPCG:  Solving for p, Initial residual = 0.946663, Final residual = 9.87162e-07, No Iterations 796
time step continuity errors : sum local = 4.60691e-10, global = -7.60027e-21, cumulative = -6.45231e-20
ExecutionTime = 461.78 s  ClockTime = 462 s

Time = 0.5008

Courant Number mean: 0.0713604 max: 0.734165
smoothSolver:  Solving for Ux, Initial residual = 0.0807533, Final residual = 9.79384e-06, No Iterations 238
smoothSolver:  Solving for Uy, Initial residual = 0.267343, Final residual = 9.96399e-06, No Iterations 274
DICPCG:  Solving for p, Initial residual = 0.98777, Final residual = 1.55329e-06, No Iterations 1001
time step continuity errors : sum local = 9.30451e-10, global = 1.23934e-20, cumulative = -5.21297e-20
DICPCG:  Solving for p, Initial residual = 0.942906, Final residual = 1.49656e-06, No Iterations 1001
time step continuity errors : sum local = 9.05874e-10, global = 1.45854e-21, cumulative = -5.06712e-20
ExecutionTime = 531.39 s  ClockTime = 531 s

Time = 0.5009

Courant Number mean: 0.0736225 max: 1.45493
smoothSolver:  Solving for Ux, Initial residual = 0.102365, Final residual = 9.76422e-06, No Iterations 242
smoothSolver:  Solving for Uy, Initial residual = 0.330478, Final residual = 9.99457e-06, No Iterations 277
DICPCG:  Solving for p, Initial residual = 0.988742, Final residual = 9.95851e-07, No Iterations 792
time step continuity errors : sum local = 8.36104e-10, global = 1.48346e-21, cumulative = -4.91877e-20
DICPCG:  Solving for p, Initial residual = 0.949134, Final residual = 9.84078e-07, No Iterations 789
time step continuity errors : sum local = 8.10089e-10, global = -1.46059e-20, cumulative = -6.37937e-20
ExecutionTime = 589.02 s  ClockTime = 589 s

Time = 0.501

Courant Number mean: 0.0743088 max: 1.30637
smoothSolver:  Solving for Ux, Initial residual = 0.138927, Final residual = 9.71979e-06, No Iterations 248
smoothSolver:  Solving for Uy, Initial residual = 0.387924, Final residual = 9.92759e-06, No Iterations 279
DICPCG:  Solving for p, Initial residual = 0.990633, Final residual = 1.4382e-06, No Iterations 1001
time step continuity errors : sum local = 1.59205e-09, global = -2.79316e-21, cumulative = -6.65868e-20
DICPCG:  Solving for p, Initial residual = 0.94721, Final residual = 1.38714e-06, No Iterations 1001
time step continuity errors : sum local = 1.5506e-09, global = 1.44596e-20, cumulative = -5.21272e-20
ExecutionTime = 658.33 s  ClockTime = 658 s

Time = 0.5011

Courant Number mean: 0.0774131 max: 2.24084
smoothSolver:  Solving for Ux, Initial residual = 0.171148, Final residual = 9.93151e-06, No Iterations 251
smoothSolver:  Solving for Uy, Initial residual = 0.457754, Final residual = 9.88555e-06, No Iterations 282
DICPCG:  Solving for p, Initial residual = 0.990422, Final residual = 1.31032e-06, No Iterations 1001
time step continuity errors : sum local = 1.98695e-09, global = -1.68616e-21, cumulative = -5.38134e-20
DICPCG:  Solving for p, Initial residual = 0.950153, Final residual = 1.26608e-06, No Iterations 1001
time step continuity errors : sum local = 1.93277e-09, global = 8.47587e-21, cumulative = -4.53375e-20
ExecutionTime = 728.12 s  ClockTime = 728 s

Time = 0.5012

Courant Number mean: 0.0788103 max: 2.35408
smoothSolver:  Solving for Ux, Initial residual = 0.229517, Final residual = 9.77755e-06, No Iterations 258
smoothSolver:  Solving for Uy, Initial residual = 0.518135, Final residual = 9.98482e-06, No Iterations 283
DICPCG:  Solving for p, Initial residual = 0.991954, Final residual = 1.46327e-06, No Iterations 1001
time step continuity errors : sum local = 3.03979e-09, global = -6.53847e-21, cumulative = -5.1876e-20
DICPCG:  Solving for p, Initial residual = 0.949328, Final residual = 1.41235e-06, No Iterations 1001
time step continuity errors : sum local = 2.96101e-09, global = -2.18181e-20, cumulative = -7.36941e-20
ExecutionTime = 798.3 s  ClockTime = 798 s

Time = 0.5013

Courant Number mean: 0.0830975 max: 3.68002
smoothSolver:  Solving for Ux, Initial residual = 0.273475, Final residual = 9.8158e-06, No Iterations 261
smoothSolver:  Solving for Uy, Initial residual = 0.581296, Final residual = 9.70778e-06, No Iterations 286
DICPCG:  Solving for p, Initial residual = 0.991355, Final residual = 1.17528e-06, No Iterations 1001
time step continuity errors : sum local = 3.35359e-09, global = -9.75124e-21, cumulative = -8.34454e-20
DICPCG:  Solving for p, Initial residual = 0.950538, Final residual = 1.13447e-06, No Iterations 1001
time step continuity errors : sum local = 3.26123e-09, global = 2.14169e-20, cumulative = -6.20285e-20
ExecutionTime = 868.28 s  ClockTime = 868 s

Time = 0.5014

Courant Number mean: 0.0862531 max: 4.29495
smoothSolver:  Solving for Ux, Initial residual = 0.353512, Final residual = 9.89375e-06, No Iterations 267
smoothSolver:  Solving for Uy, Initial residual = 0.63374, Final residual = 9.81257e-06, No Iterations 286
DICPCG:  Solving for p, Initial residual = 0.992228, Final residual = 1.39213e-06, No Iterations 1001
time step continuity errors : sum local = 5.44501e-09, global = -8.10529e-22, cumulative = -6.2839e-20
DICPCG:  Solving for p, Initial residual = 0.950144, Final residual = 1.36059e-06, No Iterations 1001
time step continuity errors : sum local = 5.36851e-09, global = 2.97136e-20, cumulative = -3.31255e-20
ExecutionTime = 938.61 s  ClockTime = 939 s

Time = 0.5015

Courant Number mean: 0.0927833 max: 6.30835
smoothSolver:  Solving for Ux, Initial residual = 0.405532, Final residual = 9.95541e-06, No Iterations 269
smoothSolver:  Solving for Uy, Initial residual = 0.681094, Final residual = 9.99215e-06, No Iterations 287
DICPCG:  Solving for p, Initial residual = 0.991695, Final residual = 1.02515e-06, No Iterations 1001
time step continuity errors : sum local = 5.50663e-09, global = 3.93466e-21, cumulative = -2.91908e-20
DICPCG:  Solving for p, Initial residual = 0.950537, Final residual = 9.87894e-07, No Iterations 1001
time step continuity errors : sum local = 5.34845e-09, global = 2.22728e-20, cumulative = -6.91802e-21
ExecutionTime = 1008.81 s  ClockTime = 1009 s

Time = 0.5016

Courant Number mean: 0.0992735 max: 7.88557
smoothSolver:  Solving for Ux, Initial residual = 0.493179, Final residual = 9.75102e-06, No Iterations 275
smoothSolver:  Solving for Uy, Initial residual = 0.719411, Final residual = 9.97887e-06, No Iterations 286
DICPCG:  Solving for p, Initial residual = 0.992065, Final residual = 1.40557e-06, No Iterations 1001
time step continuity errors : sum local = 1.0349e-08, global = 5.02547e-20, cumulative = 4.33367e-20
DICPCG:  Solving for p, Initial residual = 0.950258, Final residual = 1.35876e-06, No Iterations 1001
time step continuity errors : sum local = 1.00913e-08, global = 1.05356e-20, cumulative = 5.38722e-20
ExecutionTime = 1078.78 s  ClockTime = 1079 s

Time = 0.5017

Courant Number mean: 0.11052 max: 11.0911
smoothSolver:  Solving for Ux, Initial residual = 0.541575, Final residual = 9.95875e-06, No Iterations 275
smoothSolver:  Solving for Uy, Initial residual = 0.749817, Final residual = 9.85525e-06, No Iterations 288
DICPCG:  Solving for p, Initial residual = 0.99158, Final residual = 9.99362e-07, No Iterations 994
time step continuity errors : sum local = 1.01043e-08, global = 4.07169e-20, cumulative = 9.45891e-20
DICPCG:  Solving for p, Initial residual = 0.950319, Final residual = 9.85397e-07, No Iterations 992
time step continuity errors : sum local = 1.00465e-08, global = 1.56045e-21, cumulative = 9.61495e-20
ExecutionTime = 1148.01 s  ClockTime = 1148 s

Time = 0.5018

Courant Number mean: 0.123584 max: 14.4968
smoothSolver:  Solving for Ux, Initial residual = 0.618474, Final residual = 9.82597e-06, No Iterations 280
smoothSolver:  Solving for Uy, Initial residual = 0.773796, Final residual = 9.90482e-06, No Iterations 285
DICPCG:  Solving for p, Initial residual = 0.991407, Final residual = 1.54428e-06, No Iterations 1001
time step continuity errors : sum local = 2.14139e-08, global = -2.22217e-20, cumulative = 7.39279e-20
DICPCG:  Solving for p, Initial residual = 0.949907, Final residual = 1.49107e-06, No Iterations 1001
time step continuity errors : sum local = 2.08587e-08, global = -5.52556e-20, cumulative = 1.86723e-20
ExecutionTime = 1218.57 s  ClockTime = 1219 s

Time = 0.5019

Courant Number mean: 0.143327 max: 19.8829
smoothSolver:  Solving for Ux, Initial residual = 0.65622, Final residual = 9.87049e-06, No Iterations 279
smoothSolver:  Solving for Uy, Initial residual = 0.79176, Final residual = 9.76678e-06, No Iterations 288
DICPCG:  Solving for p, Initial residual = 0.990762, Final residual = 9.93627e-07, No Iterations 982
time step continuity errors : sum local = 1.89461e-08, global = 1.54169e-20, cumulative = 3.40892e-20
DICPCG:  Solving for p, Initial residual = 0.949726, Final residual = 9.69638e-07, No Iterations 982
time step continuity errors : sum local = 1.8651e-08, global = 6.48395e-20, cumulative = 9.89287e-20
ExecutionTime = 1287.76 s  ClockTime = 1288 s

Time = 0.502

Courant Number mean: 0.169517 max: 26.4317
smoothSolver:  Solving for Ux, Initial residual = 0.712021, Final residual = 9.98046e-06, No Iterations 283
smoothSolver:  Solving for Uy, Initial residual = 0.804873, Final residual = 9.87363e-06, No Iterations 283
DICPCG:  Solving for p, Initial residual = 0.98999, Final residual = 1.80124e-06, No Iterations 1001
time step continuity errors : sum local = 4.71246e-08, global = 1.004e-19, cumulative = 1.99329e-19
DICPCG:  Solving for p, Initial residual = 0.949374, Final residual = 1.735e-06, No Iterations 1001
time step continuity errors : sum local = 4.58042e-08, global = 5.46226e-20, cumulative = 2.53951e-19
ExecutionTime = 1358.35 s  ClockTime = 1359 s

Time = 0.5021

Courant Number mean: 0.205333 max: 35.2625
smoothSolver:  Solving for Ux, Initial residual = 0.73359, Final residual = 9.83101e-06, No Iterations 280
smoothSolver:  Solving for Uy, Initial residual = 0.813696, Final residual = 9.82761e-06, No Iterations 287
DICPCG:  Solving for p, Initial residual = 0.989002, Final residual = 9.95635e-07, No Iterations 978
time step continuity errors : sum local = 3.57888e-08, global = -2.9565e-21, cumulative = 2.50995e-19
DICPCG:  Solving for p, Initial residual = 0.949217, Final residual = 9.94233e-07, No Iterations 975
time step continuity errors : sum local = 3.60627e-08, global = 1.22011e-19, cumulative = 3.73005e-19
ExecutionTime = 1426.95 s  ClockTime = 1427 s

Time = 0.5022

Courant Number mean: 0.254204 max: 46.1141
smoothSolver:  Solving for Ux, Initial residual = 0.767708, Final residual = 9.68701e-06, No Iterations 285
smoothSolver:  Solving for Uy, Initial residual = 0.81996, Final residual = 9.76025e-06, No Iterations 280
DICPCG:  Solving for p, Initial residual = 0.987703, Final residual = 2.00808e-06, No Iterations 1001
time step continuity errors : sum local = 9.82864e-08, global = 5.14185e-20, cumulative = 4.24424e-19
DICPCG:  Solving for p, Initial residual = 0.948835, Final residual = 1.91076e-06, No Iterations 1001
time step continuity errors : sum local = 9.43722e-08, global = -1.04173e-20, cumulative = 4.14007e-19
ExecutionTime = 1496.92 s  ClockTime = 1497 s

Time = 0.5023

Courant Number mean: 0.317589 max: 58.6435
smoothSolver:  Solving for Ux, Initial residual = 0.777014, Final residual = 9.73146e-06, No Iterations 278
smoothSolver:  Solving for Uy, Initial residual = 0.821561, Final residual = 9.89952e-06, No Iterations 284
DICPCG:  Solving for p, Initial residual = 0.986335, Final residual = 9.85742e-07, No Iterations 980
time step continuity errors : sum local = 6.52639e-08, global = -1.67405e-19, cumulative = 2.46602e-19
DICPCG:  Solving for p, Initial residual = 0.948464, Final residual = 9.88508e-07, No Iterations 976
time step continuity errors : sum local = 6.60305e-08, global = 9.96483e-20, cumulative = 3.46251e-19
ExecutionTime = 1565.99 s  ClockTime = 1566 s

Time = 0.5024

Courant Number mean: 0.395293 max: 72.5184
smoothSolver:  Solving for Ux, Initial residual = 0.796279, Final residual = 9.85607e-06, No Iterations 283
smoothSolver:  Solving for Uy, Initial residual = 0.824401, Final residual = 9.69451e-06, No Iterations 278
DICPCG:  Solving for p, Initial residual = 0.984781, Final residual = 1.80234e-06, No Iterations 1001
time step continuity errors : sum local = 1.5869e-07, global = 1.79896e-19, cumulative = 5.26146e-19
DICPCG:  Solving for p, Initial residual = 0.94813, Final residual = 1.76225e-06, No Iterations 1001
time step continuity errors : sum local = 1.56476e-07, global = -3.25162e-20, cumulative = 4.9363e-19
ExecutionTime = 1636.85 s  ClockTime = 1637 s

Time = 0.5025

Courant Number mean: 0.492912 max: 87.1929
smoothSolver:  Solving for Ux, Initial residual = 0.799408, Final residual = 9.93571e-06, No Iterations 278
smoothSolver:  Solving for Uy, Initial residual = 0.823821, Final residual = 9.7519e-06, No Iterations 284
DICPCG:  Solving for p, Initial residual = 0.983476, Final residual = 9.95802e-07, No Iterations 986
time step continuity errors : sum local = 1.14994e-07, global = 2.40847e-19, cumulative = 7.34477e-19
DICPCG:  Solving for p, Initial residual = 0.948016, Final residual = 9.83052e-07, No Iterations 984
time step continuity errors : sum local = 1.14451e-07, global = 1.51123e-19, cumulative = 8.856e-19
ExecutionTime = 1706.15 s  ClockTime = 1707 s

Time = 0.5026

Courant Number mean: 0.609742 max: 103.895
smoothSolver:  Solving for Ux, Initial residual = 0.80748, Final residual = 9.92646e-06, No Iterations 284
smoothSolver:  Solving for Uy, Initial residual = 0.823673, Final residual = 9.69493e-06, No Iterations 280
DICPCG:  Solving for p, Initial residual = 0.982177, Final residual = 1.91516e-06, No Iterations 1001
time step continuity errors : sum local = 2.83214e-07, global = 4.09734e-19, cumulative = 1.29533e-18
DICPCG:  Solving for p, Initial residual = 0.948257, Final residual = 1.88808e-06, No Iterations 1001
time step continuity errors : sum local = 2.81332e-07, global = 3.12368e-19, cumulative = 1.6077e-18
ExecutionTime = 1775.96 s  ClockTime = 1776 s

Time = 0.5027

Courant Number mean: 0.775629 max: 123.526
smoothSolver:  Solving for Ux, Initial residual = 0.804319, Final residual = 9.91283e-06, No Iterations 279
smoothSolver:  Solving for Uy, Initial residual = 0.818057, Final residual = 9.77974e-06, No Iterations 284
DICPCG:  Solving for p, Initial residual = 0.981144, Final residual = 1.6389e-06, No Iterations 1001
time step continuity errors : sum local = 3.04893e-07, global = -1.39435e-19, cumulative = 1.46827e-18
DICPCG:  Solving for p, Initial residual = 0.948879, Final residual = 1.54772e-06, No Iterations 1001
time step continuity errors : sum local = 2.89948e-07, global = 1.43996e-19, cumulative = 1.61226e-18
ExecutionTime = 1846.31 s  ClockTime = 1847 s

Time = 0.5028

Courant Number mean: 0.973021 max: 144.977
smoothSolver:  Solving for Ux, Initial residual = 0.804609, Final residual = 9.73526e-06, No Iterations 284
smoothSolver:  Solving for Uy, Initial residual = 0.81493, Final residual = 9.79408e-06, No Iterations 279
DICPCG:  Solving for p, Initial residual = 0.980211, Final residual = 2.15234e-06, No Iterations 1001
time step continuity errors : sum local = 4.86718e-07, global = 3.23291e-19, cumulative = 1.93555e-18
DICPCG:  Solving for p, Initial residual = 0.949651, Final residual = 2.07306e-06, No Iterations 1001
time step continuity errors : sum local = 4.71667e-07, global = -1.14947e-19, cumulative = 1.82061e-18
ExecutionTime = 1916.44 s  ClockTime = 1917 s

Time = 0.5029

Courant Number mean: 1.20954 max: 162.108
smoothSolver:  Solving for Ux, Initial residual = 0.800154, Final residual = 9.97212e-06, No Iterations 280
smoothSolver:  Solving for Uy, Initial residual = 0.807482, Final residual = 9.95735e-06, No Iterations 282
DICPCG:  Solving for p, Initial residual = 0.979899, Final residual = 9.99487e-07, No Iterations 985
time step continuity errors : sum local = 2.71309e-07, global = -3.70225e-19, cumulative = 1.45038e-18
DICPCG:  Solving for p, Initial residual = 0.950226, Final residual = 9.79732e-07, No Iterations 980
time step continuity errors : sum local = 2.67391e-07, global = 6.25977e-19, cumulative = 2.07636e-18
ExecutionTime = 1985.74 s  ClockTime = 1986 s

Time = 0.503

Courant Number mean: 1.41714 max: 177.564
smoothSolver:  Solving for Ux, Initial residual = 0.791898, Final residual = 9.91851e-06, No Iterations 289
smoothSolver:  Solving for Uy, Initial residual = 0.800894, Final residual = 9.96805e-06, No Iterations 290
DICPCG:  Solving for p, Initial residual = 0.979568, Final residual = 2.04925e-06, No Iterations 1001
time step continuity errors : sum local = 6.51401e-07, global = 5.54931e-19, cumulative = 2.63129e-18
DICPCG:  Solving for p, Initial residual = 0.949185, Final residual = 1.97626e-06, No Iterations 1001
time step continuity errors : sum local = 6.32354e-07, global = -4.82066e-19, cumulative = 2.14922e-18
ExecutionTime = 2056.14 s  ClockTime = 2057 s

Time = 0.5031

Courant Number mean: 1.7527 max: 208.792
smoothSolver:  Solving for Ux, Initial residual = 0.788003, Final residual = 9.75719e-06, No Iterations 291
smoothSolver:  Solving for Uy, Initial residual = 0.787378, Final residual = 9.73225e-06, No Iterations 290
DICPCG:  Solving for p, Initial residual = 0.97742, Final residual = 2.73319e-06, No Iterations 1001
time step continuity errors : sum local = 9.27505e-07, global = 5.57667e-19, cumulative = 2.70689e-18
DICPCG:  Solving for p, Initial residual = 0.946021, Final residual = 2.65296e-06, No Iterations 1001
time step continuity errors : sum local = 9.0605e-07, global = -2.07134e-19, cumulative = 2.49976e-18
ExecutionTime = 2126.77 s  ClockTime = 2127 s

Time = 0.5032

Courant Number mean: 2.60182 max: 242.311
smoothSolver:  Solving for Ux, Initial residual = 0.783264, Final residual = 9.93374e-06, No Iterations 277
smoothSolver:  Solving for Uy, Initial residual = 0.785844, Final residual = 9.82072e-06, No Iterations 280
DICPCG:  Solving for p, Initial residual = 0.976242, Final residual = 3.41914e-06, No Iterations 1001
time step continuity errors : sum local = 1.13237e-06, global = -4.3446e-19, cumulative = 2.0653e-18
DICPCG:  Solving for p, Initial residual = 0.942834, Final residual = 3.34316e-06, No Iterations 1001
time step continuity errors : sum local = 1.11122e-06, global = -2.08984e-19, cumulative = 1.85631e-18
ExecutionTime = 2196.66 s  ClockTime = 2197 s

Time = 0.5033

Courant Number mean: 3.29489 max: 203.612
smoothSolver:  Solving for Ux, Initial residual = 0.733232, Final residual = 9.98894e-06, No Iterations 275
smoothSolver:  Solving for Uy, Initial residual = 0.757148, Final residual = 9.84302e-06, No Iterations 268
DICPCG:  Solving for p, Initial residual = 0.97565, Final residual = 2.94459e-06, No Iterations 1001
time step continuity errors : sum local = 1.01293e-06, global = -4.72912e-20, cumulative = 1.80902e-18
DICPCG:  Solving for p, Initial residual = 0.947355, Final residual = 2.87279e-06, No Iterations 1001
time step continuity errors : sum local = 9.86624e-07, global = -4.77068e-19, cumulative = 1.33195e-18
ExecutionTime = 2265.84 s  ClockTime = 2266 s

Time = 0.5034

Courant Number mean: 2.62005 max: 159.429
smoothSolver:  Solving for Ux, Initial residual = 0.758785, Final residual = 9.86415e-06, No Iterations 294
smoothSolver:  Solving for Uy, Initial residual = 0.756428, Final residual = 9.8176e-06, No Iterations 294
DICPCG:  Solving for p, Initial residual = 0.976147, Final residual = 2.76966e-06, No Iterations 1001
time step continuity errors : sum local = 8.65641e-07, global = -1.23913e-19, cumulative = 1.20804e-18
DICPCG:  Solving for p, Initial residual = 0.949274, Final residual = 9.51477e-07, No Iterations 787
time step continuity errors : sum local = 3.06316e-07, global = -5.49586e-20, cumulative = 1.15308e-18
ExecutionTime = 2294.79 s  ClockTime = 2295 s

Time = 0.5035

Courant Number mean: 2.32932 max: 196.077
smoothSolver:  Solving for Ux, Initial residual = 0.747093, Final residual = 9.79952e-06, No Iterations 300
smoothSolver:  Solving for Uy, Initial residual = 0.766551, Final residual = 9.72529e-06, No Iterations 304
DICPCG:  Solving for p, Initial residual = 0.978787, Final residual = 2.97837e-06, No Iterations 1001
time step continuity errors : sum local = 7.4095e-07, global = -2.51877e-20, cumulative = 1.12789e-18
DICPCG:  Solving for p, Initial residual = 0.938166, Final residual = 2.99582e-06, No Iterations 1001
time step continuity errors : sum local = 7.40119e-07, global = -3.63114e-19, cumulative = 7.64781e-19
ExecutionTime = 2325.22 s  ClockTime = 2326 s

Time = 0.5036

Courant Number mean: 1.80463 max: 119.699
smoothSolver:  Solving for Ux, Initial residual = 0.76093, Final residual = 9.99099e-06, No Iterations 297
smoothSolver:  Solving for Uy, Initial residual = 0.74875, Final residual = 9.92533e-06, No Iterations 302
DICPCG:  Solving for p, Initial residual = 0.981434, Final residual = 1.83597e-06, No Iterations 1001
time step continuity errors : sum local = 4.32012e-07, global = -5.58665e-19, cumulative = 2.06116e-19
DICPCG:  Solving for p, Initial residual = 0.93976, Final residual = 1.74175e-06, No Iterations 1001
time step continuity errors : sum local = 4.0817e-07, global = 3.53993e-19, cumulative = 5.60109e-19
ExecutionTime = 2355.37 s  ClockTime = 2356 s

Time = 0.5037

Courant Number mean: 1.55584 max: 105.74
smoothSolver:  Solving for Ux, Initial residual = 0.769816, Final residual = 9.71219e-06, No Iterations 310
smoothSolver:  Solving for Uy, Initial residual = 0.789287, Final residual = 9.92714e-06, No Iterations 312
DICPCG:  Solving for p, Initial residual = 0.98123, Final residual = 1.34929e-06, No Iterations 1001
time step continuity errors : sum local = 3.14062e-07, global = -4.36751e-21, cumulative = 5.55742e-19
DICPCG:  Solving for p, Initial residual = 0.941117, Final residual = 1.34819e-06, No Iterations 1001
time step continuity errors : sum local = 3.13801e-07, global = -5.34537e-20, cumulative = 5.02288e-19
ExecutionTime = 2386.05 s  ClockTime = 2387 s

Time = 0.5038

Courant Number mean: 1.63936 max: 114.23
smoothSolver:  Solving for Ux, Initial residual = 0.806856, Final residual = 9.71721e-06, No Iterations 313
smoothSolver:  Solving for Uy, Initial residual = 0.797732, Final residual = 9.74671e-06, No Iterations 316
DICPCG:  Solving for p, Initial residual = 0.980934, Final residual = 9.86613e-07, No Iterations 1000
time step continuity errors : sum local = 2.56428e-07, global = 4.40477e-19, cumulative = 9.42765e-19
DICPCG:  Solving for p, Initial residual = 0.945736, Final residual = 9.99806e-07, No Iterations 1000
time step continuity errors : sum local = 2.60293e-07, global = -3.78257e-19, cumulative = 5.64507e-19
ExecutionTime = 2416.63 s  ClockTime = 2417 s

Time = 0.5039

Courant Number mean: 1.80493 max: 120.377
smoothSolver:  Solving for Ux, Initial residual = 0.798282, Final residual = 9.99952e-06, No Iterations 304
smoothSolver:  Solving for Uy, Initial residual = 0.812437, Final residual = 9.76875e-06, No Iterations 306
DICPCG:  Solving for p, Initial residual = 0.980574, Final residual = 2.19651e-06, No Iterations 1001
time step continuity errors : sum local = 6.53833e-07, global = 5.29027e-19, cumulative = 1.09353e-18
DICPCG:  Solving for p, Initial residual = 0.948989, Final residual = 2.15844e-06, No Iterations 1001
time step continuity errors : sum local = 6.44624e-07, global = -1.76661e-19, cumulative = 9.16874e-19
ExecutionTime = 2447.15 s  ClockTime = 2448 s

Time = 0.504

Courant Number mean: 2.07378 max: 106.228
smoothSolver:  Solving for Ux, Initial residual = 0.812542, Final residual = 9.96131e-06, No Iterations 308
smoothSolver:  Solving for Uy, Initial residual = 0.810602, Final residual = 9.79281e-06, No Iterations 304
DICPCG:  Solving for p, Initial residual = 0.98073, Final residual = 2.48878e-06, No Iterations 1001
time step continuity errors : sum local = 8.55314e-07, global = -8.29381e-19, cumulative = 8.74927e-20
DICPCG:  Solving for p, Initial residual = 0.951647, Final residual = 2.38131e-06, No Iterations 1001
time step continuity errors : sum local = 8.21377e-07, global = -2.50622e-19, cumulative = -1.6313e-19
ExecutionTime = 2477.52 s  ClockTime = 2478 s

Time = 0.5041

Courant Number mean: 2.47832 max: 139.314
smoothSolver:  Solving for Ux, Initial residual = 0.799134, Final residual = 9.84047e-06, No Iterations 307
smoothSolver:  Solving for Uy, Initial residual = 0.802076, Final residual = 9.82708e-06, No Iterations 306
DICPCG:  Solving for p, Initial residual = 0.981117, Final residual = 1.99424e-06, No Iterations 1001
time step continuity errors : sum local = 7.89613e-07, global = -3.89162e-19, cumulative = -5.52292e-19
DICPCG:  Solving for p, Initial residual = 0.952625, Final residual = 1.92185e-06, No Iterations 1001
time step continuity errors : sum local = 7.64273e-07, global = 1.42056e-20, cumulative = -5.38086e-19
ExecutionTime = 2508.09 s  ClockTime = 2509 s

Time = 0.5042

Courant Number mean: 2.81723 max: 143.366
smoothSolver:  Solving for Ux, Initial residual = 0.79864, Final residual = 9.78602e-06, No Iterations 303
smoothSolver:  Solving for Uy, Initial residual = 0.796118, Final residual = 9.76667e-06, No Iterations 306
DICPCG:  Solving for p, Initial residual = 0.979506, Final residual = 2.25297e-06, No Iterations 1001
time step continuity errors : sum local = 9.78974e-07, global = -6.29815e-19, cumulative = -1.1679e-18
DICPCG:  Solving for p, Initial residual = 0.951897, Final residual = 2.15647e-06, No Iterations 1001
time step continuity errors : sum local = 9.40145e-07, global = -1.17523e-18, cumulative = -2.34313e-18
ExecutionTime = 2538.39 s  ClockTime = 2539 s

Time = 0.5043

Courant Number mean: 3.31336 max: 155.298
smoothSolver:  Solving for Ux, Initial residual = 0.788733, Final residual = 9.79122e-06, No Iterations 299
smoothSolver:  Solving for Uy, Initial residual = 0.782642, Final residual = 9.80772e-06, No Iterations 305
DICPCG:  Solving for p, Initial residual = 0.980204, Final residual = 2.15814e-06, No Iterations 1001
time step continuity errors : sum local = 1.00643e-06, global = -5.24277e-19, cumulative = -2.86741e-18
DICPCG:  Solving for p, Initial residual = 0.952214, Final residual = 2.08022e-06, No Iterations 1001
time step continuity errors : sum local = 9.73056e-07, global = -7.47942e-19, cumulative = -3.61535e-18
ExecutionTime = 2568.81 s  ClockTime = 2570 s

Time = 0.5044

Courant Number mean: 3.91945 max: 142.815
smoothSolver:  Solving for Ux, Initial residual = 0.772289, Final residual = 9.80689e-06, No Iterations 298
smoothSolver:  Solving for Uy, Initial residual = 0.783293, Final residual = 9.86249e-06, No Iterations 299
DICPCG:  Solving for p, Initial residual = 0.980176, Final residual = 2.05794e-06, No Iterations 1001
time step continuity errors : sum local = 1.00359e-06, global = -1.97332e-19, cumulative = -3.81268e-18
DICPCG:  Solving for p, Initial residual = 0.954247, Final residual = 1.9732e-06, No Iterations 1001
time step continuity errors : sum local = 9.63858e-07, global = 1.3294e-18, cumulative = -2.48328e-18
ExecutionTime = 2598.93 s  ClockTime = 2600 s

Time = 0.5045

Courant Number mean: 4.18815 max: 169.527
smoothSolver:  Solving for Ux, Initial residual = 0.756662, Final residual = 9.76563e-06, No Iterations 299
smoothSolver:  Solving for Uy, Initial residual = 0.762227, Final residual = 9.71903e-06, No Iterations 301
DICPCG:  Solving for p, Initial residual = 0.980534, Final residual = 1.64451e-06, No Iterations 1001
time step continuity errors : sum local = 8.14504e-07, global = 3.91852e-20, cumulative = -2.44409e-18
DICPCG:  Solving for p, Initial residual = 0.952233, Final residual = 1.61524e-06, No Iterations 1001
time step continuity errors : sum local = 8.00776e-07, global = -7.10644e-19, cumulative = -3.15474e-18
ExecutionTime = 2629.32 s  ClockTime = 2630 s

Time = 0.5046

Courant Number mean: 3.93465 max: 147.902
smoothSolver:  Solving for Ux, Initial residual = 0.766466, Final residual = 9.72401e-06, No Iterations 306
smoothSolver:  Solving for Uy, Initial residual = 0.767035, Final residual = 9.845e-06, No Iterations 305
DICPCG:  Solving for p, Initial residual = 0.980157, Final residual = 1.81878e-06, No Iterations 1001
time step continuity errors : sum local = 8.76732e-07, global = -6.94718e-19, cumulative = -3.84946e-18
DICPCG:  Solving for p, Initial residual = 0.951629, Final residual = 1.76097e-06, No Iterations 1001
time step continuity errors : sum local = 8.48016e-07, global = 8.94551e-19, cumulative = -2.9549e-18
ExecutionTime = 2659.65 s  ClockTime = 2660 s

Time = 0.5047

Courant Number mean: 4.04017 max: 132.866
smoothSolver:  Solving for Ux, Initial residual = 0.774059, Final residual = 9.78492e-06, No Iterations 303
smoothSolver:  Solving for Uy, Initial residual = 0.766284, Final residual = 9.75869e-06, No Iterations 309
DICPCG:  Solving for p, Initial residual = 0.981454, Final residual = 1.27351e-06, No Iterations 1001
time step continuity errors : sum local = 6.06951e-07, global = 7.61276e-19, cumulative = -2.19363e-18
DICPCG:  Solving for p, Initial residual = 0.953674, Final residual = 1.24353e-06, No Iterations 1001
time step continuity errors : sum local = 5.92689e-07, global = -3.34184e-19, cumulative = -2.52781e-18
ExecutionTime = 2690.19 s  ClockTime = 2691 s

Time = 0.5048

Courant Number mean: 4.09282 max: 135.019
smoothSolver:  Solving for Ux, Initial residual = 0.778592, Final residual = 9.81319e-06, No Iterations 309
smoothSolver:  Solving for Uy, Initial residual = 0.768627, Final residual = 9.73158e-06, No Iterations 306
DICPCG:  Solving for p, Initial residual = 0.98216, Final residual = 1.73156e-06, No Iterations 1001
time step continuity errors : sum local = 8.32723e-07, global = -6.99894e-20, cumulative = -2.5978e-18
DICPCG:  Solving for p, Initial residual = 0.95243, Final residual = 1.66605e-06, No Iterations 1001
time step continuity errors : sum local = 8.02769e-07, global = 5.17795e-19, cumulative = -2.08001e-18
ExecutionTime = 2720.52 s  ClockTime = 2721 s

Time = 0.5049

Courant Number mean: 3.8799 max: 120.449
smoothSolver:  Solving for Ux, Initial residual = 0.786268, Final residual = 9.83127e-06, No Iterations 314
smoothSolver:  Solving for Uy, Initial residual = 0.78916, Final residual = 9.9574e-06, No Iterations 314
DICPCG:  Solving for p, Initial residual = 0.982261, Final residual = 1.62747e-06, No Iterations 1001
time step continuity errors : sum local = 7.98163e-07, global = 1.86035e-19, cumulative = -1.89397e-18
DICPCG:  Solving for p, Initial residual = 0.951749, Final residual = 1.56566e-06, No Iterations 1001
time step continuity errors : sum local = 7.69892e-07, global = -9.25483e-20, cumulative = -1.98652e-18
ExecutionTime = 2751.34 s  ClockTime = 2752 s

Time = 0.505

Courant Number mean: 4.04242 max: 144.269
smoothSolver:  Solving for Ux, Initial residual = 0.789796, Final residual = 9.99357e-06, No Iterations 317
smoothSolver:  Solving for Uy, Initial residual = 0.789382, Final residual = 9.77611e-06, No Iterations 315
DICPCG:  Solving for p, Initial residual = 0.982593, Final residual = 1.31093e-06, No Iterations 1001
time step continuity errors : sum local = 6.54433e-07, global = -1.74029e-19, cumulative = -2.16055e-18
DICPCG:  Solving for p, Initial residual = 0.952027, Final residual = 1.30585e-06, No Iterations 1001
time step continuity errors : sum local = 6.53669e-07, global = -1.04972e-18, cumulative = -3.21027e-18
ExecutionTime = 2781.97 s  ClockTime = 2783 s

Time = 0.5051

Courant Number mean: 4.19106 max: 126.63
smoothSolver:  Solving for Ux, Initial residual = 0.793474, Final residual = 9.89248e-06, No Iterations 310
smoothSolver:  Solving for Uy, Initial residual = 0.792134, Final residual = 9.84076e-06, No Iterations 316
DICPCG:  Solving for p, Initial residual = 0.982956, Final residual = 1.11445e-06, No Iterations 1001
time step continuity errors : sum local = 5.84633e-07, global = 3.84791e-19, cumulative = -2.82548e-18
DICPCG:  Solving for p, Initial residual = 0.951051, Final residual = 1.09021e-06, No Iterations 1001
time step continuity errors : sum local = 5.74791e-07, global = -3.98081e-19, cumulative = -3.22356e-18
ExecutionTime = 2812.83 s  ClockTime = 2814 s

Time = 0.5052

Courant Number mean: 4.31802 max: 134.979
smoothSolver:  Solving for Ux, Initial residual = 0.788499, Final residual = 9.80851e-06, No Iterations 315
smoothSolver:  Solving for Uy, Initial residual = 0.791352, Final residual = 9.9521e-06, No Iterations 315
DICPCG:  Solving for p, Initial residual = 0.983571, Final residual = 1.82632e-06, No Iterations 1001
time step continuity errors : sum local = 9.95691e-07, global = 8.81311e-19, cumulative = -2.34225e-18
DICPCG:  Solving for p, Initial residual = 0.951528, Final residual = 1.7478e-06, No Iterations 1001
time step continuity errors : sum local = 9.58235e-07, global = 1.11898e-18, cumulative = -1.22326e-18
ExecutionTime = 2843.47 s  ClockTime = 2844 s

Time = 0.5053

Courant Number mean: 4.5858 max: 151.974
smoothSolver:  Solving for Ux, Initial residual = 0.794962, Final residual = 9.70692e-06, No Iterations 310
smoothSolver:  Solving for Uy, Initial residual = 0.783026, Final residual = 9.84688e-06, No Iterations 314
DICPCG:  Solving for p, Initial residual = 0.98306, Final residual = 1.08528e-06, No Iterations 1001
time step continuity errors : sum local = 6.22657e-07, global = -2.97314e-19, cumulative = -1.52058e-18
DICPCG:  Solving for p, Initial residual = 0.948239, Final residual = 1.05677e-06, No Iterations 1001
time step continuity errors : sum local = 6.1179e-07, global = 1.38323e-19, cumulative = -1.38225e-18
ExecutionTime = 2874.23 s  ClockTime = 2875 s

Time = 0.5054

Courant Number mean: 4.61244 max: 128.789
smoothSolver:  Solving for Ux, Initial residual = 0.788091, Final residual = 9.70374e-06, No Iterations 315
smoothSolver:  Solving for Uy, Initial residual = 0.794153, Final residual = 9.76642e-06, No Iterations 317
DICPCG:  Solving for p, Initial residual = 0.982154, Final residual = 1.52084e-06, No Iterations 1001
time step continuity errors : sum local = 8.89656e-07, global = 2.99115e-19, cumulative = -1.08314e-18
DICPCG:  Solving for p, Initial residual = 0.94734, Final residual = 1.48332e-06, No Iterations 1001
time step continuity errors : sum local = 8.75135e-07, global = -1.39897e-18, cumulative = -2.48211e-18
ExecutionTime = 2904.74 s  ClockTime = 2906 s

Time = 0.5055

Courant Number mean: 4.73523 max: 136.989
smoothSolver:  Solving for Ux, Initial residual = 0.789023, Final residual = 9.89144e-06, No Iterations 312
smoothSolver:  Solving for Uy, Initial residual = 0.794109, Final residual = 9.86978e-06, No Iterations 315
DICPCG:  Solving for p, Initial residual = 0.982841, Final residual = 1.7132e-06, No Iterations 1001
time step continuity errors : sum local = 1.05495e-06, global = -4.2941e-19, cumulative = -2.91152e-18
DICPCG:  Solving for p, Initial residual = 0.942677, Final residual = 1.62524e-06, No Iterations 1001
time step continuity errors : sum local = 1.01499e-06, global = 1.53957e-19, cumulative = -2.75757e-18
ExecutionTime = 2935.6 s  ClockTime = 2936 s

Time = 0.5056

Courant Number mean: 4.92594 max: 161.15
smoothSolver:  Solving for Ux, Initial residual = 0.779097, Final residual = 9.84876e-06, No Iterations 314
smoothSolver:  Solving for Uy, Initial residual = 0.795686, Final residual = 9.96841e-06, No Iterations 317
DICPCG:  Solving for p, Initial residual = 0.982901, Final residual = 1.81566e-06, No Iterations 1001
time step continuity errors : sum local = 1.1635e-06, global = 9.52094e-19, cumulative = -1.80547e-18
DICPCG:  Solving for p, Initial residual = 0.941828, Final residual = 1.72331e-06, No Iterations 1001
time step continuity errors : sum local = 1.12004e-06, global = -3.8053e-19, cumulative = -2.186e-18
ExecutionTime = 2966.19 s  ClockTime = 2967 s

Time = 0.5057

Courant Number mean: 4.98788 max: 159.129
smoothSolver:  Solving for Ux, Initial residual = 0.797169, Final residual = 9.7766e-06, No Iterations 315
smoothSolver:  Solving for Uy, Initial residual = 0.779964, Final residual = 9.83185e-06, No Iterations 321
DICPCG:  Solving for p, Initial residual = 0.982252, Final residual = 1.78817e-06, No Iterations 1001
time step continuity errors : sum local = 1.1971e-06, global = 2.90601e-19, cumulative = -1.8954e-18
DICPCG:  Solving for p, Initial residual = 0.933918, Final residual = 1.69004e-06, No Iterations 1001
time step continuity errors : sum local = 1.15665e-06, global = -2.45852e-19, cumulative = -2.14125e-18
ExecutionTime = 2997.17 s  ClockTime = 2998 s

Time = 0.5058

Courant Number mean: 5.13718 max: 139.62
smoothSolver:  Solving for Ux, Initial residual = 0.784081, Final residual = 9.79731e-06, No Iterations 315
smoothSolver:  Solving for Uy, Initial residual = 0.79999, Final residual = 9.96078e-06, No Iterations 319
DICPCG:  Solving for p, Initial residual = 0.982125, Final residual = 1.50697e-06, No Iterations 1001
time step continuity errors : sum local = 1.0619e-06, global = -1.06563e-18, cumulative = -3.20688e-18
DICPCG:  Solving for p, Initial residual = 0.93391, Final residual = 1.41677e-06, No Iterations 1001
time step continuity errors : sum local = 1.02033e-06, global = -8.59667e-19, cumulative = -4.06655e-18
ExecutionTime = 3027.84 s  ClockTime = 3029 s

Time = 0.5059

Courant Number mean: 5.20355 max: 148.071
smoothSolver:  Solving for Ux, Initial residual = 0.803328, Final residual = 9.70683e-06, No Iterations 314
smoothSolver:  Solving for Uy, Initial residual = 0.800942, Final residual = 9.95245e-06, No Iterations 321
DICPCG:  Solving for p, Initial residual = 0.981681, Final residual = 2.02212e-06, No Iterations 1001
time step continuity errors : sum local = 1.4956e-06, global = -1.46819e-18, cumulative = -5.53474e-18
DICPCG:  Solving for p, Initial residual = 0.924216, Final residual = 1.96805e-06, No Iterations 1001
time step continuity errors : sum local = 1.50354e-06, global = -2.09329e-19, cumulative = -5.74407e-18
ExecutionTime = 3058.79 s  ClockTime = 3060 s

Time = 0.506

Courant Number mean: 5.44518 max: 137.489
smoothSolver:  Solving for Ux, Initial residual = 0.796172, Final residual = 9.7322e-06, No Iterations 315
smoothSolver:  Solving for Uy, Initial residual = 0.811003, Final residual = 9.94618e-06, No Iterations 316
DICPCG:  Solving for p, Initial residual = 0.981436, Final residual = 1.68415e-06, No Iterations 1001
time step continuity errors : sum local = 1.32668e-06, global = -1.1848e-19, cumulative = -5.86255e-18
DICPCG:  Solving for p, Initial residual = 0.925058, Final residual = 1.57348e-06, No Iterations 1001
time step continuity errors : sum local = 1.27888e-06, global = 8.02928e-20, cumulative = -5.78226e-18
ExecutionTime = 3089.38 s  ClockTime = 3090 s

Time = 0.5061

Courant Number mean: 5.59628 max: 138.037
smoothSolver:  Solving for Ux, Initial residual = 0.80601, Final residual = 9.78912e-06, No Iterations 316
smoothSolver:  Solving for Uy, Initial residual = 0.801945, Final residual = 9.87168e-06, No Iterations 318
DICPCG:  Solving for p, Initial residual = 0.980232, Final residual = 1.12828e-06, No Iterations 1001
time step continuity errors : sum local = 9.30826e-07, global = -1.82076e-19, cumulative = -5.96433e-18
DICPCG:  Solving for p, Initial residual = 0.911499, Final residual = 1.1042e-06, No Iterations 1001
time step continuity errors : sum local = 9.52403e-07, global = -7.30748e-20, cumulative = -6.03741e-18
ExecutionTime = 3120.26 s  ClockTime = 3121 s

Time = 0.5062

Courant Number mean: 5.85248 max: 131.877
smoothSolver:  Solving for Ux, Initial residual = 0.801322, Final residual = 9.96138e-06, No Iterations 318
smoothSolver:  Solving for Uy, Initial residual = 0.806379, Final residual = 9.90141e-06, No Iterations 317
DICPCG:  Solving for p, Initial residual = 0.979776, Final residual = 1.38499e-06, No Iterations 1001
time step continuity errors : sum local = 1.21089e-06, global = -3.48111e-20, cumulative = -6.07222e-18
DICPCG:  Solving for p, Initial residual = 0.91349, Final residual = 1.28554e-06, No Iterations 1001
time step continuity errors : sum local = 1.17196e-06, global = 1.66565e-18, cumulative = -4.40657e-18
ExecutionTime = 3150.93 s  ClockTime = 3152 s

Time = 0.5063

Courant Number mean: 6.1095 max: 135.009
smoothSolver:  Solving for Ux, Initial residual = 0.812497, Final residual = 9.90367e-06, No Iterations 313
smoothSolver:  Solving for Uy, Initial residual = 0.798157, Final residual = 9.93783e-06, No Iterations 319
DICPCG:  Solving for p, Initial residual = 0.97873, Final residual = 9.89344e-07, No Iterations 982
time step continuity errors : sum local = 9.07043e-07, global = 3.52114e-20, cumulative = -4.37136e-18
DICPCG:  Solving for p, Initial residual = 0.900515, Final residual = 9.6553e-07, No Iterations 1001
time step continuity errors : sum local = 9.36776e-07, global = -1.01397e-19, cumulative = -4.47275e-18
ExecutionTime = 3181.64 s  ClockTime = 3183 s

Time = 0.5064

Courant Number mean: 6.44056 max: 154.569
smoothSolver:  Solving for Ux, Initial residual = 0.802944, Final residual = 9.88671e-06, No Iterations 314
smoothSolver:  Solving for Uy, Initial residual = 0.804835, Final residual = 9.75458e-06, No Iterations 313
DICPCG:  Solving for p, Initial residual = 0.979872, Final residual = 1.6736e-06, No Iterations 1001
time step continuity errors : sum local = 1.63685e-06, global = -2.85801e-19, cumulative = -4.75856e-18
DICPCG:  Solving for p, Initial residual = 0.907629, Final residual = 1.53427e-06, No Iterations 1001
time step continuity errors : sum local = 1.57749e-06, global = -1.8155e-20, cumulative = -4.77671e-18
ExecutionTime = 3212.17 s  ClockTime = 3213 s

Time = 0.5065

Courant Number mean: 6.55428 max: 163.959
smoothSolver:  Solving for Ux, Initial residual = 0.809876, Final residual = 9.95325e-06, No Iterations 316
smoothSolver:  Solving for Uy, Initial residual = 0.799966, Final residual = 9.89658e-06, No Iterations 317
DICPCG:  Solving for p, Initial residual = 0.978575, Final residual = 1.51487e-06, No Iterations 1001
time step continuity errors : sum local = 1.52691e-06, global = -1.07405e-18, cumulative = -5.85076e-18
DICPCG:  Solving for p, Initial residual = 0.892182, Final residual = 1.39542e-06, No Iterations 1001
time step continuity errors : sum local = 1.50211e-06, global = 3.36552e-19, cumulative = -5.51421e-18
ExecutionTime = 3243.11 s  ClockTime = 3244 s

Time = 0.5066

Courant Number mean: 6.97103 max: 189.01
smoothSolver:  Solving for Ux, Initial residual = 0.803355, Final residual = 9.9071e-06, No Iterations 316
smoothSolver:  Solving for Uy, Initial residual = 0.797825, Final residual = 9.8794e-06, No Iterations 314
DICPCG:  Solving for p, Initial residual = 0.980267, Final residual = 1.30582e-06, No Iterations 1001
time step continuity errors : sum local = 1.39215e-06, global = 1.56796e-18, cumulative = -3.94625e-18
DICPCG:  Solving for p, Initial residual = 0.902899, Final residual = 1.18592e-06, No Iterations 1001
time step continuity errors : sum local = 1.33707e-06, global = 1.73083e-18, cumulative = -2.21542e-18
ExecutionTime = 3273.73 s  ClockTime = 3275 s

Time = 0.5067

Courant Number mean: 7.23096 max: 209.136
smoothSolver:  Solving for Ux, Initial residual = 0.809207, Final residual = 9.87973e-06, No Iterations 314
smoothSolver:  Solving for Uy, Initial residual = 0.795709, Final residual = 9.70303e-06, No Iterations 316
DICPCG:  Solving for p, Initial residual = 0.978336, Final residual = 1.63185e-06, No Iterations 1001
time step continuity errors : sum local = 1.74155e-06, global = -1.09526e-18, cumulative = -3.31068e-18
DICPCG:  Solving for p, Initial residual = 0.887351, Final residual = 1.47517e-06, No Iterations 1001
time step continuity errors : sum local = 1.6905e-06, global = -1.01997e-18, cumulative = -4.33065e-18
ExecutionTime = 3304.57 s  ClockTime = 3306 s

Time = 0.5068

Courant Number mean: 7.62302 max: 210.973
smoothSolver:  Solving for Ux, Initial residual = 0.782395, Final residual = 9.84996e-06, No Iterations 313
smoothSolver:  Solving for Uy, Initial residual = 0.792494, Final residual = 9.73236e-06, No Iterations 313
DICPCG:  Solving for p, Initial residual = 0.979733, Final residual = 1.23786e-06, No Iterations 1001
time step continuity errors : sum local = 1.37525e-06, global = -4.90192e-19, cumulative = -4.82084e-18
DICPCG:  Solving for p, Initial residual = 0.906722, Final residual = 1.13261e-06, No Iterations 1001
time step continuity errors : sum local = 1.32525e-06, global = 6.92722e-19, cumulative = -4.12812e-18
ExecutionTime = 3335 s  ClockTime = 3336 s

Time = 0.5069

Courant Number mean: 7.79613 max: 175.117
smoothSolver:  Solving for Ux, Initial residual = 0.808544, Final residual = 9.82119e-06, No Iterations 312
smoothSolver:  Solving for Uy, Initial residual = 0.783274, Final residual = 9.72092e-06, No Iterations 315
DICPCG:  Solving for p, Initial residual = 0.978061, Final residual = 1.59813e-06, No Iterations 1001
time step continuity errors : sum local = 1.75377e-06, global = 1.7555e-18, cumulative = -2.37262e-18
DICPCG:  Solving for p, Initial residual = 0.896781, Final residual = 1.46505e-06, No Iterations 1001
time step continuity errors : sum local = 1.70738e-06, global = -1.07235e-19, cumulative = -2.47985e-18
ExecutionTime = 3365.82 s  ClockTime = 3367 s

Time = 0.507

Courant Number mean: 7.72935 max: 203.798
smoothSolver:  Solving for Ux, Initial residual = 0.77953, Final residual = 9.8414e-06, No Iterations 316
smoothSolver:  Solving for Uy, Initial residual = 0.781424, Final residual = 9.9098e-06, No Iterations 314
DICPCG:  Solving for p, Initial residual = 0.978293, Final residual = 1.64372e-06, No Iterations 1001
time step continuity errors : sum local = 1.7653e-06, global = 7.38485e-19, cumulative = -1.74137e-18
DICPCG:  Solving for p, Initial residual = 0.907578, Final residual = 1.54691e-06, No Iterations 1001
time step continuity errors : sum local = 1.74057e-06, global = -1.28043e-19, cumulative = -1.86941e-18
ExecutionTime = 3396.42 s  ClockTime = 3398 s

Time = 0.5071

Courant Number mean: 7.91161 max: 145.478
smoothSolver:  Solving for Ux, Initial residual = 0.792343, Final residual = 9.81572e-06, No Iterations 315
smoothSolver:  Solving for Uy, Initial residual = 0.778886, Final residual = 9.92641e-06, No Iterations 316
DICPCG:  Solving for p, Initial residual = 0.979392, Final residual = 1.18684e-06, No Iterations 1001
time step continuity errors : sum local = 1.24799e-06, global = 6.99515e-19, cumulative = -1.1699e-18
DICPCG:  Solving for p, Initial residual = 0.908665, Final residual = 1.07151e-06, No Iterations 1001
time step continuity errors : sum local = 1.17963e-06, global = -1.83648e-18, cumulative = -3.00638e-18
ExecutionTime = 3427.27 s  ClockTime = 3428 s

Time = 0.5072

Courant Number mean: 7.67078 max: 162.25
smoothSolver:  Solving for Ux, Initial residual = 0.780711, Final residual = 9.80767e-06, No Iterations 319
smoothSolver:  Solving for Uy, Initial residual = 0.793173, Final residual = 9.93654e-06, No Iterations 316
DICPCG:  Solving for p, Initial residual = 0.980026, Final residual = 9.75082e-07, No Iterations 999
time step continuity errors : sum local = 1.02085e-06, global = 3.27564e-20, cumulative = -2.97362e-18
DICPCG:  Solving for p, Initial residual = 0.918533, Final residual = 9.65577e-07, No Iterations 998
time step continuity errors : sum local = 1.04903e-06, global = 9.21126e-19, cumulative = -2.05249e-18
ExecutionTime = 3457.87 s  ClockTime = 3459 s

Time = 0.5073

Courant Number mean: 7.53786 max: 191.564
smoothSolver:  Solving for Ux, Initial residual = 0.800936, Final residual = 9.97491e-06, No Iterations 315
smoothSolver:  Solving for Uy, Initial residual = 0.79226, Final residual = 9.85549e-06, No Iterations 318
DICPCG:  Solving for p, Initial residual = 0.978629, Final residual = 1.6537e-06, No Iterations 1001
time step continuity errors : sum local = 1.68266e-06, global = -4.80481e-19, cumulative = -2.53297e-18
DICPCG:  Solving for p, Initial residual = 0.910102, Final residual = 1.52795e-06, No Iterations 1001
time step continuity errors : sum local = 1.625e-06, global = 4.97732e-19, cumulative = -2.03524e-18
ExecutionTime = 3488.78 s  ClockTime = 3490 s

Time = 0.5074

Courant Number mean: 7.35373 max: 144.245
smoothSolver:  Solving for Ux, Initial residual = 0.793553, Final residual = 9.89568e-06, No Iterations 320
smoothSolver:  Solving for Uy, Initial residual = 0.794958, Final residual = 9.84692e-06, No Iterations 315
DICPCG:  Solving for p, Initial residual = 0.979214, Final residual = 1.62992e-06, No Iterations 1001
time step continuity errors : sum local = 1.65006e-06, global = 5.11909e-19, cumulative = -1.52333e-18
DICPCG:  Solving for p, Initial residual = 0.916386, Final residual = 1.58182e-06, No Iterations 1001
time step continuity errors : sum local = 1.66401e-06, global = 3.02148e-19, cumulative = -1.22119e-18
ExecutionTime = 3519.39 s  ClockTime = 3521 s

Time = 0.5075

Courant Number mean: 7.18963 max: 145.627
smoothSolver:  Solving for Ux, Initial residual = 0.800438, Final residual = 9.69991e-06, No Iterations 315
smoothSolver:  Solving for Uy, Initial residual = 0.792973, Final residual = 9.8477e-06, No Iterations 317
DICPCG:  Solving for p, Initial residual = 0.978338, Final residual = 9.90563e-07, No Iterations 970
time step continuity errors : sum local = 1.01685e-06, global = 7.2284e-20, cumulative = -1.1489e-18
DICPCG:  Solving for p, Initial residual = 0.910512, Final residual = 9.88619e-07, No Iterations 968
time step continuity errors : sum local = 1.06249e-06, global = 1.72592e-18, cumulative = 5.77017e-19
ExecutionTime = 3549.59 s  ClockTime = 3551 s

Time = 0.5076

Courant Number mean: 6.94304 max: 148.324
smoothSolver:  Solving for Ux, Initial residual = 0.797086, Final residual = 9.70153e-06, No Iterations 319
smoothSolver:  Solving for Uy, Initial residual = 0.809034, Final residual = 9.95856e-06, No Iterations 319
DICPCG:  Solving for p, Initial residual = 0.978253, Final residual = 9.92232e-07, No Iterations 970
time step continuity errors : sum local = 1.02276e-06, global = -7.52724e-19, cumulative = -1.75707e-19
DICPCG:  Solving for p, Initial residual = 0.913787, Final residual = 9.75905e-07, No Iterations 968
time step continuity errors : sum local = 1.0488e-06, global = 1.65079e-18, cumulative = 1.47508e-18
ExecutionTime = 3579.64 s  ClockTime = 3581 s

Time = 0.5077

Courant Number mean: 6.83737 max: 127.241
smoothSolver:  Solving for Ux, Initial residual = 0.806361, Final residual = 9.76982e-06, No Iterations 320
smoothSolver:  Solving for Uy, Initial residual = 0.813776, Final residual = 9.74643e-06, No Iterations 319
DICPCG:  Solving for p, Initial residual = 0.977802, Final residual = 9.97036e-07, No Iterations 986
time step continuity errors : sum local = 1.04966e-06, global = -7.29814e-19, cumulative = 7.45267e-19
DICPCG:  Solving for p, Initial residual = 0.903139, Final residual = 9.58837e-07, No Iterations 983
time step continuity errors : sum local = 1.06497e-06, global = 1.11994e-18, cumulative = 1.8652e-18
ExecutionTime = 3610.3 s  ClockTime = 3611 s

Time = 0.5078

Courant Number mean: 6.86393 max: 132.87
smoothSolver:  Solving for Ux, Initial residual = 0.802962, Final residual = 9.83722e-06, No Iterations 320
smoothSolver:  Solving for Uy, Initial residual = 0.8094, Final residual = 9.73371e-06, No Iterations 317
DICPCG:  Solving for p, Initial residual = 0.978052, Final residual = 9.86726e-07, No Iterations 978
time step continuity errors : sum local = 1.07129e-06, global = -1.17436e-19, cumulative = 1.74777e-18
DICPCG:  Solving for p, Initial residual = 0.910187, Final residual = 9.86615e-07, No Iterations 977
time step continuity errors : sum local = 1.12223e-06, global = 1.13787e-18, cumulative = 2.88563e-18
ExecutionTime = 3640.56 s  ClockTime = 3642 s

Time = 0.5079

Courant Number mean: 7.12741 max: 135.235
smoothSolver:  Solving for Ux, Initial residual = 0.808672, Final residual = 9.82349e-06, No Iterations 315
smoothSolver:  Solving for Uy, Initial residual = 0.805142, Final residual = 9.96812e-06, No Iterations 317
DICPCG:  Solving for p, Initial residual = 0.977533, Final residual = 1.97111e-06, No Iterations 1001
time step continuity errors : sum local = 2.17555e-06, global = 8.02862e-19, cumulative = 3.68849e-18
DICPCG:  Solving for p, Initial residual = 0.901152, Final residual = 1.81025e-06, No Iterations 1001
time step continuity errors : sum local = 2.11244e-06, global = 6.50455e-19, cumulative = 4.33895e-18
ExecutionTime = 3671.28 s  ClockTime = 3672 s

Time = 0.508

Courant Number mean: 7.28766 max: 159.664
smoothSolver:  Solving for Ux, Initial residual = 0.798753, Final residual = 9.98967e-06, No Iterations 314
smoothSolver:  Solving for Uy, Initial residual = 0.810877, Final residual = 9.81383e-06, No Iterations 319
DICPCG:  Solving for p, Initial residual = 0.977613, Final residual = 9.86696e-07, No Iterations 971
time step continuity errors : sum local = 1.10726e-06, global = 1.35174e-18, cumulative = 5.69069e-18
DICPCG:  Solving for p, Initial residual = 0.910937, Final residual = 9.78807e-07, No Iterations 967
time step continuity errors : sum local = 1.14935e-06, global = -4.61381e-19, cumulative = 5.2293e-18
ExecutionTime = 3701.55 s  ClockTime = 3703 s

Time = 0.5081

Courant Number mean: 7.36707 max: 133.172
smoothSolver:  Solving for Ux, Initial residual = 0.803876, Final residual = 9.78814e-06, No Iterations 314
smoothSolver:  Solving for Uy, Initial residual = 0.805616, Final residual = 9.86447e-06, No Iterations 317
DICPCG:  Solving for p, Initial residual = 0.977253, Final residual = 1.4701e-06, No Iterations 1001
time step continuity errors : sum local = 1.63659e-06, global = 5.98879e-21, cumulative = 5.23529e-18
DICPCG:  Solving for p, Initial residual = 0.898614, Final residual = 1.36666e-06, No Iterations 1001
time step continuity errors : sum local = 1.61132e-06, global = 5.79041e-19, cumulative = 5.81433e-18
ExecutionTime = 3732.47 s  ClockTime = 3734 s

Time = 0.5082

Courant Number mean: 7.29662 max: 142.167
smoothSolver:  Solving for Ux, Initial residual = 0.794127, Final residual = 9.71211e-06, No Iterations 319
smoothSolver:  Solving for Uy, Initial residual = 0.807948, Final residual = 9.86478e-06, No Iterations 314
DICPCG:  Solving for p, Initial residual = 0.977432, Final residual = 9.89457e-07, No Iterations 1000
time step continuity errors : sum local = 1.11204e-06, global = 1.12571e-18, cumulative = 6.94004e-18
DICPCG:  Solving for p, Initial residual = 0.908224, Final residual = 9.78782e-07, No Iterations 999
time step continuity errors : sum local = 1.15322e-06, global = 3.99491e-19, cumulative = 7.33953e-18
ExecutionTime = 3763.27 s  ClockTime = 3765 s

Time = 0.5083

Courant Number mean: 7.43273 max: 144.774
smoothSolver:  Solving for Ux, Initial residual = 0.805924, Final residual = 9.97394e-06, No Iterations 313
smoothSolver:  Solving for Uy, Initial residual = 0.801146, Final residual = 9.98946e-06, No Iterations 315
DICPCG:  Solving for p, Initial residual = 0.977757, Final residual = 9.91577e-07, No Iterations 967
time step continuity errors : sum local = 1.11315e-06, global = 1.13706e-19, cumulative = 7.45324e-18
DICPCG:  Solving for p, Initial residual = 0.899196, Final residual = 9.88376e-07, No Iterations 966
time step continuity errors : sum local = 1.17438e-06, global = -2.87263e-18, cumulative = 4.58061e-18
ExecutionTime = 3793.1 s  ClockTime = 3794 s

Time = 0.5084

Courant Number mean: 7.43754 max: 165.938
smoothSolver:  Solving for Ux, Initial residual = 0.79736, Final residual = 9.90705e-06, No Iterations 318
smoothSolver:  Solving for Uy, Initial residual = 0.799836, Final residual = 9.91785e-06, No Iterations 320
DICPCG:  Solving for p, Initial residual = 0.977478, Final residual = 9.9026e-07, No Iterations 1000
time step continuity errors : sum local = 1.08812e-06, global = 9.99027e-19, cumulative = 5.57964e-18
DICPCG:  Solving for p, Initial residual = 0.908091, Final residual = 9.66922e-07, No Iterations 999
time step continuity errors : sum local = 1.11368e-06, global = -6.32839e-19, cumulative = 4.9468e-18
ExecutionTime = 3824.11 s  ClockTime = 3825 s

Time = 0.5085

Courant Number mean: 7.8002 max: 134.163
smoothSolver:  Solving for Ux, Initial residual = 0.798076, Final residual = 9.83243e-06, No Iterations 316
smoothSolver:  Solving for Uy, Initial residual = 0.802987, Final residual = 9.84043e-06, No Iterations 313
DICPCG:  Solving for p, Initial residual = 0.97884, Final residual = 1.7032e-06, No Iterations 1001
time step continuity errors : sum local = 1.88121e-06, global = 3.76609e-19, cumulative = 5.32341e-18
DICPCG:  Solving for p, Initial residual = 0.903435, Final residual = 1.5757e-06, No Iterations 1001
time step continuity errors : sum local = 1.83464e-06, global = 3.00463e-19, cumulative = 5.62387e-18
ExecutionTime = 3854.71 s  ClockTime = 3856 s

Time = 0.5086

Courant Number mean: 7.61131 max: 144.925
smoothSolver:  Solving for Ux, Initial residual = 0.798507, Final residual = 9.82741e-06, No Iterations 320
smoothSolver:  Solving for Uy, Initial residual = 0.804901, Final residual = 9.86761e-06, No Iterations 316
DICPCG:  Solving for p, Initial residual = 0.978843, Final residual = 1.55077e-06, No Iterations 1001
time step continuity errors : sum local = 1.6662e-06, global = -3.47065e-19, cumulative = 5.27681e-18
DICPCG:  Solving for p, Initial residual = 0.911945, Final residual = 1.50583e-06, No Iterations 1001
time step continuity errors : sum local = 1.69075e-06, global = -1.4918e-18, cumulative = 3.78501e-18
ExecutionTime = 3885.63 s  ClockTime = 3887 s

Time = 0.5087

Courant Number mean: 7.53236 max: 154.951
smoothSolver:  Solving for Ux, Initial residual = 0.804255, Final residual = 9.82702e-06, No Iterations 315
smoothSolver:  Solving for Uy, Initial residual = 0.809638, Final residual = 9.91384e-06, No Iterations 316
DICPCG:  Solving for p, Initial residual = 0.979453, Final residual = 1.55148e-06, No Iterations 1001
time step continuity errors : sum local = 1.67118e-06, global = 9.50093e-19, cumulative = 4.7351e-18
DICPCG:  Solving for p, Initial residual = 0.905662, Final residual = 1.51787e-06, No Iterations 1001
time step continuity errors : sum local = 1.72091e-06, global = 3.2672e-19, cumulative = 5.06182e-18
ExecutionTime = 3916.25 s  ClockTime = 3918 s

Time = 0.5088

Courant Number mean: 7.23527 max: 141.103
smoothSolver:  Solving for Ux, Initial residual = 0.800827, Final residual = 9.75784e-06, No Iterations 321
smoothSolver:  Solving for Uy, Initial residual = 0.805952, Final residual = 9.75413e-06, No Iterations 321
DICPCG:  Solving for p, Initial residual = 0.9788, Final residual = 9.55359e-07, No Iterations 981
time step continuity errors : sum local = 9.80948e-07, global = 4.72613e-19, cumulative = 5.53444e-18
DICPCG:  Solving for p, Initial residual = 0.911931, Final residual = 9.17537e-07, No Iterations 980
time step continuity errors : sum local = 9.83717e-07, global = 1.50895e-18, cumulative = 7.04339e-18
ExecutionTime = 3946.89 s  ClockTime = 3948 s

Time = 0.5089

Courant Number mean: 7.28366 max: 143.458
smoothSolver:  Solving for Ux, Initial residual = 0.81224, Final residual = 9.84448e-06, No Iterations 320
smoothSolver:  Solving for Uy, Initial residual = 0.805261, Final residual = 9.80488e-06, No Iterations 320
DICPCG:  Solving for p, Initial residual = 0.979829, Final residual = 1.51439e-06, No Iterations 1001
time step continuity errors : sum local = 1.57108e-06, global = -7.15751e-19, cumulative = 6.32764e-18
DICPCG:  Solving for p, Initial residual = 0.907742, Final residual = 1.4167e-06, No Iterations 1001
time step continuity errors : sum local = 1.54377e-06, global = 1.56547e-18, cumulative = 7.8931e-18
ExecutionTime = 3977.67 s  ClockTime = 3979 s

Time = 0.509

Courant Number mean: 7.00625 max: 138.817
smoothSolver:  Solving for Ux, Initial residual = 0.80727, Final residual = 9.86679e-06, No Iterations 322
smoothSolver:  Solving for Uy, Initial residual = 0.810365, Final residual = 9.73286e-06, No Iterations 321
DICPCG:  Solving for p, Initial residual = 0.979532, Final residual = 1.38904e-06, No Iterations 1001
time step continuity errors : sum local = 1.41738e-06, global = 1.66429e-21, cumulative = 7.89477e-18
DICPCG:  Solving for p, Initial residual = 0.915061, Final residual = 1.25075e-06, No Iterations 1001
time step continuity errors : sum local = 1.33076e-06, global = 6.5177e-19, cumulative = 8.54654e-18
ExecutionTime = 4008.72 s  ClockTime = 4010 s

Time = 0.5091

Courant Number mean: 7.02154 max: 125.784
smoothSolver:  Solving for Ux, Initial residual = 0.818112, Final residual = 9.92112e-06, No Iterations 323
smoothSolver:  Solving for Uy, Initial residual = 0.806658, Final residual = 9.7424e-06, No Iterations 319
DICPCG:  Solving for p, Initial residual = 0.980533, Final residual = 1.20918e-06, No Iterations 1001
time step continuity errors : sum local = 1.2394e-06, global = -3.96866e-19, cumulative = 8.14967e-18
DICPCG:  Solving for p, Initial residual = 0.907096, Final residual = 1.1471e-06, No Iterations 1001
time step continuity errors : sum local = 1.23719e-06, global = -1.4255e-19, cumulative = 8.00712e-18
ExecutionTime = 4039.52 s  ClockTime = 4041 s

Time = 0.5092

Courant Number mean: 6.80931 max: 153.863
smoothSolver:  Solving for Ux, Initial residual = 0.815436, Final residual = 9.74863e-06, No Iterations 325
smoothSolver:  Solving for Uy, Initial residual = 0.809695, Final residual = 9.73891e-06, No Iterations 323
DICPCG:  Solving for p, Initial residual = 0.980103, Final residual = 1.48556e-06, No Iterations 1001
time step continuity errors : sum local = 1.50107e-06, global = 1.01869e-18, cumulative = 9.02582e-18
DICPCG:  Solving for p, Initial residual = 0.914442, Final residual = 1.42336e-06, No Iterations 1001
time step continuity errors : sum local = 1.50207e-06, global = 8.8912e-20, cumulative = 9.11473e-18
ExecutionTime = 4070.71 s  ClockTime = 4072 s

Time = 0.5093

Courant Number mean: 6.87526 max: 130.907
smoothSolver:  Solving for Ux, Initial residual = 0.820223, Final residual = 9.99728e-06, No Iterations 322
smoothSolver:  Solving for Uy, Initial residual = 0.811651, Final residual = 9.74807e-06, No Iterations 324
DICPCG:  Solving for p, Initial residual = 0.979332, Final residual = 9.79534e-07, No Iterations 985
time step continuity errors : sum local = 9.96191e-07, global = 2.52709e-19, cumulative = 9.36744e-18
DICPCG:  Solving for p, Initial residual = 0.904148, Final residual = 9.71847e-07, No Iterations 982
time step continuity errors : sum local = 1.04365e-06, global = 6.69156e-19, cumulative = 1.00366e-17
ExecutionTime = 4101.23 s  ClockTime = 4103 s

Time = 0.5094

Courant Number mean: 6.72012 max: 132.617
smoothSolver:  Solving for Ux, Initial residual = 0.81532, Final residual = 9.70554e-06, No Iterations 326
smoothSolver:  Solving for Uy, Initial residual = 0.816563, Final residual = 9.86822e-06, No Iterations 322
DICPCG:  Solving for p, Initial residual = 0.979815, Final residual = 9.93089e-07, No Iterations 964
time step continuity errors : sum local = 1.00391e-06, global = -1.57523e-18, cumulative = 8.46136e-18
DICPCG:  Solving for p, Initial residual = 0.91139, Final residual = 9.43427e-07, No Iterations 961
time step continuity errors : sum local = 9.98934e-07, global = -2.69826e-18, cumulative = 5.7631e-18
ExecutionTime = 4131.53 s  ClockTime = 4133 s

Time = 0.5095

Courant Number mean: 6.75541 max: 135.768
smoothSolver:  Solving for Ux, Initial residual = 0.821045, Final residual = 9.91422e-06, No Iterations 325
smoothSolver:  Solving for Uy, Initial residual = 0.810507, Final residual = 9.87607e-06, No Iterations 323
DICPCG:  Solving for p, Initial residual = 0.97962, Final residual = 1.44618e-06, No Iterations 1001
time step continuity errors : sum local = 1.45172e-06, global = 7.67078e-19, cumulative = 6.53018e-18
DICPCG:  Solving for p, Initial residual = 0.90156, Final residual = 1.32248e-06, No Iterations 1001
time step continuity errors : sum local = 1.40492e-06, global = 2.21758e-18, cumulative = 8.74775e-18
ExecutionTime = 4162.31 s  ClockTime = 4164 s

Time = 0.5096

Courant Number mean: 6.61723 max: 151.219
smoothSolver:  Solving for Ux, Initial residual = 0.820881, Final residual = 9.83553e-06, No Iterations 325
smoothSolver:  Solving for Uy, Initial residual = 0.810127, Final residual = 9.99454e-06, No Iterations 323
DICPCG:  Solving for p, Initial residual = 0.979513, Final residual = 1.35819e-06, No Iterations 1001
time step continuity errors : sum local = 1.36363e-06, global = 2.94906e-20, cumulative = 8.77724e-18
DICPCG:  Solving for p, Initial residual = 0.9105, Final residual = 1.22993e-06, No Iterations 1001
time step continuity errors : sum local = 1.29444e-06, global = 4.84585e-19, cumulative = 9.26183e-18
ExecutionTime = 4193.48 s  ClockTime = 4195 s

Time = 0.5097

Courant Number mean: 6.74501 max: 136.33
smoothSolver:  Solving for Ux, Initial residual = 0.825418, Final residual = 9.79339e-06, No Iterations 325
smoothSolver:  Solving for Uy, Initial residual = 0.813178, Final residual = 9.84114e-06, No Iterations 324
DICPCG:  Solving for p, Initial residual = 0.979908, Final residual = 1.28017e-06, No Iterations 1001
time step continuity errors : sum local = 1.27392e-06, global = -1.88845e-19, cumulative = 9.07298e-18
DICPCG:  Solving for p, Initial residual = 0.902165, Final residual = 1.19063e-06, No Iterations 1001
time step continuity errors : sum local = 1.25303e-06, global = -4.19984e-19, cumulative = 8.653e-18
ExecutionTime = 4224.38 s  ClockTime = 4226 s

Time = 0.5098

Courant Number mean: 6.57579 max: 125.489
smoothSolver:  Solving for Ux, Initial residual = 0.823377, Final residual = 9.99749e-06, No Iterations 326
smoothSolver:  Solving for Uy, Initial residual = 0.810462, Final residual = 9.75867e-06, No Iterations 325
DICPCG:  Solving for p, Initial residual = 0.979932, Final residual = 1.15673e-06, No Iterations 1001
time step continuity errors : sum local = 1.14816e-06, global = -4.90865e-19, cumulative = 8.16214e-18
DICPCG:  Solving for p, Initial residual = 0.912944, Final residual = 1.07604e-06, No Iterations 1001
time step continuity errors : sum local = 1.11786e-06, global = -2.56424e-19, cumulative = 7.90571e-18
ExecutionTime = 4255.58 s  ClockTime = 4257 s

Time = 0.5099

Courant Number mean: 6.50582 max: 133.061
smoothSolver:  Solving for Ux, Initial residual = 0.825436, Final residual = 9.75551e-06, No Iterations 326
smoothSolver:  Solving for Uy, Initial residual = 0.812484, Final residual = 9.90535e-06, No Iterations 323
DICPCG:  Solving for p, Initial residual = 0.979706, Final residual = 9.71279e-07, No Iterations 1000
time step continuity errors : sum local = 9.65647e-07, global = -9.33906e-19, cumulative = 6.97181e-18
DICPCG:  Solving for p, Initial residual = 0.903615, Final residual = 9.91687e-07, No Iterations 997
time step continuity errors : sum local = 1.0425e-06, global = 2.30762e-19, cumulative = 7.20257e-18
ExecutionTime = 4286.44 s  ClockTime = 4288 s

Time = 0.51

Courant Number mean: 6.43307 max: 157.881
smoothSolver:  Solving for Ux, Initial residual = 0.821383, Final residual = 9.93864e-06, No Iterations 328
smoothSolver:  Solving for Uy, Initial residual = 0.81475, Final residual = 9.88381e-06, No Iterations 327
DICPCG:  Solving for p, Initial residual = 0.979468, Final residual = 9.85551e-07, No Iterations 972
time step continuity errors : sum local = 9.67485e-07, global = 8.28497e-19, cumulative = 8.03107e-18
DICPCG:  Solving for p, Initial residual = 0.911831, Final residual = 9.76952e-07, No Iterations 969
time step continuity errors : sum local = 1.00452e-06, global = -4.8687e-20, cumulative = 7.98238e-18
ExecutionTime = 4318.49 s  ClockTime = 4320 s

End

