/*---------------------------------------------------------------------------*\
| =========                 |                                                 |
| \\      /  F ield         | OpenFOAM: The Open Source CFD Toolbox           |
|  \\    /   O peration     | Version:  2.3.0                                 |
|   \\  /    A nd           | Web:      www.OpenFOAM.org                      |
|    \\/     M anipulation  |                                                 |
\*---------------------------------------------------------------------------*/
Build  : 2.3.0
Exec   : icoFoam -parallel
Date   : Oct 08 2014
Time   : 19:27:02
Host   : "hpc01"
PID    : 32689
Case   : /home/bobo/OpenFOAM/experiment/incompressible/icoFoam/cavity2
nProcs : 3
Slaves : 
2
(
"hpc01.32690"
"hpc01.32691"
)

Pstream initialized with:
    floatTransfer      : 0
    nProcsSimpleSum    : 0
    commsType          : nonBlocking
    polling iterations : 0
fileModificationChecking : Monitoring run-time modified files using timeStampMaster
allowSystemOperations : Disallowing user-supplied system call operations

// * * * * * * * * * * * * * * * * * * * * * * * * * * * * * * * * * * * * * //
Create time

Create mesh for time = 0.5

Reading transportProperties

Reading field p

Reading field U

Reading/calculating face flux field phi


Starting time loop

Time = 0.5001

Courant Number mean: 0.0595081 max: 0.352
smoothSolver:  Solving for Ux, Initial residual = 0.395839, Final residual = 9.85326e-06, No Iterations 212
smoothSolver:  Solving for Uy, Initial residual = 0.459956, Final residual = 9.86451e-06, No Iterations 235
DICPCG:  Solving for p, Initial residual = 0.968205, Final residual = 1.58162e-05, No Iterations 1001
time step continuity errors : sum local = 4.95775e-09, global = -1.8561e-21, cumulative = -1.8561e-21
DICPCG:  Solving for p, Initial residual = 0.917836, Final residual = 1.58008e-05, No Iterations 1001
time step continuity errors : sum local = 4.70862e-09, global = -5.53318e-21, cumulative = -7.38928e-21
ExecutionTime = 14.33 s  ClockTime = 14 s

Time = 0.5002

Courant Number mean: 0.0629131 max: 0.578306
smoothSolver:  Solving for Ux, Initial residual = 0.0495265, Final residual = 9.81583e-06, No Iterations 255
smoothSolver:  Solving for Uy, Initial residual = 0.128352, Final residual = 9.73254e-06, No Iterations 298
DICPCG:  Solving for p, Initial residual = 0.972276, Final residual = 2.63819e-05, No Iterations 1001
time step continuity errors : sum local = 8.07021e-09, global = -3.1613e-21, cumulative = -1.05506e-20
DICPCG:  Solving for p, Initial residual = 0.936425, Final residual = 2.51768e-05, No Iterations 1001
time step continuity errors : sum local = 7.65176e-09, global = -1.56629e-20, cumulative = -2.62135e-20
ExecutionTime = 28.36 s  ClockTime = 28 s

Time = 0.5003

Courant Number mean: 0.0650396 max: 0.680962
smoothSolver:  Solving for Ux, Initial residual = 0.0326774, Final residual = 9.77062e-06, No Iterations 237
smoothSolver:  Solving for Uy, Initial residual = 0.115609, Final residual = 9.99684e-06, No Iterations 264
DICPCG:  Solving for p, Initial residual = 0.973549, Final residual = 3.00781e-05, No Iterations 1001
time step continuity errors : sum local = 7.56202e-09, global = -6.4381e-21, cumulative = -3.26516e-20
DICPCG:  Solving for p, Initial residual = 0.941287, Final residual = 2.89015e-05, No Iterations 1001
time step continuity errors : sum local = 7.19998e-09, global = -7.40458e-21, cumulative = -4.00562e-20
ExecutionTime = 41.85 s  ClockTime = 42 s

Time = 0.5004

Courant Number mean: 0.0664729 max: 0.59431
smoothSolver:  Solving for Ux, Initial residual = 0.033046, Final residual = 9.97535e-06, No Iterations 228
smoothSolver:  Solving for Uy, Initial residual = 0.123963, Final residual = 9.96714e-06, No Iterations 274
DICPCG:  Solving for p, Initial residual = 0.974544, Final residual = 3.6276e-05, No Iterations 1001
time step continuity errors : sum local = 8.9725e-09, global = -1.00898e-20, cumulative = -5.0146e-20
DICPCG:  Solving for p, Initial residual = 0.927996, Final residual = 3.43791e-05, No Iterations 1001
time step continuity errors : sum local = 8.5532e-09, global = -2.57268e-20, cumulative = -7.58728e-20
ExecutionTime = 55.4 s  ClockTime = 55 s

Time = 0.5005

Courant Number mean: 0.0680456 max: 0.788776
smoothSolver:  Solving for Ux, Initial residual = 0.0382397, Final residual = 9.82884e-06, No Iterations 232
smoothSolver:  Solving for Uy, Initial residual = 0.146846, Final residual = 9.81862e-06, No Iterations 269
DICPCG:  Solving for p, Initial residual = 0.979297, Final residual = 3.70054e-05, No Iterations 1001
time step continuity errors : sum local = 1.03272e-08, global = 4.71651e-21, cumulative = -7.11562e-20
DICPCG:  Solving for p, Initial residual = 0.941732, Final residual = 3.57322e-05, No Iterations 1001
time step continuity errors : sum local = 9.94689e-09, global = 1.33285e-21, cumulative = -6.98234e-20
ExecutionTime = 68.86 s  ClockTime = 69 s

Time = 0.5006

Courant Number mean: 0.0690012 max: 0.611935
smoothSolver:  Solving for Ux, Initial residual = 0.0481128, Final residual = 9.74751e-06, No Iterations 231
smoothSolver:  Solving for Uy, Initial residual = 0.176685, Final residual = 9.99942e-06, No Iterations 271
DICPCG:  Solving for p, Initial residual = 0.982371, Final residual = 3.63117e-05, No Iterations 1001
time step continuity errors : sum local = 1.25242e-08, global = 3.26762e-21, cumulative = -6.65558e-20
DICPCG:  Solving for p, Initial residual = 0.935247, Final residual = 3.45633e-05, No Iterations 1001
time step continuity errors : sum local = 1.20388e-08, global = 1.91412e-21, cumulative = -6.46417e-20
ExecutionTime = 82.46 s  ClockTime = 82 s

Time = 0.5007

Courant Number mean: 0.0707074 max: 1.02442
smoothSolver:  Solving for Ux, Initial residual = 0.0607513, Final residual = 9.75437e-06, No Iterations 235
smoothSolver:  Solving for Uy, Initial residual = 0.222686, Final residual = 9.79863e-06, No Iterations 273
DICPCG:  Solving for p, Initial residual = 0.98538, Final residual = 3.21941e-05, No Iterations 1001
time step continuity errors : sum local = 1.44582e-08, global = 4.70692e-21, cumulative = -5.99347e-20
DICPCG:  Solving for p, Initial residual = 0.94666, Final residual = 3.06867e-05, No Iterations 1001
time step continuity errors : sum local = 1.38201e-08, global = -2.10362e-21, cumulative = -6.20384e-20
ExecutionTime = 95.99 s  ClockTime = 96 s

Time = 0.5008

Courant Number mean: 0.0713603 max: 0.734151
smoothSolver:  Solving for Ux, Initial residual = 0.0807617, Final residual = 9.93138e-06, No Iterations 238
smoothSolver:  Solving for Uy, Initial residual = 0.26738, Final residual = 9.75779e-06, No Iterations 275
DICPCG:  Solving for p, Initial residual = 0.98777, Final residual = 3.26831e-05, No Iterations 1001
time step continuity errors : sum local = 1.95781e-08, global = 6.14606e-21, cumulative = -5.58923e-20
DICPCG:  Solving for p, Initial residual = 0.942876, Final residual = 3.12408e-05, No Iterations 1001
time step continuity errors : sum local = 1.89108e-08, global = 1.14898e-20, cumulative = -4.44025e-20
ExecutionTime = 109.48 s  ClockTime = 109 s

Time = 0.5009

Courant Number mean: 0.0736224 max: 1.45495
smoothSolver:  Solving for Ux, Initial residual = 0.102387, Final residual = 9.89216e-06, No Iterations 242
smoothSolver:  Solving for Uy, Initial residual = 0.330506, Final residual = 9.75638e-06, No Iterations 278
DICPCG:  Solving for p, Initial residual = 0.988739, Final residual = 3.11157e-05, No Iterations 1001
time step continuity errors : sum local = 2.52754e-08, global = 1.17795e-20, cumulative = -3.2623e-20
DICPCG:  Solving for p, Initial residual = 0.949087, Final residual = 2.98206e-05, No Iterations 1001
time step continuity errors : sum local = 2.43542e-08, global = 1.63066e-20, cumulative = -1.63164e-20
ExecutionTime = 123.08 s  ClockTime = 123 s

Time = 0.501

Courant Number mean: 0.0743087 max: 1.30635
smoothSolver:  Solving for Ux, Initial residual = 0.138947, Final residual = 9.82602e-06, No Iterations 248
smoothSolver:  Solving for Uy, Initial residual = 0.387983, Final residual = 9.69705e-06, No Iterations 280
DICPCG:  Solving for p, Initial residual = 0.990629, Final residual = 2.97569e-05, No Iterations 1001
time step continuity errors : sum local = 3.29501e-08, global = -6.88804e-21, cumulative = -2.32044e-20
DICPCG:  Solving for p, Initial residual = 0.947213, Final residual = 2.84285e-05, No Iterations 1001
time step continuity errors : sum local = 3.17879e-08, global = -2.3238e-20, cumulative = -4.64424e-20
ExecutionTime = 136.82 s  ClockTime = 137 s

Time = 0.5011

Courant Number mean: 0.077413 max: 2.24089
smoothSolver:  Solving for Ux, Initial residual = 0.17119, Final residual = 9.70859e-06, No Iterations 252
smoothSolver:  Solving for Uy, Initial residual = 0.457824, Final residual = 9.93735e-06, No Iterations 282
DICPCG:  Solving for p, Initial residual = 0.990415, Final residual = 2.86743e-05, No Iterations 1001
time step continuity errors : sum local = 4.34924e-08, global = -9.489e-21, cumulative = -5.59314e-20
DICPCG:  Solving for p, Initial residual = 0.950135, Final residual = 2.7568e-05, No Iterations 1001
time step continuity errors : sum local = 4.20958e-08, global = 8.10048e-21, cumulative = -4.78309e-20
ExecutionTime = 150.61 s  ClockTime = 150 s

Time = 0.5012

Courant Number mean: 0.0788103 max: 2.35412
smoothSolver:  Solving for Ux, Initial residual = 0.229566, Final residual = 9.85958e-06, No Iterations 258
smoothSolver:  Solving for Uy, Initial residual = 0.518239, Final residual = 9.73712e-06, No Iterations 284
DICPCG:  Solving for p, Initial residual = 0.991948, Final residual = 2.76244e-05, No Iterations 1001
time step continuity errors : sum local = 5.74158e-08, global = -1.10959e-20, cumulative = -5.89268e-20
DICPCG:  Solving for p, Initial residual = 0.949323, Final residual = 2.63938e-05, No Iterations 1001
time step continuity errors : sum local = 5.53628e-08, global = -9.34487e-21, cumulative = -6.82717e-20
ExecutionTime = 164.49 s  ClockTime = 164 s

Time = 0.5013

Courant Number mean: 0.0830973 max: 3.68011
smoothSolver:  Solving for Ux, Initial residual = 0.273564, Final residual = 9.89675e-06, No Iterations 261
smoothSolver:  Solving for Uy, Initial residual = 0.581436, Final residual = 9.75537e-06, No Iterations 286
DICPCG:  Solving for p, Initial residual = 0.991349, Final residual = 2.66151e-05, No Iterations 1001
time step continuity errors : sum local = 7.59897e-08, global = -1.24108e-20, cumulative = -8.06825e-20
DICPCG:  Solving for p, Initial residual = 0.950527, Final residual = 2.54945e-05, No Iterations 1001
time step continuity errors : sum local = 7.33319e-08, global = -7.90371e-21, cumulative = -8.85862e-20
ExecutionTime = 178.4 s  ClockTime = 178 s

Time = 0.5014

Courant Number mean: 0.0862532 max: 4.29502
smoothSolver:  Solving for Ux, Initial residual = 0.353612, Final residual = 9.96317e-06, No Iterations 267
smoothSolver:  Solving for Uy, Initial residual = 0.633891, Final residual = 9.87664e-06, No Iterations 286
DICPCG:  Solving for p, Initial residual = 0.992223, Final residual = 2.56031e-05, No Iterations 1001
time step continuity errors : sum local = 1.0022e-07, global = 9.20735e-21, cumulative = -7.93789e-20
DICPCG:  Solving for p, Initial residual = 0.950134, Final residual = 2.45751e-05, No Iterations 1001
time step continuity errors : sum local = 9.70434e-08, global = -3.42887e-21, cumulative = -8.28077e-20
ExecutionTime = 192.31 s  ClockTime = 192 s

Time = 0.5015

Courant Number mean: 0.0927835 max: 6.30852
smoothSolver:  Solving for Ux, Initial residual = 0.405707, Final residual = 9.71806e-06, No Iterations 270
smoothSolver:  Solving for Uy, Initial residual = 0.681304, Final residual = 9.73023e-06, No Iterations 288
DICPCG:  Solving for p, Initial residual = 0.991689, Final residual = 2.51394e-05, No Iterations 1001
time step continuity errors : sum local = 1.3515e-07, global = 2.54772e-21, cumulative = -8.026e-20
DICPCG:  Solving for p, Initial residual = 0.950527, Final residual = 2.3823e-05, No Iterations 1001
time step continuity errors : sum local = 1.29084e-07, global = 7.27009e-21, cumulative = -7.29899e-20
ExecutionTime = 206.2 s  ClockTime = 206 s

Time = 0.5016

Courant Number mean: 0.0992739 max: 7.88571
smoothSolver:  Solving for Ux, Initial residual = 0.493364, Final residual = 9.8242e-06, No Iterations 275
smoothSolver:  Solving for Uy, Initial residual = 0.719604, Final residual = 9.72918e-06, No Iterations 287
DICPCG:  Solving for p, Initial residual = 0.992061, Final residual = 2.44481e-05, No Iterations 1001
time step continuity errors : sum local = 1.80185e-07, global = -1.50936e-20, cumulative = -8.80835e-20
DICPCG:  Solving for p, Initial residual = 0.95024, Final residual = 2.32797e-05, No Iterations 1001
time step continuity errors : sum local = 1.73065e-07, global = -4.96763e-21, cumulative = -9.30511e-20
ExecutionTime = 220.08 s  ClockTime = 220 s

Time = 0.5017

Courant Number mean: 0.110521 max: 11.0909
smoothSolver:  Solving for Ux, Initial residual = 0.541848, Final residual = 9.73509e-06, No Iterations 276
smoothSolver:  Solving for Uy, Initial residual = 0.750079, Final residual = 9.91748e-06, No Iterations 288
DICPCG:  Solving for p, Initial residual = 0.991576, Final residual = 2.36745e-05, No Iterations 1001
time step continuity errors : sum local = 2.39646e-07, global = 3.83398e-22, cumulative = -9.26677e-20
DICPCG:  Solving for p, Initial residual = 0.950311, Final residual = 2.25387e-05, No Iterations 1001
time step continuity errors : sum local = 2.30044e-07, global = -7.63157e-21, cumulative = -1.00299e-19
ExecutionTime = 234.06 s  ClockTime = 234 s

Time = 0.5018

Courant Number mean: 0.123586 max: 14.4971
smoothSolver:  Solving for Ux, Initial residual = 0.618738, Final residual = 9.91203e-06, No Iterations 280
smoothSolver:  Solving for Uy, Initial residual = 0.774012, Final residual = 9.97128e-06, No Iterations 285
DICPCG:  Solving for p, Initial residual = 0.991404, Final residual = 2.49887e-05, No Iterations 1001
time step continuity errors : sum local = 3.46897e-07, global = -2.37169e-20, cumulative = -1.24016e-19
DICPCG:  Solving for p, Initial residual = 0.949883, Final residual = 2.37215e-05, No Iterations 1001
time step continuity errors : sum local = 3.32214e-07, global = -6.76973e-20, cumulative = -1.91714e-19
ExecutionTime = 247.8 s  ClockTime = 248 s

Time = 0.5019

Courant Number mean: 0.14333 max: 19.8824
smoothSolver:  Solving for Ux, Initial residual = 0.656539, Final residual = 9.97126e-06, No Iterations 279
smoothSolver:  Solving for Uy, Initial residual = 0.792047, Final residual = 9.82861e-06, No Iterations 288
DICPCG:  Solving for p, Initial residual = 0.990759, Final residual = 2.24905e-05, No Iterations 1001
time step continuity errors : sum local = 4.29241e-07, global = -3.35728e-20, cumulative = -2.25286e-19
DICPCG:  Solving for p, Initial residual = 0.949725, Final residual = 2.14436e-05, No Iterations 1001
time step continuity errors : sum local = 4.12849e-07, global = 1.1884e-19, cumulative = -1.06446e-19
ExecutionTime = 261.61 s  ClockTime = 261 s

Time = 0.502

Courant Number mean: 0.169523 max: 26.4323
smoothSolver:  Solving for Ux, Initial residual = 0.712329, Final residual = 9.75671e-06, No Iterations 284
smoothSolver:  Solving for Uy, Initial residual = 0.805064, Final residual = 9.93155e-06, No Iterations 283
DICPCG:  Solving for p, Initial residual = 0.98999, Final residual = 2.58091e-05, No Iterations 1001
time step continuity errors : sum local = 6.76043e-07, global = -3.89064e-20, cumulative = -1.45353e-19
DICPCG:  Solving for p, Initial residual = 0.949353, Final residual = 2.45134e-05, No Iterations 1001
time step continuity errors : sum local = 6.4795e-07, global = 1.10681e-19, cumulative = -3.46716e-20
ExecutionTime = 275.48 s  ClockTime = 275 s

Time = 0.5021

Courant Number mean: 0.205343 max: 35.2621
smoothSolver:  Solving for Ux, Initial residual = 0.733886, Final residual = 9.91675e-06, No Iterations 280
smoothSolver:  Solving for Uy, Initial residual = 0.813952, Final residual = 9.88099e-06, No Iterations 287
DICPCG:  Solving for p, Initial residual = 0.989002, Final residual = 2.2103e-05, No Iterations 1001
time step continuity errors : sum local = 7.95286e-07, global = -4.05467e-20, cumulative = -7.52184e-20
DICPCG:  Solving for p, Initial residual = 0.949203, Final residual = 2.13092e-05, No Iterations 1001
time step continuity errors : sum local = 7.73663e-07, global = -5.11684e-19, cumulative = -5.86902e-19
ExecutionTime = 289.27 s  ClockTime = 289 s

Time = 0.5022

Courant Number mean: 0.254221 max: 46.1149
smoothSolver:  Solving for Ux, Initial residual = 0.768051, Final residual = 9.80595e-06, No Iterations 285
smoothSolver:  Solving for Uy, Initial residual = 0.820101, Final residual = 9.82014e-06, No Iterations 280
DICPCG:  Solving for p, Initial residual = 0.987704, Final residual = 2.33402e-05, No Iterations 1001
time step continuity errors : sum local = 1.14405e-06, global = 2.30841e-19, cumulative = -3.56061e-19
DICPCG:  Solving for p, Initial residual = 0.948839, Final residual = 2.2025e-05, No Iterations 1001
time step continuity errors : sum local = 1.08947e-06, global = -1.24044e-19, cumulative = -4.80105e-19
ExecutionTime = 303.08 s  ClockTime = 303 s

Time = 0.5023

Courant Number mean: 0.31762 max: 58.6431
smoothSolver:  Solving for Ux, Initial residual = 0.777181, Final residual = 9.78989e-06, No Iterations 278
smoothSolver:  Solving for Uy, Initial residual = 0.821749, Final residual = 9.9544e-06, No Iterations 284
DICPCG:  Solving for p, Initial residual = 0.986338, Final residual = 2.39557e-05, No Iterations 1001
time step continuity errors : sum local = 1.58769e-06, global = 1.20514e-19, cumulative = -3.59591e-19
DICPCG:  Solving for p, Initial residual = 0.948437, Final residual = 2.31077e-05, No Iterations 1001
time step continuity errors : sum local = 1.54518e-06, global = -1.09505e-19, cumulative = -4.69097e-19
ExecutionTime = 316.8 s  ClockTime = 317 s

Time = 0.5024

Courant Number mean: 0.395342 max: 72.519
smoothSolver:  Solving for Ux, Initial residual = 0.796637, Final residual = 9.70279e-06, No Iterations 284
smoothSolver:  Solving for Uy, Initial residual = 0.824546, Final residual = 9.80149e-06, No Iterations 278
DICPCG:  Solving for p, Initial residual = 0.984787, Final residual = 1.93816e-05, No Iterations 1001
time step continuity errors : sum local = 1.71077e-06, global = 2.43323e-20, cumulative = -4.44765e-19
DICPCG:  Solving for p, Initial residual = 0.948167, Final residual = 1.83265e-05, No Iterations 1001
time step continuity errors : sum local = 1.63238e-06, global = 2.45378e-19, cumulative = -1.99386e-19
ExecutionTime = 330.71 s  ClockTime = 331 s

Time = 0.5025

Courant Number mean: 0.492998 max: 87.1926
smoothSolver:  Solving for Ux, Initial residual = 0.799426, Final residual = 9.96658e-06, No Iterations 278
smoothSolver:  Solving for Uy, Initial residual = 0.823966, Final residual = 9.83511e-06, No Iterations 284
DICPCG:  Solving for p, Initial residual = 0.983482, Final residual = 2.32348e-05, No Iterations 1001
time step continuity errors : sum local = 2.68672e-06, global = 3.00439e-19, cumulative = 1.01052e-19
DICPCG:  Solving for p, Initial residual = 0.947972, Final residual = 2.2439e-05, No Iterations 1001
time step continuity errors : sum local = 2.61606e-06, global = 8.53452e-20, cumulative = 1.86397e-19
ExecutionTime = 344.61 s  ClockTime = 345 s

Time = 0.5026

Courant Number mean: 0.609845 max: 103.896
smoothSolver:  Solving for Ux, Initial residual = 0.807763, Final residual = 9.76348e-06, No Iterations 285
smoothSolver:  Solving for Uy, Initial residual = 0.823768, Final residual = 9.80341e-06, No Iterations 280
DICPCG:  Solving for p, Initial residual = 0.982187, Final residual = 1.90929e-05, No Iterations 1001
time step continuity errors : sum local = 2.83085e-06, global = -9.78594e-19, cumulative = -7.92197e-19
DICPCG:  Solving for p, Initial residual = 0.948298, Final residual = 1.86329e-05, No Iterations 1001
time step continuity errors : sum local = 2.78457e-06, global = -5.84459e-19, cumulative = -1.37666e-18
ExecutionTime = 358.36 s  ClockTime = 358 s

Time = 0.5027

Courant Number mean: 0.775818 max: 123.526
smoothSolver:  Solving for Ux, Initial residual = 0.804296, Final residual = 9.9507e-06, No Iterations 279
smoothSolver:  Solving for Uy, Initial residual = 0.818184, Final residual = 9.89759e-06, No Iterations 284
DICPCG:  Solving for p, Initial residual = 0.981154, Final residual = 2.31515e-05, No Iterations 1001
time step continuity errors : sum local = 4.31036e-06, global = 2.05723e-19, cumulative = -1.17093e-18
DICPCG:  Solving for p, Initial residual = 0.948829, Final residual = 2.21827e-05, No Iterations 1001
time step continuity errors : sum local = 4.15902e-06, global = 7.38705e-19, cumulative = -4.32228e-19
ExecutionTime = 372.14 s  ClockTime = 372 s

Time = 0.5028

Courant Number mean: 0.97318 max: 144.981
smoothSolver:  Solving for Ux, Initial residual = 0.804802, Final residual = 9.86535e-06, No Iterations 284
smoothSolver:  Solving for Uy, Initial residual = 0.814995, Final residual = 9.92724e-06, No Iterations 279
DICPCG:  Solving for p, Initial residual = 0.980224, Final residual = 2.14561e-05, No Iterations 1001
time step continuity errors : sum local = 4.86696e-06, global = 2.03248e-19, cumulative = -2.2898e-19
DICPCG:  Solving for p, Initial residual = 0.949742, Final residual = 2.23108e-05, No Iterations 1001
time step continuity errors : sum local = 5.08757e-06, global = -3.77261e-20, cumulative = -2.66706e-19
ExecutionTime = 385.9 s  ClockTime = 386 s

Time = 0.5029

Courant Number mean: 1.20987 max: 162.108
smoothSolver:  Solving for Ux, Initial residual = 0.800164, Final residual = 9.72026e-06, No Iterations 281
smoothSolver:  Solving for Uy, Initial residual = 0.807495, Final residual = 9.7732e-06, No Iterations 283
DICPCG:  Solving for p, Initial residual = 0.979911, Final residual = 2.43541e-05, No Iterations 1001
time step continuity errors : sum local = 6.61999e-06, global = 4.37281e-20, cumulative = -2.22978e-19
DICPCG:  Solving for p, Initial residual = 0.950223, Final residual = 2.3475e-05, No Iterations 1001
time step continuity errors : sum local = 6.41695e-06, global = 1.63855e-19, cumulative = -5.91231e-20
ExecutionTime = 399.61 s  ClockTime = 400 s

Time = 0.503

Courant Number mean: 1.41744 max: 177.569
smoothSolver:  Solving for Ux, Initial residual = 0.792027, Final residual = 9.69189e-06, No Iterations 290
smoothSolver:  Solving for Uy, Initial residual = 0.800962, Final residual = 9.77548e-06, No Iterations 291
DICPCG:  Solving for p, Initial residual = 0.979583, Final residual = 1.80936e-05, No Iterations 1001
time step continuity errors : sum local = 5.76793e-06, global = 1.26536e-18, cumulative = 1.20624e-18
DICPCG:  Solving for p, Initial residual = 0.949228, Final residual = 1.64571e-05, No Iterations 1001
time step continuity errors : sum local = 5.28626e-06, global = 7.29851e-19, cumulative = 1.93609e-18
ExecutionTime = 413.48 s  ClockTime = 413 s

Time = 0.5031

Courant Number mean: 1.75331 max: 208.786
smoothSolver:  Solving for Ux, Initial residual = 0.788134, Final residual = 9.86579e-06, No Iterations 291
smoothSolver:  Solving for Uy, Initial residual = 0.787443, Final residual = 9.87539e-06, No Iterations 290
DICPCG:  Solving for p, Initial residual = 0.977436, Final residual = 3.39497e-05, No Iterations 1001
time step continuity errors : sum local = 1.15315e-05, global = 2.59271e-20, cumulative = 1.96202e-18
DICPCG:  Solving for p, Initial residual = 0.945931, Final residual = 3.27545e-05, No Iterations 1001
time step continuity errors : sum local = 1.11977e-05, global = -2.69184e-19, cumulative = 1.69283e-18
ExecutionTime = 427.23 s  ClockTime = 427 s

Time = 0.5032

Courant Number mean: 2.60248 max: 242.304
smoothSolver:  Solving for Ux, Initial residual = 0.783374, Final residual = 9.76861e-06, No Iterations 278
smoothSolver:  Solving for Uy, Initial residual = 0.785763, Final residual = 9.77749e-06, No Iterations 281
DICPCG:  Solving for p, Initial residual = 0.976276, Final residual = 4.31486e-05, No Iterations 1001
time step continuity errors : sum local = 1.43179e-05, global = 9.40789e-19, cumulative = 2.63362e-18
DICPCG:  Solving for p, Initial residual = 0.943025, Final residual = 4.22796e-05, No Iterations 1001
time step continuity errors : sum local = 1.40779e-05, global = 2.22849e-18, cumulative = 4.86211e-18
ExecutionTime = 440.96 s  ClockTime = 441 s

Time = 0.5033

Courant Number mean: 3.29591 max: 203.604
smoothSolver:  Solving for Ux, Initial residual = 0.733385, Final residual = 9.96128e-06, No Iterations 276
smoothSolver:  Solving for Uy, Initial residual = 0.756805, Final residual = 9.87517e-06, No Iterations 269
DICPCG:  Solving for p, Initial residual = 0.975684, Final residual = 3.09541e-05, No Iterations 1001
time step continuity errors : sum local = 1.06691e-05, global = 7.789e-19, cumulative = 5.64101e-18
DICPCG:  Solving for p, Initial residual = 0.947241, Final residual = 3.01799e-05, No Iterations 1001
time step continuity errors : sum local = 1.03869e-05, global = -1.46817e-18, cumulative = 4.17284e-18
ExecutionTime = 454.57 s  ClockTime = 455 s

Time = 0.5034

Courant Number mean: 2.62128 max: 159.419
smoothSolver:  Solving for Ux, Initial residual = 0.759395, Final residual = 9.77439e-06, No Iterations 295
smoothSolver:  Solving for Uy, Initial residual = 0.757029, Final residual = 9.7483e-06, No Iterations 295
DICPCG:  Solving for p, Initial residual = 0.976189, Final residual = 2.30092e-05, No Iterations 1001
time step continuity errors : sum local = 7.20389e-06, global = -4.12545e-19, cumulative = 3.76029e-18
DICPCG:  Solving for p, Initial residual = 0.949058, Final residual = 2.23559e-05, No Iterations 1001
time step continuity errors : sum local = 6.95218e-06, global = -3.74567e-19, cumulative = 3.38573e-18
ExecutionTime = 468.34 s  ClockTime = 468 s

Time = 0.5035

Courant Number mean: 2.33159 max: 196.093
smoothSolver:  Solving for Ux, Initial residual = 0.747375, Final residual = 9.95968e-06, No Iterations 300
smoothSolver:  Solving for Uy, Initial residual = 0.766659, Final residual = 9.90288e-06, No Iterations 304
DICPCG:  Solving for p, Initial residual = 0.978827, Final residual = 3.22405e-05, No Iterations 1001
time step continuity errors : sum local = 8.0569e-06, global = 2.84828e-19, cumulative = 3.67055e-18
DICPCG:  Solving for p, Initial residual = 0.937756, Final residual = 3.15945e-05, No Iterations 1001
time step continuity errors : sum local = 7.84504e-06, global = 1.60605e-20, cumulative = 3.68662e-18
ExecutionTime = 482.28 s  ClockTime = 482 s

Time = 0.5036

Courant Number mean: 1.80731 max: 119.66
smoothSolver:  Solving for Ux, Initial residual = 0.761736, Final residual = 9.72205e-06, No Iterations 299
smoothSolver:  Solving for Uy, Initial residual = 0.749631, Final residual = 9.78985e-06, No Iterations 303
DICPCG:  Solving for p, Initial residual = 0.981473, Final residual = 2.44845e-05, No Iterations 1001
time step continuity errors : sum local = 5.791e-06, global = -9.76933e-20, cumulative = 3.58892e-18
DICPCG:  Solving for p, Initial residual = 0.939484, Final residual = 2.38931e-05, No Iterations 1001
time step continuity errors : sum local = 5.63026e-06, global = -4.50314e-19, cumulative = 3.13861e-18
ExecutionTime = 496.35 s  ClockTime = 496 s

Time = 0.5037

Courant Number mean: 1.55947 max: 105.738
smoothSolver:  Solving for Ux, Initial residual = 0.770469, Final residual = 9.92201e-06, No Iterations 310
smoothSolver:  Solving for Uy, Initial residual = 0.78969, Final residual = 9.83039e-06, No Iterations 313
DICPCG:  Solving for p, Initial residual = 0.98127, Final residual = 2.49303e-05, No Iterations 1001
time step continuity errors : sum local = 5.83643e-06, global = -4.51495e-19, cumulative = 2.68711e-18
DICPCG:  Solving for p, Initial residual = 0.940403, Final residual = 2.42834e-05, No Iterations 1001
time step continuity errors : sum local = 5.68959e-06, global = 1.74806e-19, cumulative = 2.86192e-18
ExecutionTime = 510.68 s  ClockTime = 511 s

Time = 0.5038

Courant Number mean: 1.64382 max: 114.206
smoothSolver:  Solving for Ux, Initial residual = 0.807565, Final residual = 9.99604e-06, No Iterations 313
smoothSolver:  Solving for Uy, Initial residual = 0.798018, Final residual = 9.93851e-06, No Iterations 316
DICPCG:  Solving for p, Initial residual = 0.980982, Final residual = 2.54373e-05, No Iterations 1001
time step continuity errors : sum local = 6.65082e-06, global = 5.89085e-20, cumulative = 2.92083e-18
DICPCG:  Solving for p, Initial residual = 0.944896, Final residual = 2.46544e-05, No Iterations 1001
time step continuity errors : sum local = 6.46301e-06, global = 9.85007e-20, cumulative = 3.01933e-18
ExecutionTime = 524.75 s  ClockTime = 525 s

Time = 0.5039

Courant Number mean: 1.81084 max: 120.374
smoothSolver:  Solving for Ux, Initial residual = 0.798724, Final residual = 9.82897e-06, No Iterations 305
smoothSolver:  Solving for Uy, Initial residual = 0.812624, Final residual = 9.83903e-06, No Iterations 307
DICPCG:  Solving for p, Initial residual = 0.98063, Final residual = 2.28532e-05, No Iterations 1001
time step continuity errors : sum local = 6.84837e-06, global = 3.22442e-19, cumulative = 3.34177e-18
DICPCG:  Solving for p, Initial residual = 0.94794, Final residual = 2.19189e-05, No Iterations 1001
time step continuity errors : sum local = 6.59777e-06, global = -5.44927e-19, cumulative = 2.79684e-18
ExecutionTime = 538.7 s  ClockTime = 539 s

Time = 0.504

Courant Number mean: 2.08105 max: 106.26
smoothSolver:  Solving for Ux, Initial residual = 0.813174, Final residual = 9.74669e-06, No Iterations 310
smoothSolver:  Solving for Uy, Initial residual = 0.810921, Final residual = 9.81049e-06, No Iterations 305
DICPCG:  Solving for p, Initial residual = 0.980788, Final residual = 2.19671e-05, No Iterations 1001
time step continuity errors : sum local = 7.60407e-06, global = 1.08076e-19, cumulative = 2.90492e-18
DICPCG:  Solving for p, Initial residual = 0.950462, Final residual = 2.13016e-05, No Iterations 1001
time step continuity errors : sum local = 7.40988e-06, global = -5.40738e-19, cumulative = 2.36418e-18
ExecutionTime = 552.93 s  ClockTime = 553 s

Time = 0.5041

Courant Number mean: 2.48837 max: 139.412
smoothSolver:  Solving for Ux, Initial residual = 0.799559, Final residual = 9.93854e-06, No Iterations 307
smoothSolver:  Solving for Uy, Initial residual = 0.802435, Final residual = 9.7687e-06, No Iterations 308
DICPCG:  Solving for p, Initial residual = 0.981176, Final residual = 2.18504e-05, No Iterations 1001
time step continuity errors : sum local = 8.72175e-06, global = -1.23823e-18, cumulative = 1.12595e-18
DICPCG:  Solving for p, Initial residual = 0.951179, Final residual = 2.10134e-05, No Iterations 1001
time step continuity errors : sum local = 8.43713e-06, global = -2.14273e-19, cumulative = 9.11679e-19
ExecutionTime = 566.72 s  ClockTime = 567 s

Time = 0.5042

Courant Number mean: 2.82984 max: 143.321
smoothSolver:  Solving for Ux, Initial residual = 0.79961, Final residual = 9.7887e-06, No Iterations 305
smoothSolver:  Solving for Uy, Initial residual = 0.796684, Final residual = 9.88448e-06, No Iterations 306
DICPCG:  Solving for p, Initial residual = 0.979599, Final residual = 2.32706e-05, No Iterations 1001
time step continuity errors : sum local = 1.02033e-05, global = 1.03563e-19, cumulative = 1.01524e-18
DICPCG:  Solving for p, Initial residual = 0.950232, Final residual = 2.25348e-05, No Iterations 1001
time step continuity errors : sum local = 9.93076e-06, global = -4.68714e-20, cumulative = 9.68371e-19
ExecutionTime = 581.06 s  ClockTime = 581 s

Time = 0.5043

Courant Number mean: 3.33054 max: 155.29
smoothSolver:  Solving for Ux, Initial residual = 0.789712, Final residual = 9.70622e-06, No Iterations 300
smoothSolver:  Solving for Uy, Initial residual = 0.783292, Final residual = 9.79384e-06, No Iterations 307
DICPCG:  Solving for p, Initial residual = 0.980321, Final residual = 1.89004e-05, No Iterations 1001
time step continuity errors : sum local = 8.91887e-06, global = -2.29657e-18, cumulative = -1.3282e-18
DICPCG:  Solving for p, Initial residual = 0.950126, Final residual = 1.82377e-05, No Iterations 1001
time step continuity errors : sum local = 8.65189e-06, global = 1.77189e-19, cumulative = -1.15101e-18
ExecutionTime = 595.22 s  ClockTime = 595 s

Time = 0.5044

Courant Number mean: 3.94064 max: 142.838
smoothSolver:  Solving for Ux, Initial residual = 0.773618, Final residual = 9.73392e-06, No Iterations 300
smoothSolver:  Solving for Uy, Initial residual = 0.78418, Final residual = 9.92895e-06, No Iterations 299
DICPCG:  Solving for p, Initial residual = 0.980321, Final residual = 2.19273e-05, No Iterations 1001
time step continuity errors : sum local = 1.08563e-05, global = 3.54974e-18, cumulative = 2.39873e-18
DICPCG:  Solving for p, Initial residual = 0.951506, Final residual = 2.11644e-05, No Iterations 1001
time step continuity errors : sum local = 1.05256e-05, global = -9.61502e-19, cumulative = 1.43723e-18
ExecutionTime = 609.36 s  ClockTime = 609 s

Time = 0.5045

Courant Number mean: 4.21475 max: 169.437
smoothSolver:  Solving for Ux, Initial residual = 0.758353, Final residual = 9.92957e-06, No Iterations 300
smoothSolver:  Solving for Uy, Initial residual = 0.764159, Final residual = 9.85982e-06, No Iterations 303
DICPCG:  Solving for p, Initial residual = 0.980727, Final residual = 2.07814e-05, No Iterations 1001
time step continuity errors : sum local = 1.05017e-05, global = -3.3569e-19, cumulative = 1.10154e-18
DICPCG:  Solving for p, Initial residual = 0.948651, Final residual = 2.01752e-05, No Iterations 1001
time step continuity errors : sum local = 1.02447e-05, global = 1.46183e-18, cumulative = 2.56337e-18
ExecutionTime = 623.29 s  ClockTime = 623 s

Time = 0.5046

Courant Number mean: 3.96898 max: 147.78
smoothSolver:  Solving for Ux, Initial residual = 0.769164, Final residual = 9.91003e-06, No Iterations 306
smoothSolver:  Solving for Uy, Initial residual = 0.769637, Final residual = 9.89298e-06, No Iterations 305
DICPCG:  Solving for p, Initial residual = 0.980412, Final residual = 1.9522e-05, No Iterations 1001
time step continuity errors : sum local = 9.66222e-06, global = 2.23315e-18, cumulative = 4.79652e-18
DICPCG:  Solving for p, Initial residual = 0.946798, Final residual = 1.90915e-05, No Iterations 1001
time step continuity errors : sum local = 9.48924e-06, global = -3.29284e-20, cumulative = 4.76359e-18
ExecutionTime = 637.41 s  ClockTime = 637 s

Time = 0.5047

Courant Number mean: 4.0919 max: 132.755
smoothSolver:  Solving for Ux, Initial residual = 0.777173, Final residual = 9.91313e-06, No Iterations 305
smoothSolver:  Solving for Uy, Initial residual = 0.769674, Final residual = 9.79064e-06, No Iterations 310
DICPCG:  Solving for p, Initial residual = 0.98174, Final residual = 2.16174e-05, No Iterations 1001
time step continuity errors : sum local = 1.06866e-05, global = -1.12962e-18, cumulative = 3.63397e-18
DICPCG:  Solving for p, Initial residual = 0.947062, Final residual = 2.11034e-05, No Iterations 1001
time step continuity errors : sum local = 1.0507e-05, global = 2.97017e-19, cumulative = 3.93099e-18
ExecutionTime = 651.5 s  ClockTime = 652 s

Time = 0.5048

Courant Number mean: 4.1548 max: 134.831
smoothSolver:  Solving for Ux, Initial residual = 0.782471, Final residual = 9.80913e-06, No Iterations 309
smoothSolver:  Solving for Uy, Initial residual = 0.772816, Final residual = 9.73452e-06, No Iterations 306
DICPCG:  Solving for p, Initial residual = 0.982444, Final residual = 1.91914e-05, No Iterations 1001
time step continuity errors : sum local = 9.65962e-06, global = -1.19384e-18, cumulative = 2.73715e-18
DICPCG:  Solving for p, Initial residual = 0.94402, Final residual = 1.85543e-05, No Iterations 1001
time step continuity errors : sum local = 9.44098e-06, global = 4.5806e-20, cumulative = 2.78295e-18
ExecutionTime = 665.47 s  ClockTime = 666 s

Time = 0.5049

Courant Number mean: 3.97622 max: 120.561
smoothSolver:  Solving for Ux, Initial residual = 0.790497, Final residual = 9.92019e-06, No Iterations 315
smoothSolver:  Solving for Uy, Initial residual = 0.793209, Final residual = 9.73786e-06, No Iterations 315
DICPCG:  Solving for p, Initial residual = 0.982636, Final residual = 1.98786e-05, No Iterations 1001
time step continuity errors : sum local = 1.0358e-05, global = -1.63593e-18, cumulative = 1.14703e-18
DICPCG:  Solving for p, Initial residual = 0.940684, Final residual = 1.90912e-05, No Iterations 1001
time step continuity errors : sum local = 1.00928e-05, global = 5.64336e-20, cumulative = 1.20346e-18
ExecutionTime = 679.67 s  ClockTime = 680 s

Time = 0.505

Courant Number mean: 4.16383 max: 144.273
smoothSolver:  Solving for Ux, Initial residual = 0.794917, Final residual = 9.79374e-06, No Iterations 317
smoothSolver:  Solving for Uy, Initial residual = 0.794942, Final residual = 9.90423e-06, No Iterations 314
DICPCG:  Solving for p, Initial residual = 0.982967, Final residual = 1.95694e-05, No Iterations 1001
time step continuity errors : sum local = 1.05393e-05, global = 2.75677e-18, cumulative = 3.96024e-18
DICPCG:  Solving for p, Initial residual = 0.938552, Final residual = 1.88622e-05, No Iterations 1001
time step continuity errors : sum local = 1.03331e-05, global = -1.06967e-18, cumulative = 2.89057e-18
ExecutionTime = 693.85 s  ClockTime = 694 s

Time = 0.5051

Courant Number mean: 4.36138 max: 126.49
smoothSolver:  Solving for Ux, Initial residual = 0.799158, Final residual = 9.94809e-06, No Iterations 312
smoothSolver:  Solving for Uy, Initial residual = 0.797635, Final residual = 9.88554e-06, No Iterations 315
DICPCG:  Solving for p, Initial residual = 0.983383, Final residual = 1.82879e-05, No Iterations 1001
time step continuity errors : sum local = 1.05689e-05, global = 1.0742e-17, cumulative = 1.36325e-17
DICPCG:  Solving for p, Initial residual = 0.933853, Final residual = 1.7505e-05, No Iterations 1001
time step continuity errors : sum local = 1.03549e-05, global = -8.47033e-20, cumulative = 1.35478e-17
ExecutionTime = 708.04 s  ClockTime = 708 s

Time = 0.5052

Courant Number mean: 4.54673 max: 135.376
smoothSolver:  Solving for Ux, Initial residual = 0.796561, Final residual = 9.78834e-06, No Iterations 315
smoothSolver:  Solving for Uy, Initial residual = 0.798685, Final residual = 9.86563e-06, No Iterations 314
DICPCG:  Solving for p, Initial residual = 0.983967, Final residual = 2.84068e-05, No Iterations 1001
time step continuity errors : sum local = 1.74806e-05, global = 2.59086e-18, cumulative = 1.61387e-17
DICPCG:  Solving for p, Initial residual = 0.932335, Final residual = 2.7188e-05, No Iterations 1001
time step continuity errors : sum local = 1.71709e-05, global = 6.1844e-19, cumulative = 1.67571e-17
ExecutionTime = 722.26 s  ClockTime = 722 s

Time = 0.5053

Courant Number mean: 4.87154 max: 152.062
smoothSolver:  Solving for Ux, Initial residual = 0.803947, Final residual = 9.923e-06, No Iterations 312
smoothSolver:  Solving for Uy, Initial residual = 0.791087, Final residual = 9.8053e-06, No Iterations 312
DICPCG:  Solving for p, Initial residual = 0.983444, Final residual = 1.64774e-05, No Iterations 1001
time step continuity errors : sum local = 1.09908e-05, global = -1.0227e-17, cumulative = 6.53016e-18
DICPCG:  Solving for p, Initial residual = 0.924509, Final residual = 1.57345e-05, No Iterations 1001
time step continuity errors : sum local = 1.0859e-05, global = -6.8427e-19, cumulative = 5.84589e-18
ExecutionTime = 736.31 s  ClockTime = 736 s

Time = 0.5054

Courant Number mean: 5.00606 max: 128.924
smoothSolver:  Solving for Ux, Initial residual = 0.79987, Final residual = 9.88049e-06, No Iterations 315
smoothSolver:  Solving for Uy, Initial residual = 0.802306, Final residual = 9.87777e-06, No Iterations 315
DICPCG:  Solving for p, Initial residual = 0.982812, Final residual = 1.94241e-05, No Iterations 1001
time step continuity errors : sum local = 1.37957e-05, global = -1.96599e-18, cumulative = 3.8799e-18
DICPCG:  Solving for p, Initial residual = 0.923153, Final residual = 1.80723e-05, No Iterations 1001
time step continuity errors : sum local = 1.32875e-05, global = -1.26539e-18, cumulative = 2.61451e-18
ExecutionTime = 750.41 s  ClockTime = 750 s

Time = 0.5055

Courant Number mean: 5.17363 max: 137.594
smoothSolver:  Solving for Ux, Initial residual = 0.802584, Final residual = 9.87424e-06, No Iterations 314
smoothSolver:  Solving for Uy, Initial residual = 0.80222, Final residual = 9.79933e-06, No Iterations 312
DICPCG:  Solving for p, Initial residual = 0.982825, Final residual = 1.81983e-05, No Iterations 1001
time step continuity errors : sum local = 1.41093e-05, global = 9.10484e-18, cumulative = 1.17193e-17
DICPCG:  Solving for p, Initial residual = 0.913858, Final residual = 1.6427e-05, No Iterations 1001
time step continuity errors : sum local = 1.33175e-05, global = 7.19554e-19, cumulative = 1.24389e-17
ExecutionTime = 764.55 s  ClockTime = 765 s

Time = 0.5056

Courant Number mean: 5.53559 max: 161.091
smoothSolver:  Solving for Ux, Initial residual = 0.795559, Final residual = 9.701e-06, No Iterations 315
smoothSolver:  Solving for Uy, Initial residual = 0.802734, Final residual = 9.77797e-06, No Iterations 315
DICPCG:  Solving for p, Initial residual = 0.983002, Final residual = 4.1076e-05, No Iterations 1001
time step continuity errors : sum local = 3.5034e-05, global = 2.52271e-17, cumulative = 3.7666e-17
DICPCG:  Solving for p, Initial residual = 0.916635, Final residual = 3.83882e-05, No Iterations 1001
time step continuity errors : sum local = 3.41313e-05, global = 8.1781e-19, cumulative = 3.84838e-17
ExecutionTime = 778.74 s  ClockTime = 779 s

Time = 0.5057

Courant Number mean: 5.61055 max: 159.326
smoothSolver:  Solving for Ux, Initial residual = 0.813451, Final residual = 9.82549e-06, No Iterations 316
smoothSolver:  Solving for Uy, Initial residual = 0.789631, Final residual = 9.92347e-06, No Iterations 315
DICPCG:  Solving for p, Initial residual = 0.981276, Final residual = 1.6077e-05, No Iterations 1001
time step continuity errors : sum local = 1.48521e-05, global = 2.25634e-17, cumulative = 6.10472e-17
DICPCG:  Solving for p, Initial residual = 0.90468, Final residual = 1.43256e-05, No Iterations 1001
time step continuity errors : sum local = 1.39525e-05, global = 7.58379e-19, cumulative = 6.18056e-17
ExecutionTime = 792.97 s  ClockTime = 793 s

Time = 0.5058

Courant Number mean: 5.97348 max: 139.799
smoothSolver:  Solving for Ux, Initial residual = 0.800217, Final residual = 9.82328e-06, No Iterations 314
smoothSolver:  Solving for Uy, Initial residual = 0.802209, Final residual = 9.89457e-06, No Iterations 315
DICPCG:  Solving for p, Initial residual = 0.981459, Final residual = 4.11327e-05, No Iterations 1001
time step continuity errors : sum local = 4.23029e-05, global = 1.56805e-17, cumulative = 7.74862e-17
DICPCG:  Solving for p, Initial residual = 0.912265, Final residual = 3.85288e-05, No Iterations 1001
time step continuity errors : sum local = 4.14657e-05, global = -3.94982e-19, cumulative = 7.70912e-17
ExecutionTime = 807.25 s  ClockTime = 807 s

Time = 0.5059

Courant Number mean: 6.04513 max: 148.024
smoothSolver:  Solving for Ux, Initial residual = 0.816213, Final residual = 9.72333e-06, No Iterations 313
smoothSolver:  Solving for Uy, Initial residual = 0.801934, Final residual = 9.77768e-06, No Iterations 314
DICPCG:  Solving for p, Initial residual = 0.979306, Final residual = 1.71632e-05, No Iterations 1001
time step continuity errors : sum local = 1.89273e-05, global = -4.49564e-17, cumulative = 3.21348e-17
DICPCG:  Solving for p, Initial residual = 0.899589, Final residual = 1.45452e-05, No Iterations 1001
time step continuity errors : sum local = 1.6996e-05, global = 7.17066e-20, cumulative = 3.22065e-17
ExecutionTime = 821.48 s  ClockTime = 822 s

Time = 0.506

Courant Number mean: 6.48263 max: 181.842
smoothSolver:  Solving for Ux, Initial residual = 0.802837, Final residual = 9.89938e-06, No Iterations 311
smoothSolver:  Solving for Uy, Initial residual = 0.80368, Final residual = 9.88943e-06, No Iterations 311
DICPCG:  Solving for p, Initial residual = 0.979603, Final residual = 3.08946e-05, No Iterations 1001
time step continuity errors : sum local = 3.7494e-05, global = -6.23602e-17, cumulative = -3.01537e-17
DICPCG:  Solving for p, Initial residual = 0.912259, Final residual = 2.88154e-05, No Iterations 1001
time step continuity errors : sum local = 3.65706e-05, global = -2.14553e-18, cumulative = -3.22992e-17
ExecutionTime = 835.64 s  ClockTime = 836 s

Time = 0.5061

Courant Number mean: 6.73033 max: 163.235
smoothSolver:  Solving for Ux, Initial residual = 0.810294, Final residual = 9.75659e-06, No Iterations 311
smoothSolver:  Solving for Uy, Initial residual = 0.799313, Final residual = 9.7046e-06, No Iterations 310
DICPCG:  Solving for p, Initial residual = 0.976934, Final residual = 1.64094e-05, No Iterations 1001
time step continuity errors : sum local = 2.07686e-05, global = -4.74111e-18, cumulative = -3.70403e-17
DICPCG:  Solving for p, Initial residual = 0.904095, Final residual = 1.69188e-05, No Iterations 1001
time step continuity errors : sum local = 2.25423e-05, global = 7.97561e-19, cumulative = -3.62428e-17
ExecutionTime = 849.78 s  ClockTime = 850 s

Time = 0.5062

Courant Number mean: 7.10101 max: 223.661
smoothSolver:  Solving for Ux, Initial residual = 0.798526, Final residual = 9.81949e-06, No Iterations 312
smoothSolver:  Solving for Uy, Initial residual = 0.794518, Final residual = 9.995e-06, No Iterations 311
DICPCG:  Solving for p, Initial residual = 0.977596, Final residual = 3.48817e-05, No Iterations 1001
time step continuity errors : sum local = 4.52596e-05, global = 1.46336e-17, cumulative = -2.16092e-17
DICPCG:  Solving for p, Initial residual = 0.917673, Final residual = 3.26013e-05, No Iterations 1001
time step continuity errors : sum local = 4.38485e-05, global = 1.28664e-18, cumulative = -2.03226e-17
ExecutionTime = 863.82 s  ClockTime = 864 s

Time = 0.5063

Courant Number mean: 7.3134 max: 163.324
smoothSolver:  Solving for Ux, Initial residual = 0.808704, Final residual = 9.88797e-06, No Iterations 305
smoothSolver:  Solving for Uy, Initial residual = 0.786225, Final residual = 9.71397e-06, No Iterations 314
DICPCG:  Solving for p, Initial residual = 0.976824, Final residual = 8.54416e-06, No Iterations 1001
time step continuity errors : sum local = 1.13439e-05, global = -3.11502e-18, cumulative = -2.34376e-17
DICPCG:  Solving for p, Initial residual = 0.922006, Final residual = 7.95994e-06, No Iterations 1001
time step continuity errors : sum local = 1.0895e-05, global = -6.89273e-19, cumulative = -2.41269e-17
ExecutionTime = 877.91 s  ClockTime = 878 s

Time = 0.5064

Courant Number mean: 7.2598 max: 145.923
smoothSolver:  Solving for Ux, Initial residual = 0.80011, Final residual = 9.8191e-06, No Iterations 311
smoothSolver:  Solving for Uy, Initial residual = 0.793057, Final residual = 9.94006e-06, No Iterations 310
DICPCG:  Solving for p, Initial residual = 0.977976, Final residual = 1.79746e-05, No Iterations 1001
time step continuity errors : sum local = 2.34057e-05, global = 2.78737e-17, cumulative = 3.74682e-18
DICPCG:  Solving for p, Initial residual = 0.928758, Final residual = 1.68925e-05, No Iterations 1001
time step continuity errors : sum local = 2.25146e-05, global = -1.7881e-19, cumulative = 3.56801e-18
ExecutionTime = 891.9 s  ClockTime = 892 s

Time = 0.5065

Courant Number mean: 7.46963 max: 150.148
smoothSolver:  Solving for Ux, Initial residual = 0.792003, Final residual = 9.99539e-06, No Iterations 311
smoothSolver:  Solving for Uy, Initial residual = 0.787433, Final residual = 9.92812e-06, No Iterations 314
DICPCG:  Solving for p, Initial residual = 0.977778, Final residual = 1.71708e-05, No Iterations 1001
time step continuity errors : sum local = 2.16889e-05, global = -6.2743e-18, cumulative = -2.7063e-18
DICPCG:  Solving for p, Initial residual = 0.918948, Final residual = 1.63934e-05, No Iterations 1001
time step continuity errors : sum local = 2.13969e-05, global = -4.93198e-20, cumulative = -2.75562e-18
ExecutionTime = 906.19 s  ClockTime = 906 s

Time = 0.5066

Courant Number mean: 7.53561 max: 153.849
smoothSolver:  Solving for Ux, Initial residual = 0.78597, Final residual = 9.71616e-06, No Iterations 313
smoothSolver:  Solving for Uy, Initial residual = 0.795499, Final residual = 9.98349e-06, No Iterations 315
DICPCG:  Solving for p, Initial residual = 0.978604, Final residual = 2.21322e-05, No Iterations 1001
time step continuity errors : sum local = 2.64337e-05, global = 9.24086e-19, cumulative = -1.83153e-18
DICPCG:  Solving for p, Initial residual = 0.922843, Final residual = 2.09317e-05, No Iterations 1001
time step continuity errors : sum local = 2.56979e-05, global = 1.73271e-19, cumulative = -1.65826e-18
ExecutionTime = 920.3 s  ClockTime = 920 s

Time = 0.5067

Courant Number mean: 7.47426 max: 141.792
smoothSolver:  Solving for Ux, Initial residual = 0.787171, Final residual = 9.9423e-06, No Iterations 308
smoothSolver:  Solving for Uy, Initial residual = 0.789397, Final residual = 9.9724e-06, No Iterations 318
DICPCG:  Solving for p, Initial residual = 0.978839, Final residual = 1.41731e-05, No Iterations 1001
time step continuity errors : sum local = 1.621e-05, global = 2.37812e-17, cumulative = 2.2123e-17
DICPCG:  Solving for p, Initial residual = 0.9156, Final residual = 1.37944e-05, No Iterations 1001
time step continuity errors : sum local = 1.63615e-05, global = 2.94079e-19, cumulative = 2.24171e-17
ExecutionTime = 934.47 s  ClockTime = 935 s

Time = 0.5068

Courant Number mean: 7.08827 max: 158.312
smoothSolver:  Solving for Ux, Initial residual = 0.791771, Final residual = 9.87238e-06, No Iterations 317
smoothSolver:  Solving for Uy, Initial residual = 0.792404, Final residual = 9.84623e-06, No Iterations 318
DICPCG:  Solving for p, Initial residual = 0.978677, Final residual = 7.90114e-06, No Iterations 1001
time step continuity errors : sum local = 8.71285e-06, global = -4.09742e-18, cumulative = 1.83196e-17
DICPCG:  Solving for p, Initial residual = 0.921562, Final residual = 7.02604e-06, No Iterations 1001
time step continuity errors : sum local = 7.981e-06, global = -1.37709e-19, cumulative = 1.81819e-17
ExecutionTime = 948.71 s  ClockTime = 949 s

Time = 0.5069

Courant Number mean: 7.31273 max: 144.798
smoothSolver:  Solving for Ux, Initial residual = 0.793985, Final residual = 9.81486e-06, No Iterations 313
smoothSolver:  Solving for Uy, Initial residual = 0.78105, Final residual = 9.84836e-06, No Iterations 315
DICPCG:  Solving for p, Initial residual = 0.978121, Final residual = 1.39911e-05, No Iterations 1001
time step continuity errors : sum local = 1.50952e-05, global = 1.20178e-17, cumulative = 3.01997e-17
DICPCG:  Solving for p, Initial residual = 0.910887, Final residual = 1.23047e-05, No Iterations 1001
time step continuity errors : sum local = 1.38342e-05, global = -1.58874e-18, cumulative = 2.8611e-17
ExecutionTime = 962.79 s  ClockTime = 963 s

Time = 0.507

Courant Number mean: 7.12198 max: 128.579
smoothSolver:  Solving for Ux, Initial residual = 0.791156, Final residual = 9.88973e-06, No Iterations 315
smoothSolver:  Solving for Uy, Initial residual = 0.790045, Final residual = 9.85157e-06, No Iterations 317
DICPCG:  Solving for p, Initial residual = 0.977688, Final residual = 1.91836e-05, No Iterations 1001
time step continuity errors : sum local = 2.03043e-05, global = -3.62768e-17, cumulative = -7.66584e-18
DICPCG:  Solving for p, Initial residual = 0.914522, Final residual = 1.8113e-05, No Iterations 1001
time step continuity errors : sum local = 1.98813e-05, global = -1.12599e-19, cumulative = -7.77844e-18
ExecutionTime = 976.95 s  ClockTime = 977 s

Time = 0.5071

Courant Number mean: 6.82568 max: 144.374
smoothSolver:  Solving for Ux, Initial residual = 0.797649, Final residual = 9.98147e-06, No Iterations 314
smoothSolver:  Solving for Uy, Initial residual = 0.79395, Final residual = 9.90747e-06, No Iterations 319
DICPCG:  Solving for p, Initial residual = 0.97871, Final residual = 1.71111e-05, No Iterations 1001
time step continuity errors : sum local = 1.79027e-05, global = 1.75792e-17, cumulative = 9.80078e-18
DICPCG:  Solving for p, Initial residual = 0.906054, Final residual = 1.5317e-05, No Iterations 1001
time step continuity errors : sum local = 1.67894e-05, global = -1.25402e-18, cumulative = 8.54676e-18
ExecutionTime = 991.1 s  ClockTime = 991 s

Time = 0.5072

Courant Number mean: 7.01067 max: 166.183
smoothSolver:  Solving for Ux, Initial residual = 0.784515, Final residual = 9.9397e-06, No Iterations 316
smoothSolver:  Solving for Uy, Initial residual = 0.796397, Final residual = 9.73536e-06, No Iterations 321
DICPCG:  Solving for p, Initial residual = 0.978169, Final residual = 3.06004e-05, No Iterations 1001
time step continuity errors : sum local = 3.14512e-05, global = -1.45567e-17, cumulative = -6.00998e-18
DICPCG:  Solving for p, Initial residual = 0.910492, Final residual = 2.87963e-05, No Iterations 1001
time step continuity errors : sum local = 3.08561e-05, global = 4.82121e-19, cumulative = -5.52786e-18
ExecutionTime = 1005.26 s  ClockTime = 1005 s

Time = 0.5073

Courant Number mean: 7.02183 max: 157.836
smoothSolver:  Solving for Ux, Initial residual = 0.792794, Final residual = 9.87494e-06, No Iterations 315
smoothSolver:  Solving for Uy, Initial residual = 0.790758, Final residual = 9.72268e-06, No Iterations 319
DICPCG:  Solving for p, Initial residual = 0.978464, Final residual = 1.83276e-05, No Iterations 1001
time step continuity errors : sum local = 1.89851e-05, global = -3.26177e-18, cumulative = -8.78962e-18
DICPCG:  Solving for p, Initial residual = 0.903356, Final residual = 1.63862e-05, No Iterations 1001
time step continuity errors : sum local = 1.78318e-05, global = -9.2001e-19, cumulative = -9.70963e-18
ExecutionTime = 1019.66 s  ClockTime = 1020 s

Time = 0.5074

Courant Number mean: 6.86541 max: 143.177
smoothSolver:  Solving for Ux, Initial residual = 0.790032, Final residual = 9.90597e-06, No Iterations 319
smoothSolver:  Solving for Uy, Initial residual = 0.800584, Final residual = 9.75959e-06, No Iterations 317
DICPCG:  Solving for p, Initial residual = 0.978168, Final residual = 2.83088e-05, No Iterations 1001
time step continuity errors : sum local = 2.87237e-05, global = -6.75723e-18, cumulative = -1.64669e-17
DICPCG:  Solving for p, Initial residual = 0.909335, Final residual = 2.66708e-05, No Iterations 1001
time step continuity errors : sum local = 2.82313e-05, global = 5.34372e-19, cumulative = -1.59325e-17
ExecutionTime = 1033.78 s  ClockTime = 1034 s

Time = 0.5075

Courant Number mean: 6.94694 max: 159.724
smoothSolver:  Solving for Ux, Initial residual = 0.797817, Final residual = 9.87111e-06, No Iterations 315
smoothSolver:  Solving for Uy, Initial residual = 0.792592, Final residual = 9.73063e-06, No Iterations 320
DICPCG:  Solving for p, Initial residual = 0.978519, Final residual = 2.13483e-05, No Iterations 1001
time step continuity errors : sum local = 2.16833e-05, global = -4.06978e-18, cumulative = -2.00023e-17
DICPCG:  Solving for p, Initial residual = 0.904824, Final residual = 1.96976e-05, No Iterations 1001
time step continuity errors : sum local = 2.10015e-05, global = -2.02931e-19, cumulative = -2.02052e-17
ExecutionTime = 1047.96 s  ClockTime = 1048 s

Time = 0.5076

Courant Number mean: 6.81893 max: 158.869
smoothSolver:  Solving for Ux, Initial residual = 0.785785, Final residual = 9.72021e-06, No Iterations 317
smoothSolver:  Solving for Uy, Initial residual = 0.80127, Final residual = 9.82677e-06, No Iterations 322
DICPCG:  Solving for p, Initial residual = 0.978534, Final residual = 2.64456e-05, No Iterations 1001
time step continuity errors : sum local = 2.67497e-05, global = 4.46017e-17, cumulative = 2.43965e-17
DICPCG:  Solving for p, Initial residual = 0.908256, Final residual = 2.4546e-05, No Iterations 1001
time step continuity errors : sum local = 2.59668e-05, global = -2.52681e-19, cumulative = 2.41438e-17
ExecutionTime = 1062.23 s  ClockTime = 1062 s

Time = 0.5077

Courant Number mean: 6.75065 max: 153.199
smoothSolver:  Solving for Ux, Initial residual = 0.790498, Final residual = 9.84504e-06, No Iterations 318
smoothSolver:  Solving for Uy, Initial residual = 0.800918, Final residual = 9.96367e-06, No Iterations 320
DICPCG:  Solving for p, Initial residual = 0.978613, Final residual = 2.27069e-05, No Iterations 1001
time step continuity errors : sum local = 2.27447e-05, global = 1.78579e-17, cumulative = 4.20017e-17
DICPCG:  Solving for p, Initial residual = 0.896726, Final residual = 2.07589e-05, No Iterations 1001
time step continuity errors : sum local = 2.19967e-05, global = 3.94161e-19, cumulative = 4.23958e-17
ExecutionTime = 1076.37 s  ClockTime = 1077 s

Time = 0.5078

Courant Number mean: 6.59456 max: 155.227
smoothSolver:  Solving for Ux, Initial residual = 0.792849, Final residual = 9.92589e-06, No Iterations 320
smoothSolver:  Solving for Uy, Initial residual = 0.804089, Final residual = 9.92192e-06, No Iterations 320
DICPCG:  Solving for p, Initial residual = 0.978273, Final residual = 1.99517e-05, No Iterations 1001
time step continuity errors : sum local = 1.95302e-05, global = 7.62064e-17, cumulative = 1.18602e-16
DICPCG:  Solving for p, Initial residual = 0.902201, Final residual = 1.86094e-05, No Iterations 1001
time step continuity errors : sum local = 1.91692e-05, global = 7.3899e-19, cumulative = 1.19341e-16
ExecutionTime = 1090.8 s  ClockTime = 1091 s

Time = 0.5079

Courant Number mean: 6.81187 max: 158.531
smoothSolver:  Solving for Ux, Initial residual = 0.791361, Final residual = 9.82182e-06, No Iterations 317
smoothSolver:  Solving for Uy, Initial residual = 0.798424, Final residual = 9.74441e-06, No Iterations 319
DICPCG:  Solving for p, Initial residual = 0.978663, Final residual = 1.85113e-05, No Iterations 1001
time step continuity errors : sum local = 1.82315e-05, global = 1.22333e-17, cumulative = 1.31575e-16
DICPCG:  Solving for p, Initial residual = 0.897478, Final residual = 1.69774e-05, No Iterations 1001
time step continuity errors : sum local = 1.77031e-05, global = -8.9667e-19, cumulative = 1.30678e-16
ExecutionTime = 1105.14 s  ClockTime = 1105 s

Time = 0.508

Courant Number mean: 6.48147 max: 135.173
smoothSolver:  Solving for Ux, Initial residual = 0.789351, Final residual = 9.8725e-06, No Iterations 319
smoothSolver:  Solving for Uy, Initial residual = 0.811244, Final residual = 9.83028e-06, No Iterations 323
DICPCG:  Solving for p, Initial residual = 0.97892, Final residual = 2.01601e-05, No Iterations 1001
time step continuity errors : sum local = 1.95911e-05, global = 4.40271e-18, cumulative = 1.35081e-16
DICPCG:  Solving for p, Initial residual = 0.907757, Final residual = 1.86526e-05, No Iterations 1001
time step continuity errors : sum local = 1.89847e-05, global = 6.62386e-19, cumulative = 1.35743e-16
ExecutionTime = 1119.41 s  ClockTime = 1120 s

Time = 0.5081

Courant Number mean: 6.57903 max: 139.801
smoothSolver:  Solving for Ux, Initial residual = 0.796106, Final residual = 9.79062e-06, No Iterations 319
smoothSolver:  Solving for Uy, Initial residual = 0.809471, Final residual = 9.78322e-06, No Iterations 323
DICPCG:  Solving for p, Initial residual = 0.980086, Final residual = 1.76406e-05, No Iterations 1001
time step continuity errors : sum local = 1.71803e-05, global = -1.20891e-17, cumulative = 1.23654e-16
DICPCG:  Solving for p, Initial residual = 0.900054, Final residual = 1.60612e-05, No Iterations 1001
time step continuity errors : sum local = 1.65406e-05, global = 4.61104e-20, cumulative = 1.237e-16
ExecutionTime = 1133.61 s  ClockTime = 1134 s

Time = 0.5082

Courant Number mean: 6.28973 max: 158.39
smoothSolver:  Solving for Ux, Initial residual = 0.791662, Final residual = 9.77981e-06, No Iterations 323
smoothSolver:  Solving for Uy, Initial residual = 0.808686, Final residual = 9.77344e-06, No Iterations 323
DICPCG:  Solving for p, Initial residual = 0.97915, Final residual = 2.19069e-05, No Iterations 1001
time step continuity errors : sum local = 2.07423e-05, global = 3.42487e-17, cumulative = 1.57949e-16
DICPCG:  Solving for p, Initial residual = 0.902613, Final residual = 2.0382e-05, No Iterations 1001
time step continuity errors : sum local = 2.03325e-05, global = 1.36122e-18, cumulative = 1.5931e-16
ExecutionTime = 1147.97 s  ClockTime = 1148 s

Time = 0.5083

Courant Number mean: 6.48567 max: 179.584
smoothSolver:  Solving for Ux, Initial residual = 0.79832, Final residual = 9.89037e-06, No Iterations 318
smoothSolver:  Solving for Uy, Initial residual = 0.796983, Final residual = 9.97893e-06, No Iterations 321
DICPCG:  Solving for p, Initial residual = 0.979872, Final residual = 1.54421e-05, No Iterations 1001
time step continuity errors : sum local = 1.48296e-05, global = -2.30323e-17, cumulative = 1.36278e-16
DICPCG:  Solving for p, Initial residual = 0.895039, Final residual = 1.4141e-05, No Iterations 1001
time step continuity errors : sum local = 1.4443e-05, global = 1.28769e-19, cumulative = 1.36406e-16
ExecutionTime = 1162.39 s  ClockTime = 1163 s

Time = 0.5084

Courant Number mean: 6.43141 max: 165.404
smoothSolver:  Solving for Ux, Initial residual = 0.793876, Final residual = 9.7022e-06, No Iterations 324
smoothSolver:  Solving for Uy, Initial residual = 0.809901, Final residual = 9.91121e-06, No Iterations 322
DICPCG:  Solving for p, Initial residual = 0.979022, Final residual = 1.86475e-05, No Iterations 1001
time step continuity errors : sum local = 1.76782e-05, global = 2.684e-17, cumulative = 1.63246e-16
DICPCG:  Solving for p, Initial residual = 0.906782, Final residual = 1.74551e-05, No Iterations 1001
time step continuity errors : sum local = 1.73843e-05, global = 5.15764e-19, cumulative = 1.63762e-16
ExecutionTime = 1176.92 s  ClockTime = 1177 s

Time = 0.5085

Courant Number mean: 6.59671 max: 170.17
smoothSolver:  Solving for Ux, Initial residual = 0.797896, Final residual = 9.89683e-06, No Iterations 319
smoothSolver:  Solving for Uy, Initial residual = 0.810005, Final residual = 9.82321e-06, No Iterations 324
DICPCG:  Solving for p, Initial residual = 0.97991, Final residual = 1.64954e-05, No Iterations 1001
time step continuity errors : sum local = 1.58782e-05, global = 6.14167e-18, cumulative = 1.69904e-16
DICPCG:  Solving for p, Initial residual = 0.900657, Final residual = 1.51299e-05, No Iterations 1001
time step continuity errors : sum local = 1.54022e-05, global = -9.74452e-19, cumulative = 1.68929e-16
ExecutionTime = 1191.38 s  ClockTime = 1192 s

Time = 0.5086

Courant Number mean: 6.17167 max: 149.866
smoothSolver:  Solving for Ux, Initial residual = 0.792802, Final residual = 9.83385e-06, No Iterations 321
smoothSolver:  Solving for Uy, Initial residual = 0.816148, Final residual = 9.83155e-06, No Iterations 323
DICPCG:  Solving for p, Initial residual = 0.979275, Final residual = 1.71505e-05, No Iterations 1001
time step continuity errors : sum local = 1.60071e-05, global = -1.01701e-16, cumulative = 6.72286e-17
DICPCG:  Solving for p, Initial residual = 0.904255, Final residual = 1.57607e-05, No Iterations 1001
time step continuity errors : sum local = 1.54783e-05, global = -1.24812e-19, cumulative = 6.71038e-17
ExecutionTime = 1205.91 s  ClockTime = 1206 s

Time = 0.5087

Courant Number mean: 6.22691 max: 156.269
smoothSolver:  Solving for Ux, Initial residual = 0.805585, Final residual = 9.81742e-06, No Iterations 320
smoothSolver:  Solving for Uy, Initial residual = 0.807398, Final residual = 9.76566e-06, No Iterations 325
DICPCG:  Solving for p, Initial residual = 0.979134, Final residual = 2.26259e-05, No Iterations 1001
time step continuity errors : sum local = 2.12688e-05, global = 1.66909e-17, cumulative = 8.37947e-17
DICPCG:  Solving for p, Initial residual = 0.895495, Final residual = 2.06132e-05, No Iterations 1001
time step continuity errors : sum local = 2.05964e-05, global = -2.22193e-18, cumulative = 8.15727e-17
ExecutionTime = 1220.38 s  ClockTime = 1221 s

Time = 0.5088

Courant Number mean: 6.07487 max: 150.702
smoothSolver:  Solving for Ux, Initial residual = 0.800384, Final residual = 9.92658e-06, No Iterations 325
smoothSolver:  Solving for Uy, Initial residual = 0.814525, Final residual = 9.82242e-06, No Iterations 327
DICPCG:  Solving for p, Initial residual = 0.978526, Final residual = 1.39511e-05, No Iterations 1001
time step continuity errors : sum local = 1.2858e-05, global = -2.0498e-17, cumulative = 6.10747e-17
DICPCG:  Solving for p, Initial residual = 0.903102, Final residual = 1.27614e-05, No Iterations 1001
time step continuity errors : sum local = 1.23935e-05, global = 8.27862e-19, cumulative = 6.19026e-17
ExecutionTime = 1234.8 s  ClockTime = 1235 s

Time = 0.5089

Courant Number mean: 6.36617 max: 181.988
smoothSolver:  Solving for Ux, Initial residual = 0.805249, Final residual = 9.72157e-06, No Iterations 322
smoothSolver:  Solving for Uy, Initial residual = 0.80808, Final residual = 9.81223e-06, No Iterations 327
DICPCG:  Solving for p, Initial residual = 0.979951, Final residual = 1.38365e-05, No Iterations 1001
time step continuity errors : sum local = 1.30453e-05, global = -1.13368e-17, cumulative = 5.05658e-17
DICPCG:  Solving for p, Initial residual = 0.894621, Final residual = 1.25075e-05, No Iterations 1001
time step continuity errors : sum local = 1.25609e-05, global = 1.23415e-18, cumulative = 5.17999e-17
ExecutionTime = 1249.09 s  ClockTime = 1249 s

Time = 0.509

Courant Number mean: 5.83393 max: 163.146
smoothSolver:  Solving for Ux, Initial residual = 0.797859, Final residual = 9.95777e-06, No Iterations 321
smoothSolver:  Solving for Uy, Initial residual = 0.822114, Final residual = 9.8641e-06, No Iterations 326
DICPCG:  Solving for p, Initial residual = 0.979385, Final residual = 3.17224e-05, No Iterations 1001
time step continuity errors : sum local = 2.97948e-05, global = 3.55764e-18, cumulative = 5.53576e-17
DICPCG:  Solving for p, Initial residual = 0.901239, Final residual = 2.95326e-05, No Iterations 1001
time step continuity errors : sum local = 2.93217e-05, global = 7.47877e-19, cumulative = 5.61054e-17
ExecutionTime = 1263.63 s  ClockTime = 1264 s

Time = 0.5091

Courant Number mean: 6.10877 max: 152.457
smoothSolver:  Solving for Ux, Initial residual = 0.810295, Final residual = 9.99105e-06, No Iterations 322
smoothSolver:  Solving for Uy, Initial residual = 0.818282, Final residual = 9.76742e-06, No Iterations 327
DICPCG:  Solving for p, Initial residual = 0.980459, Final residual = 2.11601e-05, No Iterations 1001
time step continuity errors : sum local = 2.06351e-05, global = -5.85615e-17, cumulative = -2.4561e-18
DICPCG:  Solving for p, Initial residual = 0.894206, Final residual = 1.9067e-05, No Iterations 1001
time step continuity errors : sum local = 1.98256e-05, global = -1.01771e-18, cumulative = -3.47381e-18
ExecutionTime = 1277.84 s  ClockTime = 1278 s

Time = 0.5092

Courant Number mean: 6.14627 max: 196.841
smoothSolver:  Solving for Ux, Initial residual = 0.801043, Final residual = 9.82684e-06, No Iterations 324
smoothSolver:  Solving for Uy, Initial residual = 0.820307, Final residual = 9.85675e-06, No Iterations 328
DICPCG:  Solving for p, Initial residual = 0.97973, Final residual = 3.69334e-05, No Iterations 1001
time step continuity errors : sum local = 3.54128e-05, global = 3.54324e-18, cumulative = 6.94369e-20
DICPCG:  Solving for p, Initial residual = 0.900367, Final residual = 3.44855e-05, No Iterations 1001
time step continuity errors : sum local = 3.50098e-05, global = -6.91338e-19, cumulative = -6.21901e-19
ExecutionTime = 1292.31 s  ClockTime = 1293 s

Time = 0.5093

Courant Number mean: 6.34002 max: 149.816
smoothSolver:  Solving for Ux, Initial residual = 0.806459, Final residual = 9.93236e-06, No Iterations 321
smoothSolver:  Solving for Uy, Initial residual = 0.813675, Final residual = 9.70224e-06, No Iterations 324
DICPCG:  Solving for p, Initial residual = 0.978827, Final residual = 1.33263e-05, No Iterations 1001
time step continuity errors : sum local = 1.29922e-05, global = -3.36067e-17, cumulative = -3.42286e-17
DICPCG:  Solving for p, Initial residual = 0.891443, Final residual = 1.20668e-05, No Iterations 1001
time step continuity errors : sum local = 1.2564e-05, global = 1.98881e-18, cumulative = -3.22398e-17
ExecutionTime = 1306.82 s  ClockTime = 1307 s

Time = 0.5094

Courant Number mean: 6.11921 max: 146.749
smoothSolver:  Solving for Ux, Initial residual = 0.799614, Final residual = 9.78183e-06, No Iterations 322
smoothSolver:  Solving for Uy, Initial residual = 0.819625, Final residual = 9.90582e-06, No Iterations 326
DICPCG:  Solving for p, Initial residual = 0.979224, Final residual = 3.95687e-05, No Iterations 1001
time step continuity errors : sum local = 3.86187e-05, global = -2.34732e-17, cumulative = -5.5713e-17
DICPCG:  Solving for p, Initial residual = 0.89916, Final residual = 3.70577e-05, No Iterations 1001
time step continuity errors : sum local = 3.82856e-05, global = -4.19546e-19, cumulative = -5.61325e-17
ExecutionTime = 1321.2 s  ClockTime = 1322 s

Time = 0.5095

Courant Number mean: 6.33521 max: 165.063
smoothSolver:  Solving for Ux, Initial residual = 0.806469, Final residual = 9.93125e-06, No Iterations 323
smoothSolver:  Solving for Uy, Initial residual = 0.818487, Final residual = 9.87888e-06, No Iterations 327
DICPCG:  Solving for p, Initial residual = 0.979723, Final residual = 1.99345e-05, No Iterations 1001
time step continuity errors : sum local = 1.96726e-05, global = 2.9084e-17, cumulative = -2.70485e-17
DICPCG:  Solving for p, Initial residual = 0.889026, Final residual = 1.82147e-05, No Iterations 1001
time step continuity errors : sum local = 1.92438e-05, global = 9.55162e-19, cumulative = -2.60934e-17
ExecutionTime = 1335.54 s  ClockTime = 1336 s

Time = 0.5096

Courant Number mean: 6.19629 max: 153.55
smoothSolver:  Solving for Ux, Initial residual = 0.80302, Final residual = 9.94506e-06, No Iterations 323
smoothSolver:  Solving for Uy, Initial residual = 0.820905, Final residual = 9.93554e-06, No Iterations 325
DICPCG:  Solving for p, Initial residual = 0.979332, Final residual = 3.57505e-05, No Iterations 1001
time step continuity errors : sum local = 3.56382e-05, global = -3.22087e-17, cumulative = -5.83021e-17
DICPCG:  Solving for p, Initial residual = 0.899343, Final residual = 3.35911e-05, No Iterations 1001
time step continuity errors : sum local = 3.54491e-05, global = -2.44316e-19, cumulative = -5.85464e-17
ExecutionTime = 1350.02 s  ClockTime = 1350 s

Time = 0.5097

Courant Number mean: 6.46779 max: 160.65
smoothSolver:  Solving for Ux, Initial residual = 0.812257, Final residual = 9.86084e-06, No Iterations 326
smoothSolver:  Solving for Uy, Initial residual = 0.815023, Final residual = 9.91037e-06, No Iterations 323
DICPCG:  Solving for p, Initial residual = 0.98006, Final residual = 1.52719e-05, No Iterations 1001
time step continuity errors : sum local = 1.55868e-05, global = -4.25692e-17, cumulative = -1.01116e-16
DICPCG:  Solving for p, Initial residual = 0.897142, Final residual = 1.39497e-05, No Iterations 1001
time step continuity errors : sum local = 1.51389e-05, global = -6.82384e-19, cumulative = -1.01798e-16
ExecutionTime = 1364.56 s  ClockTime = 1365 s

Time = 0.5098

Courant Number mean: 6.28907 max: 155.895
smoothSolver:  Solving for Ux, Initial residual = 0.814488, Final residual = 9.936e-06, No Iterations 322
smoothSolver:  Solving for Uy, Initial residual = 0.81967, Final residual = 9.88617e-06, No Iterations 323
DICPCG:  Solving for p, Initial residual = 0.979548, Final residual = 1.79412e-05, No Iterations 1001
time step continuity errors : sum local = 1.80694e-05, global = -3.72595e-18, cumulative = -1.05524e-16
DICPCG:  Solving for p, Initial residual = 0.904495, Final residual = 1.67566e-05, No Iterations 1001
time step continuity errors : sum local = 1.77979e-05, global = 1.86427e-19, cumulative = -1.05338e-16
ExecutionTime = 1379.1 s  ClockTime = 1379 s

Time = 0.5099

Courant Number mean: 6.75412 max: 136.312
smoothSolver:  Solving for Ux, Initial residual = 0.811005, Final residual = 9.85159e-06, No Iterations 322
smoothSolver:  Solving for Uy, Initial residual = 0.813893, Final residual = 9.98335e-06, No Iterations 320
DICPCG:  Solving for p, Initial residual = 0.980165, Final residual = 1.3261e-05, No Iterations 1001
time step continuity errors : sum local = 1.37442e-05, global = 3.41548e-17, cumulative = -7.11827e-17
DICPCG:  Solving for p, Initial residual = 0.898653, Final residual = 1.21776e-05, No Iterations 1001
time step continuity errors : sum local = 1.34064e-05, global = -1.26809e-18, cumulative = -7.24508e-17
ExecutionTime = 1393.41 s  ClockTime = 1394 s

Time = 0.51

Courant Number mean: 6.75076 max: 147.838
smoothSolver:  Solving for Ux, Initial residual = 0.805542, Final residual = 9.93271e-06, No Iterations 321
smoothSolver:  Solving for Uy, Initial residual = 0.815849, Final residual = 9.90002e-06, No Iterations 324
DICPCG:  Solving for p, Initial residual = 0.979947, Final residual = 1.57944e-05, No Iterations 1001
time step continuity errors : sum local = 1.61935e-05, global = 4.90326e-17, cumulative = -2.34182e-17
DICPCG:  Solving for p, Initial residual = 0.908068, Final residual = 1.46973e-05, No Iterations 1001
time step continuity errors : sum local = 1.58342e-05, global = -8.06322e-19, cumulative = -2.42246e-17
ExecutionTime = 1408.05 s  ClockTime = 1408 s

End

Finalising parallel run
