/*---------------------------------------------------------------------------*\
| =========                 |                                                 |
| \\      /  F ield         | OpenFOAM: The Open Source CFD Toolbox           |
|  \\    /   O peration     | Version:  2.3.0                                 |
|   \\  /    A nd           | Web:      www.OpenFOAM.org                      |
|    \\/     M anipulation  |                                                 |
\*---------------------------------------------------------------------------*/
Build  : 2.3.0
Exec   : icoFoam -parallel
Date   : Oct 09 2014
Time   : 00:36:45
Host   : "hpc01"
PID    : 538
Case   : /home/bobo/OpenFOAM/experiment/incompressible/icoFoam/cavity1
nProcs : 6
Slaves : 
5
(
"hpc01.539"
"hpc01.540"
"hpc01.541"
"hpc01.542"
"hpc01.543"
)

Pstream initialized with:
    floatTransfer      : 0
    nProcsSimpleSum    : 0
    commsType          : nonBlocking
    polling iterations : 0
fileModificationChecking : Monitoring run-time modified files using timeStampMaster
allowSystemOperations : Disallowing user-supplied system call operations

// * * * * * * * * * * * * * * * * * * * * * * * * * * * * * * * * * * * * * //
Create time

Create mesh for time = 0.5

Reading transportProperties

Reading field p

Reading field U

Reading/calculating face flux field phi


Starting time loop

Time = 0.5001

Courant Number mean: 0.0595081 max: 0.352
smoothSolver:  Solving for Ux, Initial residual = 0.395839, Final residual = 9.97567e-06, No Iterations 213
smoothSolver:  Solving for Uy, Initial residual = 0.459956, Final residual = 9.73274e-06, No Iterations 238
DICPCG:  Solving for p, Initial residual = 0.968205, Final residual = 1.85351e-05, No Iterations 1001
time step continuity errors : sum local = 5.80977e-09, global = 5.22536e-21, cumulative = 5.22536e-21
DICPCG:  Solving for p, Initial residual = 0.917835, Final residual = 1.84915e-05, No Iterations 1001
time step continuity errors : sum local = 5.51025e-09, global = -1.18261e-24, cumulative = 5.22418e-21
ExecutionTime = 12.62 s  ClockTime = 13 s

Time = 0.5002

Courant Number mean: 0.0629131 max: 0.578307
smoothSolver:  Solving for Ux, Initial residual = 0.0495265, Final residual = 9.9562e-06, No Iterations 256
smoothSolver:  Solving for Uy, Initial residual = 0.128353, Final residual = 9.9938e-06, No Iterations 299
DICPCG:  Solving for p, Initial residual = 0.972276, Final residual = 2.9066e-05, No Iterations 1001
time step continuity errors : sum local = 8.89006e-09, global = -1.07064e-20, cumulative = -5.48225e-21
DICPCG:  Solving for p, Initial residual = 0.936428, Final residual = 2.80717e-05, No Iterations 1001
time step continuity errors : sum local = 8.53039e-09, global = -5.26692e-21, cumulative = -1.07492e-20
ExecutionTime = 24.71 s  ClockTime = 25 s

Time = 0.5003

Courant Number mean: 0.0650396 max: 0.680961
smoothSolver:  Solving for Ux, Initial residual = 0.0326764, Final residual = 9.85121e-06, No Iterations 238
smoothSolver:  Solving for Uy, Initial residual = 0.115609, Final residual = 9.76599e-06, No Iterations 266
DICPCG:  Solving for p, Initial residual = 0.973551, Final residual = 4.02016e-05, No Iterations 1001
time step continuity errors : sum local = 1.01048e-08, global = -1.65732e-20, cumulative = -2.73224e-20
DICPCG:  Solving for p, Initial residual = 0.941303, Final residual = 3.88651e-05, No Iterations 1001
time step continuity errors : sum local = 9.67972e-09, global = -3.79432e-21, cumulative = -3.11167e-20
ExecutionTime = 36.63 s  ClockTime = 37 s

Time = 0.5004

Courant Number mean: 0.0664729 max: 0.594301
smoothSolver:  Solving for Ux, Initial residual = 0.0330484, Final residual = 9.88165e-06, No Iterations 229
smoothSolver:  Solving for Uy, Initial residual = 0.123947, Final residual = 9.77398e-06, No Iterations 276
DICPCG:  Solving for p, Initial residual = 0.974546, Final residual = 4.61698e-05, No Iterations 1001
time step continuity errors : sum local = 1.14179e-08, global = -1.49562e-20, cumulative = -4.60729e-20
DICPCG:  Solving for p, Initial residual = 0.927979, Final residual = 4.42581e-05, No Iterations 1001
time step continuity errors : sum local = 1.10096e-08, global = -2.54244e-21, cumulative = -4.86154e-20
ExecutionTime = 48.99 s  ClockTime = 49 s

Time = 0.5005

Courant Number mean: 0.0680455 max: 0.788775
smoothSolver:  Solving for Ux, Initial residual = 0.0382324, Final residual = 9.78432e-06, No Iterations 233
smoothSolver:  Solving for Uy, Initial residual = 0.146866, Final residual = 9.85299e-06, No Iterations 270
DICPCG:  Solving for p, Initial residual = 0.979298, Final residual = 4.48533e-05, No Iterations 1001
time step continuity errors : sum local = 1.25217e-08, global = -1.70326e-20, cumulative = -6.5648e-20
DICPCG:  Solving for p, Initial residual = 0.941793, Final residual = 4.35456e-05, No Iterations 1001
time step continuity errors : sum local = 1.21254e-08, global = -1.68649e-20, cumulative = -8.25129e-20
ExecutionTime = 61.14 s  ClockTime = 61 s

Time = 0.5006

Courant Number mean: 0.0690013 max: 0.611923
smoothSolver:  Solving for Ux, Initial residual = 0.0481136, Final residual = 9.95467e-06, No Iterations 231
smoothSolver:  Solving for Uy, Initial residual = 0.176676, Final residual = 9.75261e-06, No Iterations 273
DICPCG:  Solving for p, Initial residual = 0.982366, Final residual = 4.34594e-05, No Iterations 1001
time step continuity errors : sum local = 1.49824e-08, global = 1.22955e-21, cumulative = -8.12833e-20
DICPCG:  Solving for p, Initial residual = 0.93522, Final residual = 4.17397e-05, No Iterations 1001
time step continuity errors : sum local = 1.4532e-08, global = -9.80077e-21, cumulative = -9.10841e-20
ExecutionTime = 73.97 s  ClockTime = 74 s

Time = 0.5007

Courant Number mean: 0.0707072 max: 1.02442
smoothSolver:  Solving for Ux, Initial residual = 0.0607426, Final residual = 9.93991e-06, No Iterations 235
smoothSolver:  Solving for Uy, Initial residual = 0.222707, Final residual = 9.83791e-06, No Iterations 274
DICPCG:  Solving for p, Initial residual = 0.985376, Final residual = 3.99737e-05, No Iterations 1001
time step continuity errors : sum local = 1.79436e-08, global = 2.25975e-22, cumulative = -9.08581e-20
DICPCG:  Solving for p, Initial residual = 0.946653, Final residual = 3.85696e-05, No Iterations 1001
time step continuity errors : sum local = 1.73619e-08, global = 2.40821e-21, cumulative = -8.84499e-20
ExecutionTime = 86.11 s  ClockTime = 86 s

Time = 0.5008

Courant Number mean: 0.0713602 max: 0.734178
smoothSolver:  Solving for Ux, Initial residual = 0.0807676, Final residual = 9.82424e-06, No Iterations 239
smoothSolver:  Solving for Uy, Initial residual = 0.267372, Final residual = 9.78189e-06, No Iterations 276
DICPCG:  Solving for p, Initial residual = 0.987765, Final residual = 3.85395e-05, No Iterations 1001
time step continuity errors : sum local = 2.30892e-08, global = 7.31512e-21, cumulative = -8.11348e-20
DICPCG:  Solving for p, Initial residual = 0.942834, Final residual = 3.70517e-05, No Iterations 1001
time step continuity errors : sum local = 2.2432e-08, global = -1.45059e-20, cumulative = -9.56407e-20
ExecutionTime = 99.39 s  ClockTime = 100 s

Time = 0.5009

Courant Number mean: 0.0736222 max: 1.45495
smoothSolver:  Solving for Ux, Initial residual = 0.102375, Final residual = 9.71158e-06, No Iterations 243
smoothSolver:  Solving for Uy, Initial residual = 0.330527, Final residual = 9.79587e-06, No Iterations 279
DICPCG:  Solving for p, Initial residual = 0.988738, Final residual = 3.6477e-05, No Iterations 1001
time step continuity errors : sum local = 2.96402e-08, global = -1.47486e-21, cumulative = -9.71156e-20
DICPCG:  Solving for p, Initial residual = 0.949078, Final residual = 3.52828e-05, No Iterations 1001
time step continuity errors : sum local = 2.88249e-08, global = 3.93826e-21, cumulative = -9.31773e-20
ExecutionTime = 116.75 s  ClockTime = 117 s

Time = 0.501

Courant Number mean: 0.0743086 max: 1.3064
smoothSolver:  Solving for Ux, Initial residual = 0.138951, Final residual = 9.97943e-06, No Iterations 248
smoothSolver:  Solving for Uy, Initial residual = 0.387999, Final residual = 9.72308e-06, No Iterations 281
DICPCG:  Solving for p, Initial residual = 0.990626, Final residual = 3.45493e-05, No Iterations 1001
time step continuity errors : sum local = 3.82587e-08, global = 1.05073e-21, cumulative = -9.21266e-20
DICPCG:  Solving for p, Initial residual = 0.947171, Final residual = 3.32946e-05, No Iterations 1001
time step continuity errors : sum local = 3.72321e-08, global = -1.06132e-20, cumulative = -1.0274e-19
ExecutionTime = 133.48 s  ClockTime = 134 s

Time = 0.5011

Courant Number mean: 0.0774129 max: 2.24088
smoothSolver:  Solving for Ux, Initial residual = 0.171179, Final residual = 9.80413e-06, No Iterations 252
smoothSolver:  Solving for Uy, Initial residual = 0.457863, Final residual = 9.97532e-06, No Iterations 283
DICPCG:  Solving for p, Initial residual = 0.990416, Final residual = 3.32961e-05, No Iterations 1001
time step continuity errors : sum local = 5.05173e-08, global = 1.64344e-20, cumulative = -8.63054e-20
DICPCG:  Solving for p, Initial residual = 0.950107, Final residual = 3.21377e-05, No Iterations 1001
time step continuity errors : sum local = 4.90893e-08, global = -5.70868e-21, cumulative = -9.20141e-20
ExecutionTime = 149.62 s  ClockTime = 150 s

Time = 0.5012

Courant Number mean: 0.0788103 max: 2.35415
smoothSolver:  Solving for Ux, Initial residual = 0.22958, Final residual = 9.97597e-06, No Iterations 258
smoothSolver:  Solving for Uy, Initial residual = 0.518289, Final residual = 9.76791e-06, No Iterations 285
DICPCG:  Solving for p, Initial residual = 0.991945, Final residual = 3.14887e-05, No Iterations 1001
time step continuity errors : sum local = 6.54616e-08, global = -1.52831e-20, cumulative = -1.07297e-19
DICPCG:  Solving for p, Initial residual = 0.949282, Final residual = 3.02657e-05, No Iterations 1001
time step continuity errors : sum local = 6.34998e-08, global = -2.00723e-20, cumulative = -1.27369e-19
ExecutionTime = 165.77 s  ClockTime = 166 s

Time = 0.5013

Courant Number mean: 0.0830976 max: 3.68008
smoothSolver:  Solving for Ux, Initial residual = 0.27356, Final residual = 9.96566e-06, No Iterations 261
smoothSolver:  Solving for Uy, Initial residual = 0.581486, Final residual = 9.78869e-06, No Iterations 287
DICPCG:  Solving for p, Initial residual = 0.991348, Final residual = 3.1172e-05, No Iterations 1001
time step continuity errors : sum local = 8.90283e-08, global = -1.99413e-20, cumulative = -1.47311e-19
DICPCG:  Solving for p, Initial residual = 0.950487, Final residual = 2.98824e-05, No Iterations 1001
time step continuity errors : sum local = 8.59837e-08, global = 1.68738e-20, cumulative = -1.30437e-19
ExecutionTime = 182.03 s  ClockTime = 182 s

Time = 0.5014

Courant Number mean: 0.0862535 max: 4.29509
smoothSolver:  Solving for Ux, Initial residual = 0.353653, Final residual = 9.73562e-06, No Iterations 268
smoothSolver:  Solving for Uy, Initial residual = 0.633969, Final residual = 9.91586e-06, No Iterations 287
DICPCG:  Solving for p, Initial residual = 0.992221, Final residual = 2.91471e-05, No Iterations 1001
time step continuity errors : sum local = 1.14127e-07, global = -1.4546e-20, cumulative = -1.44983e-19
DICPCG:  Solving for p, Initial residual = 0.95009, Final residual = 2.79089e-05, No Iterations 1001
time step continuity errors : sum local = 1.10245e-07, global = -9.87219e-21, cumulative = -1.54855e-19
ExecutionTime = 198.36 s  ClockTime = 199 s

Time = 0.5015

Courant Number mean: 0.0927848 max: 6.30844
smoothSolver:  Solving for Ux, Initial residual = 0.405719, Final residual = 9.77585e-06, No Iterations 270
smoothSolver:  Solving for Uy, Initial residual = 0.681356, Final residual = 9.74889e-06, No Iterations 289
DICPCG:  Solving for p, Initial residual = 0.991691, Final residual = 2.97439e-05, No Iterations 1001
time step continuity errors : sum local = 1.59954e-07, global = 2.10662e-21, cumulative = -1.52748e-19
DICPCG:  Solving for p, Initial residual = 0.950474, Final residual = 2.8489e-05, No Iterations 1001
time step continuity errors : sum local = 1.54424e-07, global = -1.25709e-20, cumulative = -1.65319e-19
ExecutionTime = 214.68 s  ClockTime = 215 s

Time = 0.5016

Courant Number mean: 0.0992755 max: 7.88584
smoothSolver:  Solving for Ux, Initial residual = 0.493434, Final residual = 9.92151e-06, No Iterations 275
smoothSolver:  Solving for Uy, Initial residual = 0.719699, Final residual = 9.77589e-06, No Iterations 288
DICPCG:  Solving for p, Initial residual = 0.99206, Final residual = 2.68404e-05, No Iterations 1001
time step continuity errors : sum local = 1.97865e-07, global = -2.06247e-20, cumulative = -1.85944e-19
DICPCG:  Solving for p, Initial residual = 0.950193, Final residual = 2.57966e-05, No Iterations 1001
time step continuity errors : sum local = 1.9183e-07, global = -1.25667e-20, cumulative = -1.98511e-19
ExecutionTime = 230.98 s  ClockTime = 231 s

Time = 0.5017

Courant Number mean: 0.110525 max: 11.0912
smoothSolver:  Solving for Ux, Initial residual = 0.541874, Final residual = 9.78959e-06, No Iterations 276
smoothSolver:  Solving for Uy, Initial residual = 0.750112, Final residual = 9.91345e-06, No Iterations 289
DICPCG:  Solving for p, Initial residual = 0.991577, Final residual = 2.80539e-05, No Iterations 1001
time step continuity errors : sum local = 2.84047e-07, global = -8.58444e-20, cumulative = -2.84355e-19
DICPCG:  Solving for p, Initial residual = 0.950245, Final residual = 2.69652e-05, No Iterations 1001
time step continuity errors : sum local = 2.75312e-07, global = 4.57183e-20, cumulative = -2.38637e-19
ExecutionTime = 247.39 s  ClockTime = 248 s

Time = 0.5018

Courant Number mean: 0.123591 max: 14.4973
smoothSolver:  Solving for Ux, Initial residual = 0.618819, Final residual = 9.69907e-06, No Iterations 281
smoothSolver:  Solving for Uy, Initial residual = 0.774112, Final residual = 9.69949e-06, No Iterations 287
DICPCG:  Solving for p, Initial residual = 0.991403, Final residual = 2.61277e-05, No Iterations 1001
time step continuity errors : sum local = 3.62701e-07, global = -3.6939e-20, cumulative = -2.75576e-19
DICPCG:  Solving for p, Initial residual = 0.949834, Final residual = 2.50731e-05, No Iterations 1001
time step continuity errors : sum local = 3.51145e-07, global = -1.42358e-20, cumulative = -2.89812e-19
ExecutionTime = 263.9 s  ClockTime = 264 s

Time = 0.5019

Courant Number mean: 0.143341 max: 19.8831
smoothSolver:  Solving for Ux, Initial residual = 0.656562, Final residual = 9.69887e-06, No Iterations 280
smoothSolver:  Solving for Uy, Initial residual = 0.792056, Final residual = 9.80432e-06, No Iterations 289
DICPCG:  Solving for p, Initial residual = 0.990761, Final residual = 2.57155e-05, No Iterations 1001
time step continuity errors : sum local = 4.90878e-07, global = -1.31596e-20, cumulative = -3.02971e-19
DICPCG:  Solving for p, Initial residual = 0.949641, Final residual = 2.48615e-05, No Iterations 1001
time step continuity errors : sum local = 4.78791e-07, global = 5.51498e-20, cumulative = -2.47822e-19
ExecutionTime = 280.2 s  ClockTime = 280 s

Time = 0.502

Courant Number mean: 0.169535 max: 26.4317
smoothSolver:  Solving for Ux, Initial residual = 0.712408, Final residual = 9.88491e-06, No Iterations 284
smoothSolver:  Solving for Uy, Initial residual = 0.805158, Final residual = 9.68858e-06, No Iterations 285
DICPCG:  Solving for p, Initial residual = 0.989989, Final residual = 2.75462e-05, No Iterations 1001
time step continuity errors : sum local = 7.21578e-07, global = -6.90026e-20, cumulative = -3.16824e-19
DICPCG:  Solving for p, Initial residual = 0.949292, Final residual = 2.63569e-05, No Iterations 1001
time step continuity errors : sum local = 6.96732e-07, global = -8.24414e-20, cumulative = -3.99265e-19
ExecutionTime = 296.53 s  ClockTime = 297 s

Time = 0.5021

Courant Number mean: 0.205368 max: 35.2643
smoothSolver:  Solving for Ux, Initial residual = 0.733909, Final residual = 9.98391e-06, No Iterations 280
smoothSolver:  Solving for Uy, Initial residual = 0.813949, Final residual = 9.85474e-06, No Iterations 288
DICPCG:  Solving for p, Initial residual = 0.989006, Final residual = 2.58513e-05, No Iterations 1001
time step continuity errors : sum local = 9.30682e-07, global = -6.4487e-20, cumulative = -4.63752e-19
DICPCG:  Solving for p, Initial residual = 0.949121, Final residual = 2.51075e-05, No Iterations 1001
time step continuity errors : sum local = 9.12195e-07, global = -3.97543e-20, cumulative = -5.03507e-19
ExecutionTime = 312.92 s  ClockTime = 313 s

Time = 0.5022

Courant Number mean: 0.254249 max: 46.1138
smoothSolver:  Solving for Ux, Initial residual = 0.768114, Final residual = 9.95958e-06, No Iterations 285
smoothSolver:  Solving for Uy, Initial residual = 0.820197, Final residual = 9.68226e-06, No Iterations 282
DICPCG:  Solving for p, Initial residual = 0.987705, Final residual = 2.56076e-05, No Iterations 1001
time step continuity errors : sum local = 1.25507e-06, global = 3.67792e-19, cumulative = -1.35715e-19
DICPCG:  Solving for p, Initial residual = 0.948754, Final residual = 2.43755e-05, No Iterations 1001
time step continuity errors : sum local = 1.2056e-06, global = -5.86248e-20, cumulative = -1.9434e-19
ExecutionTime = 329.39 s  ClockTime = 330 s

Time = 0.5023

Courant Number mean: 0.31767 max: 58.6466
smoothSolver:  Solving for Ux, Initial residual = 0.77725, Final residual = 9.88658e-06, No Iterations 278
smoothSolver:  Solving for Uy, Initial residual = 0.821745, Final residual = 9.95069e-06, No Iterations 285
DICPCG:  Solving for p, Initial residual = 0.986344, Final residual = 2.71509e-05, No Iterations 1001
time step continuity errors : sum local = 1.80038e-06, global = 2.28712e-19, cumulative = 3.43724e-20
DICPCG:  Solving for p, Initial residual = 0.948396, Final residual = 2.61616e-05, No Iterations 1001
time step continuity errors : sum local = 1.75038e-06, global = 2.75319e-20, cumulative = 6.19043e-20
ExecutionTime = 345.68 s  ClockTime = 346 s

Time = 0.5024

Courant Number mean: 0.395394 max: 72.517
smoothSolver:  Solving for Ux, Initial residual = 0.796656, Final residual = 9.86958e-06, No Iterations 284
smoothSolver:  Solving for Uy, Initial residual = 0.824598, Final residual = 9.82892e-06, No Iterations 280
DICPCG:  Solving for p, Initial residual = 0.984789, Final residual = 2.06191e-05, No Iterations 1001
time step continuity errors : sum local = 1.81884e-06, global = 3.55512e-19, cumulative = 4.17417e-19
DICPCG:  Solving for p, Initial residual = 0.948052, Final residual = 2.00367e-05, No Iterations 1001
time step continuity errors : sum local = 1.78288e-06, global = -6.6009e-21, cumulative = 4.10816e-19
ExecutionTime = 362.01 s  ClockTime = 362 s

Time = 0.5025

Courant Number mean: 0.493092 max: 87.1976
smoothSolver:  Solving for Ux, Initial residual = 0.799539, Final residual = 9.7737e-06, No Iterations 279
smoothSolver:  Solving for Uy, Initial residual = 0.823935, Final residual = 9.83892e-06, No Iterations 285
DICPCG:  Solving for p, Initial residual = 0.983489, Final residual = 2.67749e-05, No Iterations 1001
time step continuity errors : sum local = 3.09741e-06, global = 7.59021e-21, cumulative = 4.18406e-19
DICPCG:  Solving for p, Initial residual = 0.947958, Final residual = 2.57329e-05, No Iterations 1001
time step continuity errors : sum local = 3.00145e-06, global = 7.70251e-19, cumulative = 1.18866e-18
ExecutionTime = 378.19 s  ClockTime = 379 s

Time = 0.5026

Courant Number mean: 0.609942 max: 103.893
smoothSolver:  Solving for Ux, Initial residual = 0.807785, Final residual = 9.74381e-06, No Iterations 286
smoothSolver:  Solving for Uy, Initial residual = 0.823778, Final residual = 9.73099e-06, No Iterations 283
DICPCG:  Solving for p, Initial residual = 0.982188, Final residual = 2.14248e-05, No Iterations 1001
time step continuity errors : sum local = 3.17567e-06, global = -2.94493e-19, cumulative = 8.94164e-19
DICPCG:  Solving for p, Initial residual = 0.948163, Final residual = 2.16915e-05, No Iterations 1001
time step continuity errors : sum local = 3.23976e-06, global = -1.94665e-19, cumulative = 6.99498e-19
ExecutionTime = 394.7 s  ClockTime = 395 s

Time = 0.5027

Courant Number mean: 0.77599 max: 123.535
smoothSolver:  Solving for Ux, Initial residual = 0.804381, Final residual = 9.83332e-06, No Iterations 280
smoothSolver:  Solving for Uy, Initial residual = 0.818162, Final residual = 9.77835e-06, No Iterations 286
DICPCG:  Solving for p, Initial residual = 0.981162, Final residual = 2.75226e-05, No Iterations 1001
time step continuity errors : sum local = 5.12661e-06, global = 2.53997e-19, cumulative = 9.53496e-19
DICPCG:  Solving for p, Initial residual = 0.948852, Final residual = 2.64824e-05, No Iterations 1001
time step continuity errors : sum local = 4.96747e-06, global = -1.05965e-19, cumulative = 8.47531e-19
ExecutionTime = 411.61 s  ClockTime = 412 s

Time = 0.5028

Courant Number mean: 0.973366 max: 144.976
smoothSolver:  Solving for Ux, Initial residual = 0.804828, Final residual = 9.88055e-06, No Iterations 286
smoothSolver:  Solving for Uy, Initial residual = 0.81498, Final residual = 9.76245e-06, No Iterations 283
DICPCG:  Solving for p, Initial residual = 0.980226, Final residual = 2.69542e-05, No Iterations 1001
time step continuity errors : sum local = 6.10597e-06, global = -2.83822e-20, cumulative = 8.19148e-19
DICPCG:  Solving for p, Initial residual = 0.949533, Final residual = 2.61474e-05, No Iterations 1001
time step continuity errors : sum local = 5.96004e-06, global = -6.73649e-19, cumulative = 1.45499e-19
ExecutionTime = 429.61 s  ClockTime = 430 s

Time = 0.5029

Courant Number mean: 1.21015 max: 162.122
smoothSolver:  Solving for Ux, Initial residual = 0.800154, Final residual = 9.96387e-06, No Iterations 281
smoothSolver:  Solving for Uy, Initial residual = 0.80757, Final residual = 9.97549e-06, No Iterations 285
DICPCG:  Solving for p, Initial residual = 0.979923, Final residual = 2.75206e-05, No Iterations 1001
time step continuity errors : sum local = 7.48752e-06, global = 2.93762e-19, cumulative = 4.39261e-19
DICPCG:  Solving for p, Initial residual = 0.95032, Final residual = 2.6784e-05, No Iterations 1001
time step continuity errors : sum local = 7.32778e-06, global = -8.18929e-19, cumulative = -3.79668e-19
ExecutionTime = 446.17 s  ClockTime = 447 s

Time = 0.503

Courant Number mean: 1.41783 max: 177.562
smoothSolver:  Solving for Ux, Initial residual = 0.79206, Final residual = 9.69552e-06, No Iterations 292
smoothSolver:  Solving for Uy, Initial residual = 0.800916, Final residual = 9.7164e-06, No Iterations 294
DICPCG:  Solving for p, Initial residual = 0.979587, Final residual = 2.14198e-05, No Iterations 1001
time step continuity errors : sum local = 6.82526e-06, global = -1.61348e-18, cumulative = -1.99315e-18
DICPCG:  Solving for p, Initial residual = 0.949025, Final residual = 2.12469e-05, No Iterations 1001
time step continuity errors : sum local = 6.81625e-06, global = -1.30443e-19, cumulative = -2.12359e-18
ExecutionTime = 462.7 s  ClockTime = 463 s

Time = 0.5031

Courant Number mean: 1.75387 max: 208.814
smoothSolver:  Solving for Ux, Initial residual = 0.788255, Final residual = 9.88522e-06, No Iterations 292
smoothSolver:  Solving for Uy, Initial residual = 0.787469, Final residual = 9.90951e-06, No Iterations 292
DICPCG:  Solving for p, Initial residual = 0.977453, Final residual = 3.9609e-05, No Iterations 1001
time step continuity errors : sum local = 1.34663e-05, global = 2.31151e-18, cumulative = 1.87924e-19
DICPCG:  Solving for p, Initial residual = 0.946068, Final residual = 3.83818e-05, No Iterations 1001
time step continuity errors : sum local = 1.31322e-05, global = 3.16711e-19, cumulative = 5.04634e-19
ExecutionTime = 479.18 s  ClockTime = 480 s

Time = 0.5032

Courant Number mean: 2.60339 max: 242.32
smoothSolver:  Solving for Ux, Initial residual = 0.783365, Final residual = 9.89152e-06, No Iterations 281
smoothSolver:  Solving for Uy, Initial residual = 0.785688, Final residual = 9.85589e-06, No Iterations 283
DICPCG:  Solving for p, Initial residual = 0.976283, Final residual = 4.45606e-05, No Iterations 1001
time step continuity errors : sum local = 1.48004e-05, global = -6.58092e-19, cumulative = -1.53457e-19
DICPCG:  Solving for p, Initial residual = 0.94256, Final residual = 4.3427e-05, No Iterations 1001
time step continuity errors : sum local = 1.4481e-05, global = 3.03143e-18, cumulative = 2.87797e-18
ExecutionTime = 495.58 s  ClockTime = 496 s

Time = 0.5033

Courant Number mean: 3.29687 max: 203.607
smoothSolver:  Solving for Ux, Initial residual = 0.73352, Final residual = 9.76538e-06, No Iterations 278
smoothSolver:  Solving for Uy, Initial residual = 0.756932, Final residual = 9.82808e-06, No Iterations 271
DICPCG:  Solving for p, Initial residual = 0.975709, Final residual = 3.29782e-05, No Iterations 1001
time step continuity errors : sum local = 1.13797e-05, global = 8.05264e-19, cumulative = 3.68323e-18
DICPCG:  Solving for p, Initial residual = 0.947424, Final residual = 3.21146e-05, No Iterations 1001
time step continuity errors : sum local = 1.10636e-05, global = -4.94482e-19, cumulative = 3.18875e-18
ExecutionTime = 511.8 s  ClockTime = 512 s

Time = 0.5034

Courant Number mean: 2.62257 max: 159.399
smoothSolver:  Solving for Ux, Initial residual = 0.759542, Final residual = 9.99046e-06, No Iterations 296
smoothSolver:  Solving for Uy, Initial residual = 0.75706, Final residual = 9.70478e-06, No Iterations 296
DICPCG:  Solving for p, Initial residual = 0.976208, Final residual = 2.66598e-05, No Iterations 1001
time step continuity errors : sum local = 8.3597e-06, global = -3.65415e-20, cumulative = 3.15221e-18
DICPCG:  Solving for p, Initial residual = 0.948731, Final residual = 2.59408e-05, No Iterations 1001
time step continuity errors : sum local = 8.08239e-06, global = 7.42927e-19, cumulative = 3.89514e-18
ExecutionTime = 528.4 s  ClockTime = 529 s

Time = 0.5035

Courant Number mean: 2.33332 max: 196.057
smoothSolver:  Solving for Ux, Initial residual = 0.747818, Final residual = 9.86386e-06, No Iterations 302
smoothSolver:  Solving for Uy, Initial residual = 0.7668, Final residual = 9.85727e-06, No Iterations 305
DICPCG:  Solving for p, Initial residual = 0.978866, Final residual = 3.77587e-05, No Iterations 1001
time step continuity errors : sum local = 9.46117e-06, global = -5.74632e-19, cumulative = 3.3205e-18
DICPCG:  Solving for p, Initial residual = 0.937947, Final residual = 3.7082e-05, No Iterations 1001
time step continuity errors : sum local = 9.23119e-06, global = -7.17768e-19, cumulative = 2.60274e-18
ExecutionTime = 545.25 s  ClockTime = 546 s

Time = 0.5036

Courant Number mean: 1.80967 max: 119.649
smoothSolver:  Solving for Ux, Initial residual = 0.761979, Final residual = 9.9016e-06, No Iterations 300
smoothSolver:  Solving for Uy, Initial residual = 0.749851, Final residual = 9.79809e-06, No Iterations 305
DICPCG:  Solving for p, Initial residual = 0.981493, Final residual = 2.9772e-05, No Iterations 1001
time step continuity errors : sum local = 7.06691e-06, global = 1.08844e-19, cumulative = 2.71158e-18
DICPCG:  Solving for p, Initial residual = 0.93848, Final residual = 2.89536e-05, No Iterations 1001
time step continuity errors : sum local = 6.85507e-06, global = -2.00303e-19, cumulative = 2.51128e-18
ExecutionTime = 561.84 s  ClockTime = 562 s

Time = 0.5037

Courant Number mean: 1.56324 max: 105.754
smoothSolver:  Solving for Ux, Initial residual = 0.770957, Final residual = 9.85223e-06, No Iterations 311
smoothSolver:  Solving for Uy, Initial residual = 0.789892, Final residual = 9.7584e-06, No Iterations 314
DICPCG:  Solving for p, Initial residual = 0.981311, Final residual = 3.20672e-05, No Iterations 1001
time step continuity errors : sum local = 7.54337e-06, global = -1.59877e-20, cumulative = 2.49529e-18
DICPCG:  Solving for p, Initial residual = 0.9393, Final residual = 3.11486e-05, No Iterations 1001
time step continuity errors : sum local = 7.34239e-06, global = -2.26753e-19, cumulative = 2.26853e-18
ExecutionTime = 578.36 s  ClockTime = 579 s

Time = 0.5038

Courant Number mean: 1.64901 max: 114.2
smoothSolver:  Solving for Ux, Initial residual = 0.807891, Final residual = 9.8448e-06, No Iterations 314
smoothSolver:  Solving for Uy, Initial residual = 0.798159, Final residual = 9.90085e-06, No Iterations 317
DICPCG:  Solving for p, Initial residual = 0.981012, Final residual = 3.07524e-05, No Iterations 1001
time step continuity errors : sum local = 8.08833e-06, global = 6.34368e-19, cumulative = 2.9029e-18
DICPCG:  Solving for p, Initial residual = 0.943339, Final residual = 2.95514e-05, No Iterations 1001
time step continuity errors : sum local = 7.80599e-06, global = -1.10875e-19, cumulative = 2.79203e-18
ExecutionTime = 595.02 s  ClockTime = 595 s

Time = 0.5039

Courant Number mean: 1.81773 max: 120.347
smoothSolver:  Solving for Ux, Initial residual = 0.799031, Final residual = 9.72224e-06, No Iterations 306
smoothSolver:  Solving for Uy, Initial residual = 0.812871, Final residual = 9.78963e-06, No Iterations 309
DICPCG:  Solving for p, Initial residual = 0.980675, Final residual = 2.98841e-05, No Iterations 1001
time step continuity errors : sum local = 9.0139e-06, global = 2.57154e-18, cumulative = 5.36357e-18
DICPCG:  Solving for p, Initial residual = 0.94678, Final residual = 2.86203e-05, No Iterations 1001
time step continuity errors : sum local = 8.68209e-06, global = -8.86341e-19, cumulative = 4.47723e-18
ExecutionTime = 611.56 s  ClockTime = 612 s

Time = 0.504

Courant Number mean: 2.09091 max: 106.277
smoothSolver:  Solving for Ux, Initial residual = 0.813662, Final residual = 9.9547e-06, No Iterations 311
smoothSolver:  Solving for Uy, Initial residual = 0.810854, Final residual = 9.96051e-06, No Iterations 306
DICPCG:  Solving for p, Initial residual = 0.980829, Final residual = 2.90568e-05, No Iterations 1001
time step continuity errors : sum local = 1.01387e-05, global = -2.23097e-18, cumulative = 2.24626e-18
DICPCG:  Solving for p, Initial residual = 0.948163, Final residual = 2.78666e-05, No Iterations 1001
time step continuity errors : sum local = 9.79479e-06, global = 8.74634e-19, cumulative = 3.12089e-18
ExecutionTime = 628.18 s  ClockTime = 629 s

Time = 0.5041

Courant Number mean: 2.50138 max: 139.471
smoothSolver:  Solving for Ux, Initial residual = 0.799843, Final residual = 9.92186e-06, No Iterations 307
smoothSolver:  Solving for Uy, Initial residual = 0.802784, Final residual = 9.98494e-06, No Iterations 309
DICPCG:  Solving for p, Initial residual = 0.981235, Final residual = 2.66511e-05, No Iterations 1001
time step continuity errors : sum local = 1.07266e-05, global = -2.67684e-18, cumulative = 4.44058e-19
DICPCG:  Solving for p, Initial residual = 0.94935, Final residual = 2.55826e-05, No Iterations 1001
time step continuity errors : sum local = 1.03768e-05, global = -7.56877e-19, cumulative = -3.12818e-19
ExecutionTime = 645.65 s  ClockTime = 646 s

Time = 0.5042

Courant Number mean: 2.84816 max: 143.314
smoothSolver:  Solving for Ux, Initial residual = 0.800332, Final residual = 9.87909e-06, No Iterations 306
smoothSolver:  Solving for Uy, Initial residual = 0.796817, Final residual = 9.77185e-06, No Iterations 307
DICPCG:  Solving for p, Initial residual = 0.979665, Final residual = 2.68061e-05, No Iterations 1001
time step continuity errors : sum local = 1.18766e-05, global = -6.97995e-19, cumulative = -1.01081e-18
DICPCG:  Solving for p, Initial residual = 0.946802, Final residual = 2.58195e-05, No Iterations 1001
time step continuity errors : sum local = 1.15388e-05, global = 4.01613e-19, cumulative = -6.09201e-19
ExecutionTime = 663.58 s  ClockTime = 664 s

Time = 0.5043

Courant Number mean: 3.35485 max: 155.3
smoothSolver:  Solving for Ux, Initial residual = 0.790235, Final residual = 9.75976e-06, No Iterations 300
smoothSolver:  Solving for Uy, Initial residual = 0.78365, Final residual = 9.78424e-06, No Iterations 309
DICPCG:  Solving for p, Initial residual = 0.980407, Final residual = 2.48119e-05, No Iterations 1001
time step continuity errors : sum local = 1.18559e-05, global = -1.1929e-17, cumulative = -1.25382e-17
DICPCG:  Solving for p, Initial residual = 0.947177, Final residual = 2.38659e-05, No Iterations 1001
time step continuity errors : sum local = 1.15e-05, global = -8.16672e-19, cumulative = -1.33549e-17
ExecutionTime = 680.84 s  ClockTime = 681 s

Time = 0.5044

Courant Number mean: 3.97469 max: 142.888
smoothSolver:  Solving for Ux, Initial residual = 0.774975, Final residual = 9.90809e-06, No Iterations 300
smoothSolver:  Solving for Uy, Initial residual = 0.784827, Final residual = 9.91054e-06, No Iterations 300
DICPCG:  Solving for p, Initial residual = 0.98041, Final residual = 2.63967e-05, No Iterations 1001
time step continuity errors : sum local = 1.32883e-05, global = 4.29366e-18, cumulative = -9.06124e-18
DICPCG:  Solving for p, Initial residual = 0.945901, Final residual = 2.53971e-05, No Iterations 1001
time step continuity errors : sum local = 1.2918e-05, global = -7.72315e-19, cumulative = -9.83355e-18
ExecutionTime = 697.18 s  ClockTime = 698 s

Time = 0.5045

Courant Number mean: 4.25861 max: 169.503
smoothSolver:  Solving for Ux, Initial residual = 0.759888, Final residual = 9.75123e-06, No Iterations 301
smoothSolver:  Solving for Uy, Initial residual = 0.764976, Final residual = 9.92694e-06, No Iterations 304
DICPCG:  Solving for p, Initial residual = 0.980833, Final residual = 2.16996e-05, No Iterations 1001
time step continuity errors : sum local = 1.11939e-05, global = -2.723e-18, cumulative = -1.25566e-17
DICPCG:  Solving for p, Initial residual = 0.943318, Final residual = 2.09742e-05, No Iterations 1001
time step continuity errors : sum local = 1.09337e-05, global = 3.24334e-19, cumulative = -1.22322e-17
ExecutionTime = 713.58 s  ClockTime = 714 s

Time = 0.5046

Courant Number mean: 4.03027 max: 147.755
smoothSolver:  Solving for Ux, Initial residual = 0.771956, Final residual = 9.97062e-06, No Iterations 306
smoothSolver:  Solving for Uy, Initial residual = 0.77074, Final residual = 9.97837e-06, No Iterations 305
DICPCG:  Solving for p, Initial residual = 0.980536, Final residual = 1.92449e-05, No Iterations 1001
time step continuity errors : sum local = 9.81397e-06, global = 8.05027e-18, cumulative = -4.18195e-18
DICPCG:  Solving for p, Initial residual = 0.937513, Final residual = 1.84282e-05, No Iterations 1001
time step continuity errors : sum local = 9.53204e-06, global = -6.24773e-19, cumulative = -4.80673e-18
ExecutionTime = 730.05 s  ClockTime = 731 s

Time = 0.5047

Courant Number mean: 4.16965 max: 132.743
smoothSolver:  Solving for Ux, Initial residual = 0.779527, Final residual = 9.74917e-06, No Iterations 306
smoothSolver:  Solving for Uy, Initial residual = 0.77097, Final residual = 9.85042e-06, No Iterations 311
DICPCG:  Solving for p, Initial residual = 0.981843, Final residual = 2.64074e-05, No Iterations 1001
time step continuity errors : sum local = 1.35815e-05, global = 1.90709e-18, cumulative = -2.89963e-18
DICPCG:  Solving for p, Initial residual = 0.936845, Final residual = 2.53819e-05, No Iterations 1001
time step continuity errors : sum local = 1.32902e-05, global = -1.83086e-18, cumulative = -4.73049e-18
ExecutionTime = 746.75 s  ClockTime = 747 s

Time = 0.5048

Courant Number mean: 4.2686 max: 134.816
smoothSolver:  Solving for Ux, Initial residual = 0.786447, Final residual = 9.8733e-06, No Iterations 309
smoothSolver:  Solving for Uy, Initial residual = 0.774074, Final residual = 9.69355e-06, No Iterations 306
DICPCG:  Solving for p, Initial residual = 0.982463, Final residual = 1.59265e-05, No Iterations 1001
time step continuity errors : sum local = 8.46019e-06, global = -2.1694e-17, cumulative = -2.64245e-17
DICPCG:  Solving for p, Initial residual = 0.929072, Final residual = 1.49161e-05, No Iterations 1001
time step continuity errors : sum local = 8.13829e-06, global = 1.63292e-19, cumulative = -2.62612e-17
ExecutionTime = 763.45 s  ClockTime = 764 s

Time = 0.5049

Courant Number mean: 4.11813 max: 120.586
smoothSolver:  Solving for Ux, Initial residual = 0.79395, Final residual = 9.85071e-06, No Iterations 315
smoothSolver:  Solving for Uy, Initial residual = 0.793875, Final residual = 9.8287e-06, No Iterations 315
DICPCG:  Solving for p, Initial residual = 0.982569, Final residual = 1.83793e-05, No Iterations 1001
time step continuity errors : sum local = 1.02584e-05, global = -1.02951e-17, cumulative = -3.65563e-17
DICPCG:  Solving for p, Initial residual = 0.926389, Final residual = 1.73614e-05, No Iterations 1001
time step continuity errors : sum local = 9.98174e-06, global = 4.53692e-20, cumulative = -3.65109e-17
ExecutionTime = 780.24 s  ClockTime = 781 s

Time = 0.505

Courant Number mean: 4.36213 max: 144.315
smoothSolver:  Solving for Ux, Initial residual = 0.799295, Final residual = 9.9863e-06, No Iterations 316
smoothSolver:  Solving for Uy, Initial residual = 0.79457, Final residual = 9.89551e-06, No Iterations 313
DICPCG:  Solving for p, Initial residual = 0.982617, Final residual = 2.65213e-05, No Iterations 1001
time step continuity errors : sum local = 1.56236e-05, global = 2.76909e-17, cumulative = -8.81997e-18
DICPCG:  Solving for p, Initial residual = 0.917596, Final residual = 2.49157e-05, No Iterations 1001
time step continuity errors : sum local = 1.52661e-05, global = -2.91379e-19, cumulative = -9.11135e-18
ExecutionTime = 796.99 s  ClockTime = 798 s

Time = 0.5051

Courant Number mean: 4.60798 max: 126.504
smoothSolver:  Solving for Ux, Initial residual = 0.802723, Final residual = 9.92679e-06, No Iterations 311
smoothSolver:  Solving for Uy, Initial residual = 0.797488, Final residual = 9.79273e-06, No Iterations 316
DICPCG:  Solving for p, Initial residual = 0.98282, Final residual = 2.63581e-05, No Iterations 1001
time step continuity errors : sum local = 1.69244e-05, global = 1.28475e-17, cumulative = 3.73618e-18
DICPCG:  Solving for p, Initial residual = 0.917644, Final residual = 2.4556e-05, No Iterations 1001
time step continuity errors : sum local = 1.64171e-05, global = 5.18808e-20, cumulative = 3.78807e-18
ExecutionTime = 813.65 s  ClockTime = 814 s

Time = 0.5052

Courant Number mean: 4.85098 max: 135.466
smoothSolver:  Solving for Ux, Initial residual = 0.800339, Final residual = 9.70341e-06, No Iterations 314
smoothSolver:  Solving for Uy, Initial residual = 0.797934, Final residual = 9.95279e-06, No Iterations 313
DICPCG:  Solving for p, Initial residual = 0.982741, Final residual = 2.05074e-05, No Iterations 1001
time step continuity errors : sum local = 1.42728e-05, global = 8.23565e-18, cumulative = 1.20237e-17
DICPCG:  Solving for p, Initial residual = 0.908311, Final residual = 1.87854e-05, No Iterations 1001
time step continuity errors : sum local = 1.37596e-05, global = 1.42196e-18, cumulative = 1.34457e-17
ExecutionTime = 830.24 s  ClockTime = 831 s

Time = 0.5053

Courant Number mean: 5.26684 max: 152.025
smoothSolver:  Solving for Ux, Initial residual = 0.804947, Final residual = 9.84313e-06, No Iterations 309
smoothSolver:  Solving for Uy, Initial residual = 0.791939, Final residual = 9.77018e-06, No Iterations 313
DICPCG:  Solving for p, Initial residual = 0.982225, Final residual = 2.66746e-05, No Iterations 1001
time step continuity errors : sum local = 2.04359e-05, global = -4.01948e-17, cumulative = -2.67492e-17
DICPCG:  Solving for p, Initial residual = 0.910482, Final residual = 2.46387e-05, No Iterations 1001
time step continuity errors : sum local = 1.98196e-05, global = -1.32614e-19, cumulative = -2.68818e-17
ExecutionTime = 846.62 s  ClockTime = 847 s

Time = 0.5054

Courant Number mean: 5.44794 max: 128.994
smoothSolver:  Solving for Ux, Initial residual = 0.800375, Final residual = 9.72203e-06, No Iterations 312
smoothSolver:  Solving for Uy, Initial residual = 0.80161, Final residual = 9.97229e-06, No Iterations 314
DICPCG:  Solving for p, Initial residual = 0.980758, Final residual = 4.17205e-05, No Iterations 1001
time step continuity errors : sum local = 3.42965e-05, global = 4.78118e-18, cumulative = -2.21006e-17
DICPCG:  Solving for p, Initial residual = 0.897926, Final residual = 3.79705e-05, No Iterations 1001
time step continuity errors : sum local = 3.31799e-05, global = 1.56172e-19, cumulative = -2.19444e-17
ExecutionTime = 863.26 s  ClockTime = 864 s

Time = 0.5055

Courant Number mean: 5.79239 max: 153.625
smoothSolver:  Solving for Ux, Initial residual = 0.798939, Final residual = 9.7085e-06, No Iterations 310
smoothSolver:  Solving for Uy, Initial residual = 0.801638, Final residual = 9.80423e-06, No Iterations 313
DICPCG:  Solving for p, Initial residual = 0.981222, Final residual = 2.37276e-05, No Iterations 1001
time step continuity errors : sum local = 2.14855e-05, global = -5.26283e-18, cumulative = -2.72073e-17
DICPCG:  Solving for p, Initial residual = 0.904119, Final residual = 2.16684e-05, No Iterations 1001
time step continuity errors : sum local = 2.07335e-05, global = 3.96411e-19, cumulative = -2.68108e-17
ExecutionTime = 879.93 s  ClockTime = 881 s

Time = 0.5056

Courant Number mean: 6.16366 max: 163.007
smoothSolver:  Solving for Ux, Initial residual = 0.790883, Final residual = 9.74393e-06, No Iterations 310
smoothSolver:  Solving for Uy, Initial residual = 0.80315, Final residual = 9.87339e-06, No Iterations 314
DICPCG:  Solving for p, Initial residual = 0.980408, Final residual = 1.92192e-05, No Iterations 1001
time step continuity errors : sum local = 1.88621e-05, global = -8.61047e-17, cumulative = -1.12915e-16
DICPCG:  Solving for p, Initial residual = 0.892743, Final residual = 1.72451e-05, No Iterations 1001
time step continuity errors : sum local = 1.80912e-05, global = -6.36916e-19, cumulative = -1.13552e-16
ExecutionTime = 896.61 s  ClockTime = 897 s

Time = 0.5057

Courant Number mean: 6.51025 max: 204.463
smoothSolver:  Solving for Ux, Initial residual = 0.799729, Final residual = 9.75264e-06, No Iterations 311
smoothSolver:  Solving for Uy, Initial residual = 0.790366, Final residual = 9.91107e-06, No Iterations 316
DICPCG:  Solving for p, Initial residual = 0.980244, Final residual = 1.67926e-05, No Iterations 1001
time step continuity errors : sum local = 1.78825e-05, global = 4.82163e-18, cumulative = -1.08731e-16
DICPCG:  Solving for p, Initial residual = 0.90082, Final residual = 1.52489e-05, No Iterations 1001
time step continuity errors : sum local = 1.72034e-05, global = -4.24311e-19, cumulative = -1.09155e-16
ExecutionTime = 913.16 s  ClockTime = 914 s

Time = 0.5058

Courant Number mean: 6.8827 max: 231.101
smoothSolver:  Solving for Ux, Initial residual = 0.784162, Final residual = 9.86631e-06, No Iterations 309
smoothSolver:  Solving for Uy, Initial residual = 0.803285, Final residual = 9.83188e-06, No Iterations 315
DICPCG:  Solving for p, Initial residual = 0.979029, Final residual = 2.86507e-05, No Iterations 1001
time step continuity errors : sum local = 3.20468e-05, global = -3.05552e-17, cumulative = -1.3971e-16
DICPCG:  Solving for p, Initial residual = 0.889825, Final residual = 2.6922e-05, No Iterations 1001
time step continuity errors : sum local = 3.22603e-05, global = 1.20218e-18, cumulative = -1.38508e-16
ExecutionTime = 929.73 s  ClockTime = 930 s

Time = 0.5059

Courant Number mean: 7.79476 max: 248.337
smoothSolver:  Solving for Ux, Initial residual = 0.790833, Final residual = 9.88018e-06, No Iterations 308
smoothSolver:  Solving for Uy, Initial residual = 0.802518, Final residual = 9.86397e-06, No Iterations 315
DICPCG:  Solving for p, Initial residual = 0.978801, Final residual = 3.67693e-05, No Iterations 1001
time step continuity errors : sum local = 4.29618e-05, global = 5.57395e-17, cumulative = -8.27686e-17
DICPCG:  Solving for p, Initial residual = 0.901418, Final residual = 3.3481e-05, No Iterations 1001
time step continuity errors : sum local = 4.13692e-05, global = 1.01591e-18, cumulative = -8.17527e-17
ExecutionTime = 946.26 s  ClockTime = 947 s

Time = 0.506

Courant Number mean: 8.00057 max: 197.643
smoothSolver:  Solving for Ux, Initial residual = 0.773152, Final residual = 9.90353e-06, No Iterations 308
smoothSolver:  Solving for Uy, Initial residual = 0.802281, Final residual = 9.78608e-06, No Iterations 311
DICPCG:  Solving for p, Initial residual = 0.978262, Final residual = 3.48963e-05, No Iterations 1001
time step continuity errors : sum local = 4.19239e-05, global = -7.71327e-17, cumulative = -1.58885e-16
DICPCG:  Solving for p, Initial residual = 0.903598, Final residual = 3.0837e-05, No Iterations 1001
time step continuity errors : sum local = 3.90319e-05, global = 3.31719e-19, cumulative = -1.58554e-16
ExecutionTime = 962.75 s  ClockTime = 963 s

Time = 0.5061

Courant Number mean: 7.74749 max: 171.451
smoothSolver:  Solving for Ux, Initial residual = 0.78713, Final residual = 9.85025e-06, No Iterations 311
smoothSolver:  Solving for Uy, Initial residual = 0.797374, Final residual = 9.88239e-06, No Iterations 315
DICPCG:  Solving for p, Initial residual = 0.978194, Final residual = 1.71421e-05, No Iterations 1001
time step continuity errors : sum local = 2.05943e-05, global = 4.28887e-17, cumulative = -1.15665e-16
DICPCG:  Solving for p, Initial residual = 0.918051, Final residual = 1.5875e-05, No Iterations 1001
time step continuity errors : sum local = 1.976e-05, global = -6.23443e-19, cumulative = -1.16288e-16
ExecutionTime = 979.37 s  ClockTime = 980 s

Time = 0.5062

Courant Number mean: 7.59925 max: 240.37
smoothSolver:  Solving for Ux, Initial residual = 0.778934, Final residual = 9.89005e-06, No Iterations 313
smoothSolver:  Solving for Uy, Initial residual = 0.798524, Final residual = 9.84499e-06, No Iterations 316
DICPCG:  Solving for p, Initial residual = 0.978128, Final residual = 1.40501e-05, No Iterations 1001
time step continuity errors : sum local = 1.69427e-05, global = 6.68436e-17, cumulative = -4.94448e-17
DICPCG:  Solving for p, Initial residual = 0.914797, Final residual = 1.57038e-05, No Iterations 1001
time step continuity errors : sum local = 1.96592e-05, global = 9.98473e-19, cumulative = -4.84463e-17
ExecutionTime = 996.02 s  ClockTime = 997 s

Time = 0.5063

Courant Number mean: 7.21493 max: 147.95
smoothSolver:  Solving for Ux, Initial residual = 0.795126, Final residual = 9.79113e-06, No Iterations 311
smoothSolver:  Solving for Uy, Initial residual = 0.791635, Final residual = 9.8095e-06, No Iterations 318
DICPCG:  Solving for p, Initial residual = 0.97781, Final residual = 3.04837e-05, No Iterations 1001
time step continuity errors : sum local = 3.65655e-05, global = 1.85077e-17, cumulative = -2.99387e-17
DICPCG:  Solving for p, Initial residual = 0.920071, Final residual = 2.83841e-05, No Iterations 1001
time step continuity errors : sum local = 3.51631e-05, global = -1.23402e-19, cumulative = -3.00621e-17
ExecutionTime = 1012.56 s  ClockTime = 1013 s

Time = 0.5064

Courant Number mean: 7.24046 max: 159.291
smoothSolver:  Solving for Ux, Initial residual = 0.791941, Final residual = 9.98706e-06, No Iterations 310
smoothSolver:  Solving for Uy, Initial residual = 0.800663, Final residual = 9.94387e-06, No Iterations 313
DICPCG:  Solving for p, Initial residual = 0.978128, Final residual = 1.92322e-05, No Iterations 1001
time step continuity errors : sum local = 2.34793e-05, global = 6.93281e-17, cumulative = 3.9266e-17
DICPCG:  Solving for p, Initial residual = 0.913199, Final residual = 1.72509e-05, No Iterations 1001
time step continuity errors : sum local = 2.19472e-05, global = -8.56297e-21, cumulative = 3.92575e-17
ExecutionTime = 1029.17 s  ClockTime = 1030 s

Time = 0.5065

Courant Number mean: 7.32741 max: 167.22
smoothSolver:  Solving for Ux, Initial residual = 0.791191, Final residual = 9.78177e-06, No Iterations 313
smoothSolver:  Solving for Uy, Initial residual = 0.796227, Final residual = 9.76423e-06, No Iterations 318
DICPCG:  Solving for p, Initial residual = 0.977139, Final residual = 3.64288e-05, No Iterations 1001
time step continuity errors : sum local = 4.42571e-05, global = -2.45075e-17, cumulative = 1.475e-17
DICPCG:  Solving for p, Initial residual = 0.920179, Final residual = 3.44051e-05, No Iterations 1001
time step continuity errors : sum local = 4.3181e-05, global = 2.01382e-19, cumulative = 1.49513e-17
ExecutionTime = 1045.69 s  ClockTime = 1046 s

Time = 0.5066

Courant Number mean: 7.69254 max: 153.876
smoothSolver:  Solving for Ux, Initial residual = 0.792365, Final residual = 9.86607e-06, No Iterations 316
smoothSolver:  Solving for Uy, Initial residual = 0.795452, Final residual = 9.82564e-06, No Iterations 315
DICPCG:  Solving for p, Initial residual = 0.978003, Final residual = 1.48721e-05, No Iterations 1001
time step continuity errors : sum local = 1.80769e-05, global = 5.52303e-17, cumulative = 7.01816e-17
DICPCG:  Solving for p, Initial residual = 0.911933, Final residual = 1.37243e-05, No Iterations 1001
time step continuity errors : sum local = 1.73949e-05, global = -1.2795e-18, cumulative = 6.89021e-17
ExecutionTime = 1062.34 s  ClockTime = 1063 s

Time = 0.5067

Courant Number mean: 7.82482 max: 163.296
smoothSolver:  Solving for Ux, Initial residual = 0.792028, Final residual = 9.9828e-06, No Iterations 313
smoothSolver:  Solving for Uy, Initial residual = 0.791449, Final residual = 9.85043e-06, No Iterations 316
DICPCG:  Solving for p, Initial residual = 0.977788, Final residual = 1.44572e-05, No Iterations 1001
time step continuity errors : sum local = 1.74801e-05, global = 6.81138e-17, cumulative = 1.37016e-16
DICPCG:  Solving for p, Initial residual = 0.91717, Final residual = 1.35251e-05, No Iterations 1001
time step continuity errors : sum local = 1.69582e-05, global = -6.93429e-19, cumulative = 1.36323e-16
ExecutionTime = 1078.88 s  ClockTime = 1080 s

Time = 0.5068

Courant Number mean: 7.8823 max: 162.818
smoothSolver:  Solving for Ux, Initial residual = 0.776715, Final residual = 9.82835e-06, No Iterations 314
smoothSolver:  Solving for Uy, Initial residual = 0.791364, Final residual = 9.71853e-06, No Iterations 317
DICPCG:  Solving for p, Initial residual = 0.977736, Final residual = 2.14361e-05, No Iterations 1001
time step continuity errors : sum local = 2.53274e-05, global = -2.296e-18, cumulative = 1.34027e-16
DICPCG:  Solving for p, Initial residual = 0.903638, Final residual = 2.00263e-05, No Iterations 1001
time step continuity errors : sum local = 2.48743e-05, global = 9.33457e-20, cumulative = 1.3412e-16
ExecutionTime = 1095.47 s  ClockTime = 1096 s

Time = 0.5069

Courant Number mean: 8.0423 max: 172.998
smoothSolver:  Solving for Ux, Initial residual = 0.784704, Final residual = 9.73473e-06, No Iterations 307
smoothSolver:  Solving for Uy, Initial residual = 0.783846, Final residual = 9.70704e-06, No Iterations 316
DICPCG:  Solving for p, Initial residual = 0.978006, Final residual = 1.66237e-05, No Iterations 1001
time step continuity errors : sum local = 1.95565e-05, global = -2.05297e-18, cumulative = 1.32067e-16
DICPCG:  Solving for p, Initial residual = 0.913525, Final residual = 1.55223e-05, No Iterations 1001
time step continuity errors : sum local = 1.90061e-05, global = -3.9747e-19, cumulative = 1.31669e-16
ExecutionTime = 1111.95 s  ClockTime = 1113 s

Time = 0.507

Courant Number mean: 7.45058 max: 141.849
smoothSolver:  Solving for Ux, Initial residual = 0.779658, Final residual = 9.95028e-06, No Iterations 317
smoothSolver:  Solving for Uy, Initial residual = 0.794362, Final residual = 9.90026e-06, No Iterations 317
DICPCG:  Solving for p, Initial residual = 0.977382, Final residual = 2.5994e-05, No Iterations 1001
time step continuity errors : sum local = 2.92868e-05, global = -3.04162e-17, cumulative = 1.01253e-16
DICPCG:  Solving for p, Initial residual = 0.906327, Final residual = 2.35873e-05, No Iterations 1001
time step continuity errors : sum local = 2.78524e-05, global = -8.91893e-19, cumulative = 1.00361e-16
ExecutionTime = 1128.45 s  ClockTime = 1129 s

Time = 0.5071

Courant Number mean: 7.35526 max: 140.974
smoothSolver:  Solving for Ux, Initial residual = 0.789934, Final residual = 9.89793e-06, No Iterations 316
smoothSolver:  Solving for Uy, Initial residual = 0.795395, Final residual = 9.73763e-06, No Iterations 319
DICPCG:  Solving for p, Initial residual = 0.978433, Final residual = 1.57317e-05, No Iterations 1001
time step continuity errors : sum local = 1.73769e-05, global = 3.62492e-17, cumulative = 1.36611e-16
DICPCG:  Solving for p, Initial residual = 0.914364, Final residual = 1.46519e-05, No Iterations 1001
time step continuity errors : sum local = 1.68173e-05, global = -2.99106e-18, cumulative = 1.33619e-16
ExecutionTime = 1145.08 s  ClockTime = 1146 s

Time = 0.5072

Courant Number mean: 7.34092 max: 163.849
smoothSolver:  Solving for Ux, Initial residual = 0.789152, Final residual = 9.89974e-06, No Iterations 316
smoothSolver:  Solving for Uy, Initial residual = 0.795111, Final residual = 9.75235e-06, No Iterations 321
DICPCG:  Solving for p, Initial residual = 0.977203, Final residual = 2.6245e-05, No Iterations 1001
time step continuity errors : sum local = 2.82846e-05, global = 1.11145e-16, cumulative = 2.44764e-16
DICPCG:  Solving for p, Initial residual = 0.904244, Final residual = 2.39036e-05, No Iterations 1001
time step continuity errors : sum local = 2.70902e-05, global = 1.71852e-18, cumulative = 2.46483e-16
ExecutionTime = 1161.65 s  ClockTime = 1162 s

Time = 0.5073

Courant Number mean: 7.49908 max: 175.549
smoothSolver:  Solving for Ux, Initial residual = 0.791394, Final residual = 9.96029e-06, No Iterations 313
smoothSolver:  Solving for Uy, Initial residual = 0.787839, Final residual = 9.99352e-06, No Iterations 320
DICPCG:  Solving for p, Initial residual = 0.978546, Final residual = 3.0108e-05, No Iterations 1001
time step continuity errors : sum local = 3.27609e-05, global = -6.34284e-17, cumulative = 1.83054e-16
DICPCG:  Solving for p, Initial residual = 0.90793, Final residual = 2.77943e-05, No Iterations 1001
time step continuity errors : sum local = 3.17049e-05, global = 7.55183e-19, cumulative = 1.8381e-16
ExecutionTime = 1178.58 s  ClockTime = 1179 s

Time = 0.5074

Courant Number mean: 7.35055 max: 146.812
smoothSolver:  Solving for Ux, Initial residual = 0.786854, Final residual = 9.78322e-06, No Iterations 320
smoothSolver:  Solving for Uy, Initial residual = 0.801957, Final residual = 9.99507e-06, No Iterations 318
DICPCG:  Solving for p, Initial residual = 0.978294, Final residual = 2.31284e-05, No Iterations 1001
time step continuity errors : sum local = 2.49117e-05, global = -1.44208e-16, cumulative = 3.96011e-17
DICPCG:  Solving for p, Initial residual = 0.903737, Final residual = 2.15196e-05, No Iterations 1001
time step continuity errors : sum local = 2.43996e-05, global = -2.74028e-20, cumulative = 3.95737e-17
ExecutionTime = 1196.83 s  ClockTime = 1198 s

Time = 0.5075

Courant Number mean: 7.42337 max: 146.949
smoothSolver:  Solving for Ux, Initial residual = 0.790335, Final residual = 9.98069e-06, No Iterations 312
smoothSolver:  Solving for Uy, Initial residual = 0.799774, Final residual = 9.96546e-06, No Iterations 320
DICPCG:  Solving for p, Initial residual = 0.978402, Final residual = 2.61446e-05, No Iterations 1001
time step continuity errors : sum local = 2.83677e-05, global = -2.3624e-17, cumulative = 1.59497e-17
DICPCG:  Solving for p, Initial residual = 0.913645, Final residual = 2.45317e-05, No Iterations 1001
time step continuity errors : sum local = 2.77327e-05, global = -2.34099e-18, cumulative = 1.36088e-17
ExecutionTime = 1213.46 s  ClockTime = 1214 s

Time = 0.5076

Courant Number mean: 7.29263 max: 150.756
smoothSolver:  Solving for Ux, Initial residual = 0.7884, Final residual = 9.81648e-06, No Iterations 317
smoothSolver:  Solving for Uy, Initial residual = 0.794083, Final residual = 9.76574e-06, No Iterations 320
DICPCG:  Solving for p, Initial residual = 0.977932, Final residual = 2.01394e-05, No Iterations 1001
time step continuity errors : sum local = 2.15971e-05, global = -3.19607e-17, cumulative = -1.8352e-17
DICPCG:  Solving for p, Initial residual = 0.904442, Final residual = 1.81944e-05, No Iterations 1001
time step continuity errors : sum local = 2.05086e-05, global = 2.92544e-19, cumulative = -1.80594e-17
ExecutionTime = 1230.07 s  ClockTime = 1231 s

Time = 0.5077

Courant Number mean: 7.27771 max: 140.843
smoothSolver:  Solving for Ux, Initial residual = 0.78556, Final residual = 9.85637e-06, No Iterations 318
smoothSolver:  Solving for Uy, Initial residual = 0.802704, Final residual = 9.95981e-06, No Iterations 318
DICPCG:  Solving for p, Initial residual = 0.978334, Final residual = 3.27446e-05, No Iterations 1001
time step continuity errors : sum local = 3.4936e-05, global = -6.99268e-17, cumulative = -8.79862e-17
DICPCG:  Solving for p, Initial residual = 0.908265, Final residual = 3.05583e-05, No Iterations 1001
time step continuity errors : sum local = 3.4125e-05, global = 4.04352e-19, cumulative = -8.75819e-17
ExecutionTime = 1246.51 s  ClockTime = 1247 s

Time = 0.5078

Courant Number mean: 6.84651 max: 132.959
smoothSolver:  Solving for Ux, Initial residual = 0.792462, Final residual = 9.79226e-06, No Iterations 322
smoothSolver:  Solving for Uy, Initial residual = 0.80351, Final residual = 9.83399e-06, No Iterations 321
DICPCG:  Solving for p, Initial residual = 0.976838, Final residual = 1.9088e-05, No Iterations 1001
time step continuity errors : sum local = 1.97826e-05, global = 7.97997e-17, cumulative = -7.78217e-18
DICPCG:  Solving for p, Initial residual = 0.900302, Final residual = 1.77127e-05, No Iterations 1001
time step continuity errors : sum local = 1.93826e-05, global = -1.95307e-18, cumulative = -9.73523e-18
ExecutionTime = 1263.1 s  ClockTime = 1264 s

Time = 0.5079

Courant Number mean: 7.08074 max: 132.452
smoothSolver:  Solving for Ux, Initial residual = 0.790615, Final residual = 9.72566e-06, No Iterations 318
smoothSolver:  Solving for Uy, Initial residual = 0.80545, Final residual = 9.95021e-06, No Iterations 325
DICPCG:  Solving for p, Initial residual = 0.978698, Final residual = 2.5951e-05, No Iterations 1001
time step continuity errors : sum local = 2.6839e-05, global = -3.70988e-17, cumulative = -4.6834e-17
DICPCG:  Solving for p, Initial residual = 0.910628, Final residual = 2.40923e-05, No Iterations 1001
time step continuity errors : sum local = 2.60232e-05, global = -2.98754e-18, cumulative = -4.98215e-17
ExecutionTime = 1279.69 s  ClockTime = 1280 s

Time = 0.508

Courant Number mean: 7.00279 max: 137.421
smoothSolver:  Solving for Ux, Initial residual = 0.788008, Final residual = 9.93325e-06, No Iterations 318
smoothSolver:  Solving for Uy, Initial residual = 0.802705, Final residual = 9.82386e-06, No Iterations 325
DICPCG:  Solving for p, Initial residual = 0.977816, Final residual = 2.29689e-05, No Iterations 1001
time step continuity errors : sum local = 2.36503e-05, global = 2.39093e-17, cumulative = -2.59122e-17
DICPCG:  Solving for p, Initial residual = 0.905093, Final residual = 2.11135e-05, No Iterations 1001
time step continuity errors : sum local = 2.2861e-05, global = 8.44757e-19, cumulative = -2.50675e-17
ExecutionTime = 1296.36 s  ClockTime = 1297 s

Time = 0.5081

Courant Number mean: 7.01987 max: 162.986
smoothSolver:  Solving for Ux, Initial residual = 0.789582, Final residual = 9.79371e-06, No Iterations 317
smoothSolver:  Solving for Uy, Initial residual = 0.803799, Final residual = 9.76563e-06, No Iterations 323
DICPCG:  Solving for p, Initial residual = 0.977912, Final residual = 4.87664e-05, No Iterations 1001
time step continuity errors : sum local = 4.98233e-05, global = 8.39999e-17, cumulative = 5.89325e-17
DICPCG:  Solving for p, Initial residual = 0.909122, Final residual = 4.49832e-05, No Iterations 1001
time step continuity errors : sum local = 4.80759e-05, global = 3.81101e-18, cumulative = 6.27435e-17
ExecutionTime = 1312.95 s  ClockTime = 1314 s

Time = 0.5082

Courant Number mean: 6.90514 max: 132.365
smoothSolver:  Solving for Ux, Initial residual = 0.782877, Final residual = 9.87397e-06, No Iterations 321
smoothSolver:  Solving for Uy, Initial residual = 0.803178, Final residual = 9.92578e-06, No Iterations 322
DICPCG:  Solving for p, Initial residual = 0.977772, Final residual = 1.89736e-05, No Iterations 1001
time step continuity errors : sum local = 1.94738e-05, global = 1.76643e-17, cumulative = 8.04077e-17
DICPCG:  Solving for p, Initial residual = 0.90492, Final residual = 1.75441e-05, No Iterations 1001
time step continuity errors : sum local = 1.89298e-05, global = -1.51783e-18, cumulative = 7.88899e-17
ExecutionTime = 1329.53 s  ClockTime = 1330 s

Time = 0.5083

Courant Number mean: 6.93338 max: 140.417
smoothSolver:  Solving for Ux, Initial residual = 0.790536, Final residual = 9.70973e-06, No Iterations 320
smoothSolver:  Solving for Uy, Initial residual = 0.805487, Final residual = 9.73403e-06, No Iterations 326
DICPCG:  Solving for p, Initial residual = 0.979665, Final residual = 2.17208e-05, No Iterations 1001
time step continuity errors : sum local = 2.20384e-05, global = 1.67652e-17, cumulative = 9.56551e-17
DICPCG:  Solving for p, Initial residual = 0.912534, Final residual = 2.02202e-05, No Iterations 1001
time step continuity errors : sum local = 2.14043e-05, global = -2.30552e-19, cumulative = 9.54246e-17
ExecutionTime = 1346.13 s  ClockTime = 1347 s

Time = 0.5084

Courant Number mean: 6.74302 max: 157.824
smoothSolver:  Solving for Ux, Initial residual = 0.788237, Final residual = 9.96152e-06, No Iterations 323
smoothSolver:  Solving for Uy, Initial residual = 0.803501, Final residual = 9.9441e-06, No Iterations 325
DICPCG:  Solving for p, Initial residual = 0.978423, Final residual = 2.17691e-05, No Iterations 1001
time step continuity errors : sum local = 2.1624e-05, global = -1.00317e-16, cumulative = -4.89239e-18
DICPCG:  Solving for p, Initial residual = 0.904582, Final residual = 1.98953e-05, No Iterations 1001
time step continuity errors : sum local = 2.07938e-05, global = -3.19506e-18, cumulative = -8.08745e-18
ExecutionTime = 1362.72 s  ClockTime = 1364 s

Time = 0.5085

Courant Number mean: 6.73692 max: 138.084
smoothSolver:  Solving for Ux, Initial residual = 0.793249, Final residual = 9.91717e-06, No Iterations 321
smoothSolver:  Solving for Uy, Initial residual = 0.810721, Final residual = 9.7595e-06, No Iterations 326
DICPCG:  Solving for p, Initial residual = 0.978549, Final residual = 4.16292e-05, No Iterations 1001
time step continuity errors : sum local = 4.11426e-05, global = -1.38472e-17, cumulative = -2.19346e-17
DICPCG:  Solving for p, Initial residual = 0.912657, Final residual = 3.8758e-05, No Iterations 1001
time step continuity errors : sum local = 3.99391e-05, global = 7.0399e-19, cumulative = -2.12306e-17
ExecutionTime = 1379.35 s  ClockTime = 1380 s

Time = 0.5086

Courant Number mean: 6.59217 max: 151.022
smoothSolver:  Solving for Ux, Initial residual = 0.790978, Final residual = 9.70415e-06, No Iterations 324
smoothSolver:  Solving for Uy, Initial residual = 0.81535, Final residual = 9.73074e-06, No Iterations 328
DICPCG:  Solving for p, Initial residual = 0.979165, Final residual = 2.18398e-05, No Iterations 1001
time step continuity errors : sum local = 2.0938e-05, global = 3.35787e-17, cumulative = 1.23481e-17
DICPCG:  Solving for p, Initial residual = 0.903567, Final residual = 2.00806e-05, No Iterations 1001
time step continuity errors : sum local = 2.03025e-05, global = 1.92726e-18, cumulative = 1.42753e-17
ExecutionTime = 1396.06 s  ClockTime = 1397 s

Time = 0.5087

Courant Number mean: 6.62294 max: 151.632
smoothSolver:  Solving for Ux, Initial residual = 0.799557, Final residual = 9.84406e-06, No Iterations 322
smoothSolver:  Solving for Uy, Initial residual = 0.814442, Final residual = 9.9272e-06, No Iterations 326
DICPCG:  Solving for p, Initial residual = 0.979669, Final residual = 3.92338e-05, No Iterations 1001
time step continuity errors : sum local = 3.77679e-05, global = -2.36154e-17, cumulative = -9.34005e-18
DICPCG:  Solving for p, Initial residual = 0.911572, Final residual = 3.62498e-05, No Iterations 1001
time step continuity errors : sum local = 3.6482e-05, global = 1.51185e-18, cumulative = -7.8282e-18
ExecutionTime = 1413.9 s  ClockTime = 1415 s

Time = 0.5088

Courant Number mean: 6.47306 max: 136.402
smoothSolver:  Solving for Ux, Initial residual = 0.794816, Final residual = 9.80159e-06, No Iterations 328
smoothSolver:  Solving for Uy, Initial residual = 0.822302, Final residual = 9.77549e-06, No Iterations 327
DICPCG:  Solving for p, Initial residual = 0.979512, Final residual = 1.69759e-05, No Iterations 1001
time step continuity errors : sum local = 1.59652e-05, global = 3.96325e-17, cumulative = 3.18043e-17
DICPCG:  Solving for p, Initial residual = 0.901146, Final residual = 1.55519e-05, No Iterations 1001
time step continuity errors : sum local = 1.5462e-05, global = -1.16233e-18, cumulative = 3.0642e-17
ExecutionTime = 1432.23 s  ClockTime = 1433 s

Time = 0.5089

Courant Number mean: 6.41563 max: 136.535
smoothSolver:  Solving for Ux, Initial residual = 0.807409, Final residual = 9.7333e-06, No Iterations 324
smoothSolver:  Solving for Uy, Initial residual = 0.814928, Final residual = 9.71178e-06, No Iterations 329
DICPCG:  Solving for p, Initial residual = 0.980239, Final residual = 2.91052e-05, No Iterations 1001
time step continuity errors : sum local = 2.74964e-05, global = -4.21816e-17, cumulative = -1.15397e-17
DICPCG:  Solving for p, Initial residual = 0.908793, Final residual = 2.70256e-05, No Iterations 1001
time step continuity errors : sum local = 2.67757e-05, global = 8.91502e-20, cumulative = -1.14505e-17
ExecutionTime = 1449.34 s  ClockTime = 1450 s

Time = 0.509

Courant Number mean: 6.07567 max: 137.957
smoothSolver:  Solving for Ux, Initial residual = 0.802447, Final residual = 9.92193e-06, No Iterations 329
smoothSolver:  Solving for Uy, Initial residual = 0.823023, Final residual = 9.98723e-06, No Iterations 330
DICPCG:  Solving for p, Initial residual = 0.979322, Final residual = 3.56755e-05, No Iterations 1001
time step continuity errors : sum local = 3.28924e-05, global = -4.76984e-17, cumulative = -5.91489e-17
DICPCG:  Solving for p, Initial residual = 0.895873, Final residual = 3.21541e-05, No Iterations 1001
time step continuity errors : sum local = 3.15162e-05, global = -1.46272e-18, cumulative = -6.06117e-17
ExecutionTime = 1466.33 s  ClockTime = 1467 s

Time = 0.5091

Courant Number mean: 6.05164 max: 144.089
smoothSolver:  Solving for Ux, Initial residual = 0.809188, Final residual = 9.76571e-06, No Iterations 329
smoothSolver:  Solving for Uy, Initial residual = 0.819257, Final residual = 9.89427e-06, No Iterations 330
DICPCG:  Solving for p, Initial residual = 0.979158, Final residual = 5.08406e-05, No Iterations 1001
time step continuity errors : sum local = 4.6432e-05, global = -5.02386e-17, cumulative = -1.1085e-16
DICPCG:  Solving for p, Initial residual = 0.899153, Final residual = 4.65311e-05, No Iterations 1001
time step continuity errors : sum local = 4.49947e-05, global = -3.06626e-19, cumulative = -1.11157e-16
ExecutionTime = 1483.32 s  ClockTime = 1484 s

Time = 0.5092

Courant Number mean: 6.08617 max: 154.842
smoothSolver:  Solving for Ux, Initial residual = 0.80624, Final residual = 9.79644e-06, No Iterations 330
smoothSolver:  Solving for Uy, Initial residual = 0.822475, Final residual = 9.72975e-06, No Iterations 330
DICPCG:  Solving for p, Initial residual = 0.978742, Final residual = 3.732e-05, No Iterations 1001
time step continuity errors : sum local = 3.41646e-05, global = 5.08576e-17, cumulative = -6.02993e-17
DICPCG:  Solving for p, Initial residual = 0.890929, Final residual = 3.37995e-05, No Iterations 1001
time step continuity errors : sum local = 3.30829e-05, global = 1.90106e-18, cumulative = -5.83983e-17
ExecutionTime = 1500.24 s  ClockTime = 1501 s

Time = 0.5093

Courant Number mean: 6.29858 max: 153.632
smoothSolver:  Solving for Ux, Initial residual = 0.816518, Final residual = 9.99539e-06, No Iterations 326
smoothSolver:  Solving for Uy, Initial residual = 0.810311, Final residual = 9.95141e-06, No Iterations 330
DICPCG:  Solving for p, Initial residual = 0.979465, Final residual = 4.50254e-05, No Iterations 1001
time step continuity errors : sum local = 4.15924e-05, global = -8.53777e-18, cumulative = -6.6936e-17
DICPCG:  Solving for p, Initial residual = 0.902228, Final residual = 4.16456e-05, No Iterations 1001
time step continuity errors : sum local = 4.06373e-05, global = 2.49345e-18, cumulative = -6.44426e-17
ExecutionTime = 1517.1 s  ClockTime = 1518 s

Time = 0.5094

Courant Number mean: 6.19771 max: 194.223
smoothSolver:  Solving for Ux, Initial residual = 0.80272, Final residual = 9.91097e-06, No Iterations 330
smoothSolver:  Solving for Uy, Initial residual = 0.81642, Final residual = 9.77645e-06, No Iterations 329
DICPCG:  Solving for p, Initial residual = 0.978849, Final residual = 2.22112e-05, No Iterations 1001
time step continuity errors : sum local = 2.04597e-05, global = 3.68679e-17, cumulative = -2.75747e-17
DICPCG:  Solving for p, Initial residual = 0.894502, Final residual = 2.00147e-05, No Iterations 1001
time step continuity errors : sum local = 1.96163e-05, global = 1.34848e-18, cumulative = -2.62262e-17
ExecutionTime = 1533.95 s  ClockTime = 1535 s

Time = 0.5095

Courant Number mean: 6.17216 max: 147.877
smoothSolver:  Solving for Ux, Initial residual = 0.814885, Final residual = 9.85322e-06, No Iterations 328
smoothSolver:  Solving for Uy, Initial residual = 0.81447, Final residual = 9.75545e-06, No Iterations 330
DICPCG:  Solving for p, Initial residual = 0.979434, Final residual = 5.87339e-05, No Iterations 1001
time step continuity errors : sum local = 5.40536e-05, global = 7.24575e-17, cumulative = 4.62313e-17
DICPCG:  Solving for p, Initial residual = 0.902554, Final residual = 5.441e-05, No Iterations 1001
time step continuity errors : sum local = 5.28208e-05, global = -1.51714e-18, cumulative = 4.47141e-17
ExecutionTime = 1550.69 s  ClockTime = 1552 s

Time = 0.5096

Courant Number mean: 6.03633 max: 182.439
smoothSolver:  Solving for Ux, Initial residual = 0.804418, Final residual = 9.97214e-06, No Iterations 329
smoothSolver:  Solving for Uy, Initial residual = 0.812351, Final residual = 9.98935e-06, No Iterations 329
DICPCG:  Solving for p, Initial residual = 0.978909, Final residual = 3.68049e-05, No Iterations 1001
time step continuity errors : sum local = 3.3517e-05, global = -8.4212e-18, cumulative = 3.62929e-17
DICPCG:  Solving for p, Initial residual = 0.894229, Final residual = 3.32722e-05, No Iterations 1001
time step continuity errors : sum local = 3.22682e-05, global = -1.14773e-18, cumulative = 3.51452e-17
ExecutionTime = 1567.49 s  ClockTime = 1568 s

Time = 0.5097

Courant Number mean: 6.203 max: 153.164
smoothSolver:  Solving for Ux, Initial residual = 0.820487, Final residual = 9.91982e-06, No Iterations 329
smoothSolver:  Solving for Uy, Initial residual = 0.815721, Final residual = 9.7417e-06, No Iterations 332
DICPCG:  Solving for p, Initial residual = 0.979155, Final residual = 5.21892e-05, No Iterations 1001
time step continuity errors : sum local = 4.81111e-05, global = -4.66885e-18, cumulative = 3.04764e-17
DICPCG:  Solving for p, Initial residual = 0.907132, Final residual = 4.83197e-05, No Iterations 1001
time step continuity errors : sum local = 4.67764e-05, global = 4.38445e-19, cumulative = 3.09148e-17
ExecutionTime = 1584.49 s  ClockTime = 1585 s

Time = 0.5098

Courant Number mean: 6.09195 max: 151.213
smoothSolver:  Solving for Ux, Initial residual = 0.811937, Final residual = 9.90903e-06, No Iterations 330
smoothSolver:  Solving for Uy, Initial residual = 0.811712, Final residual = 9.98451e-06, No Iterations 327
DICPCG:  Solving for p, Initial residual = 0.977928, Final residual = 3.9477e-05, No Iterations 1001
time step continuity errors : sum local = 3.5914e-05, global = -3.41803e-17, cumulative = -3.26552e-18
DICPCG:  Solving for p, Initial residual = 0.897985, Final residual = 3.61948e-05, No Iterations 1001
time step continuity errors : sum local = 3.49202e-05, global = 2.26444e-18, cumulative = -1.00108e-18
ExecutionTime = 1601.31 s  ClockTime = 1602 s

Time = 0.5099

Courant Number mean: 6.18189 max: 131.702
smoothSolver:  Solving for Ux, Initial residual = 0.826579, Final residual = 9.76503e-06, No Iterations 330
smoothSolver:  Solving for Uy, Initial residual = 0.811122, Final residual = 9.8687e-06, No Iterations 329
DICPCG:  Solving for p, Initial residual = 0.97901, Final residual = 3.88321e-05, No Iterations 1001
time step continuity errors : sum local = 3.58254e-05, global = -4.87299e-17, cumulative = -4.9731e-17
DICPCG:  Solving for p, Initial residual = 0.907826, Final residual = 3.62793e-05, No Iterations 1001
time step continuity errors : sum local = 3.50999e-05, global = -4.78891e-19, cumulative = -5.02099e-17
ExecutionTime = 1618.22 s  ClockTime = 1619 s

Time = 0.51

Courant Number mean: 5.71147 max: 136.542
smoothSolver:  Solving for Ux, Initial residual = 0.822659, Final residual = 9.72965e-06, No Iterations 332
smoothSolver:  Solving for Uy, Initial residual = 0.817374, Final residual = 9.71823e-06, No Iterations 330
DICPCG:  Solving for p, Initial residual = 0.97888, Final residual = 2.89107e-05, No Iterations 1001
time step continuity errors : sum local = 2.66173e-05, global = -1.15048e-18, cumulative = -5.13604e-17
DICPCG:  Solving for p, Initial residual = 0.899933, Final residual = 2.58741e-05, No Iterations 1001
time step continuity errors : sum local = 2.52187e-05, global = -4.97949e-19, cumulative = -5.18583e-17
ExecutionTime = 1635.33 s  ClockTime = 1636 s

End

Finalising parallel run
