/*---------------------------------------------------------------------------*\
| =========                 |                                                 |
| \\      /  F ield         | OpenFOAM: The Open Source CFD Toolbox           |
|  \\    /   O peration     | Version:  2.3.0                                 |
|   \\  /    A nd           | Web:      www.OpenFOAM.org                      |
|    \\/     M anipulation  |                                                 |
\*---------------------------------------------------------------------------*/
Build  : 2.3.0
Exec   : pimpleDyMFoam
Date   : Oct 10 2014
Time   : 02:35:01
Host   : "hpc01"
PID    : 2828
Case   : /home/bobo/OpenFOAM/experiment/incompressible/pimpleDyMFoam/mixerVesselAMI2D2
nProcs : 1
fileModificationChecking : Monitoring run-time modified files using timeStampMaster
allowSystemOperations : Disallowing user-supplied system call operations

// * * * * * * * * * * * * * * * * * * * * * * * * * * * * * * * * * * * * * //
Create time

Create mesh for time = 0.166535

Selecting dynamicFvMesh solidBodyMotionFvMesh
Selecting solid-body motion function rotatingMotion
Applying solid body motion to cellZone rotor

PIMPLE: Operating solver in PISO mode

Reading field p

Reading field U

Reading/calculating face flux field phi

AMI: Creating addressing and weights between 9600 source faces and 9600 target faces
AMI: Patch source sum(weights) min/max/average = 1, 1, 1
AMI: Patch target sum(weights) min/max/average = 1, 1, 1
Selecting incompressible transport model Newtonian
Selecting turbulence model type laminar
Reading/calculating face velocity Uf

No finite volume options present

Courant Number mean: 0.0770923 max: 0.499615

Starting time loop

Courant Number mean: 0.0770923 max: 0.499615
deltaT = 0.000210452
Time = 0.166745

solidBodyMotionFunctions::rotatingMotion::transformation(): Time = 0.166745 transformation: ((0 0 0) (0.865901 (0 0 0.500215)))
AMI: Creating addressing and weights between 9600 source faces and 9600 target faces
AMI: Patch source sum(weights) min/max/average = 1, 1, 1
AMI: Patch target sum(weights) min/max/average = 1, 1, 1
smoothSolver:  Solving for Ux, Initial residual = 0.00281432, Final residual = 9.11436e-07, No Iterations 4
smoothSolver:  Solving for Uy, Initial residual = 0.00281264, Final residual = 9.11796e-07, No Iterations 4
GAMG:  Solving for p, Initial residual = 0.700654, Final residual = 0.00623986, No Iterations 12
time step continuity errors : sum local = 5.66761e-07, global = 6.60118e-08, cumulative = 6.60118e-08
GAMG:  Solving for p, Initial residual = 0.173198, Final residual = 9.56419e-07, No Iterations 66
time step continuity errors : sum local = 6.63981e-08, global = 6.62861e-08, cumulative = 1.32298e-07
ExecutionTime = 110.84 s  ClockTime = 111 s

Courant Number mean: 0.0769738 max: 0.519942
deltaT = 0.00020238
Time = 0.166948

solidBodyMotionFunctions::rotatingMotion::transformation(): Time = 0.166948 transformation: ((0 0 0) (0.865583 (0 0 0.500766)))
AMI: Creating addressing and weights between 9600 source faces and 9600 target faces
AMI: Patch source sum(weights) min/max/average = 1, 1, 1
AMI: Patch target sum(weights) min/max/average = 1, 1, 1
smoothSolver:  Solving for Ux, Initial residual = 0.0117261, Final residual = 4.50144e-07, No Iterations 6
smoothSolver:  Solving for Uy, Initial residual = 0.0116928, Final residual = 4.49883e-07, No Iterations 6
GAMG:  Solving for p, Initial residual = 0.762426, Final residual = 0.00677592, No Iterations 8
time step continuity errors : sum local = 6.9715e-07, global = 2.38506e-09, cumulative = 1.34683e-07
GAMG:  Solving for p, Initial residual = 0.305755, Final residual = 9.80022e-07, No Iterations 60
time step continuity errors : sum local = 1.4737e-09, global = 1.39624e-09, cumulative = 1.36079e-07
ExecutionTime = 166.48 s  ClockTime = 167 s

Courant Number mean: 0.0740894 max: 0.488411
deltaT = 0.000207182
Time = 0.167155

solidBodyMotionFunctions::rotatingMotion::transformation(): Time = 0.167155 transformation: ((0 0 0) (0.865257 (0 0 0.501329)))
AMI: Creating addressing and weights between 9600 source faces and 9600 target faces
AMI: Patch source sum(weights) min/max/average = 1, 1, 1
AMI: Patch target sum(weights) min/max/average = 1, 1, 1
smoothSolver:  Solving for Ux, Initial residual = 0.00672938, Final residual = 9.71493e-07, No Iterations 5
smoothSolver:  Solving for Uy, Initial residual = 0.00668845, Final residual = 9.6656e-07, No Iterations 5
GAMG:  Solving for p, Initial residual = 0.441928, Final residual = 0.00362785, No Iterations 15
time step continuity errors : sum local = 1.76922e-07, global = 3.03529e-10, cumulative = 1.36383e-07
GAMG:  Solving for p, Initial residual = 0.174166, Final residual = 9.04042e-07, No Iterations 60
time step continuity errors : sum local = 6.68083e-10, global = 6.38212e-10, cumulative = 1.37021e-07
ExecutionTime = 225.7 s  ClockTime = 226 s

Courant Number mean: 0.0758951 max: 0.496072
deltaT = 0.000208823
Time = 0.167364

solidBodyMotionFunctions::rotatingMotion::transformation(): Time = 0.167364 transformation: ((0 0 0) (0.864928 (0 0 0.501897)))
AMI: Creating addressing and weights between 9600 source faces and 9600 target faces
AMI: Patch source sum(weights) min/max/average = 1, 1, 1
AMI: Patch target sum(weights) min/max/average = 1, 1, 1
smoothSolver:  Solving for Ux, Initial residual = 0.00271438, Final residual = 4.9296e-07, No Iterations 5
smoothSolver:  Solving for Uy, Initial residual = 0.00271182, Final residual = 4.92078e-07, No Iterations 5
GAMG:  Solving for p, Initial residual = 0.199373, Final residual = 0.00124867, No Iterations 6
time step continuity errors : sum local = 4.06692e-08, global = 2.38873e-10, cumulative = 1.3726e-07
GAMG:  Solving for p, Initial residual = 0.0599509, Final residual = 7.85398e-07, No Iterations 49
time step continuity errors : sum local = 3.331e-10, global = 3.11259e-10, cumulative = 1.37571e-07
ExecutionTime = 274.85 s  ClockTime = 275 s

Courant Number mean: 0.0765401 max: 0.497951
deltaT = 0.000209682
Time = 0.167574

solidBodyMotionFunctions::rotatingMotion::transformation(): Time = 0.167574 transformation: ((0 0 0) (0.864597 (0 0 0.502466)))
AMI: Creating addressing and weights between 9600 source faces and 9600 target faces
AMI: Patch source sum(weights) min/max/average = 1, 1, 1
AMI: Patch target sum(weights) min/max/average = 1, 1, 1
smoothSolver:  Solving for Ux, Initial residual = 0.00172078, Final residual = 3.11315e-07, No Iterations 5
smoothSolver:  Solving for Uy, Initial residual = 0.00171945, Final residual = 3.10798e-07, No Iterations 5
GAMG:  Solving for p, Initial residual = 0.119576, Final residual = 0.000566964, No Iterations 9
time step continuity errors : sum local = 1.54473e-08, global = 8.96139e-11, cumulative = 1.37661e-07
GAMG:  Solving for p, Initial residual = 0.031466, Final residual = 9.93705e-07, No Iterations 45
time step continuity errors : sum local = 1.30264e-10, global = 1.0517e-10, cumulative = 1.37766e-07
ExecutionTime = 323.58 s  ClockTime = 324 s

Courant Number mean: 0.0768899 max: 0.498768
deltaT = 0.0002102
Time = 0.167784

solidBodyMotionFunctions::rotatingMotion::transformation(): Time = 0.167784 transformation: ((0 0 0) (0.864265 (0 0 0.503037)))
AMI: Creating addressing and weights between 9600 source faces and 9600 target faces
AMI: Patch source sum(weights) min/max/average = 1, 1, 1
AMI: Patch target sum(weights) min/max/average = 1, 1, 1
smoothSolver:  Solving for Ux, Initial residual = 0.0013601, Final residual = 9.71152e-07, No Iterations 4
smoothSolver:  Solving for Uy, Initial residual = 0.00135939, Final residual = 9.69565e-07, No Iterations 4
GAMG:  Solving for p, Initial residual = 0.0853055, Final residual = 0.00084297, No Iterations 8
time step continuity errors : sum local = 2.078e-08, global = 3.98924e-11, cumulative = 1.37806e-07
GAMG:  Solving for p, Initial residual = 0.0191978, Final residual = 8.55916e-07, No Iterations 43
time step continuity errors : sum local = 6.50961e-11, global = 4.51177e-11, cumulative = 1.37851e-07
ExecutionTime = 370.53 s  ClockTime = 371 s

Courant Number mean: 0.0771076 max: 0.499174
deltaT = 0.000210548
Time = 0.167994

solidBodyMotionFunctions::rotatingMotion::transformation(): Time = 0.167994 transformation: ((0 0 0) (0.863932 (0 0 0.503609)))
AMI: Creating addressing and weights between 9600 source faces and 9600 target faces
AMI: Patch source sum(weights) min/max/average = 1, 1, 1
AMI: Patch target sum(weights) min/max/average = 1, 1, 1
smoothSolver:  Solving for Ux, Initial residual = 0.0012244, Final residual = 8.13153e-07, No Iterations 4
smoothSolver:  Solving for Uy, Initial residual = 0.00122401, Final residual = 8.1221e-07, No Iterations 4
GAMG:  Solving for p, Initial residual = 0.0663266, Final residual = 0.000423137, No Iterations 7
time step continuity errors : sum local = 9.74661e-09, global = 9.03153e-11, cumulative = 1.37941e-07
GAMG:  Solving for p, Initial residual = 0.0123776, Final residual = 9.46026e-07, No Iterations 37
time step continuity errors : sum local = 1.20725e-10, global = 9.97205e-11, cumulative = 1.38041e-07
ExecutionTime = 414.12 s  ClockTime = 415 s

Courant Number mean: 0.077258 max: 0.499388
deltaT = 0.000210806
Time = 0.168205

solidBodyMotionFunctions::rotatingMotion::transformation(): Time = 0.168205 transformation: ((0 0 0) (0.863598 (0 0 0.504181)))
AMI: Creating addressing and weights between 9600 source faces and 9600 target faces
AMI: Patch source sum(weights) min/max/average = 1, 1, 1
AMI: Patch target sum(weights) min/max/average = 1, 1, 1
smoothSolver:  Solving for Ux, Initial residual = 0.00117826, Final residual = 7.63316e-07, No Iterations 4
smoothSolver:  Solving for Uy, Initial residual = 0.00117812, Final residual = 7.63155e-07, No Iterations 4
GAMG:  Solving for p, Initial residual = 0.054103, Final residual = 0.000510805, No Iterations 8
time step continuity errors : sum local = 1.12234e-08, global = 9.09332e-11, cumulative = 1.38132e-07
GAMG:  Solving for p, Initial residual = 0.00885151, Final residual = 8.94293e-07, No Iterations 38
time step continuity errors : sum local = 1.17619e-10, global = 9.82854e-11, cumulative = 1.3823e-07
ExecutionTime = 458.65 s  ClockTime = 459 s

Courant Number mean: 0.0773723 max: 0.499501
deltaT = 0.000211016
Time = 0.168416

solidBodyMotionFunctions::rotatingMotion::transformation(): Time = 0.168416 transformation: ((0 0 0) (0.863264 (0 0 0.504753)))
AMI: Creating addressing and weights between 9600 source faces and 9600 target faces
AMI: Patch source sum(weights) min/max/average = 1, 1, 1
AMI: Patch target sum(weights) min/max/average = 1, 1, 1
smoothSolver:  Solving for Ux, Initial residual = 0.00116495, Final residual = 7.40448e-07, No Iterations 4
smoothSolver:  Solving for Uy, Initial residual = 0.00116478, Final residual = 7.40345e-07, No Iterations 4
GAMG:  Solving for p, Initial residual = 0.0448573, Final residual = 0.000391833, No Iterations 7
time step continuity errors : sum local = 8.45336e-09, global = 6.55284e-11, cumulative = 1.38296e-07
GAMG:  Solving for p, Initial residual = 0.00666852, Final residual = 8.09501e-07, No Iterations 35
time step continuity errors : sum local = 8.68771e-11, global = 6.97682e-11, cumulative = 1.38365e-07
ExecutionTime = 501.18 s  ClockTime = 502 s

Courant Number mean: 0.077467 max: 0.499556
deltaT = 0.000211204
Time = 0.168627

solidBodyMotionFunctions::rotatingMotion::transformation(): Time = 0.168627 transformation: ((0 0 0) (0.862929 (0 0 0.505326)))
AMI: Creating addressing and weights between 9600 source faces and 9600 target faces
AMI: Patch source sum(weights) min/max/average = 1, 1, 1
AMI: Patch target sum(weights) min/max/average = 1, 1, 1
smoothSolver:  Solving for Ux, Initial residual = 0.00116277, Final residual = 7.3033e-07, No Iterations 4
smoothSolver:  Solving for Uy, Initial residual = 0.00116278, Final residual = 7.30867e-07, No Iterations 4
GAMG:  Solving for p, Initial residual = 0.0390873, Final residual = 0.000327206, No Iterations 7
time step continuity errors : sum local = 6.90127e-09, global = 2.86477e-11, cumulative = 1.38394e-07
GAMG:  Solving for p, Initial residual = 0.00536095, Final residual = 9.63181e-07, No Iterations 30
time step continuity errors : sum local = 4.97337e-11, global = 2.97303e-11, cumulative = 1.38424e-07
ExecutionTime = 579.73 s  ClockTime = 581 s

End

