/*---------------------------------------------------------------------------*\
| =========                 |                                                 |
| \\      /  F ield         | OpenFOAM: The Open Source CFD Toolbox           |
|  \\    /   O peration     | Version:  2.3.0                                 |
|   \\  /    A nd           | Web:      www.OpenFOAM.org                      |
|    \\/     M anipulation  |                                                 |
\*---------------------------------------------------------------------------*/
Build  : 2.3.0
Exec   : adjointShapeOptimizationFoam
Date   : Oct 09 2014
Time   : 18:55:55
Host   : "hpc01"
PID    : 2152
Case   : /home/bobo/OpenFOAM/experiment/incompressible/adjointShapeOptimizationFoam/pitzDaily2
nProcs : 1
fileModificationChecking : Monitoring run-time modified files using timeStampMaster
allowSystemOperations : Disallowing user-supplied system call operations

// * * * * * * * * * * * * * * * * * * * * * * * * * * * * * * * * * * * * * //
Create time

Create mesh for time = 1

Reading field p

Reading field U

Reading/calculating face flux field phi

Reading field pa

Reading field Ua

Reading/calculating face flux field phia

Selecting incompressible transport model Newtonian
Selecting RAS turbulence model kEpsilon
kEpsilonCoeffs
{
    Cmu             0.09;
    C1              1.44;
    C2              1.92;
    sigmaEps        1.3;
}


SIMPLE: no convergence criteria found. Calculations will run for 10 steps.


Starting time loop

Time = 2

smoothSolver:  Solving for Ux, Initial residual = 0.8928711106, Final residual = 0.0723489582938, No Iterations 4
smoothSolver:  Solving for Uy, Initial residual = 0.585313791101, Final residual = 0.0481980819564, No Iterations 4
GAMG:  Solving for p, Initial residual = 0.0220215151594, Final residual = 0.000214594903048, No Iterations 152
time step continuity errors : sum local = 1.83082582898, global = 0.229882834112, cumulative = 0.229882834112
smoothSolver:  Solving for Uax, Initial residual = 0.89909289665, Final residual = 0.0839019137634, No Iterations 4
smoothSolver:  Solving for Uay, Initial residual = 0.594430373182, Final residual = 0.0533350903363, No Iterations 4
GAMG:  Solving for pa, Initial residual = 0.0466348559597, Final residual = 0.000442343092444, No Iterations 112
Adjoint continuity errors : sum local = 0.378593767056, global = -0.0531819642014, cumulative = -0.0531819642014
smoothSolver:  Solving for epsilon, Initial residual = 0.566259845055, Final residual = 0.0217080976325, No Iterations 4
smoothSolver:  Solving for k, Initial residual = 0.856701438768, Final residual = 0.0280404176618, No Iterations 4
ExecutionTime = 284.41 s


Time = 3

smoothSolver:  Solving for Ux, Initial residual = 0.510535678373, Final residual = 0.0373473191622, No Iterations 4
smoothSolver:  Solving for Uy, Initial residual = 0.21269111233, Final residual = 0.0165244843822, No Iterations 4
GAMG:  Solving for p, Initial residual = 0.0207958450826, Final residual = 0.000200862928918, No Iterations 276
time step continuity errors : sum local = 1.16724360616, global = 0.209611983414, cumulative = 0.439494817526
smoothSolver:  Solving for Uax, Initial residual = 0.566495438533, Final residual = 0.0520982676499, No Iterations 4
smoothSolver:  Solving for Uay, Initial residual = 0.233505686216, Final residual = 0.020828533298, No Iterations 4
GAMG:  Solving for pa, Initial residual = 0.17277046336, Final residual = 0.00167901332102, No Iterations 111
Adjoint continuity errors : sum local = 1.25993636835, global = -0.204245856677, cumulative = -0.257427820879
smoothSolver:  Solving for epsilon, Initial residual = 0.236211700774, Final residual = 0.0163413106839, No Iterations 2
smoothSolver:  Solving for k, Initial residual = 0.462441161427, Final residual = 0.0276396718089, No Iterations 4
ExecutionTime = 583.88 s


Time = 4

smoothSolver:  Solving for Ux, Initial residual = 0.136076246416, Final residual = 0.0094039445664, No Iterations 4
smoothSolver:  Solving for Uy, Initial residual = 0.0907818528426, Final residual = 0.00678357853674, No Iterations 4
GAMG:  Solving for p, Initial residual = 0.207141927458, Final residual = 0.00195165597646, No Iterations 170
time step continuity errors : sum local = 3.00108964524, global = 0.49254042064, cumulative = 0.932035238166
smoothSolver:  Solving for Uax, Initial residual = 0.0629500130731, Final residual = 0.00548129986715, No Iterations 4
smoothSolver:  Solving for Uay, Initial residual = 0.0876431032547, Final residual = 0.00725197273013, No Iterations 4
GAMG:  Solving for pa, Initial residual = 0.409966920889, Final residual = 0.00407210249356, No Iterations 70
Adjoint continuity errors : sum local = 1.78262853354, global = -0.270025231855, cumulative = -0.527453052734
smoothSolver:  Solving for epsilon, Initial residual = 0.190081772409, Final residual = 0.0108948715877, No Iterations 4
smoothSolver:  Solving for k, Initial residual = 0.199499760471, Final residual = 0.0135997293408, No Iterations 4
ExecutionTime = 777.95 s


Time = 5

smoothSolver:  Solving for Ux, Initial residual = 0.44208507548, Final residual = 0.0328149784763, No Iterations 4
smoothSolver:  Solving for Uy, Initial residual = 0.160935762821, Final residual = 0.0124565379587, No Iterations 4
GAMG:  Solving for p, Initial residual = 0.0504277009589, Final residual = 0.000477623981356, No Iterations 133
time step continuity errors : sum local = 2.39780602007, global = 0.379896774408, cumulative = 1.31193201257
smoothSolver:  Solving for Uax, Initial residual = 0.500431769369, Final residual = 0.0461981411444, No Iterations 4
smoothSolver:  Solving for Uay, Initial residual = 0.142734323495, Final residual = 0.0107637031237, No Iterations 4
GAMG:  Solving for pa, Initial residual = 0.138430220002, Final residual = 0.00135973707066, No Iterations 43
Adjoint continuity errors : sum local = 0.931732835425, global = 0.122464437702, cumulative = -0.404988615032
smoothSolver:  Solving for epsilon, Initial residual = 0.0933134532567, Final residual = 0.00438649437338, No Iterations 4
smoothSolver:  Solving for k, Initial residual = 0.106520233402, Final residual = 0.00701275451506, No Iterations 4
ExecutionTime = 926.1 s


Time = 6

smoothSolver:  Solving for Ux, Initial residual = 0.398489801642, Final residual = 0.0297209731566, No Iterations 4
smoothSolver:  Solving for Uy, Initial residual = 0.252340491408, Final residual = 0.0199704084356, No Iterations 4
GAMG:  Solving for p, Initial residual = 0.0439671156548, Final residual = 0.00042069719594, No Iterations 234
time step continuity errors : sum local = 1.30352385119, global = -0.188697672384, cumulative = 1.12323434019
smoothSolver:  Solving for Uax, Initial residual = 0.567923615658, Final residual = 0.0526213495132, No Iterations 4
smoothSolver:  Solving for Uay, Initial residual = 0.257157027163, Final residual = 0.0224129646396, No Iterations 4
GAMG:  Solving for pa, Initial residual = 0.199049791981, Final residual = 0.00190681822397, No Iterations 81
Adjoint continuity errors : sum local = 1.14635385921, global = 0.179892145981, cumulative = -0.225096469051
smoothSolver:  Solving for epsilon, Initial residual = 0.0499113165587, Final residual = 0.00239047102603, No Iterations 4
smoothSolver:  Solving for k, Initial residual = 0.0557420347691, Final residual = 0.00363054176295, No Iterations 4
ExecutionTime = 1173.21 s


Time = 7

smoothSolver:  Solving for Ux, Initial residual = 0.220435371876, Final residual = 0.0164175426316, No Iterations 4
smoothSolver:  Solving for Uy, Initial residual = 0.189833719579, Final residual = 0.0146247250519, No Iterations 4
GAMG:  Solving for p, Initial residual = 0.100224950978, Final residual = 0.000997522346306, No Iterations 190
time step continuity errors : sum local = 1.28772706469, global = -0.199087438658, cumulative = 0.924146901532
smoothSolver:  Solving for Uax, Initial residual = 0.17206039131, Final residual = 0.0157493596821, No Iterations 4
smoothSolver:  Solving for Uay, Initial residual = 0.29163095612, Final residual = 0.0259225633895, No Iterations 4
GAMG:  Solving for pa, Initial residual = 0.66247978323, Final residual = 0.00624628980915, No Iterations 70
Adjoint continuity errors : sum local = 1.33506421869, global = -0.25362225974, cumulative = -0.478718728791
smoothSolver:  Solving for epsilon, Initial residual = 0.0279756679632, Final residual = 0.00136641112471, No Iterations 4
smoothSolver:  Solving for k, Initial residual = 0.0328477003639, Final residual = 0.00221097564096, No Iterations 4
ExecutionTime = 1381.47 s


Time = 8

smoothSolver:  Solving for Ux, Initial residual = 0.397065323165, Final residual = 0.03001187273, No Iterations 4
smoothSolver:  Solving for Uy, Initial residual = 0.14848247727, Final residual = 0.0117883530617, No Iterations 4
GAMG:  Solving for p, Initial residual = 0.0361095017353, Final residual = 0.000333198888757, No Iterations 165
time step continuity errors : sum local = 1.01893633124, global = -0.144789803793, cumulative = 0.779357097738
smoothSolver:  Solving for Uax, Initial residual = 0.45032306815, Final residual = 0.0418207176178, No Iterations 4
smoothSolver:  Solving for Uay, Initial residual = 0.165085090931, Final residual = 0.0144869711028, No Iterations 4
GAMG:  Solving for pa, Initial residual = 0.221431809178, Final residual = 0.00220356107622, No Iterations 57
Adjoint continuity errors : sum local = 0.974267602862, global = 0.161146729786, cumulative = -0.317571999005
smoothSolver:  Solving for epsilon, Initial residual = 0.0187266130485, Final residual = 0.000939380103657, No Iterations 4
smoothSolver:  Solving for k, Initial residual = 0.0239640025892, Final residual = 0.00155703340835, No Iterations 4
ExecutionTime = 1562.86 s


Time = 9

smoothSolver:  Solving for Ux, Initial residual = 0.192494748516, Final residual = 0.014498312257, No Iterations 4
smoothSolver:  Solving for Uy, Initial residual = 0.136904393055, Final residual = 0.0108815504498, No Iterations 4
GAMG:  Solving for p, Initial residual = 0.0440038406251, Final residual = 0.000416446716197, No Iterations 245
time step continuity errors : sum local = 0.658130074503, global = -0.10829058095, cumulative = 0.671066516788
smoothSolver:  Solving for Uax, Initial residual = 0.351391612554, Final residual = 0.0327013306927, No Iterations 4
smoothSolver:  Solving for Uay, Initial residual = 0.202218435968, Final residual = 0.018008362641, No Iterations 4
GAMG:  Solving for pa, Initial residual = 0.101755599739, Final residual = 0.000990482501096, No Iterations 110
Adjoint continuity errors : sum local = 0.447011611586, global = 0.0588178516955, cumulative = -0.258754147309
smoothSolver:  Solving for epsilon, Initial residual = 0.0130546918921, Final residual = 0.000682455452072, No Iterations 4
smoothSolver:  Solving for k, Initial residual = 0.0198869362025, Final residual = 0.00117170165512, No Iterations 4
ExecutionTime = 1839.08 s


Time = 10

smoothSolver:  Solving for Ux, Initial residual = 0.131347158353, Final residual = 0.00979211293348, No Iterations 4
smoothSolver:  Solving for Uy, Initial residual = 0.08563442543, Final residual = 0.0066215091571, No Iterations 4
GAMG:  Solving for p, Initial residual = 0.101895663292, Final residual = 0.00100513140281, No Iterations 166
time step continuity errors : sum local = 1.01367156531, global = 0.125145763527, cumulative = 0.796212280316
smoothSolver:  Solving for Uax, Initial residual = 0.111334312187, Final residual = 0.0102974350045, No Iterations 4
smoothSolver:  Solving for Uay, Initial residual = 0.163761650746, Final residual = 0.0145520869234, No Iterations 4
GAMG:  Solving for pa, Initial residual = 0.175735476975, Final residual = 0.00171752430343, No Iterations 111
Adjoint continuity errors : sum local = 0.446186501459, global = -0.0800234381536, cumulative = -0.338777585463
smoothSolver:  Solving for epsilon, Initial residual = 0.0111597872402, Final residual = 0.000516574893954, No Iterations 4
smoothSolver:  Solving for k, Initial residual = 0.0180459724271, Final residual = 0.000950444740412, No Iterations 4
ExecutionTime = 2059.09 s


End

