/*---------------------------------------------------------------------------*\
| =========                 |                                                 |
| \\      /  F ield         | OpenFOAM: The Open Source CFD Toolbox           |
|  \\    /   O peration     | Version:  2.3.0                                 |
|   \\  /    A nd           | Web:      www.OpenFOAM.org                      |
|    \\/     M anipulation  |                                                 |
\*---------------------------------------------------------------------------*/
Build  : 2.3.0
Exec   : adjointShapeOptimizationFoam -parallel
Date   : Oct 09 2014
Time   : 16:54:26
Host   : "hpc01"
PID    : 2019
Case   : /home/bobo/OpenFOAM/experiment/incompressible/adjointShapeOptimizationFoam/pitzDaily2
nProcs : 3
Slaves : 
2
(
"hpc01.2020"
"hpc01.2021"
)

Pstream initialized with:
    floatTransfer      : 0
    nProcsSimpleSum    : 0
    commsType          : nonBlocking
    polling iterations : 0
fileModificationChecking : Monitoring run-time modified files using timeStampMaster
allowSystemOperations : Disallowing user-supplied system call operations

// * * * * * * * * * * * * * * * * * * * * * * * * * * * * * * * * * * * * * //
Create time

Create mesh for time = 1

Reading field p

Reading field U

Reading/calculating face flux field phi

Reading field pa

Reading field Ua

Reading/calculating face flux field phia

Selecting incompressible transport model Newtonian
Selecting RAS turbulence model kEpsilon
kEpsilonCoeffs
{
    Cmu             0.09;
    C1              1.44;
    C2              1.92;
    sigmaEps        1.3;
}


SIMPLE: no convergence criteria found. Calculations will run for 10 steps.


Starting time loop

Time = 2

smoothSolver:  Solving for Ux, Initial residual = 0.892871110569, Final residual = 0.0723709886339, No Iterations 4
smoothSolver:  Solving for Uy, Initial residual = 0.585313791062, Final residual = 0.0482072570957, No Iterations 4
GAMG:  Solving for p, Initial residual = 0.0221320806645, Final residual = 0.000212096756043, No Iterations 137
time step continuity errors : sum local = 1.80971804392, global = -0.32087573147, cumulative = -0.32087573147
smoothSolver:  Solving for Uax, Initial residual = 0.899109690846, Final residual = 0.0838654623718, No Iterations 4
smoothSolver:  Solving for Uay, Initial residual = 0.594443724127, Final residual = 0.0533118563672, No Iterations 4
GAMG:  Solving for pa, Initial residual = 0.0468808713086, Final residual = 0.00045461923108, No Iterations 96
Adjoint continuity errors : sum local = 0.389546741631, global = -0.0586982122691, cumulative = -0.0586982122691
smoothSolver:  Solving for epsilon, Initial residual = 0.566559841168, Final residual = 0.0218206664869, No Iterations 4
smoothSolver:  Solving for k, Initial residual = 0.856296881995, Final residual = 0.0281410521934, No Iterations 4
ExecutionTime = 111.89 s


Time = 3

smoothSolver:  Solving for Ux, Initial residual = 0.508770277128, Final residual = 0.0372543729322, No Iterations 4
smoothSolver:  Solving for Uy, Initial residual = 0.215147064286, Final residual = 0.0167290108435, No Iterations 4
GAMG:  Solving for p, Initial residual = 0.0210384427529, Final residual = 0.000205579605795, No Iterations 266
time step continuity errors : sum local = 1.18672854523, global = 0.223296431801, cumulative = -0.097579299669
smoothSolver:  Solving for Uax, Initial residual = 0.562227106625, Final residual = 0.0516819732081, No Iterations 4
smoothSolver:  Solving for Uay, Initial residual = 0.23720336764, Final residual = 0.0211508741969, No Iterations 4
GAMG:  Solving for pa, Initial residual = 0.174957606866, Final residual = 0.00171648403946, No Iterations 95
Adjoint continuity errors : sum local = 1.2751511856, global = -0.214470813511, cumulative = -0.27316902578
smoothSolver:  Solving for epsilon, Initial residual = 0.235844054998, Final residual = 0.0162507125199, No Iterations 2
smoothSolver:  Solving for k, Initial residual = 0.461719944871, Final residual = 0.0276293230873, No Iterations 4
ExecutionTime = 235.51 s


Time = 4

smoothSolver:  Solving for Ux, Initial residual = 0.137519729449, Final residual = 0.00953075229928, No Iterations 4
smoothSolver:  Solving for Uy, Initial residual = 0.089376645828, Final residual = 0.00667548954384, No Iterations 4
GAMG:  Solving for p, Initial residual = 0.205305242532, Final residual = 0.00204547982876, No Iterations 154
time step continuity errors : sum local = 3.18413685809, global = 0.568252316175, cumulative = 0.470673016506
smoothSolver:  Solving for Uax, Initial residual = 0.0914597525248, Final residual = 0.0081408937186, No Iterations 4
smoothSolver:  Solving for Uay, Initial residual = 0.0886518647955, Final residual = 0.0073173858928, No Iterations 4
GAMG:  Solving for pa, Initial residual = 0.388390827851, Final residual = 0.00378904707402, No Iterations 66
Adjoint continuity errors : sum local = 1.75349532238, global = -0.298252593956, cumulative = -0.571421619736
smoothSolver:  Solving for epsilon, Initial residual = 0.189803852697, Final residual = 0.0108776724269, No Iterations 4
smoothSolver:  Solving for k, Initial residual = 0.199202528663, Final residual = 0.0136034492284, No Iterations 4
ExecutionTime = 315.22 s


Time = 5

smoothSolver:  Solving for Ux, Initial residual = 0.444824627606, Final residual = 0.0330871718324, No Iterations 4
smoothSolver:  Solving for Uy, Initial residual = 0.156437452727, Final residual = 0.0121149492574, No Iterations 4
GAMG:  Solving for p, Initial residual = 0.0504713125149, Final residual = 0.000462886467099, No Iterations 110
time step continuity errors : sum local = 2.33918966443, global = -0.375601869925, cumulative = 0.0950711465816
smoothSolver:  Solving for Uax, Initial residual = 0.516426748885, Final residual = 0.0477402516118, No Iterations 4
smoothSolver:  Solving for Uay, Initial residual = 0.130687048199, Final residual = 0.00975924193747, No Iterations 4
GAMG:  Solving for pa, Initial residual = 0.134198407593, Final residual = 0.00132887268535, No Iterations 53
Adjoint continuity errors : sum local = 0.944460149103, global = 0.143758769619, cumulative = -0.427662850117
smoothSolver:  Solving for epsilon, Initial residual = 0.0933139484647, Final residual = 0.00438968695539, No Iterations 4
smoothSolver:  Solving for k, Initial residual = 0.106388404911, Final residual = 0.00701174585549, No Iterations 4
ExecutionTime = 377.05 s


Time = 6

smoothSolver:  Solving for Ux, Initial residual = 0.389816553632, Final residual = 0.0290511539588, No Iterations 4
smoothSolver:  Solving for Uy, Initial residual = 0.260231353179, Final residual = 0.0205930204525, No Iterations 4
GAMG:  Solving for p, Initial residual = 0.0456247100389, Final residual = 0.000445648944995, No Iterations 224
time step continuity errors : sum local = 1.33481180152, global = -0.245863020439, cumulative = -0.150791873858
smoothSolver:  Solving for Uax, Initial residual = 0.547403741719, Final residual = 0.0507382015043, No Iterations 4
smoothSolver:  Solving for Uay, Initial residual = 0.259590512214, Final residual = 0.022671418647, No Iterations 4
GAMG:  Solving for pa, Initial residual = 0.211581332581, Final residual = 0.00205465860171, No Iterations 63
Adjoint continuity errors : sum local = 1.16720846981, global = 0.190075320907, cumulative = -0.23758752921
smoothSolver:  Solving for epsilon, Initial residual = 0.049895662899, Final residual = 0.00239400501995, No Iterations 4
smoothSolver:  Solving for k, Initial residual = 0.055679854101, Final residual = 0.00362719601632, No Iterations 4
ExecutionTime = 476.56 s


Time = 7

smoothSolver:  Solving for Ux, Initial residual = 0.236586851815, Final residual = 0.0176449223333, No Iterations 4
smoothSolver:  Solving for Uy, Initial residual = 0.18837854134, Final residual = 0.0144978326814, No Iterations 4
GAMG:  Solving for p, Initial residual = 0.0944098503169, Final residual = 0.000929139973769, No Iterations 186
time step continuity errors : sum local = 1.28877255705, global = -0.233974198722, cumulative = -0.38476607258
smoothSolver:  Solving for Uax, Initial residual = 0.147080044955, Final residual = 0.0134271993077, No Iterations 4
smoothSolver:  Solving for Uay, Initial residual = 0.312546216971, Final residual = 0.0276008653004, No Iterations 4
GAMG:  Solving for pa, Initial residual = 0.610988567867, Final residual = 0.00601376657835, No Iterations 47
Adjoint continuity errors : sum local = 1.46469593601, global = 0.231869665519, cumulative = -0.00571786369102
smoothSolver:  Solving for epsilon, Initial residual = 0.027979085067, Final residual = 0.00136869282783, No Iterations 4
smoothSolver:  Solving for k, Initial residual = 0.0327946008714, Final residual = 0.00220650226085, No Iterations 4
ExecutionTime = 559.75 s


Time = 8

smoothSolver:  Solving for Ux, Initial residual = 0.395056987443, Final residual = 0.0298555950272, No Iterations 4
smoothSolver:  Solving for Uy, Initial residual = 0.152179036697, Final residual = 0.0120802179256, No Iterations 4
GAMG:  Solving for p, Initial residual = 0.0365856100079, Final residual = 0.000355487345973, No Iterations 139
time step continuity errors : sum local = 1.08621204101, global = -0.190255624268, cumulative = -0.575021696848
smoothSolver:  Solving for Uax, Initial residual = 0.473198868843, Final residual = 0.043956850043, No Iterations 4
smoothSolver:  Solving for Uay, Initial residual = 0.172377257446, Final residual = 0.0149810585099, No Iterations 4
GAMG:  Solving for pa, Initial residual = 0.200289106331, Final residual = 0.00199887437376, No Iterations 65
Adjoint continuity errors : sum local = 0.936281138081, global = -0.171772888585, cumulative = -0.177490752276
smoothSolver:  Solving for epsilon, Initial residual = 0.0187374827821, Final residual = 0.000941383997311, No Iterations 4
smoothSolver:  Solving for k, Initial residual = 0.0239051907488, Final residual = 0.00155443504316, No Iterations 4
ExecutionTime = 633.63 s


Time = 9

smoothSolver:  Solving for Ux, Initial residual = 0.17616794248, Final residual = 0.0132736855904, No Iterations 4
smoothSolver:  Solving for Uy, Initial residual = 0.147163923805, Final residual = 0.0117207493855, No Iterations 4
GAMG:  Solving for p, Initial residual = 0.048240255836, Final residual = 0.000482263098269, No Iterations 236
time step continuity errors : sum local = 0.704550825304, global = 0.129428408029, cumulative = -0.445593288819
smoothSolver:  Solving for Uax, Initial residual = 0.309997155312, Final residual = 0.0288173354057, No Iterations 4
smoothSolver:  Solving for Uay, Initial residual = 0.237701189155, Final residual = 0.021213263883, No Iterations 4
GAMG:  Solving for pa, Initial residual = 0.108501824188, Final residual = 0.00104703312986, No Iterations 88
Adjoint continuity errors : sum local = 0.458427850076, global = -0.0621322334583, cumulative = -0.239622985734
smoothSolver:  Solving for epsilon, Initial residual = 0.0130458048524, Final residual = 0.000683797913958, No Iterations 4
smoothSolver:  Solving for k, Initial residual = 0.0198895416644, Final residual = 0.0011697439116, No Iterations 4
ExecutionTime = 744.56 s


Time = 10

smoothSolver:  Solving for Ux, Initial residual = 0.141931733063, Final residual = 0.0105993915109, No Iterations 4
smoothSolver:  Solving for Uy, Initial residual = 0.0821381178501, Final residual = 0.00635345038312, No Iterations 4
GAMG:  Solving for p, Initial residual = 0.0953131467106, Final residual = 0.000935690884549, No Iterations 164
time step continuity errors : sum local = 1.02232434035, global = 0.178057996506, cumulative = -0.267535292313
smoothSolver:  Solving for Uax, Initial residual = 0.0748864474705, Final residual = 0.00687503725421, No Iterations 4
smoothSolver:  Solving for Uay, Initial residual = 0.195802557554, Final residual = 0.0172650814601, No Iterations 4
GAMG:  Solving for pa, Initial residual = 0.199653993408, Final residual = 0.00199013348181, No Iterations 74
Adjoint continuity errors : sum local = 0.498638463017, global = -0.078057816737, cumulative = -0.317680802471
smoothSolver:  Solving for epsilon, Initial residual = 0.0111810889959, Final residual = 0.000518555921563, No Iterations 4
smoothSolver:  Solving for k, Initial residual = 0.0180744789269, Final residual = 0.000950529214349, No Iterations 4
ExecutionTime = 828.86 s


End

Finalising parallel run
