/*---------------------------------------------------------------------------*\
| =========                 |                                                 |
| \\      /  F ield         | OpenFOAM: The Open Source CFD Toolbox           |
|  \\    /   O peration     | Version:  2.3.0                                 |
|   \\  /    A nd           | Web:      www.OpenFOAM.org                      |
|    \\/     M anipulation  |                                                 |
\*---------------------------------------------------------------------------*/
Build  : 2.3.0
Exec   : pimpleDyMFoam -parallel
Date   : Oct 09 2014
Time   : 23:35:50
Host   : "hpc01"
PID    : 2523
Case   : /home/bobo/OpenFOAM/experiment/incompressible/pimpleDyMFoam/mixerVesselAMI2D2
nProcs : 6
Slaves : 
5
(
"hpc01.2524"
"hpc01.2525"
"hpc01.2526"
"hpc01.2527"
"hpc01.2528"
)

Pstream initialized with:
    floatTransfer      : 0
    nProcsSimpleSum    : 0
    commsType          : nonBlocking
    polling iterations : 0
fileModificationChecking : Monitoring run-time modified files using timeStampMaster
allowSystemOperations : Disallowing user-supplied system call operations

// * * * * * * * * * * * * * * * * * * * * * * * * * * * * * * * * * * * * * //
Create time

Create mesh for time = 0.152627

Selecting dynamicFvMesh solidBodyMotionFvMesh
Selecting solid-body motion function rotatingMotion
Applying solid body motion to cellZone rotor

PIMPLE: Operating solver in PISO mode

Reading field p

Reading field U

Reading/calculating face flux field phi

AMI: Creating addressing and weights between 9600 source faces and 9600 target faces
AMI: Patch source sum(weights) min/max/average = 1, 1, 1
AMI: Patch target sum(weights) min/max/average = 1, 1, 1
Selecting incompressible transport model Newtonian
Selecting turbulence model type laminar
Reading/calculating face velocity Uf

No finite volume options present

Courant Number mean: 0.0748264 max: 0.499741

Starting time loop

Courant Number mean: 0.0748264 max: 0.499741
deltaT = 0.000206508
Time = 0.152834

solidBodyMotionFunctions::rotatingMotion::transformation(): Time = 0.152834 transformation: ((0 0 0) (0.886929 (0 0 0.461905)))
AMI: Creating addressing and weights between 9600 source faces and 9600 target faces
AMI: Patch source sum(weights) min/max/average = 1, 1, 1
AMI: Patch target sum(weights) min/max/average = 1, 1, 1
smoothSolver:  Solving for Ux, Initial residual = 0.00286034, Final residual = 9.19104e-07, No Iterations 4
smoothSolver:  Solving for Uy, Initial residual = 0.00286077, Final residual = 9.05714e-07, No Iterations 4
GAMG:  Solving for p, Initial residual = 0.786902, Final residual = 0.0078534, No Iterations 41
time step continuity errors : sum local = 1.12744e-06, global = 5.93617e-07, cumulative = 5.93617e-07
GAMG:  Solving for p, Initial residual = 0.194918, Final residual = 8.87527e-07, No Iterations 110
time step continuity errors : sum local = 5.94388e-07, global = 5.94293e-07, cumulative = 1.18791e-06
ExecutionTime = 52.51 s  ClockTime = 52 s

Courant Number mean: 0.0748576 max: 1.12634
deltaT = 9.16719e-05
Time = 0.152925

solidBodyMotionFunctions::rotatingMotion::transformation(): Time = 0.152925 transformation: ((0 0 0) (0.886796 (0 0 0.46216)))
AMI: Creating addressing and weights between 9600 source faces and 9600 target faces
AMI: Patch source sum(weights) min/max/average = 1, 1, 1
AMI: Patch target sum(weights) min/max/average = 1, 1, 1
smoothSolver:  Solving for Ux, Initial residual = 0.00581523, Final residual = 2.72504e-07, No Iterations 4
smoothSolver:  Solving for Uy, Initial residual = 0.00584545, Final residual = 2.72262e-07, No Iterations 4
GAMG:  Solving for p, Initial residual = 0.849752, Final residual = 0.00829778, No Iterations 23
time step continuity errors : sum local = 4.38025e-07, global = 2.13e-07, cumulative = 1.40091e-06
GAMG:  Solving for p, Initial residual = 0.134182, Final residual = 9.71591e-07, No Iterations 121
time step continuity errors : sum local = 2.12976e-07, global = 2.12949e-07, cumulative = 1.61386e-06
ExecutionTime = 90.16 s  ClockTime = 90 s

Courant Number mean: 0.033191 max: 0.403607
deltaT = 0.000103028
Time = 0.153028

solidBodyMotionFunctions::rotatingMotion::transformation(): Time = 0.153028 transformation: ((0 0 0) (0.886647 (0 0 0.462447)))
AMI: Creating addressing and weights between 9600 source faces and 9600 target faces
AMI: Patch source sum(weights) min/max/average = 1, 1, 1
AMI: Patch target sum(weights) min/max/average = 1, 1, 1
smoothSolver:  Solving for Ux, Initial residual = 0.00625207, Final residual = 3.46873e-07, No Iterations 4
smoothSolver:  Solving for Uy, Initial residual = 0.00628746, Final residual = 3.49503e-07, No Iterations 4
GAMG:  Solving for p, Initial residual = 0.330632, Final residual = 0.00315283, No Iterations 41
time step continuity errors : sum local = 2.82108e-07, global = 2.01887e-07, cumulative = 1.81575e-06
GAMG:  Solving for p, Initial residual = 0.0785183, Final residual = 9.77397e-07, No Iterations 91
time step continuity errors : sum local = 2.0192e-07, global = 2.01901e-07, cumulative = 2.01765e-06
ExecutionTime = 125.34 s  ClockTime = 125 s

Courant Number mean: 0.0373084 max: 0.382667
deltaT = 0.00011649
Time = 0.153145

solidBodyMotionFunctions::rotatingMotion::transformation(): Time = 0.153145 transformation: ((0 0 0) (0.886477 (0 0 0.462772)))
AMI: Creating addressing and weights between 9600 source faces and 9600 target faces
AMI: Patch source sum(weights) min/max/average = 1, 1, 1
AMI: Patch target sum(weights) min/max/average = 1, 1, 1
smoothSolver:  Solving for Ux, Initial residual = 0.0028159, Final residual = 2.81139e-07, No Iterations 4
smoothSolver:  Solving for Uy, Initial residual = 0.00283877, Final residual = 2.81323e-07, No Iterations 4
GAMG:  Solving for p, Initial residual = 0.171113, Final residual = 0.00170128, No Iterations 35
time step continuity errors : sum local = 2.28394e-07, global = 1.89799e-07, cumulative = 2.20745e-06
GAMG:  Solving for p, Initial residual = 0.0334586, Final residual = 8.83192e-07, No Iterations 66
time step continuity errors : sum local = 1.89818e-07, global = 1.89801e-07, cumulative = 2.39725e-06
ExecutionTime = 153.16 s  ClockTime = 153 s

Courant Number mean: 0.0421981 max: 0.359733
deltaT = 0.000132682
Time = 0.153277

solidBodyMotionFunctions::rotatingMotion::transformation(): Time = 0.153277 transformation: ((0 0 0) (0.886284 (0 0 0.463141)))
AMI: Creating addressing and weights between 9600 source faces and 9600 target faces
AMI: Patch source sum(weights) min/max/average = 1, 1, 1
AMI: Patch target sum(weights) min/max/average = 1, 1, 1
smoothSolver:  Solving for Ux, Initial residual = 0.00185503, Final residual = 3.06953e-07, No Iterations 4
smoothSolver:  Solving for Uy, Initial residual = 0.00188111, Final residual = 3.07918e-07, No Iterations 4
GAMG:  Solving for p, Initial residual = 0.125297, Final residual = 0.00124994, No Iterations 32
time step continuity errors : sum local = 2.06471e-07, global = 1.76546e-07, cumulative = 2.57379e-06
GAMG:  Solving for p, Initial residual = 0.0215832, Final residual = 7.42558e-07, No Iterations 84
time step continuity errors : sum local = 1.76569e-07, global = 1.76553e-07, cumulative = 2.75035e-06
ExecutionTime = 184.14 s  ClockTime = 184 s

Courant Number mean: 0.0480821 max: 0.334624
deltaT = 0.000152507
Time = 0.15343

solidBodyMotionFunctions::rotatingMotion::transformation(): Time = 0.15343 transformation: ((0 0 0) (0.886062 (0 0 0.463566)))
AMI: Creating addressing and weights between 9600 source faces and 9600 target faces
AMI: Patch source sum(weights) min/max/average = 1, 1, 1
AMI: Patch target sum(weights) min/max/average = 1, 1, 1
smoothSolver:  Solving for Ux, Initial residual = 0.00145031, Final residual = 3.83082e-07, No Iterations 4
smoothSolver:  Solving for Uy, Initial residual = 0.00147771, Final residual = 3.84497e-07, No Iterations 4
GAMG:  Solving for p, Initial residual = 0.105386, Final residual = 0.000979816, No Iterations 31
time step continuity errors : sum local = 1.88508e-07, global = 1.62147e-07, cumulative = 2.91249e-06
GAMG:  Solving for p, Initial residual = 0.0164588, Final residual = 9.09918e-07, No Iterations 85
time step continuity errors : sum local = 1.62178e-07, global = 1.62156e-07, cumulative = 3.07465e-06
ExecutionTime = 214.95 s  ClockTime = 215 s

Courant Number mean: 0.055288 max: 0.370576
deltaT = 0.000173084
Time = 0.153603

solidBodyMotionFunctions::rotatingMotion::transformation(): Time = 0.153603 transformation: ((0 0 0) (0.88581 (0 0 0.464048)))
AMI: Creating addressing and weights between 9600 source faces and 9600 target faces
AMI: Patch source sum(weights) min/max/average = 1, 1, 1
AMI: Patch target sum(weights) min/max/average = 1, 1, 1
smoothSolver:  Solving for Ux, Initial residual = 0.00127541, Final residual = 4.87612e-07, No Iterations 4
smoothSolver:  Solving for Uy, Initial residual = 0.00130153, Final residual = 4.89818e-07, No Iterations 4
GAMG:  Solving for p, Initial residual = 0.0944758, Final residual = 0.000922332, No Iterations 28
time step continuity errors : sum local = 1.70825e-07, global = 1.43909e-07, cumulative = 3.21856e-06
GAMG:  Solving for p, Initial residual = 0.0133602, Final residual = 9.37966e-07, No Iterations 59
time step continuity errors : sum local = 1.43946e-07, global = 1.4392e-07, cumulative = 3.36248e-06
ExecutionTime = 240.1 s  ClockTime = 240 s

Courant Number mean: 0.0627708 max: 0.41981
deltaT = 0.000193699
Time = 0.153797

solidBodyMotionFunctions::rotatingMotion::transformation(): Time = 0.153797 transformation: ((0 0 0) (0.885528 (0 0 0.464587)))
AMI: Creating addressing and weights between 9600 source faces and 9600 target faces
AMI: Patch source sum(weights) min/max/average = 1, 1, 1
AMI: Patch target sum(weights) min/max/average = 1, 1, 1
smoothSolver:  Solving for Ux, Initial residual = 0.00123278, Final residual = 6.29108e-07, No Iterations 4
smoothSolver:  Solving for Uy, Initial residual = 0.0012589, Final residual = 6.34649e-07, No Iterations 4
GAMG:  Solving for p, Initial residual = 0.0879872, Final residual = 0.000854558, No Iterations 25
time step continuity errors : sum local = 1.50758e-07, global = 1.23439e-07, cumulative = 3.48592e-06
GAMG:  Solving for p, Initial residual = 0.0112437, Final residual = 8.90581e-07, No Iterations 72
time step continuity errors : sum local = 1.23475e-07, global = 1.23449e-07, cumulative = 3.60937e-06
ExecutionTime = 267.27 s  ClockTime = 267 s

Courant Number mean: 0.0702713 max: 0.469106
deltaT = 0.000206455
Time = 0.154003

solidBodyMotionFunctions::rotatingMotion::transformation(): Time = 0.154003 transformation: ((0 0 0) (0.885226 (0 0 0.465161)))
AMI: Creating addressing and weights between 9600 source faces and 9600 target faces
AMI: Patch source sum(weights) min/max/average = 1, 1, 1
AMI: Patch target sum(weights) min/max/average = 1, 1, 1
smoothSolver:  Solving for Ux, Initial residual = 0.00122315, Final residual = 7.24971e-07, No Iterations 4
smoothSolver:  Solving for Uy, Initial residual = 0.0012468, Final residual = 7.32808e-07, No Iterations 4
GAMG:  Solving for p, Initial residual = 0.0753342, Final residual = 0.000709984, No Iterations 26
time step continuity errors : sum local = 1.2274e-07, global = 9.98505e-08, cumulative = 3.70922e-06
GAMG:  Solving for p, Initial residual = 0.00898817, Final residual = 8.91702e-07, No Iterations 94
time step continuity errors : sum local = 9.9882e-08, global = 9.98549e-08, cumulative = 3.80907e-06
ExecutionTime = 298.94 s  ClockTime = 299 s

Courant Number mean: 0.0749232 max: 0.49939
deltaT = 0.000206707
Time = 0.15421

solidBodyMotionFunctions::rotatingMotion::transformation(): Time = 0.15421 transformation: ((0 0 0) (0.884924 (0 0 0.465736)))
AMI: Creating addressing and weights between 9600 source faces and 9600 target faces
AMI: Patch source sum(weights) min/max/average = 1, 1, 1
AMI: Patch target sum(weights) min/max/average = 1, 1, 1
smoothSolver:  Solving for Ux, Initial residual = 0.00119313, Final residual = 6.9244e-07, No Iterations 4
smoothSolver:  Solving for Uy, Initial residual = 0.00121211, Final residual = 6.98539e-07, No Iterations 4
GAMG:  Solving for p, Initial residual = 0.0600017, Final residual = 0.000552987, No Iterations 24
time step continuity errors : sum local = 9.27019e-08, global = 7.62464e-08, cumulative = 3.88532e-06
GAMG:  Solving for p, Initial residual = 0.00672086, Final residual = 8.90187e-07, No Iterations 53
time step continuity errors : sum local = 7.62728e-08, global = 7.62473e-08, cumulative = 3.96156e-06
ExecutionTime = 328.9 s  ClockTime = 329 s

End

Finalising parallel run
