/*---------------------------------------------------------------------------*\
| =========                 |                                                 |
| \\      /  F ield         | OpenFOAM: The Open Source CFD Toolbox           |
|  \\    /   O peration     | Version:  2.3.0                                 |
|   \\  /    A nd           | Web:      www.OpenFOAM.org                      |
|    \\/     M anipulation  |                                                 |
\*---------------------------------------------------------------------------*/
Build  : 2.3.0
Exec   : pimpleDyMFoam -parallel
Date   : Oct 10 2014
Time   : 07:43:49
Host   : "hpc01"
PID    : 3540
Case   : /home/bobo/OpenFOAM/experiment/incompressible/pimpleDyMFoam/mixerVesselAMI2D2
nProcs : 6
Slaves : 
5
(
"hpc01.3541"
"hpc01.3542"
"hpc01.3543"
"hpc01.3544"
"hpc01.3545"
)

Pstream initialized with:
    floatTransfer      : 0
    nProcsSimpleSum    : 0
    commsType          : nonBlocking
    polling iterations : 0
fileModificationChecking : Monitoring run-time modified files using timeStampMaster
allowSystemOperations : Disallowing user-supplied system call operations

// * * * * * * * * * * * * * * * * * * * * * * * * * * * * * * * * * * * * * //
Create time

Create mesh for time = 0.178796

Selecting dynamicFvMesh solidBodyMotionFvMesh
Selecting solid-body motion function rotatingMotion
Applying solid body motion to cellZone rotor

PIMPLE: Operating solver in PISO mode

Reading field p

Reading field U

Reading/calculating face flux field phi

AMI: Creating addressing and weights between 9600 source faces and 9600 target faces
AMI: Patch source sum(weights) min/max/average = 1, 1, 1
AMI: Patch target sum(weights) min/max/average = 1, 1, 1
Selecting incompressible transport model Newtonian
Selecting turbulence model type laminar
Reading/calculating face velocity Uf

No finite volume options present

Courant Number mean: 0.0791892 max: 0.499761

Starting time loop

Courant Number mean: 0.0791892 max: 0.499761
deltaT = 0.000214624
Time = 0.179011

solidBodyMotionFunctions::rotatingMotion::transformation(): Time = 0.179011 transformation: ((0 0 0) (0.845989 (0 0 0.533201)))
AMI: Creating addressing and weights between 9600 source faces and 9600 target faces
AMI: Patch source sum(weights) min/max/average = 1, 1, 1
AMI: Patch target sum(weights) min/max/average = 1, 1, 1
smoothSolver:  Solving for Ux, Initial residual = 0.00279235, Final residual = 2.0103e-07, No Iterations 5
smoothSolver:  Solving for Uy, Initial residual = 0.00279301, Final residual = 1.95217e-07, No Iterations 5
GAMG:  Solving for p, Initial residual = 0.792144, Final residual = 0.00777907, No Iterations 43
time step continuity errors : sum local = 1.23865e-06, global = 6.91301e-07, cumulative = 6.91301e-07
GAMG:  Solving for p, Initial residual = 0.194581, Final residual = 9.40974e-07, No Iterations 81
time step continuity errors : sum local = 6.91923e-07, global = 6.91818e-07, cumulative = 1.38312e-06
ExecutionTime = 56.46 s  ClockTime = 57 s

Courant Number mean: 0.0789881 max: 1.33177
deltaT = 8.05784e-05
Time = 0.179091

solidBodyMotionFunctions::rotatingMotion::transformation(): Time = 0.179091 transformation: ((0 0 0) (0.845854 (0 0 0.533415)))
AMI: Creating addressing and weights between 9600 source faces and 9600 target faces
AMI: Patch source sum(weights) min/max/average = 1, 1, 1
AMI: Patch target sum(weights) min/max/average = 1, 1, 1
smoothSolver:  Solving for Ux, Initial residual = 0.00475927, Final residual = 1.70917e-07, No Iterations 4
smoothSolver:  Solving for Uy, Initial residual = 0.00476396, Final residual = 1.70587e-07, No Iterations 4
GAMG:  Solving for p, Initial residual = 0.858638, Final residual = 0.00856139, No Iterations 41
time step continuity errors : sum local = 3.80471e-07, global = 1.97623e-07, cumulative = 1.58074e-06
GAMG:  Solving for p, Initial residual = 0.115023, Final residual = 9.19017e-07, No Iterations 125
time step continuity errors : sum local = 1.97628e-07, global = 1.97606e-07, cumulative = 1.77835e-06
ExecutionTime = 112.01 s  ClockTime = 113 s

Courant Number mean: 0.0296539 max: 0.380395
deltaT = 9.11698e-05
Time = 0.179182

solidBodyMotionFunctions::rotatingMotion::transformation(): Time = 0.179182 transformation: ((0 0 0) (0.845701 (0 0 0.533657)))
AMI: Creating addressing and weights between 9600 source faces and 9600 target faces
AMI: Patch source sum(weights) min/max/average = 1, 1, 1
AMI: Patch target sum(weights) min/max/average = 1, 1, 1
smoothSolver:  Solving for Ux, Initial residual = 0.00558602, Final residual = 2.38941e-07, No Iterations 4
smoothSolver:  Solving for Uy, Initial residual = 0.00558959, Final residual = 2.38457e-07, No Iterations 4
GAMG:  Solving for p, Initial residual = 0.321844, Final residual = 0.00316935, No Iterations 40
time step continuity errors : sum local = 2.61265e-07, global = 1.91952e-07, cumulative = 1.9703e-06
GAMG:  Solving for p, Initial residual = 0.0687743, Final residual = 6.58847e-07, No Iterations 103
time step continuity errors : sum local = 1.91965e-07, global = 1.91954e-07, cumulative = 2.16225e-06
ExecutionTime = 161.16 s  ClockTime = 162 s

Courant Number mean: 0.0335683 max: 0.369514
deltaT = 0.000103506
Time = 0.179286

solidBodyMotionFunctions::rotatingMotion::transformation(): Time = 0.179286 transformation: ((0 0 0) (0.845527 (0 0 0.533932)))
AMI: Creating addressing and weights between 9600 source faces and 9600 target faces
AMI: Patch source sum(weights) min/max/average = 1, 1, 1
AMI: Patch target sum(weights) min/max/average = 1, 1, 1
smoothSolver:  Solving for Ux, Initial residual = 0.00265217, Final residual = 2.23424e-07, No Iterations 4
smoothSolver:  Solving for Uy, Initial residual = 0.00266092, Final residual = 2.22553e-07, No Iterations 4
GAMG:  Solving for p, Initial residual = 0.168838, Final residual = 0.00165837, No Iterations 36
time step continuity errors : sum local = 2.16979e-07, global = 1.84535e-07, cumulative = 2.34679e-06
GAMG:  Solving for p, Initial residual = 0.0304109, Final residual = 9.17166e-07, No Iterations 96
time step continuity errors : sum local = 1.84557e-07, global = 1.84541e-07, cumulative = 2.53133e-06
ExecutionTime = 207.26 s  ClockTime = 208 s

Courant Number mean: 0.0381323 max: 0.355244
deltaT = 0.000118075
Time = 0.179404

solidBodyMotionFunctions::rotatingMotion::transformation(): Time = 0.179404 transformation: ((0 0 0) (0.845329 (0 0 0.534246)))
AMI: Creating addressing and weights between 9600 source faces and 9600 target faces
AMI: Patch source sum(weights) min/max/average = 1, 1, 1
AMI: Patch target sum(weights) min/max/average = 1, 1, 1
smoothSolver:  Solving for Ux, Initial residual = 0.00175326, Final residual = 2.54124e-07, No Iterations 4
smoothSolver:  Solving for Uy, Initial residual = 0.00177098, Final residual = 2.5486e-07, No Iterations 4
GAMG:  Solving for p, Initial residual = 0.124179, Final residual = 0.00119788, No Iterations 32
time step continuity errors : sum local = 1.99785e-07, global = 1.75285e-07, cumulative = 2.70662e-06
GAMG:  Solving for p, Initial residual = 0.0198681, Final residual = 8.49807e-07, No Iterations 74
time step continuity errors : sum local = 1.75308e-07, global = 1.75293e-07, cumulative = 2.88191e-06
ExecutionTime = 246.09 s  ClockTime = 247 s

Courant Number mean: 0.0435227 max: 0.337447
deltaT = 0.00013557
Time = 0.17954

solidBodyMotionFunctions::rotatingMotion::transformation(): Time = 0.17954 transformation: ((0 0 0) (0.845101 (0 0 0.534606)))
AMI: Creating addressing and weights between 9600 source faces and 9600 target faces
AMI: Patch source sum(weights) min/max/average = 1, 1, 1
AMI: Patch target sum(weights) min/max/average = 1, 1, 1
smoothSolver:  Solving for Ux, Initial residual = 0.00134551, Final residual = 3.16102e-07, No Iterations 4
smoothSolver:  Solving for Uy, Initial residual = 0.00137056, Final residual = 3.18903e-07, No Iterations 4
GAMG:  Solving for p, Initial residual = 0.102627, Final residual = 0.0010063, No Iterations 26
time step continuity errors : sum local = 1.87366e-07, global = 1.64228e-07, cumulative = 3.04614e-06
GAMG:  Solving for p, Initial residual = 0.0153298, Final residual = 9.43882e-07, No Iterations 95
time step continuity errors : sum local = 1.64256e-07, global = 1.64237e-07, cumulative = 3.21037e-06
ExecutionTime = 289.18 s  ClockTime = 290 s

Courant Number mean: 0.0499952 max: 0.317161
deltaT = 0.000156942
Time = 0.179696

solidBodyMotionFunctions::rotatingMotion::transformation(): Time = 0.179696 transformation: ((0 0 0) (0.844838 (0 0 0.535023)))
AMI: Creating addressing and weights between 9600 source faces and 9600 target faces
AMI: Patch source sum(weights) min/max/average = 1, 1, 1
AMI: Patch target sum(weights) min/max/average = 1, 1, 1
smoothSolver:  Solving for Ux, Initial residual = 0.00117132, Final residual = 4.27131e-07, No Iterations 4
smoothSolver:  Solving for Uy, Initial residual = 0.0012004, Final residual = 4.33083e-07, No Iterations 4
GAMG:  Solving for p, Initial residual = 0.0961314, Final residual = 0.000878094, No Iterations 30
time step continuity errors : sum local = 1.74182e-07, global = 1.51461e-07, cumulative = 3.36183e-06
GAMG:  Solving for p, Initial residual = 0.0130613, Final residual = 9.88528e-07, No Iterations 93
time step continuity errors : sum local = 1.51494e-07, global = 1.5147e-07, cumulative = 3.5133e-06
ExecutionTime = 333.06 s  ClockTime = 334 s

Courant Number mean: 0.0579007 max: 0.366393
deltaT = 0.00017836
Time = 0.179875

solidBodyMotionFunctions::rotatingMotion::transformation(): Time = 0.179875 transformation: ((0 0 0) (0.844538 (0 0 0.535496)))
AMI: Creating addressing and weights between 9600 source faces and 9600 target faces
AMI: Patch source sum(weights) min/max/average = 1, 1, 1
AMI: Patch target sum(weights) min/max/average = 1, 1, 1
smoothSolver:  Solving for Ux, Initial residual = 0.00111256, Final residual = 5.56258e-07, No Iterations 4
smoothSolver:  Solving for Uy, Initial residual = 0.0011432, Final residual = 5.65128e-07, No Iterations 4
GAMG:  Solving for p, Initial residual = 0.0882437, Final residual = 0.000841976, No Iterations 29
time step continuity errors : sum local = 1.586e-07, global = 1.34103e-07, cumulative = 3.64741e-06
GAMG:  Solving for p, Initial residual = 0.0112395, Final residual = 8.74054e-07, No Iterations 66
time step continuity errors : sum local = 1.34134e-07, global = 1.34111e-07, cumulative = 3.78152e-06
ExecutionTime = 369.23 s  ClockTime = 370 s

Courant Number mean: 0.0658251 max: 0.415763
deltaT = 0.000199809
Time = 0.180075

solidBodyMotionFunctions::rotatingMotion::transformation(): Time = 0.180075 transformation: ((0 0 0) (0.844202 (0 0 0.536026)))
AMI: Creating addressing and weights between 9600 source faces and 9600 target faces
AMI: Patch source sum(weights) min/max/average = 1, 1, 1
AMI: Patch target sum(weights) min/max/average = 1, 1, 1
smoothSolver:  Solving for Ux, Initial residual = 0.00112367, Final residual = 7.18723e-07, No Iterations 4
smoothSolver:  Solving for Uy, Initial residual = 0.00115335, Final residual = 7.30842e-07, No Iterations 4
GAMG:  Solving for p, Initial residual = 0.0834837, Final residual = 0.000813379, No Iterations 26
time step continuity errors : sum local = 1.40127e-07, global = 1.14626e-07, cumulative = 3.89614e-06
GAMG:  Solving for p, Initial residual = 0.00985883, Final residual = 9.46252e-07, No Iterations 91
time step continuity errors : sum local = 1.14658e-07, global = 1.1463e-07, cumulative = 4.01077e-06
ExecutionTime = 410.88 s  ClockTime = 412 s

Courant Number mean: 0.0737629 max: 0.46516
deltaT = 0.000214775
Time = 0.180289

solidBodyMotionFunctions::rotatingMotion::transformation(): Time = 0.180289 transformation: ((0 0 0) (0.84384 (0 0 0.536595)))
AMI: Creating addressing and weights between 9600 source faces and 9600 target faces
AMI: Patch source sum(weights) min/max/average = 1, 1, 1
AMI: Patch target sum(weights) min/max/average = 1, 1, 1
smoothSolver:  Solving for Ux, Initial residual = 0.00115316, Final residual = 8.61273e-07, No Iterations 4
smoothSolver:  Solving for Uy, Initial residual = 0.00117847, Final residual = 8.7333e-07, No Iterations 4
GAMG:  Solving for p, Initial residual = 0.0731581, Final residual = 0.000707413, No Iterations 26
time step continuity errors : sum local = 1.16055e-07, global = 9.2939e-08, cumulative = 4.10371e-06
GAMG:  Solving for p, Initial residual = 0.00822447, Final residual = 9.01841e-07, No Iterations 83
time step continuity errors : sum local = 9.29691e-08, global = 9.29411e-08, cumulative = 4.19665e-06
ExecutionTime = 456.92 s  ClockTime = 458 s

End

Finalising parallel run
