/*---------------------------------------------------------------------------*\
| =========                 |                                                 |
| \\      /  F ield         | OpenFOAM: The Open Source CFD Toolbox           |
|  \\    /   O peration     | Version:  2.3.0                                 |
|   \\  /    A nd           | Web:      www.OpenFOAM.org                      |
|    \\/     M anipulation  |                                                 |
\*---------------------------------------------------------------------------*/
Build  : 2.3.0
Exec   : pimpleDyMFoam -parallel
Date   : Oct 10 2014
Time   : 08:12:13
Host   : "hpc01"
PID    : 3582
Case   : /home/bobo/OpenFOAM/experiment/incompressible/pimpleDyMFoam/mixerVesselAMI2D2
nProcs : 3
Slaves : 
2
(
"hpc01.3583"
"hpc01.3584"
)

Pstream initialized with:
    floatTransfer      : 0
    nProcsSimpleSum    : 0
    commsType          : nonBlocking
    polling iterations : 0
fileModificationChecking : Monitoring run-time modified files using timeStampMaster
allowSystemOperations : Disallowing user-supplied system call operations

// * * * * * * * * * * * * * * * * * * * * * * * * * * * * * * * * * * * * * //
Create time

Create mesh for time = 0.180289

Selecting dynamicFvMesh solidBodyMotionFvMesh
Selecting solid-body motion function rotatingMotion
Applying solid body motion to cellZone rotor

PIMPLE: Operating solver in PISO mode

Reading field p

Reading field U

Reading/calculating face flux field phi

AMI: Creating addressing and weights between 9600 source faces and 9600 target faces
AMI: Patch source sum(weights) min/max/average = 1, 1, 1
AMI: Patch target sum(weights) min/max/average = 1, 1, 1
Selecting incompressible transport model Newtonian
Selecting turbulence model type laminar
Reading/calculating face velocity Uf

No finite volume options present

Courant Number mean: 0.0793071 max: 0.499603

Starting time loop

Courant Number mean: 0.0793071 max: 0.499603
deltaT = 0.000214946
Time = 0.180504

solidBodyMotionFunctions::rotatingMotion::transformation(): Time = 0.180504 transformation: ((0 0 0) (0.843478 (0 0 0.537164)))
AMI: Creating addressing and weights between 9600 source faces and 9600 target faces
AMI: Patch source sum(weights) min/max/average = 1, 1, 1
AMI: Patch target sum(weights) min/max/average = 1, 1, 1
smoothSolver:  Solving for Ux, Initial residual = 0.00277203, Final residual = 9.84707e-07, No Iterations 4
smoothSolver:  Solving for Uy, Initial residual = 0.00278511, Final residual = 9.7953e-07, No Iterations 4
GAMG:  Solving for p, Initial residual = 0.715844, Final residual = 0.00694353, No Iterations 39
time step continuity errors : sum local = 1.09693e-06, global = 5.38813e-07, cumulative = 5.38813e-07
GAMG:  Solving for p, Initial residual = 0.175072, Final residual = 7.97195e-07, No Iterations 168
time step continuity errors : sum local = 5.3972e-07, global = 5.39624e-07, cumulative = 1.07844e-06
ExecutionTime = 76.16 s  ClockTime = 76 s

Courant Number mean: 0.0791186 max: 1.99938
deltaT = 5.37531e-05
Time = 0.180558

solidBodyMotionFunctions::rotatingMotion::transformation(): Time = 0.180558 transformation: ((0 0 0) (0.843387 (0 0 0.537306)))
AMI: Creating addressing and weights between 9600 source faces and 9600 target faces
AMI: Patch source sum(weights) min/max/average = 1, 1, 1
AMI: Patch target sum(weights) min/max/average = 1, 1, 1
smoothSolver:  Solving for Ux, Initial residual = 0.00298865, Final residual = 3.42478e-07, No Iterations 3
smoothSolver:  Solving for Uy, Initial residual = 0.00296729, Final residual = 3.42846e-07, No Iterations 3
GAMG:  Solving for p, Initial residual = 0.823591, Final residual = 0.00820887, No Iterations 37
time step continuity errors : sum local = 2.06749e-07, global = 1.11203e-07, cumulative = 1.18964e-06
GAMG:  Solving for p, Initial residual = 0.0714101, Final residual = 9.97455e-07, No Iterations 157
time step continuity errors : sum local = 1.11203e-07, global = 1.11189e-07, cumulative = 1.30083e-06
ExecutionTime = 131.51 s  ClockTime = 131 s

Courant Number mean: 0.0197876 max: 0.411947
deltaT = 6.02774e-05
Time = 0.180618

solidBodyMotionFunctions::rotatingMotion::transformation(): Time = 0.180618 transformation: ((0 0 0) (0.843285 (0 0 0.537466)))
AMI: Creating addressing and weights between 9600 source faces and 9600 target faces
AMI: Patch source sum(weights) min/max/average = 1, 1, 1
AMI: Patch target sum(weights) min/max/average = 1, 1, 1
smoothSolver:  Solving for Ux, Initial residual = 0.00488639, Final residual = 5.63632e-07, No Iterations 3
smoothSolver:  Solving for Uy, Initial residual = 0.00487306, Final residual = 5.59738e-07, No Iterations 3
GAMG:  Solving for p, Initial residual = 0.287103, Final residual = 0.00280083, No Iterations 32
time step continuity errors : sum local = 1.49116e-07, global = 1.11275e-07, cumulative = 1.4121e-06
GAMG:  Solving for p, Initial residual = 0.047197, Final residual = 9.84822e-07, No Iterations 101
time step continuity errors : sum local = 1.11294e-07, global = 1.11284e-07, cumulative = 1.52339e-06
ExecutionTime = 172.56 s  ClockTime = 172 s

Courant Number mean: 0.0221965 max: 0.412298
deltaT = 6.75873e-05
Time = 0.180686

solidBodyMotionFunctions::rotatingMotion::transformation(): Time = 0.180686 transformation: ((0 0 0) (0.843171 (0 0 0.537645)))
AMI: Creating addressing and weights between 9600 source faces and 9600 target faces
AMI: Patch source sum(weights) min/max/average = 1, 1, 1
AMI: Patch target sum(weights) min/max/average = 1, 1, 1
smoothSolver:  Solving for Ux, Initial residual = 0.00237909, Final residual = 4.74322e-07, No Iterations 3
smoothSolver:  Solving for Uy, Initial residual = 0.00237051, Final residual = 4.68977e-07, No Iterations 3
GAMG:  Solving for p, Initial residual = 0.150549, Final residual = 0.00146435, No Iterations 36
time step continuity errors : sum local = 1.2748e-07, global = 1.10457e-07, cumulative = 1.63385e-06
GAMG:  Solving for p, Initial residual = 0.021044, Final residual = 9.84127e-07, No Iterations 91
time step continuity errors : sum local = 1.10471e-07, global = 1.10461e-07, cumulative = 1.74431e-06
ExecutionTime = 212.02 s  ClockTime = 212 s

Courant Number mean: 0.0248993 max: 0.409252
deltaT = 7.58448e-05
Time = 0.180761

solidBodyMotionFunctions::rotatingMotion::transformation(): Time = 0.180761 transformation: ((0 0 0) (0.843043 (0 0 0.537846)))
AMI: Creating addressing and weights between 9600 source faces and 9600 target faces
AMI: Patch source sum(weights) min/max/average = 1, 1, 1
AMI: Patch target sum(weights) min/max/average = 1, 1, 1
smoothSolver:  Solving for Ux, Initial residual = 0.00156133, Final residual = 4.75473e-07, No Iterations 3
smoothSolver:  Solving for Uy, Initial residual = 0.00155322, Final residual = 4.69678e-07, No Iterations 3
GAMG:  Solving for p, Initial residual = 0.108228, Final residual = 0.00103993, No Iterations 33
time step continuity errors : sum local = 1.2084e-07, global = 1.08608e-07, cumulative = 1.85291e-06
GAMG:  Solving for p, Initial residual = 0.0136268, Final residual = 9.33598e-07, No Iterations 83
time step continuity errors : sum local = 1.08621e-07, global = 1.08611e-07, cumulative = 1.96153e-06
ExecutionTime = 248.99 s  ClockTime = 249 s

Courant Number mean: 0.0279538 max: 0.402394
deltaT = 8.5269e-05
Time = 0.180847

solidBodyMotionFunctions::rotatingMotion::transformation(): Time = 0.180847 transformation: ((0 0 0) (0.842899 (0 0 0.538072)))
AMI: Creating addressing and weights between 9600 source faces and 9600 target faces
AMI: Patch source sum(weights) min/max/average = 1, 1, 1
AMI: Patch target sum(weights) min/max/average = 1, 1, 1
smoothSolver:  Solving for Ux, Initial residual = 0.00117394, Final residual = 5.17907e-07, No Iterations 3
smoothSolver:  Solving for Uy, Initial residual = 0.00116974, Final residual = 5.11039e-07, No Iterations 3
GAMG:  Solving for p, Initial residual = 0.0909041, Final residual = 0.000856642, No Iterations 25
time step continuity errors : sum local = 1.16328e-07, global = 1.0571e-07, cumulative = 2.06724e-06
GAMG:  Solving for p, Initial residual = 0.0102692, Final residual = 9.59493e-07, No Iterations 109
time step continuity errors : sum local = 1.05723e-07, global = 1.05712e-07, cumulative = 2.17295e-06
ExecutionTime = 290.26 s  ClockTime = 290 s

Courant Number mean: 0.0314405 max: 0.391656
deltaT = 9.61547e-05
Time = 0.180943

solidBodyMotionFunctions::rotatingMotion::transformation(): Time = 0.180943 transformation: ((0 0 0) (0.842736 (0 0 0.538326)))
AMI: Creating addressing and weights between 9600 source faces and 9600 target faces
AMI: Patch source sum(weights) min/max/average = 1, 1, 1
AMI: Patch target sum(weights) min/max/average = 1, 1, 1
smoothSolver:  Solving for Ux, Initial residual = 0.000966726, Final residual = 5.98205e-07, No Iterations 3
smoothSolver:  Solving for Uy, Initial residual = 0.00096613, Final residual = 5.891e-07, No Iterations 3
GAMG:  Solving for p, Initial residual = 0.082499, Final residual = 0.000757393, No Iterations 24
time step continuity errors : sum local = 1.12195e-07, global = 1.01803e-07, cumulative = 2.27475e-06
GAMG:  Solving for p, Initial residual = 0.0084931, Final residual = 8.92302e-07, No Iterations 87
time step continuity errors : sum local = 1.01816e-07, global = 1.01805e-07, cumulative = 2.37656e-06
ExecutionTime = 326.07 s  ClockTime = 326 s

Courant Number mean: 0.0354679 max: 0.37718
deltaT = 0.000108901
Time = 0.181052

solidBodyMotionFunctions::rotatingMotion::transformation(): Time = 0.181052 transformation: ((0 0 0) (0.842552 (0 0 0.538615)))
AMI: Creating addressing and weights between 9600 source faces and 9600 target faces
AMI: Patch source sum(weights) min/max/average = 1, 1, 1
AMI: Patch target sum(weights) min/max/average = 1, 1, 1
smoothSolver:  Solving for Ux, Initial residual = 0.000864478, Final residual = 7.32012e-07, No Iterations 3
smoothSolver:  Solving for Uy, Initial residual = 0.000865621, Final residual = 7.19146e-07, No Iterations 3
GAMG:  Solving for p, Initial residual = 0.0791057, Final residual = 0.000762815, No Iterations 22
time step continuity errors : sum local = 1.08562e-07, global = 9.69276e-08, cumulative = 2.47348e-06
GAMG:  Solving for p, Initial residual = 0.00755701, Final residual = 9.69733e-07, No Iterations 89
time step continuity errors : sum local = 9.69428e-08, global = 9.6929e-08, cumulative = 2.57041e-06
ExecutionTime = 361.84 s  ClockTime = 362 s

Courant Number mean: 0.0401835 max: 0.35937
deltaT = 0.000124053
Time = 0.181176

solidBodyMotionFunctions::rotatingMotion::transformation(): Time = 0.181176 transformation: ((0 0 0) (0.842342 (0 0 0.538943)))
AMI: Creating addressing and weights between 9600 source faces and 9600 target faces
AMI: Patch source sum(weights) min/max/average = 1, 1, 1
AMI: Patch target sum(weights) min/max/average = 1, 1, 1
smoothSolver:  Solving for Ux, Initial residual = 0.000836024, Final residual = 9.44257e-07, No Iterations 3
smoothSolver:  Solving for Uy, Initial residual = 0.000839587, Final residual = 9.26866e-07, No Iterations 3
GAMG:  Solving for p, Initial residual = 0.0784958, Final residual = 0.00072624, No Iterations 27
time step continuity errors : sum local = 1.03623e-07, global = 9.11448e-08, cumulative = 2.66156e-06
GAMG:  Solving for p, Initial residual = 0.00702654, Final residual = 9.81346e-07, No Iterations 108
time step continuity errors : sum local = 9.11613e-08, global = 9.11455e-08, cumulative = 2.7527e-06
ExecutionTime = 403.3 s  ClockTime = 403 s

Courant Number mean: 0.0457884 max: 0.338258
deltaT = 0.00014239
Time = 0.181318

solidBodyMotionFunctions::rotatingMotion::transformation(): Time = 0.181318 transformation: ((0 0 0) (0.842101 (0 0 0.53932)))
AMI: Creating addressing and weights between 9600 source faces and 9600 target faces
AMI: Patch source sum(weights) min/max/average = 1, 1, 1
AMI: Patch target sum(weights) min/max/average = 1, 1, 1
smoothSolver:  Solving for Ux, Initial residual = 0.000859916, Final residual = 2.1231e-07, No Iterations 4
smoothSolver:  Solving for Uy, Initial residual = 0.00086462, Final residual = 2.07544e-07, No Iterations 4
GAMG:  Solving for p, Initial residual = 0.0791473, Final residual = 0.000724633, No Iterations 25
time step continuity errors : sum local = 9.87979e-08, global = 8.45631e-08, cumulative = 2.83727e-06
GAMG:  Solving for p, Initial residual = 0.00682489, Final residual = 9.09425e-07, No Iterations 91
time step continuity errors : sum local = 8.45804e-08, global = 8.45638e-08, cumulative = 2.92183e-06
ExecutionTime = 453.35 s  ClockTime = 453 s

End

Finalising parallel run
