/*---------------------------------------------------------------------------*\
| =========                 |                                                 |
| \\      /  F ield         | OpenFOAM: The Open Source CFD Toolbox           |
|  \\    /   O peration     | Version:  2.3.0                                 |
|   \\  /    A nd           | Web:      www.OpenFOAM.org                      |
|    \\/     M anipulation  |                                                 |
\*---------------------------------------------------------------------------*/
Build  : 2.3.0
Exec   : pimpleDyMFoam -parallel
Date   : Oct 10 2014
Time   : 06:59:18
Host   : "hpc01"
PID    : 3436
Case   : /home/bobo/OpenFOAM/experiment/incompressible/pimpleDyMFoam/mixerVesselAMI2D2
nProcs : 6
Slaves : 
5
(
"hpc01.3437"
"hpc01.3438"
"hpc01.3439"
"hpc01.3440"
"hpc01.3441"
)

Pstream initialized with:
    floatTransfer      : 0
    nProcsSimpleSum    : 0
    commsType          : nonBlocking
    polling iterations : 0
fileModificationChecking : Monitoring run-time modified files using timeStampMaster
allowSystemOperations : Disallowing user-supplied system call operations

// * * * * * * * * * * * * * * * * * * * * * * * * * * * * * * * * * * * * * //
Create time

Create mesh for time = 0.174125

Selecting dynamicFvMesh solidBodyMotionFvMesh
Selecting solid-body motion function rotatingMotion
Applying solid body motion to cellZone rotor

PIMPLE: Operating solver in PISO mode

Reading field p

Reading field U

Reading/calculating face flux field phi

AMI: Creating addressing and weights between 9600 source faces and 9600 target faces
AMI: Patch source sum(weights) min/max/average = 1, 1, 1
AMI: Patch target sum(weights) min/max/average = 1, 1, 1
Selecting incompressible transport model Newtonian
Selecting turbulence model type laminar
Reading/calculating face velocity Uf

No finite volume options present

Courant Number mean: 0.0784593 max: 0.499699

Starting time loop

Courant Number mean: 0.0784593 max: 0.499699
deltaT = 0.000213121
Time = 0.174338

solidBodyMotionFunctions::rotatingMotion::transformation(): Time = 0.174338 transformation: ((0 0 0) (0.853724 (0 0 0.520726)))
AMI: Creating addressing and weights between 9600 source faces and 9600 target faces
AMI: Patch source sum(weights) min/max/average = 1, 1, 1
AMI: Patch target sum(weights) min/max/average = 1, 1, 1
smoothSolver:  Solving for Ux, Initial residual = 0.00280248, Final residual = 1.97049e-07, No Iterations 5
smoothSolver:  Solving for Uy, Initial residual = 0.00280249, Final residual = 9.9063e-07, No Iterations 4
GAMG:  Solving for p, Initial residual = 0.790779, Final residual = 0.00781971, No Iterations 42
time step continuity errors : sum local = 1.14967e-06, global = 6.1051e-07, cumulative = 6.1051e-07
GAMG:  Solving for p, Initial residual = 0.19383, Final residual = 9.10783e-07, No Iterations 128
time step continuity errors : sum local = 6.11541e-07, global = 6.11441e-07, cumulative = 1.22195e-06
ExecutionTime = 50.19 s  ClockTime = 50 s

Courant Number mean: 0.0782884 max: 1.17695
deltaT = 9.05393e-05
Time = 0.174429

solidBodyMotionFunctions::rotatingMotion::transformation(): Time = 0.174429 transformation: ((0 0 0) (0.853576 (0 0 0.520968)))
AMI: Creating addressing and weights between 9600 source faces and 9600 target faces
AMI: Patch source sum(weights) min/max/average = 1, 1, 1
AMI: Patch target sum(weights) min/max/average = 1, 1, 1
smoothSolver:  Solving for Ux, Initial residual = 0.00537244, Final residual = 2.83118e-07, No Iterations 4
smoothSolver:  Solving for Uy, Initial residual = 0.00538034, Final residual = 2.82249e-07, No Iterations 4
GAMG:  Solving for p, Initial residual = 0.852335, Final residual = 0.00817398, No Iterations 40
time step continuity errors : sum local = 4.26764e-07, global = 2.18308e-07, cumulative = 1.44026e-06
GAMG:  Solving for p, Initial residual = 0.130844, Final residual = 8.12584e-07, No Iterations 75
time step continuity errors : sum local = 2.18239e-07, global = 2.18217e-07, cumulative = 1.65848e-06
ExecutionTime = 80.74 s  ClockTime = 81 s

Courant Number mean: 0.0332598 max: 0.420071
deltaT = 0.000101316
Time = 0.17453

solidBodyMotionFunctions::rotatingMotion::transformation(): Time = 0.17453 transformation: ((0 0 0) (0.85341 (0 0 0.52124)))
AMI: Creating addressing and weights between 9600 source faces and 9600 target faces
AMI: Patch source sum(weights) min/max/average = 1, 1, 1
AMI: Patch target sum(weights) min/max/average = 1, 1, 1
smoothSolver:  Solving for Ux, Initial residual = 0.00567063, Final residual = 3.44928e-07, No Iterations 4
smoothSolver:  Solving for Uy, Initial residual = 0.00567113, Final residual = 3.43289e-07, No Iterations 4
GAMG:  Solving for p, Initial residual = 0.316881, Final residual = 0.0030806, No Iterations 38
time step continuity errors : sum local = 2.8308e-07, global = 2.06564e-07, cumulative = 1.86504e-06
GAMG:  Solving for p, Initial residual = 0.0727747, Final residual = 9.56709e-07, No Iterations 99
time step continuity errors : sum local = 2.06627e-07, global = 2.06609e-07, cumulative = 2.07165e-06
ExecutionTime = 115.58 s  ClockTime = 116 s

Courant Number mean: 0.0372369 max: 0.397725
deltaT = 0.000114053
Time = 0.174644

solidBodyMotionFunctions::rotatingMotion::transformation(): Time = 0.174644 transformation: ((0 0 0) (0.853223 (0 0 0.521546)))
AMI: Creating addressing and weights between 9600 source faces and 9600 target faces
AMI: Patch source sum(weights) min/max/average = 1, 1, 1
AMI: Patch target sum(weights) min/max/average = 1, 1, 1
smoothSolver:  Solving for Ux, Initial residual = 0.00269467, Final residual = 3.08378e-07, No Iterations 4
smoothSolver:  Solving for Uy, Initial residual = 0.00270593, Final residual = 3.0714e-07, No Iterations 4
GAMG:  Solving for p, Initial residual = 0.165616, Final residual = 0.00164604, No Iterations 37
time step continuity errors : sum local = 2.30781e-07, global = 1.94156e-07, cumulative = 2.26581e-06
GAMG:  Solving for p, Initial residual = 0.0317908, Final residual = 7.93785e-07, No Iterations 67
time step continuity errors : sum local = 1.94188e-07, global = 1.94172e-07, cumulative = 2.45998e-06
ExecutionTime = 143.95 s  ClockTime = 144 s

Courant Number mean: 0.0419417 max: 0.373784
deltaT = 0.000129309
Time = 0.174773

solidBodyMotionFunctions::rotatingMotion::transformation(): Time = 0.174773 transformation: ((0 0 0) (0.853011 (0 0 0.521892)))
AMI: Creating addressing and weights between 9600 source faces and 9600 target faces
AMI: Patch source sum(weights) min/max/average = 1, 1, 1
AMI: Patch target sum(weights) min/max/average = 1, 1, 1
smoothSolver:  Solving for Ux, Initial residual = 0.00177852, Final residual = 3.36172e-07, No Iterations 4
smoothSolver:  Solving for Uy, Initial residual = 0.00180015, Final residual = 3.37309e-07, No Iterations 4
GAMG:  Solving for p, Initial residual = 0.124318, Final residual = 0.0011971, No Iterations 33
time step continuity errors : sum local = 2.09027e-07, global = 1.8066e-07, cumulative = 2.64064e-06
GAMG:  Solving for p, Initial residual = 0.0206711, Final residual = 9.88826e-07, No Iterations 95
time step continuity errors : sum local = 1.8069e-07, global = 1.80669e-07, cumulative = 2.82131e-06
ExecutionTime = 176.92 s  ClockTime = 177 s

Courant Number mean: 0.0475771 max: 0.347892
deltaT = 0.000147894
Time = 0.174921

solidBodyMotionFunctions::rotatingMotion::transformation(): Time = 0.174921 transformation: ((0 0 0) (0.852769 (0 0 0.522289)))
AMI: Creating addressing and weights between 9600 source faces and 9600 target faces
AMI: Patch source sum(weights) min/max/average = 1, 1, 1
AMI: Patch target sum(weights) min/max/average = 1, 1, 1
smoothSolver:  Solving for Ux, Initial residual = 0.00137618, Final residual = 4.07953e-07, No Iterations 4
smoothSolver:  Solving for Uy, Initial residual = 0.00140326, Final residual = 4.11701e-07, No Iterations 4
GAMG:  Solving for p, Initial residual = 0.103946, Final residual = 0.00099544, No Iterations 32
time step continuity errors : sum local = 1.91833e-07, global = 1.66113e-07, cumulative = 2.98742e-06
GAMG:  Solving for p, Initial residual = 0.0159206, Final residual = 7.8475e-07, No Iterations 82
time step continuity errors : sum local = 1.66135e-07, global = 1.66116e-07, cumulative = 3.15353e-06
ExecutionTime = 207.18 s  ClockTime = 207 s

Courant Number mean: 0.0544404 max: 0.348043
deltaT = 0.000169141
Time = 0.17509

solidBodyMotionFunctions::rotatingMotion::transformation(): Time = 0.17509 transformation: ((0 0 0) (0.852491 (0 0 0.522742)))
AMI: Creating addressing and weights between 9600 source faces and 9600 target faces
AMI: Patch source sum(weights) min/max/average = 1, 1, 1
AMI: Patch target sum(weights) min/max/average = 1, 1, 1
smoothSolver:  Solving for Ux, Initial residual = 0.00120756, Final residual = 5.23309e-07, No Iterations 4
smoothSolver:  Solving for Uy, Initial residual = 0.0012382, Final residual = 5.30677e-07, No Iterations 4
GAMG:  Solving for p, Initial residual = 0.0960709, Final residual = 0.000944942, No Iterations 29
time step continuity errors : sum local = 1.76908e-07, global = 1.49367e-07, cumulative = 3.3029e-06
GAMG:  Solving for p, Initial residual = 0.013302, Final residual = 9.30902e-07, No Iterations 81
time step continuity errors : sum local = 1.49396e-07, global = 1.49371e-07, cumulative = 3.45227e-06
ExecutionTime = 236.66 s  ClockTime = 237 s

Courant Number mean: 0.0622864 max: 0.397282
deltaT = 0.000190428
Time = 0.175281

solidBodyMotionFunctions::rotatingMotion::transformation(): Time = 0.175281 transformation: ((0 0 0) (0.852178 (0 0 0.523252)))
AMI: Creating addressing and weights between 9600 source faces and 9600 target faces
AMI: Patch source sum(weights) min/max/average = 1, 1, 1
AMI: Patch target sum(weights) min/max/average = 1, 1, 1
smoothSolver:  Solving for Ux, Initial residual = 0.00115745, Final residual = 6.61864e-07, No Iterations 4
smoothSolver:  Solving for Uy, Initial residual = 0.00118853, Final residual = 6.72518e-07, No Iterations 4
GAMG:  Solving for p, Initial residual = 0.0888657, Final residual = 0.000851353, No Iterations 28
time step continuity errors : sum local = 1.56252e-07, global = 1.29539e-07, cumulative = 3.58181e-06
GAMG:  Solving for p, Initial residual = 0.0112821, Final residual = 9.72492e-07, No Iterations 86
time step continuity errors : sum local = 1.29576e-07, global = 1.29548e-07, cumulative = 3.71136e-06
ExecutionTime = 266.89 s  ClockTime = 267 s

Courant Number mean: 0.0701494 max: 0.446658
deltaT = 0.000211745
Time = 0.175493

solidBodyMotionFunctions::rotatingMotion::transformation(): Time = 0.175493 transformation: ((0 0 0) (0.85183 (0 0 0.523818)))
AMI: Creating addressing and weights between 9600 source faces and 9600 target faces
AMI: Patch source sum(weights) min/max/average = 1, 1, 1
AMI: Patch target sum(weights) min/max/average = 1, 1, 1
smoothSolver:  Solving for Ux, Initial residual = 0.00118042, Final residual = 8.52433e-07, No Iterations 4
smoothSolver:  Solving for Uy, Initial residual = 0.00120935, Final residual = 8.66953e-07, No Iterations 4
GAMG:  Solving for p, Initial residual = 0.0837461, Final residual = 0.000780226, No Iterations 27
time step continuity errors : sum local = 1.3523e-07, global = 1.08825e-07, cumulative = 3.82018e-06
GAMG:  Solving for p, Initial residual = 0.00975326, Final residual = 7.06532e-07, No Iterations 86
time step continuity errors : sum local = 1.08857e-07, global = 1.08835e-07, cumulative = 3.92902e-06
ExecutionTime = 296.98 s  ClockTime = 297 s

Courant Number mean: 0.0780247 max: 0.496247
deltaT = 0.000213346
Time = 0.175706

solidBodyMotionFunctions::rotatingMotion::transformation(): Time = 0.175706 transformation: ((0 0 0) (0.851479 (0 0 0.524389)))
AMI: Creating addressing and weights between 9600 source faces and 9600 target faces
AMI: Patch source sum(weights) min/max/average = 1, 1, 1
AMI: Patch target sum(weights) min/max/average = 1, 1, 1
smoothSolver:  Solving for Ux, Initial residual = 0.00115146, Final residual = 8.16597e-07, No Iterations 4
smoothSolver:  Solving for Uy, Initial residual = 0.0011744, Final residual = 8.27085e-07, No Iterations 4
GAMG:  Solving for p, Initial residual = 0.0620972, Final residual = 0.000596505, No Iterations 27
time step continuity errors : sum local = 1.01831e-07, global = 8.31672e-08, cumulative = 4.01219e-06
GAMG:  Solving for p, Initial residual = 0.00724502, Final residual = 8.14481e-07, No Iterations 56
time step continuity errors : sum local = 8.31975e-08, global = 8.31728e-08, cumulative = 4.09536e-06
ExecutionTime = 327.94 s  ClockTime = 328 s

End

Finalising parallel run
