/*---------------------------------------------------------------------------*\
| =========                 |                                                 |
| \\      /  F ield         | OpenFOAM: The Open Source CFD Toolbox           |
|  \\    /   O peration     | Version:  2.3.0                                 |
|   \\  /    A nd           | Web:      www.OpenFOAM.org                      |
|    \\/     M anipulation  |                                                 |
\*---------------------------------------------------------------------------*/
Build  : 2.3.0
Exec   : pimpleDyMFoam -parallel
Date   : Oct 10 2014
Time   : 06:32:17
Host   : "hpc01"
PID    : 3371
Case   : /home/bobo/OpenFOAM/experiment/incompressible/pimpleDyMFoam/mixerVesselAMI2D2
nProcs : 3
Slaves : 
2
(
"hpc01.3372"
"hpc01.3373"
)

Pstream initialized with:
    floatTransfer      : 0
    nProcsSimpleSum    : 0
    commsType          : nonBlocking
    polling iterations : 0
fileModificationChecking : Monitoring run-time modified files using timeStampMaster
allowSystemOperations : Disallowing user-supplied system call operations

// * * * * * * * * * * * * * * * * * * * * * * * * * * * * * * * * * * * * * //
Create time

Create mesh for time = 0.17022

Selecting dynamicFvMesh solidBodyMotionFvMesh
Selecting solid-body motion function rotatingMotion
Applying solid body motion to cellZone rotor

PIMPLE: Operating solver in PISO mode

Reading field p

Reading field U

Reading/calculating face flux field phi

AMI: Creating addressing and weights between 9600 source faces and 9600 target faces
AMI: Patch source sum(weights) min/max/average = 1, 1, 1
AMI: Patch target sum(weights) min/max/average = 1, 1, 1
Selecting incompressible transport model Newtonian
Selecting turbulence model type laminar
Reading/calculating face velocity Uf

No finite volume options present

Courant Number mean: 0.0777327 max: 0.499505

Starting time loop

Courant Number mean: 0.0777327 max: 0.499505
deltaT = 0.000211748
Time = 0.170432

solidBodyMotionFunctions::rotatingMotion::transformation(): Time = 0.170432 transformation: ((0 0 0) (0.86005 (0 0 0.51021)))
AMI: Creating addressing and weights between 9600 source faces and 9600 target faces
AMI: Patch source sum(weights) min/max/average = 1, 1, 1
AMI: Patch target sum(weights) min/max/average = 1, 1, 1
smoothSolver:  Solving for Ux, Initial residual = 0.00280449, Final residual = 9.50846e-07, No Iterations 4
smoothSolver:  Solving for Uy, Initial residual = 0.0028123, Final residual = 9.44658e-07, No Iterations 4
GAMG:  Solving for p, Initial residual = 0.728194, Final residual = 0.00701339, No Iterations 41
time step continuity errors : sum local = 1.04493e-06, global = 5.00963e-07, cumulative = 5.00963e-07
GAMG:  Solving for p, Initial residual = 0.179916, Final residual = 9.97778e-07, No Iterations 113
time step continuity errors : sum local = 5.01998e-07, global = 5.01882e-07, cumulative = 1.00284e-06
ExecutionTime = 63.21 s  ClockTime = 63 s

Courant Number mean: 0.0776868 max: 0.941556
deltaT = 0.000112446
Time = 0.170544

solidBodyMotionFunctions::rotatingMotion::transformation(): Time = 0.170544 transformation: ((0 0 0) (0.85987 (0 0 0.510513)))
AMI: Creating addressing and weights between 9600 source faces and 9600 target faces
AMI: Patch source sum(weights) min/max/average = 1, 1, 1
AMI: Patch target sum(weights) min/max/average = 1, 1, 1
smoothSolver:  Solving for Ux, Initial residual = 0.00661891, Final residual = 7.18763e-07, No Iterations 4
smoothSolver:  Solving for Uy, Initial residual = 0.00663286, Final residual = 7.04509e-07, No Iterations 4
GAMG:  Solving for p, Initial residual = 0.797006, Final residual = 0.00783681, No Iterations 37
time step continuity errors : sum local = 5.13089e-07, global = 2.04243e-07, cumulative = 1.20709e-06
GAMG:  Solving for p, Initial residual = 0.149209, Final residual = 9.24688e-07, No Iterations 121
time step continuity errors : sum local = 2.04132e-07, global = 2.04096e-07, cumulative = 1.41118e-06
ExecutionTime = 109.29 s  ClockTime = 109 s

Courant Number mean: 0.0412371 max: 0.38289
deltaT = 0.000127129
Time = 0.170671

solidBodyMotionFunctions::rotatingMotion::transformation(): Time = 0.170671 transformation: ((0 0 0) (0.859666 (0 0 0.510857)))
AMI: Creating addressing and weights between 9600 source faces and 9600 target faces
AMI: Patch source sum(weights) min/max/average = 1, 1, 1
AMI: Patch target sum(weights) min/max/average = 1, 1, 1
smoothSolver:  Solving for Ux, Initial residual = 0.006263, Final residual = 8.33204e-07, No Iterations 4
smoothSolver:  Solving for Uy, Initial residual = 0.00626326, Final residual = 8.22258e-07, No Iterations 4
GAMG:  Solving for p, Initial residual = 0.292309, Final residual = 0.00282967, No Iterations 41
time step continuity errors : sum local = 2.91913e-07, global = 1.86753e-07, cumulative = 1.59794e-06
GAMG:  Solving for p, Initial residual = 0.0753288, Final residual = 9.00398e-07, No Iterations 117
time step continuity errors : sum local = 1.86826e-07, global = 1.86799e-07, cumulative = 1.78474e-06
ExecutionTime = 155.36 s  ClockTime = 155 s

Courant Number mean: 0.0466442 max: 0.350441
deltaT = 0.000145268
Time = 0.170817

solidBodyMotionFunctions::rotatingMotion::transformation(): Time = 0.170817 transformation: ((0 0 0) (0.859433 (0 0 0.511249)))
AMI: Creating addressing and weights between 9600 source faces and 9600 target faces
AMI: Patch source sum(weights) min/max/average = 1, 1, 1
AMI: Patch target sum(weights) min/max/average = 1, 1, 1
smoothSolver:  Solving for Ux, Initial residual = 0.00284707, Final residual = 7.13044e-07, No Iterations 4
smoothSolver:  Solving for Uy, Initial residual = 0.00286726, Final residual = 7.02516e-07, No Iterations 4
GAMG:  Solving for p, Initial residual = 0.153065, Final residual = 0.000843819, No Iterations 26
time step continuity errors : sum local = 2.0027e-07, global = 1.69524e-07, cumulative = 1.95426e-06
GAMG:  Solving for p, Initial residual = 0.0317769, Final residual = 9.94346e-07, No Iterations 55
time step continuity errors : sum local = 1.69558e-07, global = 1.69526e-07, cumulative = 2.12379e-06
ExecutionTime = 183.7 s  ClockTime = 183 s

Courant Number mean: 0.0533286 max: 0.345496
deltaT = 0.000166291
Time = 0.170983

solidBodyMotionFunctions::rotatingMotion::transformation(): Time = 0.170983 transformation: ((0 0 0) (0.859165 (0 0 0.511698)))
AMI: Creating addressing and weights between 9600 source faces and 9600 target faces
AMI: Patch source sum(weights) min/max/average = 1, 1, 1
AMI: Patch target sum(weights) min/max/average = 1, 1, 1
smoothSolver:  Solving for Ux, Initial residual = 0.00189323, Final residual = 7.74944e-07, No Iterations 4
smoothSolver:  Solving for Uy, Initial residual = 0.00190642, Final residual = 7.64251e-07, No Iterations 4
GAMG:  Solving for p, Initial residual = 0.119072, Final residual = 0.0011258, No Iterations 33
time step continuity errors : sum local = 1.94836e-07, global = 1.50807e-07, cumulative = 2.27459e-06
GAMG:  Solving for p, Initial residual = 0.0214439, Final residual = 9.19226e-07, No Iterations 99
time step continuity errors : sum local = 1.50853e-07, global = 1.5082e-07, cumulative = 2.42541e-06
ExecutionTime = 223.87 s  ClockTime = 224 s

Courant Number mean: 0.0610767 max: 0.394281
deltaT = 0.000187379
Time = 0.17117

solidBodyMotionFunctions::rotatingMotion::transformation(): Time = 0.17117 transformation: ((0 0 0) (0.858864 (0 0 0.512204)))
AMI: Creating addressing and weights between 9600 source faces and 9600 target faces
AMI: Patch source sum(weights) min/max/average = 1, 1, 1
AMI: Patch target sum(weights) min/max/average = 1, 1, 1
smoothSolver:  Solving for Ux, Initial residual = 0.00147374, Final residual = 8.60596e-07, No Iterations 4
smoothSolver:  Solving for Uy, Initial residual = 0.00147567, Final residual = 8.49381e-07, No Iterations 4
GAMG:  Solving for p, Initial residual = 0.104447, Final residual = 0.00101376, No Iterations 30
time step continuity errors : sum local = 1.70938e-07, global = 1.29306e-07, cumulative = 2.55472e-06
GAMG:  Solving for p, Initial residual = 0.0160771, Final residual = 8.28863e-07, No Iterations 105
time step continuity errors : sum local = 1.29357e-07, global = 1.29326e-07, cumulative = 2.68404e-06
ExecutionTime = 264.84 s  ClockTime = 264 s

Courant Number mean: 0.0688513 max: 0.443314
deltaT = 0.000208513
Time = 0.171379

solidBodyMotionFunctions::rotatingMotion::transformation(): Time = 0.171379 transformation: ((0 0 0) (0.858528 (0 0 0.512766)))
AMI: Creating addressing and weights between 9600 source faces and 9600 target faces
AMI: Patch source sum(weights) min/max/average = 1, 1, 1
AMI: Patch target sum(weights) min/max/average = 1, 1, 1
smoothSolver:  Solving for Ux, Initial residual = 0.00132679, Final residual = 9.9076e-07, No Iterations 4
smoothSolver:  Solving for Uy, Initial residual = 0.0013208, Final residual = 9.77859e-07, No Iterations 4
GAMG:  Solving for p, Initial residual = 0.0977705, Final residual = 0.000927342, No Iterations 28
time step continuity errors : sum local = 1.47314e-07, global = 1.07383e-07, cumulative = 2.79143e-06
GAMG:  Solving for p, Initial residual = 0.0129163, Final residual = 9.71818e-07, No Iterations 124
time step continuity errors : sum local = 1.0744e-07, global = 1.07401e-07, cumulative = 2.89883e-06
ExecutionTime = 309.52 s  ClockTime = 309 s

Courant Number mean: 0.0766444 max: 0.492501
deltaT = 0.000211687
Time = 0.17159

solidBodyMotionFunctions::rotatingMotion::transformation(): Time = 0.17159 transformation: ((0 0 0) (0.858187 (0 0 0.513337)))
AMI: Creating addressing and weights between 9600 source faces and 9600 target faces
AMI: Patch source sum(weights) min/max/average = 1, 1, 1
AMI: Patch target sum(weights) min/max/average = 1, 1, 1
smoothSolver:  Solving for Ux, Initial residual = 0.0012105, Final residual = 8.58692e-07, No Iterations 4
smoothSolver:  Solving for Uy, Initial residual = 0.00120511, Final residual = 8.47605e-07, No Iterations 4
GAMG:  Solving for p, Initial residual = 0.0741223, Final residual = 0.000731644, No Iterations 26
time step continuity errors : sum local = 1.10311e-07, global = 8.15918e-08, cumulative = 2.98042e-06
GAMG:  Solving for p, Initial residual = 0.00910186, Final residual = 9.37458e-07, No Iterations 100
time step continuity errors : sum local = 8.16362e-08, global = 8.16011e-08, cumulative = 3.06202e-06
ExecutionTime = 348.34 s  ClockTime = 348 s

Courant Number mean: 0.077834 max: 0.499367
deltaT = 0.000211956
Time = 0.171802

solidBodyMotionFunctions::rotatingMotion::transformation(): Time = 0.171802 transformation: ((0 0 0) (0.857845 (0 0 0.513908)))
AMI: Creating addressing and weights between 9600 source faces and 9600 target faces
AMI: Patch source sum(weights) min/max/average = 1, 1, 1
AMI: Patch target sum(weights) min/max/average = 1, 1, 1
smoothSolver:  Solving for Ux, Initial residual = 0.00117031, Final residual = 7.9601e-07, No Iterations 4
smoothSolver:  Solving for Uy, Initial residual = 0.00116605, Final residual = 7.85671e-07, No Iterations 4
GAMG:  Solving for p, Initial residual = 0.0674871, Final residual = 0.00066905, No Iterations 22
time step continuity errors : sum local = 8.55549e-08, global = 6.15334e-08, cumulative = 3.12355e-06
GAMG:  Solving for p, Initial residual = 0.00691196, Final residual = 9.90542e-07, No Iterations 93
time step continuity errors : sum local = 6.15692e-08, global = 6.15351e-08, cumulative = 3.18509e-06
ExecutionTime = 384.6 s  ClockTime = 384 s

Courant Number mean: 0.0779516 max: 0.499472
deltaT = 0.00021218
Time = 0.172015

solidBodyMotionFunctions::rotatingMotion::transformation(): Time = 0.172015 transformation: ((0 0 0) (0.857502 (0 0 0.51448)))
AMI: Creating addressing and weights between 9600 source faces and 9600 target faces
AMI: Patch source sum(weights) min/max/average = 1, 1, 1
AMI: Patch target sum(weights) min/max/average = 1, 1, 1
smoothSolver:  Solving for Ux, Initial residual = 0.00115987, Final residual = 7.69476e-07, No Iterations 4
smoothSolver:  Solving for Uy, Initial residual = 0.00115729, Final residual = 7.61464e-07, No Iterations 4
GAMG:  Solving for p, Initial residual = 0.0625113, Final residual = 0.000610657, No Iterations 19
time step continuity errors : sum local = 6.72332e-08, global = 4.67652e-08, cumulative = 3.23186e-06
GAMG:  Solving for p, Initial residual = 0.00553111, Final residual = 9.81925e-07, No Iterations 59
time step continuity errors : sum local = 4.67984e-08, global = 4.67671e-08, cumulative = 3.27862e-06
ExecutionTime = 425.13 s  ClockTime = 425 s

End

Finalising parallel run
