/*---------------------------------------------------------------------------*\
| =========                 |                                                 |
| \\      /  F ield         | OpenFOAM: The Open Source CFD Toolbox           |
|  \\    /   O peration     | Version:  2.3.0                                 |
|   \\  /    A nd           | Web:      www.OpenFOAM.org                      |
|    \\/     M anipulation  |                                                 |
\*---------------------------------------------------------------------------*/
Build  : 2.3.0
Exec   : pimpleDyMFoam
Date   : Oct 10 2014
Time   : 10:37:41
Host   : "hpc01"
PID    : 3912
Case   : /home/bobo/OpenFOAM/experiment/incompressible/pimpleDyMFoam/mixerVesselAMI2D2
nProcs : 1
fileModificationChecking : Monitoring run-time modified files using timeStampMaster
allowSystemOperations : Disallowing user-supplied system call operations

// * * * * * * * * * * * * * * * * * * * * * * * * * * * * * * * * * * * * * //
Create time

Create mesh for time = 0.195256

Selecting dynamicFvMesh solidBodyMotionFvMesh
Selecting solid-body motion function rotatingMotion
Applying solid body motion to cellZone rotor

PIMPLE: Operating solver in PISO mode

Reading field p

Reading field U

Reading/calculating face flux field phi

AMI: Creating addressing and weights between 9600 source faces and 9600 target faces
AMI: Patch source sum(weights) min/max/average = 1, 1, 1
AMI: Patch target sum(weights) min/max/average = 1, 1, 1
Selecting incompressible transport model Newtonian
Selecting turbulence model type laminar
Reading/calculating face velocity Uf

No finite volume options present

Courant Number mean: 0.0527709 max: 0.325125

Starting time loop

Courant Number mean: 0.0527709 max: 0.325125
deltaT = 0.000164418
Time = 0.19542

solidBodyMotionFunctions::rotatingMotion::transformation(): Time = 0.19542 transformation: ((0 0 0) (0.817389 (0 0 0.576087)))
AMI: Creating addressing and weights between 9600 source faces and 9600 target faces
AMI: Patch source sum(weights) min/max/average = 1, 1, 1
AMI: Patch target sum(weights) min/max/average = 1, 1, 1
smoothSolver:  Solving for Ux, Initial residual = 0.00209462, Final residual = 2.99688e-07, No Iterations 4
smoothSolver:  Solving for Uy, Initial residual = 0.00210005, Final residual = 2.97564e-07, No Iterations 4
GAMG:  Solving for p, Initial residual = 0.734914, Final residual = 0.00468796, No Iterations 12
time step continuity errors : sum local = 3.42575e-07, global = 4.54344e-08, cumulative = 4.54344e-08
GAMG:  Solving for p, Initial residual = 0.149378, Final residual = 7.31037e-07, No Iterations 49
time step continuity errors : sum local = 4.59874e-08, global = 4.59183e-08, cumulative = 9.13527e-08
ExecutionTime = 101.2 s  ClockTime = 101 s

Courant Number mean: 0.0607301 max: 0.391347
deltaT = 0.000185425
Time = 0.195606

solidBodyMotionFunctions::rotatingMotion::transformation(): Time = 0.195606 transformation: ((0 0 0) (0.817053 (0 0 0.576563)))
AMI: Creating addressing and weights between 9600 source faces and 9600 target faces
AMI: Patch source sum(weights) min/max/average = 1, 1, 1
AMI: Patch target sum(weights) min/max/average = 1, 1, 1
smoothSolver:  Solving for Ux, Initial residual = 0.0139308, Final residual = 4.3381e-07, No Iterations 6
smoothSolver:  Solving for Uy, Initial residual = 0.0139126, Final residual = 4.34758e-07, No Iterations 6
GAMG:  Solving for p, Initial residual = 0.795443, Final residual = 0.00580255, No Iterations 10
time step continuity errors : sum local = 6.11616e-07, global = 1.85867e-09, cumulative = 9.32113e-08
GAMG:  Solving for p, Initial residual = 0.32213, Final residual = 9.32327e-07, No Iterations 65
time step continuity errors : sum local = 1.15745e-09, global = 1.08766e-09, cumulative = 9.4299e-08
ExecutionTime = 159.75 s  ClockTime = 159 s

Courant Number mean: 0.0685321 max: 0.42989
deltaT = 0.000206991
Time = 0.195813

solidBodyMotionFunctions::rotatingMotion::transformation(): Time = 0.195813 transformation: ((0 0 0) (0.816678 (0 0 0.577094)))
AMI: Creating addressing and weights between 9600 source faces and 9600 target faces
AMI: Patch source sum(weights) min/max/average = 1, 1, 1
AMI: Patch target sum(weights) min/max/average = 1, 1, 1
smoothSolver:  Solving for Ux, Initial residual = 0.00773396, Final residual = 3.41376e-07, No Iterations 6
smoothSolver:  Solving for Uy, Initial residual = 0.00770998, Final residual = 3.4091e-07, No Iterations 6
GAMG:  Solving for p, Initial residual = 0.488642, Final residual = 0.00452802, No Iterations 12
time step continuity errors : sum local = 2.35233e-07, global = 1.57876e-11, cumulative = 9.43148e-08
GAMG:  Solving for p, Initial residual = 0.213281, Final residual = 9.01294e-07, No Iterations 54
time step continuity errors : sum local = 7.55194e-11, global = 4.57261e-11, cumulative = 9.43605e-08
ExecutionTime = 213.98 s  ClockTime = 214 s

Courant Number mean: 0.0765694 max: 0.475815
deltaT = 0.000217512
Time = 0.19603

solidBodyMotionFunctions::rotatingMotion::transformation(): Time = 0.19603 transformation: ((0 0 0) (0.816283 (0 0 0.577652)))
AMI: Creating addressing and weights between 9600 source faces and 9600 target faces
AMI: Patch source sum(weights) min/max/average = 1, 1, 1
AMI: Patch target sum(weights) min/max/average = 1, 1, 1
smoothSolver:  Solving for Ux, Initial residual = 0.00288999, Final residual = 7.77681e-07, No Iterations 5
smoothSolver:  Solving for Uy, Initial residual = 0.00288501, Final residual = 7.74407e-07, No Iterations 5
GAMG:  Solving for p, Initial residual = 0.223, Final residual = 0.00188785, No Iterations 8
time step continuity errors : sum local = 6.50883e-08, global = 1.42486e-10, cumulative = 9.4503e-08
GAMG:  Solving for p, Initial residual = 0.0728625, Final residual = 9.89322e-07, No Iterations 46
time step continuity errors : sum local = 2.32507e-10, global = 2.03547e-10, cumulative = 9.47065e-08
ExecutionTime = 262.13 s  ClockTime = 262 s

Courant Number mean: 0.0805177 max: 0.497759
deltaT = 0.000218492
Time = 0.196249

solidBodyMotionFunctions::rotatingMotion::transformation(): Time = 0.196249 transformation: ((0 0 0) (0.815887 (0 0 0.578212)))
AMI: Creating addressing and weights between 9600 source faces and 9600 target faces
AMI: Patch source sum(weights) min/max/average = 1, 1, 1
AMI: Patch target sum(weights) min/max/average = 1, 1, 1
smoothSolver:  Solving for Ux, Initial residual = 0.00173107, Final residual = 4.74256e-07, No Iterations 5
smoothSolver:  Solving for Uy, Initial residual = 0.00173009, Final residual = 4.73273e-07, No Iterations 5
GAMG:  Solving for p, Initial residual = 0.129686, Final residual = 0.00119239, No Iterations 9
time step continuity errors : sum local = 3.39604e-08, global = 1.49951e-10, cumulative = 9.48565e-08
GAMG:  Solving for p, Initial residual = 0.03726, Final residual = 8.95208e-07, No Iterations 57
time step continuity errors : sum local = 2.11152e-10, global = 1.8791e-10, cumulative = 9.50444e-08
ExecutionTime = 316.15 s  ClockTime = 316 s

Courant Number mean: 0.0809185 max: 0.498646
deltaT = 0.000219085
Time = 0.196468

solidBodyMotionFunctions::rotatingMotion::transformation(): Time = 0.196468 transformation: ((0 0 0) (0.815488 (0 0 0.578773)))
AMI: Creating addressing and weights between 9600 source faces and 9600 target faces
AMI: Patch source sum(weights) min/max/average = 1, 1, 1
AMI: Patch target sum(weights) min/max/average = 1, 1, 1
smoothSolver:  Solving for Ux, Initial residual = 0.00134103, Final residual = 3.2854e-07, No Iterations 5
smoothSolver:  Solving for Uy, Initial residual = 0.00134031, Final residual = 3.27582e-07, No Iterations 5
GAMG:  Solving for p, Initial residual = 0.0916142, Final residual = 0.000768271, No Iterations 8
time step continuity errors : sum local = 1.96185e-08, global = 1.04603e-10, cumulative = 9.5149e-08
GAMG:  Solving for p, Initial residual = 0.0222634, Final residual = 8.24722e-07, No Iterations 30
time step continuity errors : sum local = 1.43005e-10, global = 1.23304e-10, cumulative = 9.52723e-08
ExecutionTime = 356.45 s  ClockTime = 356 s

Courant Number mean: 0.0811641 max: 0.499077
deltaT = 0.00021949
Time = 0.196687

solidBodyMotionFunctions::rotatingMotion::transformation(): Time = 0.196687 transformation: ((0 0 0) (0.815089 (0 0 0.579335)))
AMI: Creating addressing and weights between 9600 source faces and 9600 target faces
AMI: Patch source sum(weights) min/max/average = 1, 1, 1
AMI: Patch target sum(weights) min/max/average = 1, 1, 1
smoothSolver:  Solving for Ux, Initial residual = 0.00119498, Final residual = 2.53238e-07, No Iterations 5
smoothSolver:  Solving for Uy, Initial residual = 0.00119431, Final residual = 2.52015e-07, No Iterations 5
GAMG:  Solving for p, Initial residual = 0.0697001, Final residual = 0.000621924, No Iterations 8
time step continuity errors : sum local = 1.4723e-08, global = 4.73407e-11, cumulative = 9.53197e-08
GAMG:  Solving for p, Initial residual = 0.0143229, Final residual = 9.95357e-07, No Iterations 35
time step continuity errors : sum local = 7.65647e-11, global = 5.40116e-11, cumulative = 9.53737e-08
ExecutionTime = 399.22 s  ClockTime = 399 s

Courant Number mean: 0.0813317 max: 0.499304
deltaT = 0.000219796
Time = 0.196907

solidBodyMotionFunctions::rotatingMotion::transformation(): Time = 0.196907 transformation: ((0 0 0) (0.814689 (0 0 0.579898)))
AMI: Creating addressing and weights between 9600 source faces and 9600 target faces
AMI: Patch source sum(weights) min/max/average = 1, 1, 1
AMI: Patch target sum(weights) min/max/average = 1, 1, 1
smoothSolver:  Solving for Ux, Initial residual = 0.00114753, Final residual = 9.4515e-07, No Iterations 4
smoothSolver:  Solving for Uy, Initial residual = 0.00114674, Final residual = 9.41334e-07, No Iterations 4
GAMG:  Solving for p, Initial residual = 0.0562337, Final residual = 0.000459824, No Iterations 9
time step continuity errors : sum local = 1.04435e-08, global = 7.11261e-12, cumulative = 9.53808e-08
GAMG:  Solving for p, Initial residual = 0.00980705, Final residual = 8.77813e-07, No Iterations 31
time step continuity errors : sum local = 2.73513e-11, global = 8.02343e-12, cumulative = 9.53888e-08
ExecutionTime = 440.38 s  ClockTime = 440 s

Courant Number mean: 0.0814574 max: 0.499557
deltaT = 0.000219991
Time = 0.197127

solidBodyMotionFunctions::rotatingMotion::transformation(): Time = 0.197127 transformation: ((0 0 0) (0.814288 (0 0 0.580461)))
AMI: Creating addressing and weights between 9600 source faces and 9600 target faces
AMI: Patch source sum(weights) min/max/average = 1, 1, 1
AMI: Patch target sum(weights) min/max/average = 1, 1, 1
smoothSolver:  Solving for Ux, Initial residual = 0.00113581, Final residual = 9.1153e-07, No Iterations 4
smoothSolver:  Solving for Uy, Initial residual = 0.00113532, Final residual = 9.10209e-07, No Iterations 4
GAMG:  Solving for p, Initial residual = 0.0467752, Final residual = 0.000377393, No Iterations 7
time step continuity errors : sum local = 8.34761e-09, global = 3.23902e-11, cumulative = 9.54212e-08
GAMG:  Solving for p, Initial residual = 0.00726518, Final residual = 8.11916e-07, No Iterations 36
time step continuity errors : sum local = 5.3486e-11, global = 3.59349e-11, cumulative = 9.54571e-08
ExecutionTime = 483.01 s  ClockTime = 483 s

Courant Number mean: 0.0815383 max: 0.499742
deltaT = 0.000220105
Time = 0.197347

solidBodyMotionFunctions::rotatingMotion::transformation(): Time = 0.197347 transformation: ((0 0 0) (0.813886 (0 0 0.581024)))
AMI: Creating addressing and weights between 9600 source faces and 9600 target faces
AMI: Patch source sum(weights) min/max/average = 1, 1, 1
AMI: Patch target sum(weights) min/max/average = 1, 1, 1
smoothSolver:  Solving for Ux, Initial residual = 0.00113174, Final residual = 8.92446e-07, No Iterations 4
smoothSolver:  Solving for Uy, Initial residual = 0.00113182, Final residual = 8.93324e-07, No Iterations 4
GAMG:  Solving for p, Initial residual = 0.040257, Final residual = 0.000274195, No Iterations 7
time step continuity errors : sum local = 5.95843e-09, global = 3.29412e-11, cumulative = 9.54901e-08
GAMG:  Solving for p, Initial residual = 0.00567826, Final residual = 6.40944e-07, No Iterations 27
time step continuity errors : sum local = 5.00596e-11, global = 3.62213e-11, cumulative = 9.55263e-08
ExecutionTime = 560.21 s  ClockTime = 560 s

End

