/*---------------------------------------------------------------------------*\
| =========                 |                                                 |
| \\      /  F ield         | OpenFOAM: The Open Source CFD Toolbox           |
|  \\    /   O peration     | Version:  2.3.0                                 |
|   \\  /    A nd           | Web:      www.OpenFOAM.org                      |
|    \\/     M anipulation  |                                                 |
\*---------------------------------------------------------------------------*/
Build  : 2.3.0
Exec   : pimpleDyMFoam -parallel
Date   : Oct 10 2014
Time   : 10:03:37
Host   : "hpc01"
PID    : 3832
Case   : /home/bobo/OpenFOAM/experiment/incompressible/pimpleDyMFoam/mixerVesselAMI2D1
nProcs : 3
Slaves : 
2
(
"hpc01.3833"
"hpc01.3834"
)

Pstream initialized with:
    floatTransfer      : 0
    nProcsSimpleSum    : 0
    commsType          : nonBlocking
    polling iterations : 0
fileModificationChecking : Monitoring run-time modified files using timeStampMaster
allowSystemOperations : Disallowing user-supplied system call operations

// * * * * * * * * * * * * * * * * * * * * * * * * * * * * * * * * * * * * * //
Create time

Create mesh for time = 0.043611

Selecting dynamicFvMesh solidBodyMotionFvMesh
Selecting solid-body motion function rotatingMotion
Applying solid body motion to cellZone rotor

PIMPLE: Operating solver in PISO mode

Reading field p

Reading field U

Reading/calculating face flux field phi

AMI: Creating addressing and weights between 9600 source faces and 9600 target faces
AMI: Patch source sum(weights) min/max/average = 1, 1, 1
AMI: Patch target sum(weights) min/max/average = 1, 1, 1
Selecting incompressible transport model Newtonian
Selecting turbulence model type laminar
Reading/calculating face velocity Uf

No finite volume options present

Courant Number mean: 0.0501858 max: 0.499623

Starting time loop

Courant Number mean: 0.0501858 max: 0.499623
deltaT = 0.000168174
Time = 0.0437792

solidBodyMotionFunctions::rotatingMotion::transformation(): Time = 0.0437792 transformation: ((0 0 0) (0.990557 (0 0 0.137103)))
AMI: Creating addressing and weights between 9600 source faces and 9600 target faces
AMI: Patch source sum(weights) min/max/average = 1, 1, 1
AMI: Patch target sum(weights) min/max/average = 1, 1, 1
smoothSolver:  Solving for Ux, Initial residual = 0.00319885, Final residual = 6.25215e-07, No Iterations 4
smoothSolver:  Solving for Uy, Initial residual = 0.00319327, Final residual = 6.2571e-07, No Iterations 4
GAMG:  Solving for p, Initial residual = 0.733726, Final residual = 0.006891, No Iterations 42
time step continuity errors : sum local = 7.19322e-07, global = 2.51648e-07, cumulative = 2.51648e-07
GAMG:  Solving for p, Initial residual = 0.178065, Final residual = 9.05586e-07, No Iterations 125
time step continuity errors : sum local = 2.51746e-07, global = 2.51653e-07, cumulative = 5.03301e-07
ExecutionTime = 66.29 s  ClockTime = 67 s

Courant Number mean: 0.050551 max: 0.522447
deltaT = 0.000160948
Time = 0.0439401

solidBodyMotionFunctions::rotatingMotion::transformation(): Time = 0.0439401 transformation: ((0 0 0) (0.990487 (0 0 0.137604)))
AMI: Creating addressing and weights between 9600 source faces and 9600 target faces
AMI: Patch source sum(weights) min/max/average = 1, 1, 1
AMI: Patch target sum(weights) min/max/average = 1, 1, 1
smoothSolver:  Solving for Ux, Initial residual = 0.0210614, Final residual = 5.65635e-07, No Iterations 5
smoothSolver:  Solving for Uy, Initial residual = 0.020792, Final residual = 5.57277e-07, No Iterations 5
GAMG:  Solving for p, Initial residual = 0.793382, Final residual = 0.00766636, No Iterations 39
time step continuity errors : sum local = 8.68705e-07, global = 1.47847e-07, cumulative = 6.51148e-07
GAMG:  Solving for p, Initial residual = 0.276141, Final residual = 9.512e-07, No Iterations 133
time step continuity errors : sum local = 1.47884e-07, global = 1.47813e-07, cumulative = 7.98961e-07
ExecutionTime = 116.45 s  ClockTime = 117 s

Courant Number mean: 0.0482384 max: 0.486684
deltaT = 0.000165352
Time = 0.0441055

solidBodyMotionFunctions::rotatingMotion::transformation(): Time = 0.0441055 transformation: ((0 0 0) (0.990416 (0 0 0.138119)))
AMI: Creating addressing and weights between 9600 source faces and 9600 target faces
AMI: Patch source sum(weights) min/max/average = 1, 1, 1
AMI: Patch target sum(weights) min/max/average = 1, 1, 1
smoothSolver:  Solving for Ux, Initial residual = 0.0122154, Final residual = 3.3948e-07, No Iterations 5
smoothSolver:  Solving for Uy, Initial residual = 0.0121133, Final residual = 3.35363e-07, No Iterations 5
GAMG:  Solving for p, Initial residual = 0.382186, Final residual = 0.00367602, No Iterations 32
time step continuity errors : sum local = 3.02338e-07, global = 1.23297e-07, cumulative = 9.22258e-07
GAMG:  Solving for p, Initial residual = 0.138829, Final residual = 9.04157e-07, No Iterations 131
time step continuity errors : sum local = 1.23342e-07, global = 1.2331e-07, cumulative = 1.04557e-06
ExecutionTime = 164.47 s  ClockTime = 165 s

Courant Number mean: 0.0495082 max: 0.494631
deltaT = 0.000167147
Time = 0.0442726

solidBodyMotionFunctions::rotatingMotion::transformation(): Time = 0.0442726 transformation: ((0 0 0) (0.990343 (0 0 0.138639)))
AMI: Creating addressing and weights between 9600 source faces and 9600 target faces
AMI: Patch source sum(weights) min/max/average = 1, 1, 1
AMI: Patch target sum(weights) min/max/average = 1, 1, 1
smoothSolver:  Solving for Ux, Initial residual = 0.00457933, Final residual = 6.59447e-07, No Iterations 4
smoothSolver:  Solving for Uy, Initial residual = 0.00455143, Final residual = 6.53979e-07, No Iterations 4
GAMG:  Solving for p, Initial residual = 0.167881, Final residual = 0.00160156, No Iterations 37
time step continuity errors : sum local = 1.58228e-07, global = 1.01464e-07, cumulative = 1.14703e-06
GAMG:  Solving for p, Initial residual = 0.0457609, Final residual = 8.24437e-07, No Iterations 96
time step continuity errors : sum local = 1.01494e-07, global = 1.01468e-07, cumulative = 1.2485e-06
ExecutionTime = 205.21 s  ClockTime = 206 s

Courant Number mean: 0.0500305 max: 0.497387
deltaT = 0.000168024
Time = 0.0444406

solidBodyMotionFunctions::rotatingMotion::transformation(): Time = 0.0444406 transformation: ((0 0 0) (0.99027 (0 0 0.139162)))
AMI: Creating addressing and weights between 9600 source faces and 9600 target faces
AMI: Patch source sum(weights) min/max/average = 1, 1, 1
AMI: Patch target sum(weights) min/max/average = 1, 1, 1
smoothSolver:  Solving for Ux, Initial residual = 0.00269266, Final residual = 4.24385e-07, No Iterations 4
smoothSolver:  Solving for Uy, Initial residual = 0.0026815, Final residual = 4.21262e-07, No Iterations 4
GAMG:  Solving for p, Initial residual = 0.102301, Final residual = 0.000960545, No Iterations 36
time step continuity errors : sum local = 1.13467e-07, global = 8.32579e-08, cumulative = 1.33176e-06
GAMG:  Solving for p, Initial residual = 0.0233923, Final residual = 8.75548e-07, No Iterations 93
time step continuity errors : sum local = 8.32854e-08, global = 8.32596e-08, cumulative = 1.41502e-06
ExecutionTime = 244.94 s  ClockTime = 245 s

Courant Number mean: 0.0502931 max: 0.498864
deltaT = 0.000168407
Time = 0.0446091

solidBodyMotionFunctions::rotatingMotion::transformation(): Time = 0.0446091 transformation: ((0 0 0) (0.990196 (0 0 0.139686)))
AMI: Creating addressing and weights between 9600 source faces and 9600 target faces
AMI: Patch source sum(weights) min/max/average = 1, 1, 1
AMI: Patch target sum(weights) min/max/average = 1, 1, 1
smoothSolver:  Solving for Ux, Initial residual = 0.00200491, Final residual = 3.66913e-07, No Iterations 4
smoothSolver:  Solving for Uy, Initial residual = 0.00199927, Final residual = 3.64951e-07, No Iterations 4
GAMG:  Solving for p, Initial residual = 0.0722197, Final residual = 0.000692895, No Iterations 33
time step continuity errors : sum local = 8.81135e-08, global = 6.82911e-08, cumulative = 1.48331e-06
GAMG:  Solving for p, Initial residual = 0.0141101, Final residual = 9.47247e-07, No Iterations 106
time step continuity errors : sum local = 6.83179e-08, global = 6.82917e-08, cumulative = 1.5516e-06
ExecutionTime = 286.78 s  ClockTime = 287 s

Courant Number mean: 0.0504152 max: 0.499297
deltaT = 0.000168644
Time = 0.0447777

solidBodyMotionFunctions::rotatingMotion::transformation(): Time = 0.0447777 transformation: ((0 0 0) (0.990122 (0 0 0.14021)))
AMI: Creating addressing and weights between 9600 source faces and 9600 target faces
AMI: Patch source sum(weights) min/max/average = 1, 1, 1
AMI: Patch target sum(weights) min/max/average = 1, 1, 1
smoothSolver:  Solving for Ux, Initial residual = 0.00171579, Final residual = 3.52336e-07, No Iterations 4
smoothSolver:  Solving for Uy, Initial residual = 0.00170985, Final residual = 3.50826e-07, No Iterations 4
GAMG:  Solving for p, Initial residual = 0.0562725, Final residual = 0.000543015, No Iterations 30
time step continuity errors : sum local = 7.09819e-08, global = 5.60926e-08, cumulative = 1.60769e-06
GAMG:  Solving for p, Initial residual = 0.00954051, Final residual = 9.17959e-07, No Iterations 98
time step continuity errors : sum local = 5.61171e-08, global = 5.60926e-08, cumulative = 1.66378e-06
ExecutionTime = 325.89 s  ClockTime = 326 s

Courant Number mean: 0.0504982 max: 0.499495
deltaT = 0.000168815
Time = 0.0449465

solidBodyMotionFunctions::rotatingMotion::transformation(): Time = 0.0449465 transformation: ((0 0 0) (0.990047 (0 0 0.140735)))
AMI: Creating addressing and weights between 9600 source faces and 9600 target faces
AMI: Patch source sum(weights) min/max/average = 1, 1, 1
AMI: Patch target sum(weights) min/max/average = 1, 1, 1
smoothSolver:  Solving for Ux, Initial residual = 0.00156924, Final residual = 3.48376e-07, No Iterations 4
smoothSolver:  Solving for Uy, Initial residual = 0.00156353, Final residual = 3.47266e-07, No Iterations 4
GAMG:  Solving for p, Initial residual = 0.0470773, Final residual = 0.000458427, No Iterations 27
time step continuity errors : sum local = 5.80768e-08, global = 4.61793e-08, cumulative = 1.70996e-06
GAMG:  Solving for p, Initial residual = 0.00706552, Final residual = 9.78683e-07, No Iterations 91
time step continuity errors : sum local = 4.62046e-08, global = 4.61795e-08, cumulative = 1.75614e-06
ExecutionTime = 363.21 s  ClockTime = 364 s

Courant Number mean: 0.0505639 max: 0.499569
deltaT = 0.00016896
Time = 0.0451155

solidBodyMotionFunctions::rotatingMotion::transformation(): Time = 0.0451155 transformation: ((0 0 0) (0.989972 (0 0 0.141261)))
AMI: Creating addressing and weights between 9600 source faces and 9600 target faces
AMI: Patch source sum(weights) min/max/average = 1, 1, 1
AMI: Patch target sum(weights) min/max/average = 1, 1, 1
smoothSolver:  Solving for Ux, Initial residual = 0.00148766, Final residual = 3.47968e-07, No Iterations 4
smoothSolver:  Solving for Uy, Initial residual = 0.0014826, Final residual = 3.47087e-07, No Iterations 4
GAMG:  Solving for p, Initial residual = 0.0410948, Final residual = 0.000403562, No Iterations 24
time step continuity errors : sum local = 4.83332e-08, global = 3.80794e-08, cumulative = 1.79422e-06
GAMG:  Solving for p, Initial residual = 0.00566256, Final residual = 9.20491e-07, No Iterations 79
time step continuity errors : sum local = 3.81024e-08, global = 3.80799e-08, cumulative = 1.8323e-06
ExecutionTime = 396.95 s  ClockTime = 398 s

Courant Number mean: 0.0506239 max: 0.499568
deltaT = 0.000169107
Time = 0.0452846

solidBodyMotionFunctions::rotatingMotion::transformation(): Time = 0.0452846 transformation: ((0 0 0) (0.989897 (0 0 0.141787)))
AMI: Creating addressing and weights between 9600 source faces and 9600 target faces
AMI: Patch source sum(weights) min/max/average = 1, 1, 1
AMI: Patch target sum(weights) min/max/average = 1, 1, 1
smoothSolver:  Solving for Ux, Initial residual = 0.00144223, Final residual = 3.48648e-07, No Iterations 4
smoothSolver:  Solving for Uy, Initial residual = 0.00143797, Final residual = 3.47939e-07, No Iterations 4
GAMG:  Solving for p, Initial residual = 0.0371553, Final residual = 0.000365205, No Iterations 21
time step continuity errors : sum local = 4.03446e-08, global = 3.14505e-08, cumulative = 1.86375e-06
GAMG:  Solving for p, Initial residual = 0.00482554, Final residual = 9.91348e-07, No Iterations 62
time step continuity errors : sum local = 3.14746e-08, global = 3.14508e-08, cumulative = 1.8952e-06
ExecutionTime = 438.98 s  ClockTime = 441 s

End

Finalising parallel run
