/*---------------------------------------------------------------------------*\
| =========                 |                                                 |
| \\      /  F ield         | OpenFOAM: The Open Source CFD Toolbox           |
|  \\    /   O peration     | Version:  2.3.0                                 |
|   \\  /    A nd           | Web:      www.OpenFOAM.org                      |
|    \\/     M anipulation  |                                                 |
\*---------------------------------------------------------------------------*/
Build  : 2.3.0
Exec   : pimpleDyMFoam -parallel
Date   : Oct 10 2014
Time   : 09:10:39
Host   : "hpc01"
PID    : 3688
Case   : /home/bobo/OpenFOAM/experiment/incompressible/pimpleDyMFoam/mixerVesselAMI2D1
nProcs : 6
Slaves : 
5
(
"hpc01.3689"
"hpc01.3690"
"hpc01.3691"
"hpc01.3692"
"hpc01.3693"
)

Pstream initialized with:
    floatTransfer      : 0
    nProcsSimpleSum    : 0
    commsType          : nonBlocking
    polling iterations : 0
fileModificationChecking : Monitoring run-time modified files using timeStampMaster
allowSystemOperations : Disallowing user-supplied system call operations

// * * * * * * * * * * * * * * * * * * * * * * * * * * * * * * * * * * * * * //
Create time

Create mesh for time = 0.0372131

Selecting dynamicFvMesh solidBodyMotionFvMesh
Selecting solid-body motion function rotatingMotion
Applying solid body motion to cellZone rotor

PIMPLE: Operating solver in PISO mode

Reading field p

Reading field U

Reading/calculating face flux field phi

AMI: Creating addressing and weights between 9600 source faces and 9600 target faces
AMI: Patch source sum(weights) min/max/average = 1, 1, 1
AMI: Patch target sum(weights) min/max/average = 1, 1, 1
Selecting incompressible transport model Newtonian
Selecting turbulence model type laminar
Reading/calculating face velocity Uf

No finite volume options present

Courant Number mean: 0.0481597 max: 0.499778

Starting time loop

Courant Number mean: 0.0481597 max: 0.499778
deltaT = 0.000163474
Time = 0.0373766

solidBodyMotionFunctions::rotatingMotion::transformation(): Time = 0.0373766 transformation: ((0 0 0) (0.993114 (0 0 0.117153)))
AMI: Creating addressing and weights between 9600 source faces and 9600 target faces
AMI: Patch source sum(weights) min/max/average = 1, 1, 1
AMI: Patch target sum(weights) min/max/average = 1, 1, 1
smoothSolver:  Solving for Ux, Initial residual = 0.00320981, Final residual = 6.93876e-07, No Iterations 4
smoothSolver:  Solving for Uy, Initial residual = 0.00321857, Final residual = 6.55146e-07, No Iterations 4
GAMG:  Solving for p, Initial residual = 0.723196, Final residual = 0.00703471, No Iterations 41
time step continuity errors : sum local = 8.6746e-07, global = 3.74839e-07, cumulative = 3.74839e-07
GAMG:  Solving for p, Initial residual = 0.171846, Final residual = 9.42923e-07, No Iterations 60
time step continuity errors : sum local = 3.7495e-07, global = 3.74851e-07, cumulative = 7.49689e-07
ExecutionTime = 36.97 s  ClockTime = 37 s

Courant Number mean: 0.0484891 max: 0.699644
deltaT = 0.000116826
Time = 0.0374934

solidBodyMotionFunctions::rotatingMotion::transformation(): Time = 0.0374934 transformation: ((0 0 0) (0.993071 (0 0 0.117517)))
AMI: Creating addressing and weights between 9600 source faces and 9600 target faces
AMI: Patch source sum(weights) min/max/average = 1, 1, 1
AMI: Patch target sum(weights) min/max/average = 1, 1, 1
smoothSolver:  Solving for Ux, Initial residual = 0.0163109, Final residual = 8.3054e-07, No Iterations 4
smoothSolver:  Solving for Uy, Initial residual = 0.0161506, Final residual = 8.23259e-07, No Iterations 4
GAMG:  Solving for p, Initial residual = 0.788406, Final residual = 0.00774164, No Iterations 30
time step continuity errors : sum local = 6.28823e-07, global = 1.89211e-07, cumulative = 9.389e-07
GAMG:  Solving for p, Initial residual = 0.199593, Final residual = 9.97483e-07, No Iterations 117
time step continuity errors : sum local = 1.89259e-07, global = 1.8921e-07, cumulative = 1.12811e-06
ExecutionTime = 73.6 s  ClockTime = 73 s

Courant Number mean: 0.0345547 max: 0.364366
deltaT = 0.000132858
Time = 0.0376263

solidBodyMotionFunctions::rotatingMotion::transformation(): Time = 0.0376263 transformation: ((0 0 0) (0.993022 (0 0 0.117932)))
AMI: Creating addressing and weights between 9600 source faces and 9600 target faces
AMI: Patch source sum(weights) min/max/average = 1, 1, 1
AMI: Patch target sum(weights) min/max/average = 1, 1, 1
smoothSolver:  Solving for Ux, Initial residual = 0.0129682, Final residual = 9.55812e-07, No Iterations 4
smoothSolver:  Solving for Uy, Initial residual = 0.0129183, Final residual = 9.38795e-07, No Iterations 4
GAMG:  Solving for p, Initial residual = 0.346692, Final residual = 0.00334696, No Iterations 41
time step continuity errors : sum local = 3.18079e-07, global = 1.76334e-07, cumulative = 1.30444e-06
GAMG:  Solving for p, Initial residual = 0.110167, Final residual = 8.42368e-07, No Iterations 70
time step continuity errors : sum local = 1.76363e-07, global = 1.76337e-07, cumulative = 1.48078e-06
ExecutionTime = 103.21 s  ClockTime = 103 s

Courant Number mean: 0.0392541 max: 0.410101
deltaT = 0.000149056
Time = 0.0377753

solidBodyMotionFunctions::rotatingMotion::transformation(): Time = 0.0377753 transformation: ((0 0 0) (0.992966 (0 0 0.118397)))
AMI: Creating addressing and weights between 9600 source faces and 9600 target faces
AMI: Patch source sum(weights) min/max/average = 1, 1, 1
AMI: Patch target sum(weights) min/max/average = 1, 1, 1
smoothSolver:  Solving for Ux, Initial residual = 0.00538091, Final residual = 5.76571e-07, No Iterations 4
smoothSolver:  Solving for Uy, Initial residual = 0.00532251, Final residual = 5.58931e-07, No Iterations 4
GAMG:  Solving for p, Initial residual = 0.171874, Final residual = 0.00162186, No Iterations 39
time step continuity errors : sum local = 2.20248e-07, global = 1.59504e-07, cumulative = 1.64028e-06
GAMG:  Solving for p, Initial residual = 0.0434725, Final residual = 9.85256e-07, No Iterations 65
time step continuity errors : sum local = 1.59538e-07, global = 1.59505e-07, cumulative = 1.79979e-06
ExecutionTime = 131.41 s  ClockTime = 131 s

Courant Number mean: 0.0440217 max: 0.456973
deltaT = 0.000163091
Time = 0.0379384

solidBodyMotionFunctions::rotatingMotion::transformation(): Time = 0.0379384 transformation: ((0 0 0) (0.992906 (0 0 0.118905)))
AMI: Creating addressing and weights between 9600 source faces and 9600 target faces
AMI: Patch source sum(weights) min/max/average = 1, 1, 1
AMI: Patch target sum(weights) min/max/average = 1, 1, 1
smoothSolver:  Solving for Ux, Initial residual = 0.0032299, Final residual = 4.91415e-07, No Iterations 4
smoothSolver:  Solving for Uy, Initial residual = 0.00319669, Final residual = 4.71406e-07, No Iterations 4
GAMG:  Solving for p, Initial residual = 0.113953, Final residual = 0.00109881, No Iterations 35
time step continuity errors : sum local = 1.79685e-07, global = 1.38844e-07, cumulative = 1.93863e-06
GAMG:  Solving for p, Initial residual = 0.0246927, Final residual = 9.74661e-07, No Iterations 77
time step continuity errors : sum local = 1.38879e-07, global = 1.38845e-07, cumulative = 2.07748e-06
ExecutionTime = 161.16 s  ClockTime = 161 s

Courant Number mean: 0.0481621 max: 0.497633
deltaT = 0.000163866
Time = 0.0381023

solidBodyMotionFunctions::rotatingMotion::transformation(): Time = 0.0381023 transformation: ((0 0 0) (0.992844 (0 0 0.119416)))
AMI: Creating addressing and weights between 9600 source faces and 9600 target faces
AMI: Patch source sum(weights) min/max/average = 1, 1, 1
AMI: Patch target sum(weights) min/max/average = 1, 1, 1
smoothSolver:  Solving for Ux, Initial residual = 0.00221691, Final residual = 3.98292e-07, No Iterations 4
smoothSolver:  Solving for Uy, Initial residual = 0.00221252, Final residual = 3.81252e-07, No Iterations 4
GAMG:  Solving for p, Initial residual = 0.0780935, Final residual = 0.000769962, No Iterations 31
time step continuity errors : sum local = 1.37353e-07, global = 1.11377e-07, cumulative = 2.18886e-06
GAMG:  Solving for p, Initial residual = 0.0143285, Final residual = 9.4174e-07, No Iterations 81
time step continuity errors : sum local = 1.11408e-07, global = 1.11378e-07, cumulative = 2.30023e-06
ExecutionTime = 190.95 s  ClockTime = 191 s

Courant Number mean: 0.0483952 max: 0.499287
deltaT = 0.0001641
Time = 0.0382664

solidBodyMotionFunctions::rotatingMotion::transformation(): Time = 0.0382664 transformation: ((0 0 0) (0.992783 (0 0 0.119928)))
AMI: Creating addressing and weights between 9600 source faces and 9600 target faces
AMI: Patch source sum(weights) min/max/average = 1, 1, 1
AMI: Patch target sum(weights) min/max/average = 1, 1, 1
smoothSolver:  Solving for Ux, Initial residual = 0.00182554, Final residual = 3.74659e-07, No Iterations 4
smoothSolver:  Solving for Uy, Initial residual = 0.00183093, Final residual = 3.5798e-07, No Iterations 4
GAMG:  Solving for p, Initial residual = 0.0633728, Final residual = 0.000606975, No Iterations 27
time step continuity errors : sum local = 1.08624e-07, global = 8.94455e-08, cumulative = 2.38968e-06
GAMG:  Solving for p, Initial residual = 0.00966535, Final residual = 7.47155e-07, No Iterations 61
time step continuity errors : sum local = 8.94687e-08, global = 8.94459e-08, cumulative = 2.47913e-06
ExecutionTime = 215.99 s  ClockTime = 216 s

Courant Number mean: 0.0484732 max: 0.499519
deltaT = 0.000164258
Time = 0.0384306

solidBodyMotionFunctions::rotatingMotion::transformation(): Time = 0.0384306 transformation: ((0 0 0) (0.992721 (0 0 0.120441)))
AMI: Creating addressing and weights between 9600 source faces and 9600 target faces
AMI: Patch source sum(weights) min/max/average = 1, 1, 1
AMI: Patch target sum(weights) min/max/average = 1, 1, 1
smoothSolver:  Solving for Ux, Initial residual = 0.0016363, Final residual = 3.65785e-07, No Iterations 4
smoothSolver:  Solving for Uy, Initial residual = 0.00164334, Final residual = 3.4951e-07, No Iterations 4
GAMG:  Solving for p, Initial residual = 0.0543771, Final residual = 0.000518481, No Iterations 23
time step continuity errors : sum local = 8.75363e-08, global = 7.20509e-08, cumulative = 2.55118e-06
GAMG:  Solving for p, Initial residual = 0.00715351, Final residual = 9.43131e-07, No Iterations 69
time step continuity errors : sum local = 7.20785e-08, global = 7.20511e-08, cumulative = 2.62323e-06
ExecutionTime = 241.88 s  ClockTime = 242 s

Courant Number mean: 0.0485318 max: 0.499605
deltaT = 0.000164388
Time = 0.038595

solidBodyMotionFunctions::rotatingMotion::transformation(): Time = 0.038595 transformation: ((0 0 0) (0.992658 (0 0 0.120953)))
AMI: Creating addressing and weights between 9600 source faces and 9600 target faces
AMI: Patch source sum(weights) min/max/average = 1, 1, 1
AMI: Patch target sum(weights) min/max/average = 1, 1, 1
smoothSolver:  Solving for Ux, Initial residual = 0.00153468, Final residual = 3.62713e-07, No Iterations 4
smoothSolver:  Solving for Uy, Initial residual = 0.00154182, Final residual = 3.47244e-07, No Iterations 4
GAMG:  Solving for p, Initial residual = 0.04837, Final residual = 0.000441454, No Iterations 19
time step continuity errors : sum local = 7.09213e-08, global = 5.82224e-08, cumulative = 2.68145e-06
GAMG:  Solving for p, Initial residual = 0.00572808, Final residual = 8.57581e-07, No Iterations 46
time step continuity errors : sum local = 5.82463e-08, global = 5.82225e-08, cumulative = 2.73967e-06
ExecutionTime = 262.4 s  ClockTime = 262 s

Courant Number mean: 0.0485841 max: 0.499608
deltaT = 0.000164517
Time = 0.0387595

solidBodyMotionFunctions::rotatingMotion::transformation(): Time = 0.0387595 transformation: ((0 0 0) (0.992596 (0 0 0.121466)))
AMI: Creating addressing and weights between 9600 source faces and 9600 target faces
AMI: Patch source sum(weights) min/max/average = 1, 1, 1
AMI: Patch target sum(weights) min/max/average = 1, 1, 1
smoothSolver:  Solving for Ux, Initial residual = 0.00147718, Final residual = 3.61883e-07, No Iterations 4
smoothSolver:  Solving for Uy, Initial residual = 0.0014838, Final residual = 3.47003e-07, No Iterations 4
GAMG:  Solving for p, Initial residual = 0.0433145, Final residual = 0.000410874, No Iterations 18
time step continuity errors : sum local = 5.85288e-08, global = 4.72048e-08, cumulative = 2.78688e-06
GAMG:  Solving for p, Initial residual = 0.00487932, Final residual = 9.24285e-07, No Iterations 64
time step continuity errors : sum local = 4.72297e-08, global = 4.72049e-08, cumulative = 2.83408e-06
ExecutionTime = 292.75 s  ClockTime = 293 s

End

Finalising parallel run
