/*---------------------------------------------------------------------------*\
| =========                 |                                                 |
| \\      /  F ield         | OpenFOAM: The Open Source CFD Toolbox           |
|  \\    /   O peration     | Version:  2.3.0                                 |
|   \\  /    A nd           | Web:      www.OpenFOAM.org                      |
|    \\/     M anipulation  |                                                 |
\*---------------------------------------------------------------------------*/
Build  : 2.3.0
Exec   : pimpleDyMFoam -parallel
Date   : Oct 10 2014
Time   : 09:23:43
Host   : "hpc01"
PID    : 3719
Case   : /home/bobo/OpenFOAM/experiment/incompressible/pimpleDyMFoam/mixerVesselAMI2D1
nProcs : 6
Slaves : 
5
(
"hpc01.3720"
"hpc01.3721"
"hpc01.3722"
"hpc01.3723"
"hpc01.3724"
)

Pstream initialized with:
    floatTransfer      : 0
    nProcsSimpleSum    : 0
    commsType          : nonBlocking
    polling iterations : 0
fileModificationChecking : Monitoring run-time modified files using timeStampMaster
allowSystemOperations : Disallowing user-supplied system call operations

// * * * * * * * * * * * * * * * * * * * * * * * * * * * * * * * * * * * * * //
Create time

Create mesh for time = 0.0387595

Selecting dynamicFvMesh solidBodyMotionFvMesh
Selecting solid-body motion function rotatingMotion
Applying solid body motion to cellZone rotor

PIMPLE: Operating solver in PISO mode

Reading field p

Reading field U

Reading/calculating face flux field phi

AMI: Creating addressing and weights between 9600 source faces and 9600 target faces
AMI: Patch source sum(weights) min/max/average = 1, 1, 1
AMI: Patch target sum(weights) min/max/average = 1, 1, 1
Selecting incompressible transport model Newtonian
Selecting turbulence model type laminar
Reading/calculating face velocity Uf

No finite volume options present

Courant Number mean: 0.0486374 max: 0.499631

Starting time loop

Courant Number mean: 0.0486374 max: 0.499631
deltaT = 0.000164638
Time = 0.0389241

solidBodyMotionFunctions::rotatingMotion::transformation(): Time = 0.0389241 transformation: ((0 0 0) (0.992533 (0 0 0.12198)))
AMI: Creating addressing and weights between 9600 source faces and 9600 target faces
AMI: Patch source sum(weights) min/max/average = 1, 1, 1
AMI: Patch target sum(weights) min/max/average = 1, 1, 1
smoothSolver:  Solving for Ux, Initial residual = 0.0032086, Final residual = 6.93951e-07, No Iterations 4
smoothSolver:  Solving for Uy, Initial residual = 0.00321677, Final residual = 6.52025e-07, No Iterations 4
GAMG:  Solving for p, Initial residual = 0.713752, Final residual = 0.00695484, No Iterations 38
time step continuity errors : sum local = 8.84483e-07, global = 3.93404e-07, cumulative = 3.93404e-07
GAMG:  Solving for p, Initial residual = 0.169915, Final residual = 8.46777e-07, No Iterations 89
time step continuity errors : sum local = 3.93525e-07, global = 3.93434e-07, cumulative = 7.86838e-07
ExecutionTime = 55.01 s  ClockTime = 55 s

Courant Number mean: 0.0489861 max: 0.734327
deltaT = 0.000112102
Time = 0.0390362

solidBodyMotionFunctions::rotatingMotion::transformation(): Time = 0.0390362 transformation: ((0 0 0) (0.99249 (0 0 0.122329)))
AMI: Creating addressing and weights between 9600 source faces and 9600 target faces
AMI: Patch source sum(weights) min/max/average = 1, 1, 1
AMI: Patch target sum(weights) min/max/average = 1, 1, 1
smoothSolver:  Solving for Ux, Initial residual = 0.0153274, Final residual = 6.76807e-07, No Iterations 4
smoothSolver:  Solving for Uy, Initial residual = 0.0151426, Final residual = 6.691e-07, No Iterations 4
GAMG:  Solving for p, Initial residual = 0.780876, Final residual = 0.00766515, No Iterations 33
time step continuity errors : sum local = 5.90913e-07, global = 1.87892e-07, cumulative = 9.7473e-07
GAMG:  Solving for p, Initial residual = 0.18811, Final residual = 9.50349e-07, No Iterations 75
time step continuity errors : sum local = 1.87923e-07, global = 1.87879e-07, cumulative = 1.16261e-06
ExecutionTime = 93.41 s  ClockTime = 94 s

Courant Number mean: 0.0332608 max: 0.350681
deltaT = 0.000128085
Time = 0.0391643

solidBodyMotionFunctions::rotatingMotion::transformation(): Time = 0.0391643 transformation: ((0 0 0) (0.99244 (0 0 0.122728)))
AMI: Creating addressing and weights between 9600 source faces and 9600 target faces
AMI: Patch source sum(weights) min/max/average = 1, 1, 1
AMI: Patch target sum(weights) min/max/average = 1, 1, 1
smoothSolver:  Solving for Ux, Initial residual = 0.0126314, Final residual = 8.24742e-07, No Iterations 4
smoothSolver:  Solving for Uy, Initial residual = 0.012592, Final residual = 8.10184e-07, No Iterations 4
GAMG:  Solving for p, Initial residual = 0.339764, Final residual = 0.00338113, No Iterations 27
time step continuity errors : sum local = 3.18015e-07, global = 1.77137e-07, cumulative = 1.33975e-06
GAMG:  Solving for p, Initial residual = 0.105135, Final residual = 8.5558e-07, No Iterations 77
time step continuity errors : sum local = 1.77169e-07, global = 1.77142e-07, cumulative = 1.51689e-06
ExecutionTime = 129.44 s  ClockTime = 130 s

Courant Number mean: 0.0379615 max: 0.39302
deltaT = 0.00014438
Time = 0.0393087

solidBodyMotionFunctions::rotatingMotion::transformation(): Time = 0.0393087 transformation: ((0 0 0) (0.992385 (0 0 0.123179)))
AMI: Creating addressing and weights between 9600 source faces and 9600 target faces
AMI: Patch source sum(weights) min/max/average = 1, 1, 1
AMI: Patch target sum(weights) min/max/average = 1, 1, 1
smoothSolver:  Solving for Ux, Initial residual = 0.00530189, Final residual = 5.11608e-07, No Iterations 4
smoothSolver:  Solving for Uy, Initial residual = 0.00524703, Final residual = 4.96745e-07, No Iterations 4
GAMG:  Solving for p, Initial residual = 0.170243, Final residual = 0.00166098, No Iterations 37
time step continuity errors : sum local = 2.22602e-07, global = 1.62084e-07, cumulative = 1.67897e-06
GAMG:  Solving for p, Initial residual = 0.0422285, Final residual = 7.73275e-07, No Iterations 74
time step continuity errors : sum local = 1.62111e-07, global = 1.62086e-07, cumulative = 1.84106e-06
ExecutionTime = 166 s  ClockTime = 166 s

Courant Number mean: 0.0427726 max: 0.440085
deltaT = 0.000160784
Time = 0.0394695

solidBodyMotionFunctions::rotatingMotion::transformation(): Time = 0.0394695 transformation: ((0 0 0) (0.992322 (0 0 0.12368)))
AMI: Creating addressing and weights between 9600 source faces and 9600 target faces
AMI: Patch source sum(weights) min/max/average = 1, 1, 1
AMI: Patch target sum(weights) min/max/average = 1, 1, 1
smoothSolver:  Solving for Ux, Initial residual = 0.00323182, Final residual = 4.64322e-07, No Iterations 4
smoothSolver:  Solving for Uy, Initial residual = 0.00319946, Final residual = 4.46048e-07, No Iterations 4
GAMG:  Solving for p, Initial residual = 0.116309, Final residual = 0.00109216, No Iterations 34
time step continuity errors : sum local = 1.85189e-07, global = 1.44213e-07, cumulative = 1.98527e-06
GAMG:  Solving for p, Initial residual = 0.0246974, Final residual = 9.86381e-07, No Iterations 56
time step continuity errors : sum local = 1.44247e-07, global = 1.44214e-07, cumulative = 2.12949e-06
ExecutionTime = 199.59 s  ClockTime = 200 s

Courant Number mean: 0.0476273 max: 0.48771
deltaT = 0.000164835
Time = 0.0396343

solidBodyMotionFunctions::rotatingMotion::transformation(): Time = 0.0396343 transformation: ((0 0 0) (0.992258 (0 0 0.124194)))
AMI: Creating addressing and weights between 9600 source faces and 9600 target faces
AMI: Patch source sum(weights) min/max/average = 1, 1, 1
AMI: Patch target sum(weights) min/max/average = 1, 1, 1
smoothSolver:  Solving for Ux, Initial residual = 0.00224032, Final residual = 4.01392e-07, No Iterations 4
smoothSolver:  Solving for Uy, Initial residual = 0.00223686, Final residual = 3.85036e-07, No Iterations 4
GAMG:  Solving for p, Initial residual = 0.0794348, Final residual = 0.000790811, No Iterations 30
time step continuity errors : sum local = 1.45697e-07, global = 1.18023e-07, cumulative = 2.24751e-06
GAMG:  Solving for p, Initial residual = 0.0147435, Final residual = 9.586e-07, No Iterations 67
time step continuity errors : sum local = 1.18055e-07, global = 1.18023e-07, cumulative = 2.36553e-06
ExecutionTime = 234.32 s  ClockTime = 235 s

Courant Number mean: 0.0488314 max: 0.498935
deltaT = 0.000165187
Time = 0.0397995

solidBodyMotionFunctions::rotatingMotion::transformation(): Time = 0.0397995 transformation: ((0 0 0) (0.992193 (0 0 0.124709)))
AMI: Creating addressing and weights between 9600 source faces and 9600 target faces
AMI: Patch source sum(weights) min/max/average = 1, 1, 1
AMI: Patch target sum(weights) min/max/average = 1, 1, 1
smoothSolver:  Solving for Ux, Initial residual = 0.0018334, Final residual = 3.76144e-07, No Iterations 4
smoothSolver:  Solving for Uy, Initial residual = 0.00183982, Final residual = 3.59925e-07, No Iterations 4
GAMG:  Solving for p, Initial residual = 0.0637055, Final residual = 0.000604564, No Iterations 26
time step continuity errors : sum local = 1.14517e-07, global = 9.47927e-08, cumulative = 2.46033e-06
GAMG:  Solving for p, Initial residual = 0.00981745, Final residual = 9.17214e-07, No Iterations 65
time step continuity errors : sum local = 9.48217e-08, global = 9.47929e-08, cumulative = 2.55512e-06
ExecutionTime = 266.6 s  ClockTime = 267 s

Courant Number mean: 0.0489447 max: 0.499438
deltaT = 0.000165373
Time = 0.0399649

solidBodyMotionFunctions::rotatingMotion::transformation(): Time = 0.0399649 transformation: ((0 0 0) (0.992128 (0 0 0.125224)))
AMI: Creating addressing and weights between 9600 source faces and 9600 target faces
AMI: Patch source sum(weights) min/max/average = 1, 1, 1
AMI: Patch target sum(weights) min/max/average = 1, 1, 1
smoothSolver:  Solving for Ux, Initial residual = 0.00163597, Final residual = 3.66746e-07, No Iterations 4
smoothSolver:  Solving for Uy, Initial residual = 0.00164404, Final residual = 3.50996e-07, No Iterations 4
GAMG:  Solving for p, Initial residual = 0.054641, Final residual = 0.000515486, No Iterations 23
time step continuity errors : sum local = 9.20442e-08, global = 7.63604e-08, cumulative = 2.63148e-06
GAMG:  Solving for p, Initial residual = 0.00722406, Final residual = 9.06009e-07, No Iterations 82
time step continuity errors : sum local = 7.63874e-08, global = 7.63605e-08, cumulative = 2.70784e-06
ExecutionTime = 302.93 s  ClockTime = 303 s

Courant Number mean: 0.0490118 max: 0.499529
deltaT = 0.000165529
Time = 0.0401304

solidBodyMotionFunctions::rotatingMotion::transformation(): Time = 0.0401304 transformation: ((0 0 0) (0.992063 (0 0 0.12574)))
AMI: Creating addressing and weights between 9600 source faces and 9600 target faces
AMI: Patch source sum(weights) min/max/average = 1, 1, 1
AMI: Patch target sum(weights) min/max/average = 1, 1, 1
smoothSolver:  Solving for Ux, Initial residual = 0.00153114, Final residual = 3.63976e-07, No Iterations 4
smoothSolver:  Solving for Uy, Initial residual = 0.00153933, Final residual = 3.48758e-07, No Iterations 4
GAMG:  Solving for p, Initial residual = 0.0486156, Final residual = 0.000457026, No Iterations 20
time step continuity errors : sum local = 7.50848e-08, global = 6.17051e-08, cumulative = 2.76954e-06
GAMG:  Solving for p, Initial residual = 0.00573089, Final residual = 9.84646e-07, No Iterations 42
time step continuity errors : sum local = 6.17331e-08, global = 6.17053e-08, cumulative = 2.83125e-06
ExecutionTime = 327.79 s  ClockTime = 328 s

Courant Number mean: 0.0490722 max: 0.499533
deltaT = 0.000165684
Time = 0.0402961

solidBodyMotionFunctions::rotatingMotion::transformation(): Time = 0.0402961 transformation: ((0 0 0) (0.991998 (0 0 0.126256)))
AMI: Creating addressing and weights between 9600 source faces and 9600 target faces
AMI: Patch source sum(weights) min/max/average = 1, 1, 1
AMI: Patch target sum(weights) min/max/average = 1, 1, 1
smoothSolver:  Solving for Ux, Initial residual = 0.00147333, Final residual = 3.63419e-07, No Iterations 4
smoothSolver:  Solving for Uy, Initial residual = 0.0014806, Final residual = 3.48641e-07, No Iterations 4
GAMG:  Solving for p, Initial residual = 0.0442764, Final residual = 0.000404987, No Iterations 18
time step continuity errors : sum local = 6.13416e-08, global = 5.00089e-08, cumulative = 2.88126e-06
GAMG:  Solving for p, Initial residual = 0.0048573, Final residual = 9.35287e-07, No Iterations 71
time step continuity errors : sum local = 5.00344e-08, global = 5.00089e-08, cumulative = 2.93127e-06
ExecutionTime = 367.55 s  ClockTime = 368 s

End

Finalising parallel run
