/*---------------------------------------------------------------------------*\
| =========                 |                                                 |
| \\      /  F ield         | OpenFOAM: The Open Source CFD Toolbox           |
|  \\    /   O peration     | Version:  2.3.0                                 |
|   \\  /    A nd           | Web:      www.OpenFOAM.org                      |
|    \\/     M anipulation  |                                                 |
\*---------------------------------------------------------------------------*/
Build  : 2.3.0
Exec   : pimpleDyMFoam -parallel
Date   : Oct 10 2014
Time   : 08:59:27
Host   : "hpc01"
PID    : 3632
Case   : /home/bobo/OpenFOAM/experiment/incompressible/pimpleDyMFoam/mixerVesselAMI2D2
nProcs : 6
Slaves : 
5
(
"hpc01.3633"
"hpc01.3634"
"hpc01.3635"
"hpc01.3636"
"hpc01.3637"
)

Pstream initialized with:
    floatTransfer      : 0
    nProcsSimpleSum    : 0
    commsType          : nonBlocking
    polling iterations : 0
fileModificationChecking : Monitoring run-time modified files using timeStampMaster
allowSystemOperations : Disallowing user-supplied system call operations

// * * * * * * * * * * * * * * * * * * * * * * * * * * * * * * * * * * * * * //
Create time

Create mesh for time = 0.183377

Selecting dynamicFvMesh solidBodyMotionFvMesh
Selecting solid-body motion function rotatingMotion
Applying solid body motion to cellZone rotor

PIMPLE: Operating solver in PISO mode

Reading field p

Reading field U

Reading/calculating face flux field phi

AMI: Creating addressing and weights between 9600 source faces and 9600 target faces
AMI: Patch source sum(weights) min/max/average = 1, 1, 1
AMI: Patch target sum(weights) min/max/average = 1, 1, 1
Selecting incompressible transport model Newtonian
Selecting turbulence model type laminar
Reading/calculating face velocity Uf

No finite volume options present

Courant Number mean: 0.0798103 max: 0.499615

Starting time loop

Courant Number mean: 0.0798103 max: 0.499615
deltaT = 0.000216021
Time = 0.183593

solidBodyMotionFunctions::rotatingMotion::transformation(): Time = 0.183593 transformation: ((0 0 0) (0.838225 (0 0 0.545324)))
AMI: Creating addressing and weights between 9600 source faces and 9600 target faces
AMI: Patch source sum(weights) min/max/average = 1, 1, 1
AMI: Patch target sum(weights) min/max/average = 1, 1, 1
smoothSolver:  Solving for Ux, Initial residual = 0.00278868, Final residual = 2.05446e-07, No Iterations 5
smoothSolver:  Solving for Uy, Initial residual = 0.00278915, Final residual = 1.99579e-07, No Iterations 5
GAMG:  Solving for p, Initial residual = 0.796691, Final residual = 0.00696412, No Iterations 44
time step continuity errors : sum local = 1.14624e-06, global = 6.55603e-07, cumulative = 6.55603e-07
GAMG:  Solving for p, Initial residual = 0.194297, Final residual = 9.94202e-07, No Iterations 106
time step continuity errors : sum local = 6.56467e-07, global = 6.56356e-07, cumulative = 1.31196e-06
ExecutionTime = 45.99 s  ClockTime = 46 s

Courant Number mean: 0.0796397 max: 1.26348
deltaT = 8.54863e-05
Time = 0.183679

solidBodyMotionFunctions::rotatingMotion::transformation(): Time = 0.183679 transformation: ((0 0 0) (0.838079 (0 0 0.545549)))
AMI: Creating addressing and weights between 9600 source faces and 9600 target faces
AMI: Patch source sum(weights) min/max/average = 1, 1, 1
AMI: Patch target sum(weights) min/max/average = 1, 1, 1
smoothSolver:  Solving for Ux, Initial residual = 0.00503939, Final residual = 2.30782e-07, No Iterations 4
smoothSolver:  Solving for Uy, Initial residual = 0.00503746, Final residual = 2.30366e-07, No Iterations 4
GAMG:  Solving for p, Initial residual = 0.858927, Final residual = 0.00853378, No Iterations 42
time step continuity errors : sum local = 4.09846e-07, global = 2.11785e-07, cumulative = 1.52374e-06
GAMG:  Solving for p, Initial residual = 0.1221, Final residual = 9.33925e-07, No Iterations 93
time step continuity errors : sum local = 2.11743e-07, global = 2.1172e-07, cumulative = 1.73546e-06
ExecutionTime = 80.52 s  ClockTime = 80 s

Courant Number mean: 0.0315058 max: 0.407563
deltaT = 9.59737e-05
Time = 0.183774

solidBodyMotionFunctions::rotatingMotion::transformation(): Time = 0.183774 transformation: ((0 0 0) (0.837914 (0 0 0.545802)))
AMI: Creating addressing and weights between 9600 source faces and 9600 target faces
AMI: Patch source sum(weights) min/max/average = 1, 1, 1
AMI: Patch target sum(weights) min/max/average = 1, 1, 1
smoothSolver:  Solving for Ux, Initial residual = 0.00570544, Final residual = 3.10374e-07, No Iterations 4
smoothSolver:  Solving for Uy, Initial residual = 0.00570462, Final residual = 3.09471e-07, No Iterations 4
GAMG:  Solving for p, Initial residual = 0.322972, Final residual = 0.0031832, No Iterations 41
time step continuity errors : sum local = 2.76196e-07, global = 2.02827e-07, cumulative = 1.93829e-06
GAMG:  Solving for p, Initial residual = 0.0712833, Final residual = 9.63681e-07, No Iterations 47
time step continuity errors : sum local = 2.0288e-07, global = 2.02863e-07, cumulative = 2.14115e-06
ExecutionTime = 105.84 s  ClockTime = 106 s

Courant Number mean: 0.035391 max: 0.390513
deltaT = 0.000108262
Time = 0.183883

solidBodyMotionFunctions::rotatingMotion::transformation(): Time = 0.183883 transformation: ((0 0 0) (0.837729 (0 0 0.546087)))
AMI: Creating addressing and weights between 9600 source faces and 9600 target faces
AMI: Patch source sum(weights) min/max/average = 1, 1, 1
AMI: Patch target sum(weights) min/max/average = 1, 1, 1
smoothSolver:  Solving for Ux, Initial residual = 0.00263179, Final residual = 2.68948e-07, No Iterations 4
smoothSolver:  Solving for Uy, Initial residual = 0.00264053, Final residual = 2.68067e-07, No Iterations 4
GAMG:  Solving for p, Initial residual = 0.164834, Final residual = 0.00157062, No Iterations 30
time step continuity errors : sum local = 2.25012e-07, global = 1.92548e-07, cumulative = 2.3337e-06
GAMG:  Solving for p, Initial residual = 0.0305357, Final residual = 9.30093e-07, No Iterations 89
time step continuity errors : sum local = 1.9258e-07, global = 1.92563e-07, cumulative = 2.52626e-06
ExecutionTime = 137.18 s  ClockTime = 137 s

Courant Number mean: 0.0399468 max: 0.370687
deltaT = 0.000122865
Time = 0.184006

solidBodyMotionFunctions::rotatingMotion::transformation(): Time = 0.184006 transformation: ((0 0 0) (0.837518 (0 0 0.54641)))
AMI: Creating addressing and weights between 9600 source faces and 9600 target faces
AMI: Patch source sum(weights) min/max/average = 1, 1, 1
AMI: Patch target sum(weights) min/max/average = 1, 1, 1
smoothSolver:  Solving for Ux, Initial residual = 0.00174136, Final residual = 2.98787e-07, No Iterations 4
smoothSolver:  Solving for Uy, Initial residual = 0.00176023, Final residual = 3.00085e-07, No Iterations 4
GAMG:  Solving for p, Initial residual = 0.123835, Final residual = 0.00116095, No Iterations 17
time step continuity errors : sum local = 2.06388e-07, global = 1.80827e-07, cumulative = 2.70709e-06
GAMG:  Solving for p, Initial residual = 0.0199369, Final residual = 9.17692e-07, No Iterations 106
time step continuity errors : sum local = 1.80855e-07, global = 1.80837e-07, cumulative = 2.88793e-06
ExecutionTime = 169.36 s  ClockTime = 169 s

Courant Number mean: 0.0453603 max: 0.348185
deltaT = 0.000140508
Time = 0.184146

solidBodyMotionFunctions::rotatingMotion::transformation(): Time = 0.184146 transformation: ((0 0 0) (0.837276 (0 0 0.54678)))
AMI: Creating addressing and weights between 9600 source faces and 9600 target faces
AMI: Patch source sum(weights) min/max/average = 1, 1, 1
AMI: Patch target sum(weights) min/max/average = 1, 1, 1
smoothSolver:  Solving for Ux, Initial residual = 0.00133868, Final residual = 3.64176e-07, No Iterations 4
smoothSolver:  Solving for Uy, Initial residual = 0.00136518, Final residual = 3.67954e-07, No Iterations 4
GAMG:  Solving for p, Initial residual = 0.102954, Final residual = 0.000961167, No Iterations 32
time step continuity errors : sum local = 1.90825e-07, global = 1.67699e-07, cumulative = 3.05563e-06
GAMG:  Solving for p, Initial residual = 0.0154112, Final residual = 7.90741e-07, No Iterations 91
time step continuity errors : sum local = 1.67724e-07, global = 1.67706e-07, cumulative = 3.22333e-06
ExecutionTime = 201.5 s  ClockTime = 201 s

Courant Number mean: 0.0518991 max: 0.326427
deltaT = 0.000162031
Time = 0.184308

solidBodyMotionFunctions::rotatingMotion::transformation(): Time = 0.184308 transformation: ((0 0 0) (0.836998 (0 0 0.547206)))
AMI: Creating addressing and weights between 9600 source faces and 9600 target faces
AMI: Patch source sum(weights) min/max/average = 1, 1, 1
AMI: Patch target sum(weights) min/max/average = 1, 1, 1
smoothSolver:  Solving for Ux, Initial residual = 0.00117148, Final residual = 4.82736e-07, No Iterations 4
smoothSolver:  Solving for Uy, Initial residual = 0.00120222, Final residual = 4.90027e-07, No Iterations 4
GAMG:  Solving for p, Initial residual = 0.0968647, Final residual = 0.000957357, No Iterations 30
time step continuity errors : sum local = 1.79148e-07, global = 1.53124e-07, cumulative = 3.37646e-06
GAMG:  Solving for p, Initial residual = 0.0132023, Final residual = 9.75044e-07, No Iterations 95
time step continuity errors : sum local = 1.53151e-07, global = 1.53126e-07, cumulative = 3.52958e-06
ExecutionTime = 234.07 s  ClockTime = 234 s

Courant Number mean: 0.059873 max: 0.375812
deltaT = 0.000183588
Time = 0.184492

solidBodyMotionFunctions::rotatingMotion::transformation(): Time = 0.184492 transformation: ((0 0 0) (0.836682 (0 0 0.547689)))
AMI: Creating addressing and weights between 9600 source faces and 9600 target faces
AMI: Patch source sum(weights) min/max/average = 1, 1, 1
AMI: Patch target sum(weights) min/max/average = 1, 1, 1
smoothSolver:  Solving for Ux, Initial residual = 0.00111885, Final residual = 6.18992e-07, No Iterations 4
smoothSolver:  Solving for Uy, Initial residual = 0.00115042, Final residual = 6.29209e-07, No Iterations 4
GAMG:  Solving for p, Initial residual = 0.0892916, Final residual = 0.00078841, No Iterations 30
time step continuity errors : sum local = 1.5803e-07, global = 1.34395e-07, cumulative = 3.66398e-06
GAMG:  Solving for p, Initial residual = 0.0112434, Final residual = 9.4811e-07, No Iterations 82
time step continuity errors : sum local = 1.34426e-07, global = 1.34399e-07, cumulative = 3.79838e-06
ExecutionTime = 264.06 s  ClockTime = 264 s

Courant Number mean: 0.0678614 max: 0.425249
deltaT = 0.000205174
Time = 0.184697

solidBodyMotionFunctions::rotatingMotion::transformation(): Time = 0.184697 transformation: ((0 0 0) (0.836329 (0 0 0.548228)))
AMI: Creating addressing and weights between 9600 source faces and 9600 target faces
AMI: Patch source sum(weights) min/max/average = 1, 1, 1
AMI: Patch target sum(weights) min/max/average = 1, 1, 1
smoothSolver:  Solving for Ux, Initial residual = 0.00113449, Final residual = 7.92551e-07, No Iterations 4
smoothSolver:  Solving for Uy, Initial residual = 0.00116464, Final residual = 8.0597e-07, No Iterations 4
GAMG:  Solving for p, Initial residual = 0.0845448, Final residual = 0.000845399, No Iterations 26
time step continuity errors : sum local = 1.41564e-07, global = 1.14045e-07, cumulative = 3.91242e-06
GAMG:  Solving for p, Initial residual = 0.00990725, Final residual = 9.37561e-07, No Iterations 76
time step continuity errors : sum local = 1.14081e-07, global = 1.14052e-07, cumulative = 4.02647e-06
ExecutionTime = 292.07 s  ClockTime = 292 s

Courant Number mean: 0.0758608 max: 0.474712
deltaT = 0.000216104
Time = 0.184913

solidBodyMotionFunctions::rotatingMotion::transformation(): Time = 0.184913 transformation: ((0 0 0) (0.835957 (0 0 0.548796)))
AMI: Creating addressing and weights between 9600 source faces and 9600 target faces
AMI: Patch source sum(weights) min/max/average = 1, 1, 1
AMI: Patch target sum(weights) min/max/average = 1, 1, 1
smoothSolver:  Solving for Ux, Initial residual = 0.00114497, Final residual = 8.80518e-07, No Iterations 4
smoothSolver:  Solving for Uy, Initial residual = 0.00116947, Final residual = 8.92478e-07, No Iterations 4
GAMG:  Solving for p, Initial residual = 0.0704146, Final residual = 0.00068641, No Iterations 26
time step continuity errors : sum local = 1.13025e-07, global = 9.05331e-08, cumulative = 4.11701e-06
GAMG:  Solving for p, Initial residual = 0.007949, Final residual = 9.78914e-07, No Iterations 87
time step continuity errors : sum local = 9.05702e-08, global = 9.05395e-08, cumulative = 4.20755e-06
ExecutionTime = 328.53 s  ClockTime = 329 s

End

Finalising parallel run
