Program1;n1;Progra2;n2;m;E;Twall;Tjob1;Tjob2;a1;a2;a3;
0;1;0;1;1;880619.491023417;3040.9490843;3036.34;3039.43;3040.9490843;3040.9490843;3040.9490843
0;1;0;3;1;1259561.17187615;4320.3132982;4318.49;2255.99;4320.3132982;4320.3132982;8832.2932982
0;1;0;6;1;1260438.03910156;4234.3447569;4232.64;1688.46;4234.3447569;4234.3447569;12676.6447569
0;3;0;1;1;891913.755323123;3022.0286834;1411.24;3020.83;3022.0286834;3022.0286834;5844.5086834
0;3;0;3;1;489464.794160457;1459.3956062;1435.5;1408.05;1459.3956062;1459.3956062;7146.4956062
0;3;0;6;1;515841.618215224;1465.511352;1441.75;1206.11;1465.511352;1465.511352;10379.561352
0;6;0;1;1;908687.018215176;3017.5454036;1183.22;3016.22;3017.5454036;3017.5454036;8933.6454036
0;6;0;3;1;507690.728722537;1433.4702051;1210.38;1409.87;1433.4702051;1433.4702051;10305.1102051
0;6;0;6;1;481379.014682384;1252.8926572;1228.94;1229.37;1252.8926572;1252.8926572;13544.4426572
0;1;1;1;1;860207.62591941;3023.5631215;3021.8;2056.95;3023.5631215;3023.5631215;3023.5631215
0;1;1;3;1;1056700.63471813;3729.9077583;3728.05;1158.76;3729.9077583;3729.9077583;6047.4277583
0;1;1;6;1;868720.084758186;3017.7664665;3016.44;617.25;3017.7664665;3017.7664665;6104.0164665
0;3;1;1;1;619135.802367462;2044.1085212;1390.11;2042.72;2044.1085212;2044.1085212;4824.3285212
0;3;1;3;1;466276.026968187;1440.3571716;1416.39;827.55;1440.3571716;1440.3571716;5928.2371716
0;3;1;6;1;467195.708997266;1420.121395;1395.93;626.49;1420.121395;1420.121395;7344.431395
0;6;1;1;1;913972.29385841;3019.0758408;1635.33;3017.25;3019.0758408;3019.0758408;11195.7258408
0;6;1;3;1;437329.203029296;1239.9849722;1196.99;848.44;1239.9849722;1239.9849722;8921.8149722
0;6;1;6;1;441366.994732283;1229.1588819;1204.7;634.28;1229.1588819;1229.1588819;10424.0588819
0;1;2;1;1;851253.162249046;3017.9825286;3016.77;1405.97;3017.9825286;3017.9825286;3017.9825286
0;1;2;3;1;1029315.05587966;3658.2683076;3656.74;989.9;3658.2683076;3658.2683076;5638.0683076
0;1;2;6;1;864451.279264636;3013.064125;3011.82;660.3;3013.064125;3013.064125;6314.564125
0;3;2;1;1;475938.223512357;1511.6695288;1478.27;1510.71;1511.6695288;1511.6695288;4468.2095288
0;3;2;3;1;461393.589755734;1449.8688867;1425.85;734.99;1449.8688867;1449.8688867;5771.5488867
0;3;2;6;1;474972.575562968;1445.0635153;1421.05;671.49;1445.0635153;1445.0635153;7644.6135153
0;6;2;1;1;459704.757745261;1402.8394621;1185.16;1402.07;1402.8394621;1402.8394621;7328.6394621
0;6;2;3;1;427077.664616019;1227.1823179;1203.22;755.07;1227.1823179;1227.1823179;8753.4223179
0;6;2;6;1;438087.67209962;1226.6381622;1202.32;680.37;1226.6381622;1226.6381622;10640.0881622
0;1;3;1;1;832046.173277475;3010.1102813;3008.61;596.42;3010.1102813;3010.1102813;3010.1102813
0;1;3;3;1;849801.076705616;3015.6878736;3014.08;515.4;3015.6878736;3015.6878736;4046.4878736
0;1;3;6;1;848285.218451659;3017.6594362;3015.78;294.75;3017.6594362;3017.6594362;4491.4094362
0;3;3;1;1;433453.232164298;1421.4367706;1397.54;558.1;1421.4367706;1421.4367706;4216.5167706
0;3;3;3;1;448476.420417914;1435.3237347;1411.38;447.04;1435.3237347;1435.3237347;5152.1637347
0;3;3;6;1;441070.423791807;1401.7521512;1377.02;307.6;1401.7521512;1401.7521512;5693.7921512
0;6;3;1;1;393229.071846635;1186.4997043;1162.92;581.46;1186.4997043;1186.4997043;7001.0997043
0;6;3;3;1;416391.014453197;1217.0124147;1193.23;497.18;1217.0124147;1217.0124147;8177.5224147
0;6;3;6;1;408973.235624053;1194.2599193;1170.55;293.32;1194.2599193;1194.2599193;8513.6099193
1;1;1;1;1;595236.113437244;2060.7342675;2040.88;2059.09;2060.7342675;2060.7342675;2060.7342675
1;1;1;3;1;617860.192672173;2099.5613513;2096.58;833.81;2099.5613513;2099.5613513;3767.1813513
1;1;1;6;1;625629.30048798;2104.0466314;2102.09;617.72;2104.0466314;2104.0466314;5192.6466314
1;3;1;1;1;599848.267812976;2040.6075222;815.4;2039.07;2040.6075222;2040.6075222;3671.4075222
1;3;1;3;1;396768.978219096;1248.0762821;824.24;828.86;1248.0762821;1248.0762821;4554.2762821
1;3;1;6;1;403324.626339508;1236.3709406;839.65;627.25;1236.3709406;1236.3709406;6051.9209406
1;6;1;1;1;604592.124540631;2041.7008342;616.96;2040.34;2041.7008342;2041.7008342;5126.5008342
1;6;1;3;1;397890.092807493;1218.1057265;626.34;823.65;1218.1057265;1218.1057265;5997.1057265
1;6;1;6;1;416426.421087764;1247.7481884;671.46;672.92;1247.7481884;1247.7481884;7969.6481884
1;1;2;1;1;580890.912400039;2040.3884592;2037.93;1411.36;2040.3884592;2040.3884592;2040.3884592
1;1;2;3;1;744166.765382447;2594.3766037;2592.69;1013.78;2594.3766037;2594.3766037;4621.9366037
1;1;2;6;1;599324.379415328;2038.8580227;2037.31;660.61;2038.8580227;2038.8580227;5341.9080227
1;3;2;1;1;423721.482605475;1397.3769022;815.38;1396.54;1397.3769022;1397.3769022;3028.1369022
1;3;2;3;1;381331.311985308;1219.8592273;819.45;733.85;1219.8592273;1219.8592273;4326.4592273
1;3;2;6;1;401276.994448325;1236.708037;831.99;668.99;1236.708037;1236.708037;6245.638037
1;6;2;1;1;583202.695893564;1942.6115478;817.61;1941.2;1942.6115478;1942.6115478;6030.6615478
1;6;2;3;1;339300.883589782;1023.6382125;627.13;739.22;1023.6382125;1023.6382125;5637.7282125
1;6;2;6;1;353392.325945795;1029.766963;628.22;674.85;1029.766963;1029.766963;7545.116963
1;1;3;1;1;563626.130077333;2042.0369304;2040.38;579.73;2042.0369304;2042.0369304;2042.0369304
1;1;3;3;1;580327.619521446;2039.5152101;2038.12;455.38;2039.5152101;2039.5152101;2950.2752101
1;1;3;6;1;580296.463039187;2041.5928036;2039.62;318.33;2041.5928036;2041.5928036;3633.2428036
1;3;3;1;1;361945.338401288;1220.734477;810.82;580.11;1220.734477;1220.734477;2842.374477
1;3;3;3;1;375464.552102105;1228.8267871;814.79;454.82;1228.8267871;1228.8267871;3768.0467871
1;3;3;6;1;375295.51055775;1220.0772895;814.25;301.83;1220.0772895;1220.0772895;4357.7272895
1;6;3;1;1;317765.374521537;1025.0616191;614.11;579.77;1025.0616191;1025.0616191;4095.6116191
1;6;3;3;1;326733.285284509;1015.6609351;619.28;413.56;1015.6609351;1015.6609351;4939.1809351
1;6;3;6;1;345938.382072293;1071.2187957;618;328.9;1071.2187957;1071.2187957;5805.7187957
2;1;2;1;1;413208.391049151;1419.7963027;1418.93;1391.4;1419.7963027;1419.7963027;1419.7963027
2;1;2;3;1;412263.434019999;1386.5408087;1385.8;724.86;1386.5408087;1386.5408087;2836.2608087
2;1;2;6;1;425174.479554254;1396.2835902;1395.54;661.54;1396.2835902;1396.2835902;4703.9835902
2;3;2;1;1;416121.200010499;1395.5133701;752.08;1394.72;1395.5133701;1395.5133701;2899.6733701
2;3;2;3;1;292405.883671204;896.658965;746.03;737.56;896.658965;896.658965;3863.838965
2;3;2;6;1;303518.655827671;890.0960913;740.49;671.02;890.0960913;890.0960913;5726.1760913
2;6;2;1;1;608341.974846978;2047.8295832;836.68;2046.62;2047.8295832;2047.8295832;6231.2295832
2;6;2;3;1;305953.533940738;896.3238691;672.22;745.4;896.3238691;896.3238691;5748.2238691
2;6;2;6;1;303418.633157671;841.8563216;674.5;675.59;841.8563216;841.8563216;7592.3063216
2;1;3;1;1;401314.434068403;1428.4367688;1427.54;590.72;1428.4367688;1428.4367688;1428.4367688
2;1;3;3;1;405679.206289102;1397.2658704;1392.91;453.35;1397.2658704;1397.2658704;2303.9658704
2;1;3;6;1;492351.343358743;1686.1283308;1684.9;456.92;1686.1283308;1686.1283308;3970.7283308
2;3;3;1;1;271985.366414374;898.950619;751.61;587.26;898.950619;898.950619;2402.170619
2;3;3;3;1;277851.058771453;879.7011238;731.74;446.63;879.7011238;879.7011238;3236.4411238
2;3;3;6;1;282350.166582873;878.8228732;730.74;327.94;878.8228732;878.8228732;3980.0028732
2;6;3;1;1;260474.170354111;807.5125165;661.22;693.91;807.5125165;807.5125165;4113.6125165
2;6;3;3;1;270271.646821931;810.1392664;663.77;425.13;810.1392664;810.1392664;4979.2492664
2;6;3;6;1;277398.662248315;818.2325769;664.79;327.82;818.2325769;818.2325769;5781.2825769
3;1;3;1;1;174750.330939698;608.2326293;607.6;560.21;608.2326293;608.2326293;608.2326293
3;1;3;3;1;227622.531088171;762.4556544;596.23;425.75;762.4556544;762.4556544;1613.9556544
3;1;3;6;1;195378.514994665;627.7011867;587.97;312.39;627.7011867;627.7011867;2189.6511867
3;3;3;1;1;231901.817523435;782.2503049;438.98;567.51;782.2503049;782.2503049;1660.2103049
3;3;3;3;1;249368.032090688;803.1392681;441.12;457.72;803.1392681;803.1392681;2600.8192681
3;3;3;6;1;248631.833322205;788.2640223;442.63;319.1;788.2640223;788.2640223;3269.0240223
3;6;3;1;1;240288.26566096;790.7817405;367.55;789.26;790.7817405;790.7817405;2628.5317405
3;6;3;3;1;244178.3961023;776.4516501;292.75;438.44;776.4516501;776.4516501;3117.0816501
3;6;3;6;1;219773.05953864;663.2513347;319.75;328.53;663.2513347;663.2513347;3904.6513347
