%!PS-Adobe-3.0 EPSF-3.0
%APL_DSC_Encoding: UTF8
%APLProducer: (Version 10.7.1 (Build 11B26) Quartz PS Context)
%%Title: (Unknown)
%%Creator: (Unknown)
%%CreationDate: (Unknown)
%%For: (Unknown)
%%DocumentData: Clean7Bit
%%LanguageLevel: 2
%%Pages: 1
%%BoundingBox: 0 0 560 420
%%EndComments
%%BeginProlog
%%BeginFile: cg-pdf.ps
%%Copyright: Copyright 2000-2004 Apple Computer Incorporated.
%%Copyright: All Rights Reserved.
currentpacking true setpacking
/cg_md 141 dict def
cg_md begin
/L3? languagelevel 3 ge def
/bd{bind def}bind def
/ld{load def}bd
/xs{exch store}bd
/xd{exch def}bd
/cmmtx matrix def
mark
/sc/setcolor
/scs/setcolorspace
/dr/defineresource
/fr/findresource
/T/true
/F/false
/d/setdash
/w/setlinewidth
/J/setlinecap
/j/setlinejoin
/M/setmiterlimit
/i/setflat
/rc/rectclip
/rf/rectfill
/rs/rectstroke
/f/fill
/f*/eofill
/sf/selectfont
/s/show
/xS/xshow
/yS/yshow
/xyS/xyshow
/S/stroke
/m/moveto
/l/lineto
/c/curveto
/h/closepath
/n/newpath
/q/gsave
/Q/grestore
counttomark 2 idiv
{ld}repeat pop
/SC{	
    /ColorSpace fr scs
}bd
/sopr /setoverprint where{pop/setoverprint}{/pop}ifelse ld
/soprm /setoverprintmode where{pop/setoverprintmode}{/pop}ifelse ld
/cgmtx matrix def
/sdmtx{cgmtx currentmatrix pop}bd
/CM {cgmtx setmatrix}bd		
/cm {cmmtx astore CM concat}bd	
/W{clip newpath}bd
/W*{eoclip newpath}bd
statusdict begin product end dup (HP) anchorsearch{
    pop pop pop	
    true
}{
    pop	
   (hp) anchorsearch{
	pop pop true
    }{
	pop false
    }ifelse
}ifelse
{	
    { 
	{ 
	    pop pop 
	    (0)dup 0 4 -1 roll put
	    F charpath
	}cshow
    }
}{
    {F charpath}
}ifelse
/cply exch bd
/cps {cply stroke}bd
/pgsave 0 def
/bp{/pgsave save store}bd
/ep{pgsave restore showpage}def		
/re{4 2 roll m 1 index 0 rlineto 0 exch rlineto neg 0 rlineto h}bd
/scrdict 10 dict def
/scrmtx matrix def
/patarray 0 def
/createpat{patarray 3 1 roll put}bd
/makepat{
scrmtx astore pop
gsave
initgraphics
CM 
patarray exch get
scrmtx
makepattern
grestore
setpattern
}bd
/cg_BeginEPSF{
    userdict save/cg_b4_Inc_state exch put
    userdict/cg_endepsf/cg_EndEPSF load put
    count userdict/cg_op_count 3 -1 roll put 
    countdictstack dup array dictstack userdict/cg_dict_array 3 -1 roll put
    3 sub{end}repeat
    /showpage {} def
    0 setgray 0 setlinecap 1 setlinewidth 0 setlinejoin
    10 setmiterlimit [] 0 setdash newpath
    false setstrokeadjust false setoverprint	
}bd
/cg_EndEPSF{
  countdictstack 3 sub { end } repeat
  cg_dict_array 3 1 index length 3 sub getinterval
  {begin}forall
  count userdict/cg_op_count get sub{pop}repeat
  userdict/cg_b4_Inc_state get restore
  F setpacking
}bd
/cg_biproc{currentfile/RunLengthDecode filter}bd
/cg_aiproc{currentfile/ASCII85Decode filter/RunLengthDecode filter}bd
/ImageDataSource 0 def
L3?{
    /cg_mibiproc{pop pop/ImageDataSource{cg_biproc}def}bd
    /cg_miaiproc{pop pop/ImageDataSource{cg_aiproc}def}bd
}{
    /ImageBandMask 0 def
    /ImageBandData 0 def
    /cg_mibiproc{
	string/ImageBandMask xs
	string/ImageBandData xs
	/ImageDataSource{[currentfile/RunLengthDecode filter dup ImageBandMask/readstring cvx
	    /pop cvx dup ImageBandData/readstring cvx/pop cvx]cvx bind}bd
    }bd
    /cg_miaiproc{	
	string/ImageBandMask xs
	string/ImageBandData xs
	/ImageDataSource{[currentfile/ASCII85Decode filter/RunLengthDecode filter
	    dup ImageBandMask/readstring cvx
	    /pop cvx dup ImageBandData/readstring cvx/pop cvx]cvx bind}bd
    }bd
}ifelse
/imsave 0 def
/BI{save/imsave xd mark}bd
/EI{imsave restore}bd
/ID{
counttomark 2 idiv
dup 2 add	
dict begin
{def} repeat
pop		
/ImageType 1 def
/ImageMatrix[Width 0 0 Height neg 0 Height]def
currentdict dup/ImageMask known{ImageMask}{F}ifelse exch
L3?{
    dup/MaskedImage known
    { 
	pop
	<<
	    /ImageType 3
	    /InterleaveType 2
	    /DataDict currentdict
	    /MaskDict
	    <<  /ImageType 1
		/Width Width
		/Height Height
		/ImageMatrix ImageMatrix
		/BitsPerComponent 1
		/Decode [0 1]
		currentdict/Interpolate known
		{/Interpolate Interpolate}if
	    >>
	>>
    }if
}if
exch
{imagemask}{image}ifelse	
end	
}bd
/cguidfix{statusdict begin mark version end
{cvr}stopped{cleartomark 0}{exch pop}ifelse
2012 lt{dup findfont dup length dict begin
{1 index/FID ne 2 index/UniqueID ne and
{def} {pop pop} ifelse}forall
currentdict end definefont pop
}{pop}ifelse
}bd
/t_array 0 def
/t_i 0 def
/t_c 1 string def
/x_proc{ 
    exch t_array t_i get add exch moveto
    /t_i t_i 1 add store
}bd
/y_proc{ 
    t_array t_i get add moveto
    /t_i t_i 1 add store
}bd
/xy_proc{
        
	t_array t_i 2 copy 1 add get 3 1 roll get 
	4 -1 roll add 3 1 roll add moveto
	/t_i t_i 2 add store
}bd
/sop 0 def		
/cp_proc/x_proc ld 	
/base_charpath		
{
    /t_array xs
    /t_i 0 def
    { 
	t_c 0 3 -1 roll put
        currentpoint
	t_c cply sop
        cp_proc
    }forall
    /t_array 0 def
}bd
/sop/stroke ld		
/nop{}def
/xsp/base_charpath ld
/ysp{/cp_proc/y_proc ld base_charpath/cp_proc/x_proc ld}bd
/xysp{/cp_proc/xy_proc ld base_charpath/cp_proc/x_proc ld}bd
/xmp{/sop/nop ld /cp_proc/x_proc ld base_charpath/sop/stroke ld}bd
/ymp{/sop/nop ld /cp_proc/y_proc ld base_charpath/sop/stroke ld}bd
/xymp{/sop/nop ld /cp_proc/xy_proc ld base_charpath/sop/stroke ld}bd
/refnt{ 
findfont dup length dict copy dup
/Encoding 4 -1 roll put 
definefont pop
}bd
/renmfont{ 
findfont dup length dict copy definefont pop
}bd
L3? dup dup{save exch}if
/Range 0 def
/DataSource 0 def
/val 0 def
/nRange 0 def
/mulRange 0 def
/d0 0 def
/r0 0 def
/di 0 def
/ri 0 def
/a0 0 def
/a1 0 def
/r1 0 def
/r2 0 def
/dx 0 def
/Nsteps 0 def
/sh3tp 0 def
/ymax 0 def
/ymin 0 def
/xmax 0 def
/xmin 0 def
/setupFunEval 
{
    begin
	/nRange Range length 2 idiv store
	/mulRange   
		    
	[ 
	    0 1 nRange 1 sub
	    { 
		    2 mul/nDim2 xd		
		    Range nDim2 get		
		    Range nDim2 1 add get	
		    1 index sub			
						
		    255 div			
		    exch			
	    }for
	]store
    end
}bd
/FunEval 
{
    begin
	
	nRange mul /val xd	
				
	0 1 nRange 1 sub
	{
	    dup 2 mul/nDim2 xd 
	    val	
	    add DataSource exch get 
	    mulRange nDim2 get mul 	
	    mulRange nDim2 1 add get 
	    add 
	}for	
    end
}bd
/max 
{
	2 copy lt
	{exch pop}{pop}ifelse
}bd
/sh2
{	
	/Coords load aload pop 	
	3 index 3 index translate	
					
	3 -1 roll sub	
	3 1 roll exch 	
	sub				
	2 copy
	dup mul exch dup mul add sqrt	
	dup
	scale  
	atan	
	
	rotate		
	
	/Function load setupFunEval	
	
	
	clippath {pathbbox}stopped {0 0 0 0}if newpath 	
	/ymax xs
	/xmax xs
	/ymin xs
	/xmin xs
	currentdict/Extend known
	{
		/Extend load 0 get
		{	
			0/Function load FunEval sc	
			xmin ymin xmin abs ymax ymin sub rectfill
		}if
	}if
	
	/Nsteps/Function load/Size get 0 get 1 sub store
	/dx 1 Nsteps div store
	gsave
		/di ymax ymin sub store
		/Function load
		
		0 1 Nsteps
		{
			1 index FunEval sc
			0 ymin dx di rectfill
			dx 0 translate
		}for
		pop	
	grestore	
	currentdict/Extend known
	{
		/Extend load 1 get
		{	
			Nsteps/Function load FunEval sc	
			1 ymin xmax 1 sub abs ymax ymin sub rectfill
		}if
	}if
}bd
/shp	
{	
	4 copy
	
	dup 0 gt{
		0 exch a1 a0 arc
	}{
		pop 0 moveto
	}ifelse
	dup 0 gt{
		0 exch a0 a1 arcn
	}{
		pop 0 lineto
	}ifelse
	
	fill
	
	dup 0 gt{
		0 exch a0 a1 arc
	}{
		pop 0 moveto
	}ifelse
	dup 0 gt{
		0 exch a1 a0 arcn
	}{
		pop 0 lineto
	}ifelse
	
	fill
}bd
/calcmaxs
{	
	
	xmin dup mul ymin dup mul add sqrt		
	xmax dup mul ymin dup mul add sqrt		
	xmin dup mul ymax dup mul add sqrt		
	xmax dup mul ymax dup mul add sqrt		
	max max max								
}bd
/sh3
{	
	/Coords load aload pop 	
	5 index 5 index translate	
	3 -1 roll 6 -1 roll sub		
	3 -1 roll 5 -1 roll sub		
	2 copy dup mul exch dup mul add sqrt
	/dx xs						
	2 copy 0 ne exch 0 ne or
	{
		
		exch atan rotate	
	}{
		pop pop
	}ifelse
	
	/r2 xs
	/r1 xs
	/Function load 
	dup/Size get 0 get 1 sub	
	/Nsteps xs		
	setupFunEval		
	
	
	
	
	
	dx r2 add r1 lt{
		
		0 
	}{
		dx r1 add r2 le
		{ 
			1
		}{ 
			r1 r2 eq
			{	
				2
			}{ 
				3
			}ifelse		
		}ifelse
	}ifelse
	/sh3tp xs		
	clippath {pathbbox}stopped {0 0 0 0}if 
	newpath 	
	/ymax xs
	/xmax xs
	/ymin xs
	/xmin xs
	
	dx dup mul r2 r1 sub dup mul sub dup 0 gt
	{
		sqrt r2 r1 sub atan
		/a0 exch 180 exch sub store 
		/a1 a0 neg store 
	}{
		pop
		/a0 0 store
		/a1 360 store		
	}ifelse		
	currentdict/Extend known
	{
		/Extend load 0 get r1 0 gt and	
		{	
			0/Function load FunEval sc	
			
			
			
			
			{ 
				{	
					dx 0 r1 360 0 arcn
					xmin ymin moveto
					xmax ymin lineto
					xmax ymax lineto
					xmin ymax lineto
					xmin ymin lineto
					eofill		
				}
				{	
					r1 0 gt{0 0 r1 0 360 arc fill}if
				}
				{	
					
					
				
					
					0 r1 xmin abs r1 add neg r1 shp
				}
				{	
					
				
					r2 r1 gt{	
						
						0 r1
						r1 neg r2 r1 sub div dx mul	
						0	
						shp	
					}{	
						
						
						
						0 r1 calcmaxs	
						dup
						
						r2 add dx mul dx r1 r2 sub sub div
						neg				
						exch 1 index	
						abs exch sub
						shp
					}ifelse
				} 
			}sh3tp get exec	
		}if
	}if
	
	/d0 0 store
	/r0 r1 store
	/di dx Nsteps div store
	/ri r2 r1 sub Nsteps div store 
	/Function load 
	0 1 Nsteps
	{	
		1 index FunEval sc
		d0 di add r0 ri add d0 r0 shp
		{
		
		d0 0 r0 a1 a0 arc
		d0 di add 0 r0 ri add a0 a1 arcn
		fill
		
		
		d0 0 r0 a0 a1 arc
		d0 di add 0 r0 ri add a1 a0 arcn
		fill
		}pop
		
		
		/d0 d0 di add store
		/r0 r0 ri add store
	}for
	pop	
	
	currentdict/Extend known
	{
		/Extend load 1 get r2 0 gt and	
		{	
			Nsteps/Function load FunEval sc	
			
			
			
			
			{ 
				{
					dx 0 r2 0 360 arc fill
				} 
				{
					dx 0 r2 360 0 arcn
					xmin ymin moveto
					xmax ymin lineto
					xmax ymax lineto
					xmin ymax lineto
					xmin ymin lineto
					eofill		
				} 
				{	
					
					
					xmax abs r1 add r1 dx r1 shp
				}	
				{	
			
					r2 r1 gt{
						
						
						
						calcmaxs dup	
						
						r1 add dx mul dx r2 r1 sub sub div	
						exch 1 index	
						exch sub
						dx r2
						shp
					}{	
						
						r1 neg r2 r1 sub div dx mul	
						0		
						dx 		
						r2		
						shp
					}ifelse
				}
			}			
			sh3tp get exec	
		}if
	}if
}bd
/sh		
{	
	begin
		/ShadingType load dup dup 2 eq exch 3 eq or
		{	
			gsave
				newpath
				/ColorSpace load scs
				currentdict/BBox known
				{
					/BBox load aload pop	
					2 index sub				
					3 index					
					3 -1 roll exch sub 
					exch rectclip
				}if
				2 eq
				{sh2}{sh3}ifelse
			grestore
		}{
			
			pop 
			(DEBUG: shading type unimplemented\n)print flush
		}ifelse
	end
}bd
{restore}if not dup{save exch}if
	L3?{	
		/sh/shfill ld
		/csq/clipsave ld
		/csQ/cliprestore ld
	}if
{restore}if
end
setpacking
%%EndFile
%%EndProlog
%%BeginSetup
%%EndSetup
%%Page: 1 1
%%PageBoundingBox: 0 0 560 420
%%BeginPageSetup
cg_md begin
bp
sdmtx
[ /CIEBasedABC 4 dict dup begin 
/WhitePoint [ 0.9505 1.0000 1.0891 ] def 
/DecodeABC [ { 1.8008  exp } bind { 1.8008  exp } bind { 1.8008  exp } bind ] def 
/MatrixABC [ 0.4295 0.2318 0.0204 0.3278 0.6722 0.1111 0.1933 0.0960 0.9578 ] def 
/RangeLMN [ 0.0 0.9505 0.0 1.0000 0.0 1.0891 ] def 
end ] /Cs1 exch/ColorSpace dr pop
%%EndPageSetup
/Cs1 SC
1 1 1 sc
q
0 0 560 420 rc
0 0 m
560 0 l
560 420 l
0 420 l
h
f
1 j
0.60000002 i
1 0 0 1 0.5 0.5 cm
0 0 m
559.95001 0 l
559.95001 419.95001 l
0 419.95001 l
h
0 0 m
S
CM
0.5 0.5 m
560.45001 0.5 l
560.45001 420.45001 l
0.5 420.45001 l
h
0.5 0.5 m
f
0 0 0 sc
1 0 0 1 0.5 0.5 cm
0 0 m
0 419.95001 l
559.95001 419.95001 l
559.95001 0 l
0 0 l
h
0 0 m
S
0.5 w
25.200001 28.799999 m
29.4 28.799999 l
S
CM
19.546289 26.560741 m
18.800842 26.560741 18.197823 26.911486 17.737207 27.612988 c
17.276592 28.314489 17.046289 29.230007 17.046289 30.35957 c
17.046289 31.498898 17.278221 32.41523 17.74209 33.108593 c
18.205959 33.801956 18.81712 34.148632 19.575586 34.148632 c
20.334053 34.148632 20.945213 33.801956 21.409082 33.108593 c
21.872952 32.41523 22.104883 31.50378 22.104883 30.374218 c
22.104883 29.215359 21.872952 28.290073 21.409082 27.598339 c
20.945213 26.906605 20.324287 26.560741 19.546289 26.560741 c
h
19.556055 27.283398 m
20.57494 27.283398 21.084375 28.318544 21.084375 30.388866 c
21.084375 32.413616 20.581451 33.425976 19.575586 33.425976 c
18.572977 33.425976 18.07168 32.403851 18.07168 30.35957 c
18.07168 28.308779 18.566467 27.283398 19.556055 27.283398 c
h
22.734766 26.741405 m
f
1 0 0 1 0.5 0.5 cm
549.15002 28.799999 m
544.95001 28.799999 l
S
25.200001 101.65 m
29.4 101.65 l
S
CM
17.436914 99.591408 m
17.436914 100.43613 l
17.716864 101.09043 18.283264 101.80331 19.136133 102.57481 c
19.687891 103.06797 l
20.39753 103.70925 20.752344 104.34563 20.752344 104.97715 c
20.752344 105.3808 20.631088 105.69818 20.388575 105.9293 c
20.146061 106.16042 19.813219 106.27598 19.390039 106.27598 c
18.888735 106.27598 18.29792 106.0823 17.617579 105.69492 c
17.617579 106.54453 l
18.258858 106.84727 18.895245 106.99863 19.526758 106.99863 c
20.203844 106.99863 20.747459 106.81635 21.157618 106.45176 c
21.567776 106.08717 21.772852 105.60378 21.772852 105.00156 c
21.772852 104.56862 21.6695 104.18451 21.462793 103.84922 c
21.256086 103.51393 20.871162 103.10703 20.308008 102.62852 c
19.936914 102.31113 l
19.165426 101.65684 18.719467 101.03184 18.599024 100.43613 c
21.738672 100.43613 l
21.738672 99.591408 l
h
22.930079 99.591408 m
f
1 0 0 1 0.5 0.5 cm
549.15002 101.65 m
544.95001 101.65 l
S
25.200001 174.45 m
29.4 174.45 l
S
CM
20.742579 172.3914 m
20.742579 174.4373 l
17.490625 174.4373 l
17.490625 175.16484 l
20.742579 179.61797 l
21.645899 179.61797 l
21.645899 175.22343 l
22.612696 175.22343 l
22.612696 174.4373 l
21.645899 174.4373 l
21.645899 172.3914 l
h
18.433008 175.22343 m
20.806055 175.22343 l
20.806055 178.43633 l
h
23.301172 172.3914 m
f
1 0 0 1 0.5 0.5 cm
549.15002 174.45 m
544.95001 174.45 l
S
25.200001 247.3 m
29.4 247.3 l
S
CM
18.164454 248.98653 m
18.62344 249.58223 19.201235 249.88008 19.897852 249.88008 c
20.529366 249.88008 21.046125 249.67093 21.448145 249.25264 c
21.850164 248.83435 22.051172 248.29805 22.051172 247.64375 c
22.051172 246.8918 21.825752 246.27332 21.374903 245.78828 c
20.924053 245.30325 20.351957 245.06075 19.658594 245.06075 c
18.861065 245.06075 18.237698 245.38138 17.788477 246.02266 c
17.339256 246.66394 17.114649 247.55423 17.114649 248.69356 c
17.114649 249.94682 17.372622 250.92012 17.888575 251.61348 c
18.404528 252.30684 19.131247 252.65352 20.06875 252.65352 c
20.49844 252.65352 21.035543 252.56238 21.680079 252.38008 c
21.680079 251.54024 l
20.999737 251.80066 20.443102 251.93086 20.010157 251.93086 c
18.779682 251.93086 18.164454 250.94943 18.164454 248.98653 c
h
21.084375 247.42891 m
21.084375 247.97578 20.961493 248.40547 20.715723 248.71797 c
20.469954 249.03047 20.128973 249.18672 19.692774 249.18672 c
19.285872 249.18672 18.93594 249.05 18.642969 248.77657 c
18.349998 248.50313 18.203516 248.17435 18.203516 247.79024 c
18.203516 247.18477 18.342674 246.69893 18.620996 246.33272 c
18.899319 245.96651 19.267967 245.7834 19.726954 245.7834 c
20.140368 245.7834 20.469954 245.93233 20.715723 246.23018 c
20.961493 246.52803 21.084375 246.92761 21.084375 247.42891 c
h
22.768946 245.24141 m
f
1 0 0 1 0.5 0.5 cm
549.15002 247.3 m
544.95001 247.3 l
S
25.200001 320.10001 m
29.4 320.10001 l
S
CM
18.940821 321.97696 m
18.234436 322.46851 17.88125 323.01212 17.88125 323.60782 c
17.88125 324.15469 18.081444 324.59903 18.481836 324.94083 c
18.882229 325.28262 19.404684 325.45352 20.049219 325.45352 c
20.644926 325.45352 21.127504 325.30865 21.496973 325.01895 c
21.866442 324.72925 22.051172 324.35327 22.051172 323.89102 c
22.051172 323.19116 21.601957 322.55313 20.703516 321.97696 c
21.794016 321.44312 22.339258 320.75464 22.339258 319.91153 c
22.339258 319.30606 22.110582 318.8129 21.653223 318.43204 c
21.195864 318.05118 20.605864 317.86075 19.883204 317.86075 c
19.173565 317.86075 18.59984 318.04059 18.162012 318.4003 c
17.724184 318.76001 17.505274 319.23282 17.505274 319.81876 c
17.505274 320.68463 17.983784 321.40405 18.940821 321.97696 c
h
20.166407 322.27969 m
20.840239 322.72241 21.177149 323.21558 21.177149 323.75919 c
21.177149 324.04889 21.064846 324.28247 20.840235 324.45987 c
20.615623 324.63727 20.319403 324.72598 19.951563 324.72598 c
19.596743 324.72598 19.308661 324.63892 19.087305 324.46475 c
18.86595 324.29059 18.755274 324.06519 18.755274 323.78848 c
18.755274 323.51831 18.85537 323.27661 19.055567 323.06339 c
19.255764 322.85016 19.62604 322.58893 20.166407 322.27969 c
h
19.463282 321.58633 m
19.075911 321.28687 18.813055 321.02563 18.674707 320.80264 c
18.53636 320.57965 18.467188 320.30215 18.467188 319.97012 c
18.467188 319.5567 18.600651 319.22223 18.867579 318.96671 c
19.134506 318.71118 19.486067 318.5834 19.922266 318.5834 c
20.34219 318.5834 20.684797 318.69244 20.950098 318.91055 c
21.215399 319.12866 21.348047 319.41187 21.348047 319.76016 c
21.348047 320.0401 21.265854 320.27692 21.101465 320.47061 c
20.937077 320.66431 20.618883 320.90112 20.146875 321.18106 c
h
22.964258 318.04141 m
f
1 0 0 1 0.5 0.5 cm
549.15002 320.10001 m
544.95001 320.10001 l
S
25.200001 392.95001 m
29.4 392.95001 l
S
CM
12.461329 390.89142 m
12.461329 391.61407 l
13.906641 391.61407 l
13.906641 397.3172 l
12.461329 396.95587 l
12.461329 397.69806 l
14.873438 398.29865 l
14.873438 391.61407 l
16.31875 391.61407 l
16.31875 390.89142 l
h
20.41543 390.71075 m
19.669983 390.71075 19.066963 391.06149 18.606348 391.763 c
18.145733 392.46451 17.91543 393.38 17.91543 394.50958 c
17.91543 395.64893 18.147362 396.56525 18.611231 397.25861 c
19.0751 397.95197 19.68626 398.29865 20.444727 398.29865 c
21.203194 398.29865 21.814354 397.95197 22.278223 397.25861 c
22.742092 396.56525 22.974024 395.65381 22.974024 394.52423 c
22.974024 393.36536 22.742092 392.44009 22.278223 391.74835 c
21.814354 391.05661 21.193428 390.71075 20.41543 390.71075 c
h
20.425196 391.43341 m
21.44408 391.43341 21.953516 392.46857 21.953516 394.53888 c
21.953516 396.56363 21.450592 397.57599 20.444727 397.57599 c
19.442118 397.57599 18.940821 396.55386 18.940821 394.50958 c
18.940821 392.4588 19.435608 391.43341 20.425196 391.43341 c
h
23.603907 390.89142 m
f
1 0 0 1 0.5 0.5 cm
549.15002 392.95001 m
544.95001 392.95001 l
S
25.200001 28.799999 m
25.200001 33 l
S
CM
25.990528 17.560741 m
25.245081 17.560741 24.642061 17.911486 24.181446 18.612988 c
23.720831 19.314489 23.490528 20.230007 23.490528 21.35957 c
23.490528 22.498898 23.72246 23.41523 24.186329 24.108593 c
24.650198 24.801956 25.261358 25.148632 26.019825 25.148632 c
26.778292 25.148632 27.389452 24.801956 27.853321 24.108593 c
28.31719 23.41523 28.549122 22.50378 28.549122 21.374218 c
28.549122 20.215359 28.31719 19.290073 27.853321 18.598339 c
27.389452 17.906605 26.768526 17.560741 25.990528 17.560741 c
h
26.000294 18.283398 m
27.019178 18.283398 27.528614 19.318544 27.528614 21.388866 c
27.528614 23.413616 27.02569 24.425976 26.019825 24.425976 c
25.017216 24.425976 24.515919 23.403851 24.515919 21.35957 c
24.515919 19.308779 25.010706 18.283398 26.000294 18.283398 c
h
29.179005 17.741405 m
f
1 0 0 1 0.5 0.5 cm
25.200001 392.95001 m
25.200001 388.75 l
S
130 28.799999 m
130 33 l
S
CM
128.5835 17.741405 m
128.5835 18.586132 l
128.86345 19.240433 129.42984 19.953316 130.28271 20.724804 c
130.83447 21.217968 l
131.54411 21.859247 131.89893 22.495634 131.89893 23.127148 c
131.89893 23.530796 131.77766 23.848175 131.53516 24.079296 c
131.29265 24.310417 130.95979 24.425976 130.53662 24.425976 c
130.03532 24.425976 129.4445 24.232292 128.76416 23.844921 c
128.76416 24.69453 l
129.40544 24.997267 130.04182 25.148632 130.67334 25.148632 c
131.35043 25.148632 131.89404 24.966343 132.3042 24.601757 c
132.71436 24.237171 132.91943 23.753778 132.91943 23.151562 c
132.91943 22.718616 132.81609 22.334507 132.60938 21.999218 c
132.40266 21.663929 132.01775 21.257032 131.45459 20.778515 c
131.0835 20.461132 l
130.31201 19.806831 129.86604 19.181839 129.74561 18.586132 c
132.88525 18.586132 l
132.88525 17.741405 l
h
134.07666 17.741405 m
f
1 0 0 1 0.5 0.5 cm
130 392.95001 m
130 388.75 l
S
234.8 28.799999 m
234.8 33 l
S
CM
236.50362 17.741405 m
236.50362 19.787304 l
233.25166 19.787304 l
233.25166 20.514843 l
236.50362 24.967968 l
237.40694 24.967968 l
237.40694 20.573437 l
238.37373 20.573437 l
238.37373 19.787304 l
237.40694 19.787304 l
237.40694 17.741405 l
h
234.19405 20.573437 m
236.56709 20.573437 l
236.56709 23.786327 l
h
239.06221 17.741405 m
f
1 0 0 1 0.5 0.5 cm
234.8 392.95001 m
234.8 388.75 l
S
339.54999 28.799999 m
339.54999 33 l
S
CM
338.94159 21.486523 m
339.40057 22.08223 339.97836 22.380077 340.67499 22.380077 c
341.30649 22.380077 341.82327 22.170933 342.22528 21.752636 c
342.62729 21.334339 342.82831 20.79805 342.82831 20.143749 c
342.82831 19.391792 342.60287 18.77331 342.15204 18.28828 c
341.7012 17.803251 341.12909 17.560741 340.43573 17.560741 c
339.63821 17.560741 339.01483 17.881376 338.56561 18.522655 c
338.11639 19.163935 337.89178 20.054226 337.89178 21.193554 c
337.89178 22.446815 338.14975 23.420113 338.66571 24.113476 c
339.18167 24.806839 339.90839 25.153515 340.84589 25.153515 c
341.27557 25.153515 341.81268 25.06237 342.45721 24.880077 c
342.45721 24.040234 l
341.77689 24.300652 341.22025 24.430859 340.78729 24.430859 c
339.55682 24.430859 338.94159 23.449423 338.94159 21.486523 c
h
341.86151 19.928905 m
341.86151 20.475782 341.73862 20.905466 341.49286 21.217968 c
341.2471 21.53047 340.9061 21.686718 340.46991 21.686718 c
340.06302 21.686718 339.71307 21.550001 339.4201 21.276562 c
339.12714 21.003122 338.98065 20.674351 338.98065 20.290234 c
338.98065 19.684761 339.11981 19.198927 339.39813 18.832714 c
339.67645 18.466501 340.0451 18.283398 340.50409 18.283398 c
340.91751 18.283398 341.2471 18.432322 341.49286 18.730175 c
341.73862 19.028028 341.86151 19.427601 341.86151 19.928905 c
h
343.54608 17.741405 m
f
1 0 0 1 0.5 0.5 cm
339.54999 392.95001 m
339.54999 388.75 l
S
444.35001 28.799999 m
444.35001 33 l
S
CM
444.42032 21.676952 m
443.71393 22.168491 443.36075 22.712105 443.36075 23.307812 c
443.36075 23.854689 443.56094 24.299021 443.96133 24.64082 c
444.36172 24.982618 444.88419 25.153515 445.52872 25.153515 c
446.12442 25.153515 446.60699 25.008659 446.97647 24.718945 c
447.34595 24.42923 447.53067 24.053257 447.53067 23.591015 c
447.53067 22.891142 447.08145 22.253128 446.18301 21.676952 c
447.27353 21.143095 447.81876 20.454626 447.81876 19.611523 c
447.81876 19.00605 447.59009 18.512892 447.13272 18.13203 c
446.67535 17.751169 446.08536 17.560741 445.3627 17.560741 c
444.65308 17.560741 444.07935 17.740589 443.64151 18.100292 c
443.20367 18.459995 442.98477 18.932808 442.98477 19.518749 c
442.98477 20.38464 443.46329 21.104033 444.42032 21.676952 c
h
445.6459 21.979687 m
446.31973 22.422398 446.65665 22.915556 446.65665 23.459179 c
446.65665 23.748894 446.54434 23.982452 446.31973 24.159863 c
446.09512 24.337273 445.79889 24.425976 445.43106 24.425976 c
445.07623 24.425976 444.78815 24.3389 444.5668 24.164745 c
444.34546 23.990591 444.23477 23.765169 444.23477 23.488476 c
444.23477 23.218292 444.33487 22.976595 444.53506 22.763378 c
444.73526 22.550161 445.10553 22.288933 445.6459 21.979687 c
h
444.94278 21.286327 m
444.55542 20.986847 444.29254 20.725618 444.15421 20.502636 c
444.01587 20.279654 443.94669 20.00215 443.94669 19.670116 c
443.94669 19.256702 444.08014 18.922234 444.34708 18.666698 c
444.61401 18.411163 444.96558 18.283398 445.40176 18.283398 c
445.82169 18.283398 446.16431 18.392447 446.4296 18.610546 c
446.69489 18.828646 446.82755 19.111847 446.82755 19.460155 c
446.82755 19.740105 446.74536 19.976919 446.58096 20.170605 c
446.41656 20.36429 446.09839 20.601105 445.62637 20.881054 c
h
448.44376 17.741405 m
f
1 0 0 1 0.5 0.5 cm
444.35001 392.95001 m
444.35001 388.75 l
S
549.15002 28.799999 m
549.15002 33 l
S
CM
545.58264 17.741405 m
545.58264 18.464062 l
547.02795 18.464062 l
547.02795 24.167187 l
545.58264 23.805859 l
545.58264 24.548046 l
547.99475 25.148632 l
547.99475 18.464062 l
549.44006 18.464062 l
549.44006 17.741405 l
h
553.53674 17.560741 m
552.79132 17.560741 552.18829 17.911486 551.72766 18.612988 c
551.26703 19.314489 551.03674 20.230007 551.03674 21.35957 c
551.03674 22.498898 551.26868 23.41523 551.73254 24.108593 c
552.19641 24.801956 552.80756 25.148632 553.56604 25.148632 c
554.32452 25.148632 554.93567 24.801956 555.39954 24.108593 c
555.8634 23.41523 556.09534 22.50378 556.09534 21.374218 c
556.09534 20.215359 555.8634 19.290073 555.39954 18.598339 c
554.93567 17.906605 554.31476 17.560741 553.53674 17.560741 c
h
553.54651 18.283398 m
554.56537 18.283398 555.07483 19.318544 555.07483 21.388866 c
555.07483 23.413616 554.5719 24.425976 553.56604 24.425976 c
552.56342 24.425976 552.06213 23.403851 552.06213 21.35957 c
552.06213 19.308779 552.55695 18.283398 553.54651 18.283398 c
h
556.72522 17.741405 m
f
1 0 0 1 0.5 0.5 cm
549.15002 392.95001 m
549.15002 388.75 l
S
CM
9.3585939 155.51749 m
2.1320314 155.51749 l
2.1320314 157.48526 l
2.1320314 158.35767 2.2793281 158.98428 2.573926 159.36514 c
2.8685238 159.746 3.3527312 159.93643 4.0265627 159.93643 c
4.7947955 159.93643 5.3970032 159.67603 5.8332033 159.15518 c
6.2694035 158.63434 6.4875002 157.9117 6.4875002 156.98721 c
6.4875002 156.53311 l
9.3585939 156.53311 l
h
5.711133 156.53311 m
5.711133 156.94815 l
5.711133 157.55688 5.5711603 158.02725 5.2912111 158.35928 c
5.0112619 158.69131 4.6157579 158.85733 4.1046877 158.85733 c
3.6717429 158.85733 3.3625011 158.72713 3.1769533 158.46671 c
2.9914055 158.20628 2.898633 157.77173 2.898633 157.16299 c
2.898633 156.53311 l
h
9.3585939 160.94229 m
8.5138674 160.94229 l
7.8595672 161.22224 7.1466837 161.78864 6.3751955 162.64151 c
5.8820314 163.19327 l
5.2407522 163.90291 4.6043653 164.25772 3.9728518 164.25772 c
3.5692039 164.25772 3.2518244 164.13646 3.0207033 163.89395 c
2.7895823 163.65144 2.6740236 163.31859 2.6740236 162.89542 c
2.6740236 162.39412 2.8677065 161.8033 3.2550783 161.12296 c
2.4054689 161.12296 l
2.1027331 161.76424 1.9513674 162.40062 1.9513674 163.03214 c
1.9513674 163.70923 2.1336572 164.25284 2.4982424 164.66299 c
2.8628275 165.07315 3.3462212 165.27823 3.9484377 165.27823 c
4.3813825 165.27823 4.7654934 165.17488 5.1007814 164.96817 c
5.4360695 164.76146 5.8429666 164.37654 6.3214846 163.81339 c
6.6388674 163.44229 l
7.2931676 162.67081 7.9181614 162.22484 8.5138674 162.1044 c
8.5138674 165.24405 l
9.3585939 165.24405 l
h
9.1876955 174.44815 m
9.383009 173.80362 9.4806643 173.25186 9.4806643 172.79288 c
9.4806643 172.01163 9.2210636 171.37442 8.7018557 170.88126 c
8.1826477 170.38809 7.5096397 170.14151 6.6828127 170.14151 c
5.8787723 170.14151 5.2195992 170.3588 4.7052736 170.79337 c
4.190948 171.22794 3.9337893 171.78375 3.9337893 172.46085 c
3.9337893 173.10213 4.1616516 173.59773 4.617383 173.94766 c
5.0731144 174.29759 5.7208943 174.47256 6.5607424 174.47256 c
6.8585939 174.46768 l
6.8585939 171.12296 l
8.1183662 171.26292 8.7482424 171.87979 8.7482424 172.97354 c
8.7482424 173.37393 8.6408215 173.86546 8.4259768 174.44815 c
h
6.1359377 171.1669 m
6.1359377 173.50577 l
5.1496048 173.50577 4.6564455 173.13794 4.6564455 172.40225 c
4.6564455 171.66331 5.1496048 171.25154 6.1359377 171.1669 c
h
9.3585939 176.13272 m
4.0558596 176.13272 l
4.0558596 177.09464 l
5.0519533 177.09464 l
4.309762 177.60245 3.9386721 178.22418 3.9386721 178.95987 c
3.9386721 179.41885 4.084341 179.78506 4.3756838 180.0585 c
4.6670265 180.33194 5.0584612 180.46866 5.5500002 180.46866 c
9.3585939 180.46866 l
9.3585939 179.50674 l
5.8625002 179.50674 l
5.4686179 179.50674 5.1878591 179.44896 5.020215 179.3334 c
4.852571 179.21785 4.7687502 179.0266 4.7687502 178.75967 c
4.7687502 178.17047 5.1544886 177.61548 5.9259768 177.09464 c
9.3585939 177.09464 l
h
9.1876955 186.22549 m
9.383009 185.58096 9.4806643 185.02921 9.4806643 184.57022 c
9.4806643 183.78897 9.2210636 183.15176 8.7018557 182.6586 c
8.1826477 182.16544 7.5096397 181.91885 6.6828127 181.91885 c
5.8787723 181.91885 5.2195992 182.13614 4.7052736 182.57071 c
4.190948 183.00528 3.9337893 183.5611 3.9337893 184.23819 c
3.9337893 184.87947 4.1616516 185.37508 4.617383 185.72501 c
5.0731144 186.07494 5.7208943 186.24991 6.5607424 186.24991 c
6.8585939 186.24503 l
6.8585939 182.9003 l
8.1183662 183.04027 8.7482424 183.65714 8.7482424 184.75089 c
8.7482424 185.15128 8.6408215 185.64281 8.4259768 186.22549 c
h
6.1359377 182.94424 m
6.1359377 185.28311 l
5.1496048 185.28311 4.6564455 184.91528 4.6564455 184.1796 c
4.6564455 183.44066 5.1496048 183.02888 6.1359377 182.94424 c
h
9.3585939 187.91006 m
4.0558596 187.91006 l
4.0558596 188.87198 l
5.0519533 188.87198 l
4.309762 189.25284 3.9386721 189.80621 3.9386721 190.53214 c
3.9386721 190.62979 3.94681 190.73233 3.9630861 190.83975 c
4.8615236 190.83975 l
4.8061848 190.67374 4.7785158 190.52725 4.7785158 190.4003 c
4.7785158 189.79156 5.1398401 189.28214 5.8625002 188.87198 c
9.3585939 188.87198 l
h
11.121289 192.02139 m
10.286328 192.1337 l
10.550001 192.69034 10.681836 193.23883 10.681836 193.77921 c
10.681836 194.86319 10.107298 195.40518 8.9582033 195.40518 c
8.1232424 195.40518 l
8.8654337 195.05037 9.2365236 194.46768 9.2365236 193.65714 c
9.2365236 193.02237 9.0054064 192.51781 8.5431643 192.14346 c
8.0809221 191.76912 7.4575562 191.58194 6.6730471 191.58194 c
5.8657513 191.58194 5.2082057 191.79515 4.7003908 192.22159 c
4.1925759 192.64803 3.9386721 193.19977 3.9386721 193.87686 c
3.9386721 194.46931 4.1795549 194.97874 4.6613283 195.40518 c
4.0558596 195.40518 l
4.0558596 196.37198 l
7.9132814 196.37198 l
8.7433634 196.37198 9.3577785 196.32884 9.7565432 196.24258 c
10.155308 196.15633 10.48164 195.99437 10.735547 195.75674 c
11.181513 195.33682 11.404492 194.68416 11.404492 193.79874 c
11.404492 193.18024 11.310092 192.5878 11.121289 192.02139 c
h
7.5226564 195.40518 m
5.320508 195.40518 l
4.8810525 194.98201 4.6613283 194.52139 4.6613283 194.02335 c
4.6613283 193.58064 4.8387356 193.23396 5.1935549 192.98331 c
5.5483742 192.73265 6.0350232 192.60733 6.6535158 192.60733 c
7.8156309 192.60733 8.3966799 193.01585 8.3966799 193.83292 c
8.3966799 194.38956 8.1053419 194.91365 7.5226564 195.40518 c
h
11.287305 198.54483 m
9.3585939 199.40421 l
4.0558596 197.35342 l
4.0558596 198.39346 l
8.0500002 199.91202 l
4.0558596 201.53311 l
4.0558596 202.44131 l
11.287305 199.54581 l
h
9.4806643 208.6962 m
9.4806643 207.98004 9.2153673 207.38597 8.6847658 206.91397 c
8.1541643 206.44197 7.4852257 206.20596 6.6779299 206.20596 c
5.8152952 206.20596 5.1431017 206.43953 4.6613283 206.90665 c
4.1795549 207.37376 3.9386721 208.02562 3.9386721 208.86221 c
3.9386721 209.27562 3.9956377 209.73785 4.1095705 210.24893 c
4.9152346 210.24893 l
4.7557287 209.70531 4.6759768 209.2626 4.6759768 208.92081 c
4.6759768 208.42928 4.8607078 208.03458 5.230176 207.73672 c
5.5996442 207.43887 6.0919895 207.28995 6.7072268 207.28995 c
7.3029327 207.28995 7.784699 207.44295 8.1525393 207.74893 c
8.52038 208.05492 8.7042971 208.45531 8.7042971 208.9501 c
8.7042971 209.38956 8.5919933 209.84203 8.367383 210.30753 c
9.1974611 210.30753 l
9.3862638 209.68578 9.4806643 209.14867 9.4806643 208.6962 c
h
9.4806643 213.82315 m
9.4806643 213.06468 9.2292023 212.45921 8.7262697 212.00674 c
8.2233372 211.55428 7.5503302 211.32803 6.7072268 211.32803 c
5.8543577 211.32803 5.1797228 211.55508 4.683301 212.00919 c
4.1868792 212.46329 3.9386721 213.07933 3.9386721 213.85733 c
3.9386721 214.63533 4.1868792 215.25137 4.683301 215.70547 c
5.1797228 216.15958 5.8511028 216.38663 6.6974611 216.38663 c
7.5633507 216.38663 8.2436829 216.15877 8.7384768 215.70303 c
9.2332706 215.2473 9.4806643 214.62068 9.4806643 213.82315 c
h
8.758008 213.8378 m
8.758008 214.85669 8.071166 215.36612 6.6974611 215.36612 c
5.3400326 215.36612 4.6613283 214.86319 4.6613283 213.85733 c
4.6613283 212.85472 5.3432875 212.35342 6.7072268 212.35342 c
8.0744209 212.35342 8.758008 212.84821 8.758008 213.8378 c
h
9.3585939 217.89053 m
4.0558596 217.89053 l
4.0558596 218.85245 l
5.0519533 218.85245 l
4.309762 219.36026 3.9386721 219.98199 3.9386721 220.71768 c
3.9386721 221.17667 4.084341 221.54288 4.3756838 221.81631 c
4.6670265 222.08975 5.0584612 222.22647 5.5500002 222.22647 c
9.3585939 222.22647 l
9.3585939 221.26456 l
5.8625002 221.26456 l
5.4686179 221.26456 5.1878591 221.20677 5.020215 221.09122 c
4.852571 220.97566 4.7687502 220.78441 4.7687502 220.51749 c
4.7687502 219.92828 5.1544886 219.37329 5.9259768 218.85245 c
9.3585939 218.85245 l
h
9.4806643 225.50284 m
9.4806643 225.06339 9.3781261 224.52954 9.1730471 223.90128 c
8.289258 223.90128 l
8.6017599 224.52954 8.758008 225.0764 8.758008 225.5419 c
8.758008 225.81859 8.6831388 226.04808 8.5333986 226.23038 c
8.3836584 226.41267 8.1964855 226.50381 7.9718752 226.50381 c
7.6430974 226.50381 7.3712902 226.24829 7.1564455 225.73721 c
6.9171877 225.17569 l
6.572134 224.34561 6.0757194 223.93057 5.4279299 223.93057 c
4.9656878 223.93057 4.601922 224.09415 4.3366213 224.4213 c
4.0713205 224.74844 3.9386721 225.19684 3.9386721 225.76651 c
3.9386721 226.06273 3.9793618 226.42894 4.0607424 226.86514 c
4.0998049 227.06534 l
4.9005861 227.06534 l
4.7410803 226.52823 4.6613283 226.10179 4.6613283 225.78604 c
4.6613283 225.16754 4.8859353 224.85831 5.3351564 224.85831 c
5.6248713 224.85831 5.8690095 225.09268 6.0675783 225.56143 c
6.2628908 226.0253 l
6.4842463 226.54939 6.7178049 226.92049 6.9635744 227.13858 c
7.2093439 227.35667 7.5161443 227.46573 7.8839846 227.46573 c
8.3494816 227.46573 8.7319651 227.28181 9.0314455 226.91397 c
9.3309259 226.54613 9.4806643 226.07576 9.4806643 225.50284 c
h
9.3585939 232.50967 m
8.3625002 232.50967 l
9.1079464 231.9986 9.4806643 231.37849 9.4806643 230.64932 c
9.4806643 230.18709 9.3349953 229.81924 9.0436525 229.54581 c
8.7523098 229.27237 8.3592472 229.13565 7.8644533 229.13565 c
4.0558596 229.13565 l
4.0558596 230.09756 l
7.5519533 230.09756 l
7.9490905 230.09756 8.2314768 230.15535 8.3991213 230.2709 c
8.5667658 230.38646 8.6505861 230.57933 8.6505861 230.84952 c
8.6505861 231.43546 8.2648478 231.98883 7.4933596 232.50967 c
4.0558596 232.50967 l
4.0558596 233.47159 l
9.3585939 233.47159 l
h
9.3585939 235.4003 m
4.0558596 235.4003 l
4.0558596 236.36221 l
5.0519533 236.36221 l
4.309762 236.83096 3.9386721 237.43317 3.9386721 238.16885 c
3.9386721 238.87849 4.309762 239.36189 5.0519533 239.61905 c
4.3065071 240.07478 3.9337893 240.66722 3.9337893 241.39639 c
3.9337893 241.86514 4.0713205 242.2281 4.3463869 242.48526 c
4.6214533 242.74242 5.0063777 242.871 5.5011721 242.871 c
9.3585939 242.871 l
9.3585939 241.90421 l
5.6525393 241.90421 l
5.0470676 241.90421 4.7443361 241.66495 4.7443361 241.18643 c
4.7443361 240.68839 5.0975227 240.16592 5.8039064 239.61905 c
9.3585939 239.61905 l
9.3585939 238.65225 l
5.6525393 238.65225 l
5.0438123 238.65225 4.7394533 238.40811 4.7394533 237.91983 c
4.7394533 237.4348 5.0942674 236.9156 5.8039064 236.36221 c
9.3585939 236.36221 l
h
11.287305 244.73624 m
4.0558596 244.73624 l
4.0558596 245.69815 l
5.0519533 245.69815 l
4.309762 246.09203 3.9386721 246.68285 3.9386721 247.47061 c
3.9386721 248.10864 4.1714172 248.61075 4.6369143 248.97696 c
5.1024113 249.34317 5.7387981 249.52628 6.5460939 249.52628 c
7.4250045 249.52628 8.1338196 249.31876 8.6725588 248.90372 c
9.211298 248.48868 9.4806643 247.94263 9.4806643 247.26553 c
9.4806643 246.63727 9.2397814 246.11482 8.758008 245.69815 c
11.287305 245.69815 l
h
8.0939455 245.69815 m
8.5366564 246.19295 8.758008 246.66495 8.758008 247.11417 c
8.758008 248.03865 8.0532627 248.50089 6.6437502 248.50089 c
5.4002542 248.50089 4.7785158 248.09073 4.7785158 247.27042 c
4.7785158 246.73331 5.0698543 246.20923 5.6525393 245.69815 c
h
9.4806643 252.62198 m
9.4806643 252.1337 9.3406916 251.75284 9.0607424 251.4794 c
8.7807932 251.20596 8.3917999 251.06924 7.8937502 251.06924 c
4.7785158 251.06924 l
4.7785158 250.40518 l
4.0558596 250.40518 l
4.0558596 251.06924 l
3.0939455 251.06924 l
3.0011721 252.03116 l
4.0558596 252.03116 l
4.0558596 253.41788 l
4.7785158 253.41788 l
4.7785158 252.03116 l
7.7179689 252.03116 l
8.4113321 252.03116 8.758008 252.33063 8.758008 252.9296 c
8.758008 253.05655 8.7368498 253.21117 8.6945314 253.39346 c
9.3585939 253.39346 l
9.4399748 253.09724 9.4806643 252.84007 9.4806643 252.62198 c
h
9.3585939 254.77042 m
4.0558596 254.77042 l
4.0558596 255.73233 l
9.3585939 255.73233 l
h
3.0939455 254.77042 m
2.1320314 254.77042 l
2.1320314 255.73233 l
3.0939455 255.73233 l
h
9.4806643 259.73624 m
9.4806643 258.97778 9.2292023 258.37231 8.7262697 257.91983 c
8.2233372 257.46735 7.5503302 257.24112 6.7072268 257.24112 c
5.8543577 257.24112 5.1797228 257.46817 4.683301 257.92227 c
4.1868792 258.37637 3.9386721 258.99243 3.9386721 259.77042 c
3.9386721 260.5484 4.1868792 261.16446 4.683301 261.61856 c
5.1797228 262.07266 5.8511028 262.29971 6.6974611 262.29971 c
7.5633507 262.29971 8.2436829 262.07184 8.7384768 261.61612 c
9.2332706 261.1604 9.4806643 260.53375 9.4806643 259.73624 c
h
8.758008 259.75089 m
8.758008 260.76978 8.071166 261.27921 6.6974611 261.27921 c
5.3400326 261.27921 4.6613283 260.77628 4.6613283 259.77042 c
4.6613283 258.76782 5.3432875 258.26651 6.7072268 258.26651 c
8.0744209 258.26651 8.758008 258.76129 8.758008 259.75089 c
h
9.3585939 263.80362 m
4.0558596 263.80362 l
4.0558596 264.76553 l
5.0519533 264.76553 l
4.309762 265.27335 3.9386721 265.89508 3.9386721 266.63077 c
3.9386721 267.08975 4.084341 267.45596 4.3756838 267.7294 c
4.6670265 268.00284 5.0584612 268.13956 5.5500002 268.13956 c
9.3585939 268.13956 l
9.3585939 267.17764 l
5.8625002 267.17764 l
5.4686179 267.17764 5.1878591 267.11987 5.020215 267.0043 c
4.852571 266.88873 4.7687502 266.69751 4.7687502 266.43057 c
4.7687502 265.84137 5.1544886 265.28638 5.9259768 264.76553 c
9.3585939 264.76553 l
h
9.3585939 269.04776 m
f
231.81747 4.2414064 m
231.81747 11.467969 l
233.78525 11.467969 l
234.65765 11.467969 235.28427 11.320672 235.66513 11.026074 c
236.04599 10.731477 236.23642 10.24727 236.23642 9.5734377 c
236.23642 8.8052044 235.97601 8.2029972 235.45517 7.7667971 c
234.93433 7.3305969 234.21169 7.1125002 233.2872 7.1125002 c
232.8331 7.1125002 l
232.8331 4.2414064 l
h
232.8331 7.8888674 m
233.24814 7.8888674 l
233.85687 7.8888674 234.32724 8.0288401 234.65927 8.3087893 c
234.9913 8.5887384 235.15732 8.9842424 235.15732 9.4953127 c
235.15732 9.9282579 235.02711 10.237499 234.76669 10.423047 c
234.50627 10.608595 234.07172 10.701367 233.46298 10.701367 c
232.8331 10.701367 l
h
237.91611 4.2414064 m
237.91611 4.9640627 l
239.36142 4.9640627 l
239.36142 10.667188 l
237.91611 10.30586 l
237.91611 11.048047 l
240.32822 11.648633 l
240.32822 4.9640627 l
241.77353 4.9640627 l
241.77353 4.2414064 l
h
250.74814 4.4123049 m
250.10361 4.2169914 249.55185 4.1193361 249.09286 4.1193361 c
248.31161 4.1193361 247.67441 4.3789363 247.18124 4.8981447 c
246.68808 5.4173532 246.4415 6.0903606 246.4415 6.9171877 c
246.4415 7.7212281 246.65878 8.3804016 247.09335 8.8947268 c
247.52792 9.4090519 248.08374 9.6662111 248.76083 9.6662111 c
249.40211 9.6662111 249.89772 9.4383488 250.24765 8.9826174 c
250.59758 8.526886 250.77255 7.879106 250.77255 7.039258 c
250.76767 6.7414064 l
247.42294 6.7414064 l
247.56291 5.4816346 248.17978 4.851758 249.27353 4.851758 c
249.67392 4.851758 250.16545 4.9591789 250.74814 5.1740236 c
h
247.46689 7.4640627 m
249.80576 7.4640627 l
249.80576 8.4503956 249.43793 8.9435549 248.70224 8.9435549 c
247.9633 8.9435549 247.55153 8.4503956 247.46689 7.4640627 c
h
252.43271 4.2414064 m
252.43271 9.5441408 l
253.39462 9.5441408 l
253.39462 8.5480471 l
253.90244 9.2902384 254.52417 9.6613283 255.25986 9.6613283 c
255.71884 9.6613283 256.08505 9.5156593 256.35849 9.2243166 c
256.63193 8.9329739 256.76865 8.5415392 256.76865 8.0500002 c
256.76865 4.2414064 l
255.80673 4.2414064 l
255.80673 7.7375002 l
255.80673 8.131382 255.74895 8.4121408 255.63339 8.5797853 c
255.51784 8.7474298 255.32658 8.8312502 255.05966 8.8312502 c
254.47046 8.8312502 253.91547 8.4455118 253.39462 7.6740236 c
253.39462 4.2414064 l
h
262.52548 4.4123049 m
261.88095 4.2169914 261.32919 4.1193361 260.87021 4.1193361 c
260.08896 4.1193361 259.45175 4.3789363 258.95859 4.8981447 c
258.46542 5.4173532 258.21884 6.0903606 258.21884 6.9171877 c
258.21884 7.7212281 258.43613 8.3804016 258.8707 8.8947268 c
259.30527 9.4090519 259.86108 9.6662111 260.53818 9.6662111 c
261.17944 9.6662111 261.67505 9.4383488 262.02499 8.9826174 c
262.37494 8.526886 262.5499 7.879106 262.5499 7.039258 c
262.54501 6.7414064 l
259.20029 6.7414064 l
259.34027 5.4816346 259.95712 4.851758 261.05087 4.851758 c
261.45126 4.851758 261.94281 4.9591789 262.52548 5.1740236 c
h
259.24423 7.4640627 m
261.5831 7.4640627 l
261.5831 8.4503956 261.21527 8.9435549 260.47958 8.9435549 c
259.74066 8.9435549 259.32886 8.4503956 259.24423 7.4640627 c
h
264.21005 4.2414064 m
264.21005 9.5441408 l
265.17197 9.5441408 l
265.17197 8.5480471 l
265.55283 9.2902384 266.1062 9.6613283 266.83212 9.6613283 c
266.92978 9.6613283 267.03232 9.6531906 267.13974 9.6369143 c
267.13974 8.7384768 l
266.97372 8.7938156 266.82724 8.8214846 266.70029 8.8214846 c
266.09155 8.8214846 265.58212 8.4601603 265.17197 7.7375002 c
265.17197 4.2414064 l
h
268.32138 2.4787111 m
268.43369 3.3136721 l
268.99033 3.0499988 269.53882 2.9181643 270.07919 2.9181643 c
271.16318 2.9181643 271.70517 3.4927027 271.70517 4.6417971 c
271.70517 5.476758 l
271.35034 4.7345667 270.76767 4.3634768 269.95712 4.3634768 c
269.32236 4.3634768 268.81781 4.594594 268.44345 5.0568361 c
268.06909 5.5190783 267.88193 6.1424441 267.88193 6.9269533 c
267.88193 7.7342491 268.09515 8.3917942 268.52158 8.8996096 c
268.948 9.4074249 269.49976 9.6613283 270.17685 9.6613283 c
270.76929 9.6613283 271.27875 9.4204454 271.70517 8.9386721 c
271.70517 9.5441408 l
272.67197 9.5441408 l
272.67197 5.6867189 l
272.67197 4.8566365 272.62885 4.2422223 272.54257 3.8434572 c
272.4563 3.4446921 272.29437 3.1183608 272.05673 2.8644533 c
271.63681 2.4184875 270.98413 2.195508 270.09872 2.195508 c
269.48022 2.195508 268.88779 2.2899082 268.32138 2.4787111 c
h
271.70517 6.0773439 m
271.70517 8.2794924 l
271.28198 8.7189474 270.82138 8.9386721 270.32333 8.9386721 c
269.88062 8.9386721 269.53394 8.7612648 269.28329 8.4064455 c
269.03265 8.0516262 268.90732 7.5649772 268.90732 6.9464846 c
268.90732 5.7843695 269.31586 5.2033205 270.1329 5.2033205 c
270.68954 5.2033205 271.21362 5.4946589 271.70517 6.0773439 c
h
274.84482 2.3126955 m
275.70419 4.2414064 l
273.65341 9.5441408 l
274.69345 9.5441408 l
276.21201 5.5500002 l
277.8331 9.5441408 l
278.7413 9.5441408 l
275.84579 2.3126955 l
h
284.99619 4.1193361 m
284.28003 4.1193361 283.68597 4.3846331 283.21396 4.9152346 c
282.74194 5.4458361 282.50595 6.1147747 282.50595 6.9220705 c
282.50595 7.7847052 282.7395 8.4568987 283.20663 8.9386721 c
283.67377 9.4204454 284.32562 9.6613283 285.1622 9.6613283 c
285.57562 9.6613283 286.03784 9.6043625 286.54892 9.4904299 c
286.54892 8.6847658 l
286.00531 8.8442717 285.56259 8.9240236 285.22079 8.9240236 c
284.72925 8.9240236 284.33456 8.7392921 284.03671 8.3698244 c
283.73886 8.0003567 283.58994 7.5080109 283.58994 6.8927736 c
283.58994 6.2970676 283.74292 5.8153014 284.04892 5.4474611 c
284.35492 5.0796208 284.75531 4.8957033 285.25009 4.8957033 c
285.68954 4.8957033 286.14203 5.008007 286.60751 5.2326174 c
286.60751 4.4025393 l
285.98578 4.2137361 285.44867 4.1193361 284.99619 4.1193361 c
h
290.12314 4.1193361 m
289.36469 4.1193361 288.75922 4.3707986 288.30673 4.8737307 c
287.85425 5.3766627 287.62802 6.0496702 287.62802 6.8927736 c
287.62802 7.7456427 287.85507 8.4202776 288.30917 8.9166994 c
288.76328 9.4131212 289.37933 9.6613283 290.15732 9.6613283 c
290.9353 9.6613283 291.55136 9.4131212 292.00546 8.9166994 c
292.45956 8.4202776 292.68661 7.7488976 292.68661 6.9025393 c
292.68661 6.0366497 292.45874 5.356318 292.00302 4.8615236 c
291.5473 4.3667293 290.92065 4.1193361 290.12314 4.1193361 c
h
290.13779 4.8419924 m
291.15668 4.8419924 291.66611 5.5288343 291.66611 6.9025393 c
291.66611 8.2599678 291.16318 8.9386721 290.15732 8.9386721 c
289.15472 8.9386721 288.65341 8.2567129 288.65341 6.8927736 c
288.65341 5.5255795 289.14819 4.8419924 290.13779 4.8419924 c
h
294.19052 4.2414064 m
294.19052 9.5441408 l
295.15244 9.5441408 l
295.15244 8.5480471 l
295.66025 9.2902384 296.28198 9.6613283 297.01767 9.6613283 c
297.47665 9.6613283 297.84286 9.5156593 298.1163 9.2243166 c
298.38974 8.9329739 298.52646 8.5415392 298.52646 8.0500002 c
298.52646 4.2414064 l
297.56454 4.2414064 l
297.56454 7.7375002 l
297.56454 8.131382 297.50677 8.4121408 297.3912 8.5797853 c
297.27563 8.7474298 297.08441 8.8312502 296.81747 8.8312502 c
296.22827 8.8312502 295.67328 8.4455118 295.15244 7.6740236 c
295.15244 4.2414064 l
h
301.80283 4.1193361 m
301.36337 4.1193361 300.82953 4.2218742 300.20126 4.4269533 c
300.20126 5.3107424 l
300.82953 4.9982409 301.3764 4.8419924 301.84189 4.8419924 c
302.11859 4.8419924 302.34808 4.9168615 302.53036 5.0666018 c
302.71265 5.216342 302.8038 5.4035149 302.8038 5.6281252 c
302.8038 5.956903 302.54828 6.2287102 302.0372 6.4435549 c
301.47568 6.6828127 l
300.6456 7.0278664 300.23056 7.524281 300.23056 8.1720705 c
300.23056 8.6343126 300.39413 8.9980783 300.72128 9.2633791 c
301.04843 9.5286798 301.49683 9.6613283 302.0665 9.6613283 c
302.36273 9.6613283 302.72894 9.6206388 303.16513 9.539258 c
303.36533 9.5001955 l
303.36533 8.6994143 l
302.82822 8.8589201 302.40179 8.9386721 302.08603 8.9386721 c
301.46753 8.9386721 301.15829 8.7140646 301.15829 8.2648439 c
301.15829 7.9751291 301.39267 7.7309909 301.86142 7.5324221 c
302.32529 7.3371096 l
302.84937 7.1157541 303.22046 6.8821955 303.43857 6.636426 c
303.65668 6.3906565 303.76572 6.0838561 303.76572 5.7160158 c
303.76572 5.2505188 303.58179 4.8680353 303.21396 4.5685549 c
302.84613 4.2690744 302.37573 4.1193361 301.80283 4.1193361 c
h
308.80966 4.2414064 m
308.80966 5.2375002 l
308.29858 4.492054 307.67847 4.1193361 306.94931 4.1193361 c
306.48706 4.1193361 306.11923 4.2650051 305.84579 4.5563478 c
305.57236 4.8476906 305.43564 5.2407527 305.43564 5.7355471 c
305.43564 9.5441408 l
306.39755 9.5441408 l
306.39755 6.0480471 l
306.39755 5.6509099 306.45532 5.3685231 306.57089 5.2008791 c
306.68646 5.0332351 306.87933 4.9494143 307.14951 4.9494143 c
307.73544 4.9494143 308.28882 5.3351526 308.80966 6.1066408 c
308.80966 9.5441408 l
309.77158 9.5441408 l
309.77158 4.2414064 l
h
311.70029 4.2414064 m
311.70029 9.5441408 l
312.6622 9.5441408 l
312.6622 8.5480471 l
313.13095 9.2902384 313.73315 9.6613283 314.46884 9.6613283 c
315.17847 9.6613283 315.66187 9.2902384 315.91904 8.5480471 c
316.37476 9.2934933 316.96722 9.6662111 317.69638 9.6662111 c
318.16513 9.6662111 318.52808 9.5286798 318.78525 9.2536135 c
319.04242 8.9785471 319.17099 8.5936222 319.17099 8.0988283 c
319.17099 4.2414064 l
318.20419 4.2414064 l
318.20419 7.9474611 l
318.20419 8.5529327 317.96494 8.8556643 317.48642 8.8556643 c
316.98837 8.8556643 316.46591 8.5024776 315.91904 7.7960939 c
315.91904 4.2414064 l
314.95224 4.2414064 l
314.95224 7.9474611 l
314.95224 8.5561886 314.7081 8.8605471 314.21982 8.8605471 c
313.7348 8.8605471 313.21558 8.5057325 312.6622 7.7960939 c
312.6622 4.2414064 l
h
321.03622 2.3126955 m
321.03622 9.5441408 l
321.99814 9.5441408 l
321.99814 8.5480471 l
322.39203 9.2902384 322.98285 9.6613283 323.7706 9.6613283 c
324.40863 9.6613283 324.91074 9.4285831 325.27695 8.9630861 c
325.64316 8.4975891 325.82626 7.8612022 325.82626 7.0539064 c
325.82626 6.1749959 325.61874 5.4661813 325.2037 4.9274416 c
324.78867 4.3887019 324.24261 4.1193361 323.56552 4.1193361 c
322.93726 4.1193361 322.41479 4.360219 321.99814 4.8419924 c
321.99814 2.3126955 l
h
321.99814 5.5060549 m
322.49292 5.0633445 322.96494 4.8419924 323.41415 4.8419924 c
324.33862 4.8419924 324.80087 5.5467381 324.80087 6.9562502 c
324.80087 8.1997461 324.39072 8.8214846 323.5704 8.8214846 c
323.03329 8.8214846 322.50922 8.5301466 321.99814 7.9474611 c
h
328.92197 4.1193361 m
328.43369 4.1193361 328.05283 4.2593088 327.77939 4.539258 c
327.50595 4.8192072 327.36923 5.2082009 327.36923 5.7062502 c
327.36923 8.8214846 l
326.70517 8.8214846 l
326.70517 9.5441408 l
327.36923 9.5441408 l
327.36923 10.506055 l
328.33115 10.598828 l
328.33115 9.5441408 l
329.71786 9.5441408 l
329.71786 8.8214846 l
328.33115 8.8214846 l
328.33115 5.8820314 l
328.33115 5.1886687 328.63062 4.8419924 329.22958 4.8419924 c
329.35654 4.8419924 329.51117 4.8631511 329.69345 4.9054689 c
329.69345 4.2414064 l
329.39722 4.1600256 329.14008 4.1193361 328.92197 4.1193361 c
h
331.0704 4.2414064 m
331.0704 9.5441408 l
332.03232 9.5441408 l
332.03232 4.2414064 l
h
331.0704 10.506055 m
331.0704 11.467969 l
332.03232 11.467969 l
332.03232 10.506055 l
h
336.03622 4.1193361 m
335.27777 4.1193361 334.6723 4.3707986 334.21982 4.8737307 c
333.76733 5.3766627 333.54111 6.0496702 333.54111 6.8927736 c
333.54111 7.7456427 333.76816 8.4202776 334.22226 8.9166994 c
334.67636 9.4131212 335.29242 9.6613283 336.0704 9.6613283 c
336.84839 9.6613283 337.46445 9.4131212 337.91855 8.9166994 c
338.37265 8.4202776 338.5997 7.7488976 338.5997 6.9025393 c
338.5997 6.0366497 338.37183 5.356318 337.91611 4.8615236 c
337.46039 4.3667293 336.83374 4.1193361 336.03622 4.1193361 c
h
336.05087 4.8419924 m
337.06976 4.8419924 337.57919 5.5288343 337.57919 6.9025393 c
337.57919 8.2599678 337.07626 8.9386721 336.0704 8.9386721 c
335.06781 8.9386721 334.5665 8.2567129 334.5665 6.8927736 c
334.5665 5.5255795 335.06128 4.8419924 336.05087 4.8419924 c
h
340.10361 4.2414064 m
340.10361 9.5441408 l
341.06552 9.5441408 l
341.06552 8.5480471 l
341.57333 9.2902384 342.19507 9.6613283 342.93076 9.6613283 c
343.38974 9.6613283 343.75595 9.5156593 344.02939 9.2243166 c
344.30283 8.9329739 344.43954 8.5415392 344.43954 8.0500002 c
344.43954 4.2414064 l
343.47763 4.2414064 l
343.47763 7.7375002 l
343.47763 8.131382 343.41986 8.4121408 343.30429 8.5797853 c
343.18872 8.7474298 342.9975 8.8312502 342.73056 8.8312502 c
342.14136 8.8312502 341.58636 8.4455118 341.06552 7.6740236 c
341.06552 4.2414064 l
h
345.34775 4.2414064 m
f
181.84677 404.21075 m
181.36174 404.21075 180.74164 404.31656 179.98642 404.52814 c
179.98642 405.54376 l
180.80023 405.16617 181.46916 404.97736 181.99326 404.97736 c
182.3969 404.97736 182.7216 405.08316 182.96738 405.29474 c
183.21315 405.50632 183.33603 405.78464 183.33603 406.1297 c
183.33603 406.4129 183.25546 406.65378 183.09433 406.85236 c
182.9332 407.05093 182.63615 407.27228 182.20322 407.51642 c
181.70517 407.8045 l
181.08994 408.15607 180.65617 408.48727 180.4039 408.79816 c
180.15163 409.10904 180.02548 409.47116 180.02548 409.88458 c
180.02548 410.44122 180.22731 410.89938 180.63095 411.25909 c
181.03459 411.6188 181.54892 411.79865 182.17392 411.79865 c
182.73056 411.79865 183.31812 411.70587 183.93661 411.52032 c
183.93661 410.58282 l
183.1749 410.88229 182.60686 411.03204 182.23251 411.03204 c
181.8777 411.03204 181.58473 410.93765 181.35361 410.74884 c
181.12248 410.56003 181.00693 410.32242 181.00693 410.03595 c
181.00693 409.79507 181.09157 409.58185 181.26083 409.3963 c
181.4301 409.21075 181.73935 408.98941 182.18857 408.73224 c
182.70615 408.43927 l
183.33115 408.08444 183.76735 407.74918 184.01474 407.43341 c
184.26213 407.11765 184.38583 406.73843 184.38583 406.29572 c
184.38583 405.66745 184.1539 405.1629 183.69003 404.78204 c
183.22617 404.40118 182.61176 404.21075 181.84677 404.21075 c
h
186.15341 402.46271 m
187.01279 404.39142 l
184.96201 409.69415 l
186.00204 409.69415 l
187.5206 405.70001 l
189.14169 409.69415 l
190.0499 409.69415 l
187.15439 402.46271 l
h
192.47665 404.26935 m
192.0372 404.26935 191.50336 404.37189 190.87509 404.57697 c
190.87509 405.46075 l
191.50336 405.14825 192.05022 404.992 192.51572 404.992 c
192.7924 404.992 193.0219 405.06686 193.20419 405.21661 c
193.38649 405.36636 193.47763 405.55353 193.47763 405.77814 c
193.47763 406.1069 193.22211 406.37872 192.71103 406.59357 c
192.14951 406.83282 l
191.31943 407.17789 190.90439 407.67429 190.90439 408.32208 c
190.90439 408.78433 191.06796 409.1481 191.39511 409.41339 c
191.72226 409.67868 192.17065 409.81134 192.74033 409.81134 c
193.03654 409.81134 193.40276 409.77066 193.83896 409.68927 c
194.03915 409.65021 l
194.03915 408.84943 l
193.50204 409.00894 193.07561 409.08868 192.75986 409.08868 c
192.14136 409.08868 191.83212 408.86407 191.83212 408.41486 c
191.83212 408.12515 192.0665 407.88101 192.53525 407.68243 c
192.99911 407.48712 l
193.52321 407.26578 193.8943 407.0322 194.1124 406.78644 c
194.33049 406.54068 194.43954 406.23386 194.43954 405.86603 c
194.43954 405.40054 194.25563 405.01804 193.88779 404.71857 c
193.51994 404.4191 193.04958 404.26935 192.47665 404.26935 c
h
197.75986 404.26935 m
197.27158 404.26935 196.89072 404.40933 196.61728 404.68927 c
196.34384 404.96921 196.20712 405.35822 196.20712 405.85626 c
196.20712 408.9715 l
195.54306 408.9715 l
195.54306 409.69415 l
196.20712 409.69415 l
196.20712 410.65607 l
197.16904 410.74884 l
197.16904 409.69415 l
198.55576 409.69415 l
198.55576 408.9715 l
197.16904 408.9715 l
197.16904 406.03204 l
197.16904 405.33868 197.46851 404.992 198.06747 404.992 c
198.19443 404.992 198.34904 405.01315 198.53134 405.05548 c
198.53134 404.39142 l
198.23512 404.31003 197.97795 404.26935 197.75986 404.26935 c
h
203.79501 404.56232 m
203.15048 404.367 202.59872 404.26935 202.13974 404.26935 c
201.35849 404.26935 200.72128 404.52896 200.22812 405.04816 c
199.73495 405.56735 199.48837 406.24039 199.48837 407.0672 c
199.48837 407.87125 199.70566 408.53043 200.14023 409.04474 c
200.5748 409.55905 201.13062 409.81622 201.80771 409.81622 c
202.44899 409.81622 202.9446 409.58835 203.29453 409.13263 c
203.64445 408.67691 203.81943 408.02911 203.81943 407.18927 c
203.81454 406.89142 l
200.46982 406.89142 l
200.60979 405.63165 201.22665 405.00177 202.3204 405.00177 c
202.72079 405.00177 203.21233 405.10919 203.79501 405.32404 c
h
200.51376 407.61407 m
202.85263 407.61407 l
202.85263 408.6004 202.4848 409.09357 201.74911 409.09357 c
201.01018 409.09357 200.5984 408.6004 200.51376 407.61407 c
h
205.47958 404.39142 m
205.47958 409.69415 l
206.4415 409.69415 l
206.4415 408.69806 l
206.91025 409.44025 207.51245 409.81134 208.24814 409.81134 c
208.95778 409.81134 209.44118 409.44025 209.69833 408.69806 c
210.15407 409.44351 210.74651 409.81622 211.47568 409.81622 c
211.94443 409.81622 212.30739 409.67868 212.56454 409.40363 c
212.8217 409.12857 212.95029 408.74362 212.95029 408.24884 c
212.95029 404.39142 l
211.98349 404.39142 l
211.98349 408.09747 l
211.98349 408.70294 211.74423 409.00568 211.26572 409.00568 c
210.76767 409.00568 210.24521 408.6525 209.69833 407.94611 c
209.69833 404.39142 l
208.73154 404.39142 l
208.73154 408.09747 l
208.73154 408.70621 208.4874 409.01056 207.99911 409.01056 c
207.51408 409.01056 206.99489 408.65573 206.4415 407.94611 c
206.4415 404.39142 l
h
221.6124 407.15509 m
220.38193 410.27032 l
219.14658 407.15509 l
h
222.69638 404.39142 m
221.91025 406.39337 l
218.84872 406.39337 l
218.05283 404.39142 l
217.10068 404.39142 l
219.96689 411.61798 l
220.98251 411.61798 l
223.80478 404.39142 l
h
230.77744 405.06525 m
230.20126 404.53464 229.64626 404.26935 229.1124 404.26935 c
228.67294 404.26935 228.30836 404.40689 228.01865 404.68195 c
227.72893 404.957 227.58408 405.3045 227.58408 405.72443 c
227.58408 406.30386 227.82741 406.74899 228.31406 407.05988 c
228.8007 407.37076 229.49814 407.52618 230.40634 407.52618 c
230.63583 407.52618 l
230.63583 408.16583 l
230.63583 408.78107 230.32008 409.08868 229.68857 409.08868 c
229.18076 409.08868 228.63226 408.93243 228.04306 408.61993 c
228.04306 409.41583 l
228.69086 409.6795 229.29794 409.81134 229.86435 409.81134 c
230.4568 409.81134 230.89381 409.67789 231.17538 409.41095 c
231.45695 409.14401 231.59775 408.72897 231.59775 408.16583 c
231.59775 405.76349 l
231.59775 405.21335 231.76701 404.93829 232.10556 404.93829 c
232.14787 404.93829 232.20973 404.94479 232.29111 404.95782 c
232.35947 404.4256 l
232.14137 404.32144 231.90048 404.26935 231.63681 404.26935 c
231.18759 404.26935 230.90114 404.53464 230.77744 405.06525 c
h
230.63583 405.58771 m
230.63583 406.95978 l
230.31357 406.96954 l
229.78622 406.96954 229.35979 406.86945 229.03427 406.66925 c
228.70876 406.46906 228.54599 406.20621 228.54599 405.88068 c
228.54599 405.64957 228.62737 405.45425 228.79013 405.29474 c
228.9529 405.13522 229.15146 405.05548 229.38583 405.05548 c
229.78622 405.05548 230.2029 405.23288 230.63583 405.58771 c
h
233.56552 404.39142 m
233.56552 409.69415 l
234.52744 409.69415 l
234.52744 408.69806 l
235.03525 409.44025 235.65698 409.81134 236.39267 409.81134 c
236.85165 409.81134 237.21786 409.66568 237.4913 409.37433 c
237.76474 409.08298 237.90146 408.69156 237.90146 408.20001 c
237.90146 404.39142 l
236.93954 404.39142 l
236.93954 407.88751 l
236.93954 408.2814 236.88176 408.56216 236.7662 408.7298 c
236.65065 408.89743 236.4594 408.98126 236.19247 408.98126 c
235.60327 408.98126 235.04828 408.59552 234.52744 407.82404 c
234.52744 404.39142 l
h
243.1749 404.39142 m
243.1749 405.38751 l
242.78427 404.64206 242.19508 404.26935 241.40732 404.26935 c
240.76929 404.26935 240.26718 404.50211 239.90097 404.96759 c
239.53476 405.43307 239.35165 406.06949 239.35165 406.87677 c
239.35165 407.75894 239.55917 408.46857 239.97421 409.00568 c
240.38925 409.54279 240.9353 409.81134 241.6124 409.81134 c
242.24066 409.81134 242.76149 409.57047 243.1749 409.08868 c
243.1749 412.10138 l
244.14169 412.10138 l
244.14169 404.39142 l
h
243.1749 408.4295 m
242.67685 408.86896 242.20485 409.08868 241.75888 409.08868 c
240.83765 409.08868 240.37704 408.38394 240.37704 406.97443 c
240.37704 405.73419 240.7872 405.11407 241.60751 405.11407 c
242.14137 405.11407 242.66382 405.40543 243.1749 405.9881 c
h
250.6163 404.21075 m
250.13127 404.21075 249.51117 404.31656 248.75595 404.52814 c
248.75595 405.54376 l
249.56976 405.16617 250.23869 404.97736 250.76279 404.97736 c
251.16643 404.97736 251.49113 405.08316 251.73691 405.29474 c
251.98268 405.50632 252.10556 405.78464 252.10556 406.1297 c
252.10556 406.4129 252.02499 406.65378 251.86386 406.85236 c
251.70273 407.05093 251.40569 407.27228 250.97275 407.51642 c
250.4747 407.8045 l
249.85947 408.15607 249.4257 408.48727 249.17343 408.79816 c
248.92116 409.10904 248.79501 409.47116 248.79501 409.88458 c
248.79501 410.44122 248.99684 410.89938 249.40048 411.25909 c
249.80412 411.6188 250.31845 411.79865 250.94345 411.79865 c
251.50009 411.79865 252.08765 411.70587 252.70615 411.52032 c
252.70615 410.58282 l
251.94443 410.88229 251.37639 411.03204 251.00204 411.03204 c
250.64723 411.03204 250.35426 410.93765 250.12314 410.74884 c
249.89201 410.56003 249.77646 410.32242 249.77646 410.03595 c
249.77646 409.79507 249.8611 409.58185 250.03036 409.3963 c
250.19963 409.21075 250.50888 408.98941 250.9581 408.73224 c
251.47568 408.43927 l
252.10068 408.08444 252.53688 407.74918 252.78427 407.43341 c
253.03166 407.11765 253.15536 406.73843 253.15536 406.29572 c
253.15536 405.66745 252.92343 405.1629 252.45956 404.78204 c
251.9957 404.40118 251.38129 404.21075 250.6163 404.21075 c
h
254.92294 402.46271 m
255.78232 404.39142 l
253.73154 409.69415 l
254.77158 409.69415 l
256.29013 405.70001 l
257.91122 409.69415 l
258.81943 409.69415 l
255.92392 402.46271 l
h
261.24619 404.26935 m
260.80673 404.26935 260.27289 404.37189 259.64462 404.57697 c
259.64462 405.46075 l
260.27289 405.14825 260.81976 404.992 261.28525 404.992 c
261.56195 404.992 261.79144 405.06686 261.97372 405.21661 c
262.15601 405.36636 262.24716 405.55353 262.24716 405.77814 c
262.24716 406.1069 261.99164 406.37872 261.48056 406.59357 c
260.91904 406.83282 l
260.08896 407.17789 259.67392 407.67429 259.67392 408.32208 c
259.67392 408.78433 259.83749 409.1481 260.16464 409.41339 c
260.49179 409.67868 260.94019 409.81134 261.50986 409.81134 c
261.80609 409.81134 262.1723 409.77066 262.60849 409.68927 c
262.80869 409.65021 l
262.80869 408.84943 l
262.27158 409.00894 261.84515 409.08868 261.52939 409.08868 c
260.91089 409.08868 260.60165 408.86407 260.60165 408.41486 c
260.60165 408.12515 260.83603 407.88101 261.30478 407.68243 c
261.76865 407.48712 l
262.29272 407.26578 262.66382 407.0322 262.88193 406.78644 c
263.10004 406.54068 263.20908 406.23386 263.20908 405.86603 c
263.20908 405.40054 263.02515 405.01804 262.65732 404.71857 c
262.28949 404.4191 261.81909 404.26935 261.24619 404.26935 c
h
266.52939 404.26935 m
266.04111 404.26935 265.66025 404.40933 265.38681 404.68927 c
265.11337 404.96921 264.97665 405.35822 264.97665 405.85626 c
264.97665 408.9715 l
264.31259 408.9715 l
264.31259 409.69415 l
264.97665 409.69415 l
264.97665 410.65607 l
265.93857 410.74884 l
265.93857 409.69415 l
267.32529 409.69415 l
267.32529 408.9715 l
265.93857 408.9715 l
265.93857 406.03204 l
265.93857 405.33868 266.23804 404.992 266.83701 404.992 c
266.96396 404.992 267.11859 405.01315 267.30087 405.05548 c
267.30087 404.39142 l
267.00464 404.31003 266.7475 404.26935 266.52939 404.26935 c
h
272.56454 404.56232 m
271.92001 404.367 271.36826 404.26935 270.90927 404.26935 c
270.12802 404.26935 269.49081 404.52896 268.99765 405.04816 c
268.50449 405.56735 268.2579 406.24039 268.2579 407.0672 c
268.2579 407.87125 268.47519 408.53043 268.90976 409.04474 c
269.34433 409.55905 269.90015 409.81622 270.57724 409.81622 c
271.21851 409.81622 271.71411 409.58835 272.06406 409.13263 c
272.414 408.67691 272.58896 408.02911 272.58896 407.18927 c
272.58408 406.89142 l
269.23935 406.89142 l
269.37933 405.63165 269.99619 405.00177 271.08994 405.00177 c
271.49033 405.00177 271.98187 405.10919 272.56454 405.32404 c
h
269.28329 407.61407 m
271.62216 407.61407 l
271.62216 408.6004 271.25433 409.09357 270.51865 409.09357 c
269.77972 409.09357 269.36792 408.6004 269.28329 407.61407 c
h
274.24911 404.39142 m
274.24911 409.69415 l
275.21103 409.69415 l
275.21103 408.69806 l
275.67978 409.44025 276.28198 409.81134 277.01767 409.81134 c
277.72729 409.81134 278.21069 409.44025 278.46786 408.69806 c
278.92358 409.44351 279.51605 409.81622 280.24521 409.81622 c
280.71396 409.81622 281.0769 409.67868 281.33408 409.40363 c
281.59125 409.12857 281.71982 408.74362 281.71982 408.24884 c
281.71982 404.39142 l
280.75302 404.39142 l
280.75302 408.09747 l
280.75302 408.70294 280.51376 409.00568 280.03525 409.00568 c
279.5372 409.00568 279.01474 408.6525 278.46786 407.94611 c
278.46786 404.39142 l
277.50107 404.39142 l
277.50107 408.09747 l
277.50107 408.70621 277.25693 409.01056 276.76865 409.01056 c
276.28363 409.01056 275.7644 408.65573 275.21103 407.94611 c
275.21103 404.39142 l
h
286.71982 404.39142 m
286.71982 411.61798 l
288.59482 411.61798 l
289.31747 411.61798 289.87167 411.48126 290.25742 411.20782 c
290.64316 410.93439 290.83603 410.5405 290.83603 410.02618 c
290.83603 409.15054 290.34125 408.52716 289.35165 408.15607 c
290.53329 407.79474 291.12411 407.14206 291.12411 406.19806 c
291.12411 405.61212 290.9288 405.16452 290.53818 404.85529 c
290.14755 404.54605 289.58441 404.39142 288.84872 404.39142 c
h
287.73544 405.15802 m
287.9454 405.15802 l
288.69736 405.15802 289.18402 405.20523 289.40536 405.29962 c
289.82855 405.47867 290.04013 405.8107 290.04013 406.29572 c
290.04013 406.7254 289.84808 407.08267 289.46396 407.36749 c
289.07983 407.65231 288.5997 407.79474 288.02353 407.79474 c
287.73544 407.79474 l
h
287.73544 408.44415 m
288.06259 408.44415 l
288.60947 408.44415 289.03345 408.56134 289.33456 408.79572 c
289.63568 409.03009 289.78622 409.3605 289.78622 409.78693 c
289.78622 410.49655 289.23611 410.85138 288.13583 410.85138 c
287.73544 410.85138 l
h
295.66513 404.39142 m
295.66513 409.69415 l
296.62704 409.69415 l
296.62704 404.39142 l
h
295.66513 410.65607 m
295.66513 411.61798 l
296.62704 411.61798 l
296.62704 410.65607 l
h
298.55576 404.39142 m
298.55576 409.69415 l
299.51767 409.69415 l
299.51767 408.69806 l
300.02548 409.44025 300.64722 409.81134 301.3829 409.81134 c
301.84189 409.81134 302.2081 409.66568 302.48154 409.37433 c
302.75497 409.08298 302.89169 408.69156 302.89169 408.20001 c
302.89169 404.39142 l
301.92978 404.39142 l
301.92978 407.88751 l
301.92978 408.2814 301.87201 408.56216 301.75644 408.7298 c
301.64087 408.89743 301.44965 408.98126 301.18271 408.98126 c
300.59351 408.98126 300.03851 408.59552 299.51767 407.82404 c
299.51767 404.39142 l
h
309.51767 404.26935 m
309.02939 404.26935 308.64853 404.40933 308.37509 404.68927 c
308.10165 404.96921 307.96494 405.35822 307.96494 405.85626 c
307.96494 408.9715 l
307.30087 408.9715 l
307.30087 409.69415 l
307.96494 409.69415 l
307.96494 410.65607 l
308.92685 410.74884 l
308.92685 409.69415 l
310.31357 409.69415 l
310.31357 408.9715 l
308.92685 408.9715 l
308.92685 406.03204 l
308.92685 405.33868 309.22632 404.992 309.82529 404.992 c
309.95224 404.992 310.10687 405.01315 310.28915 405.05548 c
310.28915 404.39142 l
309.99292 404.31003 309.73578 404.26935 309.51767 404.26935 c
h
311.66611 404.39142 m
311.66611 412.10138 l
312.62802 412.10138 l
312.62802 408.69806 l
313.13583 409.44025 313.75757 409.81134 314.49326 409.81134 c
314.95224 409.81134 315.31845 409.66568 315.59189 409.37433 c
315.86533 409.08298 316.00204 408.69156 316.00204 408.20001 c
316.00204 404.39142 l
315.04013 404.39142 l
315.04013 407.88751 l
315.04013 408.2814 314.98236 408.56216 314.86679 408.7298 c
314.75122 408.89743 314.56 408.98126 314.29306 408.98126 c
313.70386 408.98126 313.14886 408.59552 312.62802 407.82404 c
312.62802 404.39142 l
h
321.75888 404.56232 m
321.11435 404.367 320.56259 404.26935 320.10361 404.26935 c
319.32236 404.26935 318.68515 404.52896 318.19199 405.04816 c
317.69882 405.56735 317.45224 406.24039 317.45224 407.0672 c
317.45224 407.87125 317.66953 408.53043 318.1041 409.04474 c
318.53867 409.55905 319.09448 409.81622 319.77158 409.81622 c
320.41284 409.81622 320.90845 409.58835 321.25839 409.13263 c
321.60834 408.67691 321.78329 408.02911 321.78329 407.18927 c
321.77841 406.89142 l
318.43369 406.89142 l
318.57367 405.63165 319.19052 405.00177 320.28427 405.00177 c
320.68466 405.00177 321.17621 405.10919 321.75888 405.32404 c
h
318.47763 407.61407 m
320.8165 407.61407 l
320.8165 408.6004 320.44867 409.09357 319.71298 409.09357 c
318.97406 409.09357 318.56226 408.6004 318.47763 407.61407 c
h
326.57822 404.39142 m
326.57822 411.61798 l
330.6163 411.61798 l
330.6163 410.85138 l
327.60361 410.85138 l
327.60361 408.53204 l
330.12802 408.53204 l
330.12802 407.77521 l
327.60361 407.77521 l
327.60361 405.15802 l
330.82626 405.15802 l
330.82626 404.39142 l
h
332.02744 404.39142 m
332.02744 409.69415 l
332.98935 409.69415 l
332.98935 408.69806 l
333.49716 409.44025 334.1189 409.81134 334.85458 409.81134 c
335.31357 409.81134 335.67978 409.66568 335.95322 409.37433 c
336.22665 409.08298 336.36337 408.69156 336.36337 408.20001 c
336.36337 404.39142 l
335.40146 404.39142 l
335.40146 407.88751 l
335.40146 408.2814 335.34369 408.56216 335.22812 408.7298 c
335.11255 408.89743 334.92133 408.98126 334.65439 408.98126 c
334.06519 408.98126 333.51019 408.59552 332.98935 407.82404 c
332.98935 404.39142 l
h
342.12021 404.56232 m
341.47568 404.367 340.92392 404.26935 340.46494 404.26935 c
339.68369 404.26935 339.04648 404.52896 338.55331 405.04816 c
338.06015 405.56735 337.81357 406.24039 337.81357 407.0672 c
337.81357 407.87125 338.03085 408.53043 338.46542 409.04474 c
338.89999 409.55905 339.45581 409.81622 340.1329 409.81622 c
340.77417 409.81622 341.26978 409.58835 341.61972 409.13263 c
341.96967 408.67691 342.14462 408.02911 342.14462 407.18927 c
342.13974 406.89142 l
338.79501 406.89142 l
338.935 405.63165 339.55185 405.00177 340.6456 405.00177 c
341.04599 405.00177 341.53754 405.10919 342.12021 405.32404 c
h
338.83896 407.61407 m
341.17783 407.61407 l
341.17783 408.6004 340.81 409.09357 340.07431 409.09357 c
339.33539 409.09357 338.92358 408.6004 338.83896 407.61407 c
h
343.80478 404.39142 m
343.80478 409.69415 l
344.76669 409.69415 l
344.76669 408.69806 l
345.14755 409.44025 345.70093 409.81134 346.42685 409.81134 c
346.52451 409.81134 346.62704 409.80319 346.73447 409.78693 c
346.73447 408.88849 l
346.56845 408.94382 346.42197 408.9715 346.29501 408.9715 c
345.68628 408.9715 345.17685 408.61017 344.76669 407.88751 c
344.76669 404.39142 l
h
347.91611 402.62872 m
348.02841 403.46368 l
348.58505 403.20001 349.13354 403.06818 349.67392 403.06818 c
350.7579 403.06818 351.2999 403.6427 351.2999 404.79181 c
351.2999 405.62677 l
350.94507 404.88458 350.3624 404.51349 349.55185 404.51349 c
348.91708 404.51349 348.41254 404.7446 348.03818 405.20685 c
347.66382 405.6691 347.47665 406.29245 347.47665 407.07697 c
347.47665 407.88425 347.68988 408.54181 348.1163 409.04962 c
348.54272 409.55743 349.09448 409.81134 349.77158 409.81134 c
350.36401 409.81134 350.87347 409.57047 351.2999 409.08868 c
351.2999 409.69415 l
352.26669 409.69415 l
352.26669 405.83673 l
352.26669 405.00665 352.22357 404.39224 352.1373 403.99347 c
352.05103 403.5947 351.8891 403.26837 351.65146 403.01447 c
351.23154 402.56851 350.57886 402.34552 349.69345 402.34552 c
349.07495 402.34552 348.48251 402.43991 347.91611 402.62872 c
h
351.2999 406.22736 m
351.2999 408.4295 l
350.87671 408.86896 350.41611 409.08868 349.91806 409.08868 c
349.47534 409.08868 349.12866 408.91129 348.87802 408.55646 c
348.62738 408.20163 348.50204 407.715 348.50204 407.0965 c
348.50204 405.93439 348.91058 405.35333 349.72763 405.35333 c
350.28427 405.35333 350.80835 405.64468 351.2999 406.22736 c
h
356.20712 404.26935 m
355.44867 404.26935 354.8432 404.52081 354.39072 405.02374 c
353.93823 405.52667 353.71201 406.19968 353.71201 407.04279 c
353.71201 407.89566 353.93906 408.57028 354.39316 409.06671 c
354.84726 409.56314 355.46332 409.81134 356.2413 409.81134 c
357.01929 409.81134 357.63535 409.56314 358.08945 409.06671 c
358.54355 408.57028 358.7706 407.8989 358.7706 407.05255 c
358.7706 406.18668 358.54272 405.50632 358.08701 405.01154 c
357.63129 404.51675 357.00464 404.26935 356.20712 404.26935 c
h
356.22177 404.992 m
357.24066 404.992 357.75009 405.67883 357.75009 407.05255 c
357.75009 408.40997 357.24716 409.08868 356.2413 409.08868 c
355.23871 409.08868 354.7374 408.40674 354.7374 407.04279 c
354.7374 405.6756 355.23218 404.992 356.22177 404.992 c
h
360.27451 404.39142 m
360.27451 409.69415 l
361.23642 409.69415 l
361.23642 408.69806 l
361.74423 409.44025 362.36597 409.81134 363.10165 409.81134 c
363.56064 409.81134 363.92685 409.66568 364.20029 409.37433 c
364.47372 409.08298 364.61044 408.69156 364.61044 408.20001 c
364.61044 404.39142 l
363.64853 404.39142 l
363.64853 407.88751 l
363.64853 408.2814 363.59076 408.56216 363.47519 408.7298 c
363.35962 408.89743 363.1684 408.98126 362.90146 408.98126 c
362.31226 408.98126 361.75726 408.59552 361.23642 407.82404 c
361.23642 404.39142 l
h
371.05087 404.26935 m
370.61142 404.26935 370.07758 404.37189 369.44931 404.57697 c
369.44931 405.46075 l
370.07758 405.14825 370.62445 404.992 371.08994 404.992 c
371.36664 404.992 371.59613 405.06686 371.77841 405.21661 c
371.96069 405.36636 372.05185 405.55353 372.05185 405.77814 c
372.05185 406.1069 371.79633 406.37872 371.28525 406.59357 c
370.72372 406.83282 l
369.89365 407.17789 369.47861 407.67429 369.47861 408.32208 c
369.47861 408.78433 369.64218 409.1481 369.96933 409.41339 c
370.29648 409.67868 370.74487 409.81134 371.31454 409.81134 c
371.61078 409.81134 371.97699 409.77066 372.41318 409.68927 c
372.61337 409.65021 l
372.61337 408.84943 l
372.07626 409.00894 371.64984 409.08868 371.33408 409.08868 c
370.71558 409.08868 370.40634 408.86407 370.40634 408.41486 c
370.40634 408.12515 370.64072 407.88101 371.10947 407.68243 c
371.57333 407.48712 l
372.09741 407.26578 372.46851 407.0322 372.68661 406.78644 c
372.90472 406.54068 373.01376 406.23386 373.01376 405.86603 c
373.01376 405.40054 372.82983 405.01804 372.46201 404.71857 c
372.09418 404.4191 371.62378 404.26935 371.05087 404.26935 c
h
374.74228 402.46271 m
374.74228 409.69415 l
375.70419 409.69415 l
375.70419 408.69806 l
376.09808 409.44025 376.6889 409.81134 377.47665 409.81134 c
378.11469 409.81134 378.61679 409.57858 378.983 409.1131 c
379.34921 408.64761 379.53232 408.0112 379.53232 407.20392 c
379.53232 406.32501 379.3248 405.61618 378.90976 405.07745 c
378.49472 404.53873 377.94867 404.26935 377.27158 404.26935 c
376.64331 404.26935 376.12085 404.51022 375.70419 404.992 c
375.70419 402.46271 l
h
375.70419 405.65607 m
376.19897 405.21335 376.67099 404.992 377.12021 404.992 c
378.04468 404.992 378.50693 405.69675 378.50693 407.10626 c
378.50693 408.34976 378.09677 408.9715 377.27646 408.9715 c
376.73935 408.9715 376.21527 408.68015 375.70419 408.09747 c
h
383.7706 405.06525 m
383.19443 404.53464 382.6394 404.26935 382.10556 404.26935 c
381.66611 404.26935 381.30151 404.40689 381.01181 404.68195 c
380.72211 404.957 380.57724 405.3045 380.57724 405.72443 c
380.57724 406.30386 380.82056 406.74899 381.30722 407.05988 c
381.79388 407.37076 382.4913 407.52618 383.39951 407.52618 c
383.629 407.52618 l
383.629 408.16583 l
383.629 408.78107 383.31323 409.08868 382.68173 409.08868 c
382.17392 409.08868 381.62543 408.93243 381.03622 408.61993 c
381.03622 409.41583 l
381.68402 409.6795 382.29111 409.81134 382.85751 409.81134 c
383.44995 409.81134 383.88696 409.67789 384.16855 409.41095 c
384.45013 409.14401 384.59091 408.72897 384.59091 408.16583 c
384.59091 405.76349 l
384.59091 405.21335 384.76019 404.93829 385.09872 404.93829 c
385.14105 404.93829 385.20288 404.94479 385.28427 404.95782 c
385.35263 404.4256 l
385.13452 404.32144 384.89365 404.26935 384.62997 404.26935 c
384.18076 404.26935 383.89429 404.53464 383.7706 405.06525 c
h
383.629 405.58771 m
383.629 406.95978 l
383.30673 406.96954 l
382.77939 406.96954 382.35297 406.86945 382.02744 406.66925 c
381.7019 406.46906 381.53915 406.20621 381.53915 405.88068 c
381.53915 405.64957 381.62054 405.45425 381.78329 405.29474 c
381.94604 405.13522 382.14462 405.05548 382.379 405.05548 c
382.77939 405.05548 383.19604 405.23288 383.629 405.58771 c
h
388.629 404.26935 m
387.91284 404.26935 387.31879 404.53464 386.84677 405.06525 c
386.37476 405.59586 386.13876 406.2648 386.13876 407.07208 c
386.13876 407.93472 386.37231 408.6069 386.83945 409.08868 c
387.30658 409.57047 387.95844 409.81134 388.79501 409.81134 c
389.20844 409.81134 389.67065 409.75436 390.18173 409.64044 c
390.18173 408.83478 l
389.63812 408.99429 389.1954 409.07404 388.85361 409.07404 c
388.36206 409.07404 387.96738 408.88931 387.66953 408.51984 c
387.37167 408.15036 387.22275 407.65802 387.22275 407.04279 c
387.22275 406.44708 387.37573 405.9653 387.68173 405.59747 c
387.98773 405.22964 388.38812 405.04572 388.8829 405.04572 c
389.32236 405.04572 389.77484 405.15802 390.24033 405.38263 c
390.24033 404.55255 l
389.61859 404.36374 389.08148 404.26935 388.629 404.26935 c
h
395.56747 404.56232 m
394.92294 404.367 394.37119 404.26935 393.9122 404.26935 c
393.13095 404.26935 392.49374 404.52896 392.00058 405.04816 c
391.50742 405.56735 391.26083 406.24039 391.26083 407.0672 c
391.26083 407.87125 391.47812 408.53043 391.91269 409.04474 c
392.34726 409.55905 392.90308 409.81622 393.58017 409.81622 c
394.22144 409.81622 394.71704 409.58835 395.06699 409.13263 c
395.41693 408.67691 395.59189 408.02911 395.59189 407.18927 c
395.58701 406.89142 l
392.24228 406.89142 l
392.38226 405.63165 392.99911 405.00177 394.09286 405.00177 c
394.49326 405.00177 394.9848 405.10919 395.56747 405.32404 c
h
392.28622 407.61407 m
394.62509 407.61407 l
394.62509 408.6004 394.25726 409.09357 393.52158 409.09357 c
392.78265 409.09357 392.37085 408.6004 392.28622 407.61407 c
h
396.29013 404.39142 m
f
1 0 0 1 0.5 0.5 cm
25.200001 392.95001 m
25.200001 28.799999 l
549.15002 28.799999 l
549.15002 392.95001 l
25.200001 392.95001 l
h
25.200001 392.95001 m
S
CM
479.86798 383.21075 m
479.38297 383.21075 478.76285 383.31656 478.00763 383.52814 c
478.00763 384.54376 l
478.82144 384.16617 479.49039 383.97736 480.01447 383.97736 c
480.41812 383.97736 480.74283 384.08316 480.98859 384.29474 c
481.23434 384.50632 481.35724 384.78464 481.35724 385.1297 c
481.35724 385.4129 481.27667 385.65378 481.11554 385.85236 c
480.95441 386.05093 480.65738 386.27228 480.22443 386.51642 c
479.72638 386.8045 l
479.11115 387.15607 478.6774 387.48727 478.42511 387.79816 c
478.17282 388.10904 478.04669 388.47116 478.04669 388.88458 c
478.04669 389.44122 478.2485 389.89938 478.65216 390.25909 c
479.05582 390.6188 479.57013 390.79865 480.19513 390.79865 c
480.75177 390.79865 481.33932 390.70587 481.95782 390.52032 c
481.95782 389.58282 l
481.19611 389.88229 480.62808 390.03204 480.25372 390.03204 c
479.8989 390.03204 479.60593 389.93765 479.37482 389.74884 c
479.14371 389.56003 479.02814 389.32242 479.02814 389.03595 c
479.02814 388.79507 479.11276 388.58185 479.28204 388.3963 c
479.45132 388.21075 479.76056 387.98941 480.20978 387.73224 c
480.72736 387.43927 l
481.35236 387.08444 481.78854 386.74918 482.03595 386.43341 c
482.28336 386.11765 482.40704 385.73843 482.40704 385.29572 c
482.40704 384.66745 482.17511 384.1629 481.71124 383.78204 c
481.24738 383.40118 480.63297 383.21075 479.86798 383.21075 c
h
484.17462 381.46271 m
485.034 383.39142 l
482.98322 388.69415 l
484.02325 388.69415 l
485.54181 384.70001 l
487.1629 388.69415 l
488.07111 388.69415 l
485.1756 381.46271 l
h
490.49786 383.26935 m
490.05841 383.26935 489.52457 383.37189 488.8963 383.57697 c
488.8963 384.46075 l
489.52457 384.14825 490.07144 383.992 490.53693 383.992 c
490.81363 383.992 491.04312 384.06686 491.2254 384.21661 c
491.40768 384.36636 491.49884 384.55353 491.49884 384.77814 c
491.49884 385.1069 491.24332 385.37872 490.73224 385.59357 c
490.17072 385.83282 l
489.34064 386.17789 488.9256 386.67429 488.9256 387.32208 c
488.9256 387.78433 489.08917 388.1481 489.41632 388.41339 c
489.74347 388.67868 490.19186 388.81134 490.76154 388.81134 c
491.05777 388.81134 491.42398 388.77066 491.86017 388.68927 c
492.06036 388.65021 l
492.06036 387.84943 l
491.52325 388.00894 491.09683 388.08868 490.78107 388.08868 c
490.16257 388.08868 489.85333 387.86407 489.85333 387.41486 c
489.85333 387.12515 490.08771 386.88101 490.55646 386.68243 c
491.02032 386.48712 l
491.5444 386.26578 491.9155 386.0322 492.13361 385.78644 c
492.35172 385.54068 492.46075 385.23386 492.46075 384.86603 c
492.46075 384.40054 492.27682 384.01804 491.909 383.71857 c
491.54117 383.4191 491.07077 383.26935 490.49786 383.26935 c
h
495.78107 383.26935 m
495.29279 383.26935 494.91193 383.40933 494.63849 383.68927 c
494.36505 383.96921 494.22833 384.35822 494.22833 384.85626 c
494.22833 387.9715 l
493.56427 387.9715 l
493.56427 388.69415 l
494.22833 388.69415 l
494.22833 389.65607 l
495.19025 389.74884 l
495.19025 388.69415 l
496.57697 388.69415 l
496.57697 387.9715 l
495.19025 387.9715 l
495.19025 385.03204 l
495.19025 384.33868 495.48972 383.992 496.08868 383.992 c
496.21564 383.992 496.37027 384.01315 496.55255 384.05548 c
496.55255 383.39142 l
496.25632 383.31003 495.99918 383.26935 495.78107 383.26935 c
h
501.81622 383.56232 m
501.17169 383.367 500.61993 383.26935 500.16095 383.26935 c
499.3797 383.26935 498.74249 383.52896 498.24933 384.04816 c
497.75616 384.56735 497.50958 385.24039 497.50958 386.0672 c
497.50958 386.87125 497.72687 387.53043 498.16144 388.04474 c
498.59601 388.55905 499.15182 388.81622 499.82892 388.81622 c
500.47018 388.81622 500.96579 388.58835 501.31573 388.13263 c
501.66568 387.67691 501.84064 387.02911 501.84064 386.18927 c
501.83575 385.89142 l
498.49103 385.89142 l
498.63101 384.63165 499.24786 384.00177 500.34161 384.00177 c
500.742 384.00177 501.23355 384.10919 501.81622 384.32404 c
h
498.53497 386.61407 m
500.87384 386.61407 l
500.87384 387.6004 500.50601 388.09357 499.77032 388.09357 c
499.0314 388.09357 498.6196 387.6004 498.53497 386.61407 c
h
503.50079 383.39142 m
503.50079 388.69415 l
504.46271 388.69415 l
504.46271 387.69806 l
504.93146 388.44025 505.53366 388.81134 506.26935 388.81134 c
506.97897 388.81134 507.46237 388.44025 507.71954 387.69806 c
508.17526 388.44351 508.76773 388.81622 509.49689 388.81622 c
509.96564 388.81622 510.32858 388.67868 510.58575 388.40363 c
510.84293 388.12857 510.9715 387.74362 510.9715 387.24884 c
510.9715 383.39142 l
510.0047 383.39142 l
510.0047 387.09747 l
510.0047 387.70294 509.76544 388.00568 509.28693 388.00568 c
508.78888 388.00568 508.26642 387.6525 507.71954 386.94611 c
507.71954 383.39142 l
506.75275 383.39142 l
506.75275 387.09747 l
506.75275 387.70621 506.50861 388.01056 506.02032 388.01056 c
505.53531 388.01056 505.01608 387.65573 504.46271 386.94611 c
504.46271 383.39142 l
h
519.63361 386.15509 m
518.40314 389.27032 l
517.16779 386.15509 l
h
520.71759 383.39142 m
519.93146 385.39337 l
516.86993 385.39337 l
516.07404 383.39142 l
515.12189 383.39142 l
517.9881 390.61798 l
519.00372 390.61798 l
521.82599 383.39142 l
h
521.93829 383.39142 m
f
0 0 1 sc
1 0 0 1 0.5 0.5 cm
524.54999 385.45001 m
541.95001 385.45001 l
S
25.200001 28.799999 m
25.200001 28.799999 l
339.54999 392.95001 l
S
0 0 0 sc
CM
481.01544 374.21075 m
480.53043 374.21075 479.91031 374.31656 479.15509 374.52814 c
479.15509 375.54376 l
479.9689 375.16617 480.63785 374.97736 481.16193 374.97736 c
481.56558 374.97736 481.89029 375.08316 482.13605 375.29474 c
482.38181 375.50632 482.5047 375.78464 482.5047 376.1297 c
482.5047 376.4129 482.42413 376.65378 482.263 376.85236 c
482.10187 377.05093 481.80484 377.27228 481.37189 377.51642 c
480.87384 377.8045 l
480.25861 378.15607 479.82486 378.48727 479.57257 378.79816 c
479.32028 379.10904 479.19415 379.47116 479.19415 379.88458 c
479.19415 380.44122 479.39597 380.89938 479.79962 381.25909 c
480.20328 381.6188 480.71759 381.79865 481.34259 381.79865 c
481.89923 381.79865 482.48679 381.70587 483.10529 381.52032 c
483.10529 380.58282 l
482.34357 380.88229 481.77554 381.03204 481.40118 381.03204 c
481.04636 381.03204 480.75339 380.93765 480.52228 380.74884 c
480.29117 380.56003 480.1756 380.32242 480.1756 380.03595 c
480.1756 379.79507 480.26022 379.58185 480.4295 379.3963 c
480.59879 379.21075 480.90802 378.98941 481.35724 378.73224 c
481.87482 378.43927 l
482.49982 378.08444 482.936 377.74918 483.18341 377.43341 c
483.43082 377.11765 483.5545 376.73843 483.5545 376.29572 c
483.5545 375.66745 483.32257 375.1629 482.8587 374.78204 c
482.39484 374.40118 481.78043 374.21075 481.01544 374.21075 c
h
485.32208 372.46271 m
486.18146 374.39142 l
484.13068 379.69415 l
485.17072 379.69415 l
486.68927 375.70001 l
488.31036 379.69415 l
489.21857 379.69415 l
486.32306 372.46271 l
h
491.64532 374.26935 m
491.20587 374.26935 490.67203 374.37189 490.04376 374.57697 c
490.04376 375.46075 l
490.67203 375.14825 491.2189 374.992 491.68439 374.992 c
491.96109 374.992 492.19058 375.06686 492.37286 375.21661 c
492.55515 375.36636 492.6463 375.55353 492.6463 375.77814 c
492.6463 376.1069 492.39078 376.37872 491.8797 376.59357 c
491.31818 376.83282 l
490.4881 377.17789 490.07306 377.67429 490.07306 378.32208 c
490.07306 378.78433 490.23663 379.1481 490.56378 379.41339 c
490.89093 379.67868 491.33932 379.81134 491.909 379.81134 c
492.20523 379.81134 492.57144 379.77066 493.00763 379.68927 c
493.20782 379.65021 l
493.20782 378.84943 l
492.67072 379.00894 492.24429 379.08868 491.92853 379.08868 c
491.31003 379.08868 491.00079 378.86407 491.00079 378.41486 c
491.00079 378.12515 491.23517 377.88101 491.70392 377.68243 c
492.16779 377.48712 l
492.69186 377.26578 493.06296 377.0322 493.28107 376.78644 c
493.49918 376.54068 493.60822 376.23386 493.60822 375.86603 c
493.60822 375.40054 493.42429 375.01804 493.05646 374.71857 c
492.68863 374.4191 492.21823 374.26935 491.64532 374.26935 c
h
496.92853 374.26935 m
496.44025 374.26935 496.05939 374.40933 495.78595 374.68927 c
495.51251 374.96921 495.37579 375.35822 495.37579 375.85626 c
495.37579 378.9715 l
494.71173 378.9715 l
494.71173 379.69415 l
495.37579 379.69415 l
495.37579 380.65607 l
496.33771 380.74884 l
496.33771 379.69415 l
497.72443 379.69415 l
497.72443 378.9715 l
496.33771 378.9715 l
496.33771 376.03204 l
496.33771 375.33868 496.63718 374.992 497.23615 374.992 c
497.3631 374.992 497.51773 375.01315 497.70001 375.05548 c
497.70001 374.39142 l
497.40378 374.31003 497.14664 374.26935 496.92853 374.26935 c
h
502.96368 374.56232 m
502.31915 374.367 501.7674 374.26935 501.30841 374.26935 c
500.52716 374.26935 499.88995 374.52896 499.39679 375.04816 c
498.90363 375.56735 498.65704 376.24039 498.65704 377.0672 c
498.65704 377.87125 498.87433 378.53043 499.3089 379.04474 c
499.74347 379.55905 500.29929 379.81622 500.97638 379.81622 c
501.61765 379.81622 502.11325 379.58835 502.4632 379.13263 c
502.81314 378.67691 502.9881 378.02911 502.9881 377.18927 c
502.98322 376.89142 l
499.63849 376.89142 l
499.77847 375.63165 500.39532 375.00177 501.48907 375.00177 c
501.88947 375.00177 502.38101 375.10919 502.96368 375.32404 c
h
499.68243 377.61407 m
502.0213 377.61407 l
502.0213 378.6004 501.65347 379.09357 500.91779 379.09357 c
500.17886 379.09357 499.76706 378.6004 499.68243 377.61407 c
h
504.64825 374.39142 m
504.64825 379.69415 l
505.61017 379.69415 l
505.61017 378.69806 l
506.07892 379.44025 506.68112 379.81134 507.41681 379.81134 c
508.12643 379.81134 508.60983 379.44025 508.867 378.69806 c
509.32272 379.44351 509.91519 379.81622 510.64435 379.81622 c
511.1131 379.81622 511.47604 379.67868 511.73322 379.40363 c
511.99039 379.12857 512.11896 378.74362 512.11896 378.24884 c
512.11896 374.39142 l
511.15216 374.39142 l
511.15216 378.09747 l
511.15216 378.70294 510.9129 379.00568 510.43439 379.00568 c
509.93634 379.00568 509.41388 378.6525 508.867 377.94611 c
508.867 374.39142 l
507.90021 374.39142 l
507.90021 378.09747 l
507.90021 378.70621 507.65607 379.01056 507.16779 379.01056 c
506.68277 379.01056 506.16354 378.65573 505.61017 377.94611 c
505.61017 374.39142 l
h
517.11896 374.39142 m
517.11896 381.61798 l
518.99396 381.61798 l
519.71661 381.61798 520.27081 381.48126 520.65656 381.20782 c
521.0423 380.93439 521.23517 380.5405 521.23517 380.02618 c
521.23517 379.15054 520.74036 378.52716 519.75079 378.15607 c
520.93243 377.79474 521.52325 377.14206 521.52325 376.19806 c
521.52325 375.61212 521.32794 375.16452 520.93732 374.85529 c
520.54669 374.54605 519.98352 374.39142 519.24786 374.39142 c
h
518.13458 375.15802 m
518.34454 375.15802 l
519.0965 375.15802 519.58313 375.20523 519.8045 375.29962 c
520.22766 375.47867 520.43927 375.8107 520.43927 376.29572 c
520.43927 376.7254 520.24719 377.08267 519.8631 377.36749 c
519.479 377.65231 518.99884 377.79474 518.42267 377.79474 c
518.13458 377.79474 l
h
518.13458 378.44415 m
518.46173 378.44415 l
519.00861 378.44415 519.43262 378.56134 519.7337 378.79572 c
520.03479 379.03009 520.18536 379.3605 520.18536 379.78693 c
520.18536 380.49655 519.63525 380.85138 518.53497 380.85138 c
518.13458 380.85138 l
h
521.93829 374.39142 m
f
0 0.50196081 0 sc
1 0 0 1 0.5 0.5 cm
524.54999 376.45001 m
541.95001 376.45001 l
S
25.200001 28.799999 m
25.200001 28.799999 l
549.15002 247.3 l
S
ep
end
%%Trailer
%%EOF
