0.0780449461630723
-0.0564468008342814
0.126459792654273
-0.200248863971305
0.0897722210936528
-0.170830753151248
-0.153567694181284
0.270070473175054
-0.106464996875233
-0.339706646000809
0.435831586072374
-0.0319603409503723
-0.0262354628376256
-0.055917804238359
0.0359513177762859
0.037770351393644
-0.122986345665147
-0.129216192533514
-0.13437427869644
-0.13982432004921
-0.181299118477061
-0.177500180310306
-0.171531283808281
-0.158888597440401
-0.166859120418787
-0.148760539489859
-0.141094536568996
-0.135393850916461
-0.133001244270964
-0.134694960604061
-0.192040856348798
-0.190614315141438
-0.182795253150527
-0.175045427992079
-0.172910230141987
-0.132767667042081
-0.134512223016443
-0.161729369821631
-0.163639817199502
-0.157241705931749
-0.155605428264691
-0.161086900677987
-0.165439779650372
-0.173406535143138
-0.126708095014924
-0.127599152516389
-0.172092943013001
-0.169976896448457
-0.168163784015767
-0.160864705503567
-0.170816575586768
-0.186579924370634
-0.184187014741195
-0.160053700202391
-0.133713290729987
-0.195580822781862
-0.175329067748712
-0.135517572681495
0.413511792451143
-0.0157114214238117
0.244630510390022
0.161495396435758
0.176173630089047
0.173137350995822
0.150848174087886
0.0653639937370723
0.10808845965975
0.109717219665388
0.131243694544961
-0.0258214359596724
0.159673558447001
0.014029873430768
-0.0645424679327359
0.109393187840614
-0.203620204595484
0.148953079523932
0.127280406904852
0.224922002613431
-0.0353769755299816
-0.0167770687233271
-0.00610298221031607
-0.0233872708019228
-0.397423588443061
0.375254541401441
0.199467106397975
0.276249348065875
0.328019844770961
0.309134114998081
0.327525074260219
0.188105548276518
0.272901790010028
0.106020506492879
0.200411346120239
0.257659122285647
0.0939512715258321
0.185084915859661
0.168323605135007
0.266683447127315
-0.00191529905510591
-0.0304094965717492
-0.183741826236602
-0.164761068842454
-0.26318063685319
0.146976316425814
-0.223437064769316
-0.228901285505968
-0.426510751604654
-0.367727822136295
-0.210216095741959
-0.342881508098385
-0.218102177065212
0.0432941837968578
0.134095540083043
-0.0107193343267695
-0.0107269162946779
-0.0244738530336014
0.00951978904844231
-0.0253211172283007
-0.0998306536720855
-0.00794074704799542
-0.0149689714344843
-0.0079403966842575
-0.0193135315647118
-0.0149441360088964
-0.149603533479493
0.0312745741624391
0.0395559926659795
-0.0118993317994099
-0.0016124585673718
-0.00811907087914139
-0.0841271046642543
0.0080856249928148
-0.0239362138107077
0.127357718557303
0.274315151680486
0.367475951945093
0.0943125313601346
0.087837747998037
0.0948118978193304
0.141283935565937
0.24067625537944
0.164992352154951
0.0335480354836561
0.132134185169315
-0.0301241775904493
0.017481543598389
0.202092553382205
0.138828212887924
0.158474376867449
0.0961394300197339
0.0867368289245094
-0.0324995121059173
0.0875274552493008
0.0907553439123362
0.275039701201261
0.267825645333456
0.0653557020791919
-0.31711133824451
0.258299373650063
-0.0467834487881228
-0.0647514186484495
-0.219277593970373
-0.22603643159865
0.0709890911148279
0.106252184132586
0.247058226887957
0.166474593993871
0.276591397317633
0.26441575648019
0.275598581753752
0.127040107622302
0.124412779186626
-0.0016270686719938
0.15938504080133
-0.125501847442767
0.372057551833467
0.363977909361732
0.318053066418399
0.290718319189884
0.299250786012272
0.307217605458192
0.301108563598216
0.135859851181813
-0.041486712766824
0.0560583080006756
0.128291318759788
0.0972934543233282
0.130242531019413
0.108632119429929
0.124958744319205
0.0943211489970562
-0.119828999042939
0.356408709184159
0.454984536201702
0.413055093757373
0.0146497778689473
-0.0702371796708366
-0.0722387749326183
0.214342901374345
-0.0868937933117248
-0.0778742311314815
0.109173044162015
0.0674630904109652
0.0570731277098553
0.222885630530379
0.169620654421059
-0.124913784232309
0.0269816865027342
0.0405967464029041
0.00652820562834966
-0.0632486831383941
0.109424592677659
0.196751809210379
-0.0829852879953284
-0.0584834586737714
-0.123205514699195
0.0109991429552043
-0.0305535975992259
-0.0498725490308185
-0.0382735317069019
-0.0411225965405059
-0.0548490751379423
-0.0799813877663162
-0.146238912661489
0.00758955470921705
-0.0141245074280142
-0.106073916649005
-0.11084089701435
-0.124851758278135
-0.129994146673828
-0.0894650397697663
-0.0597551172262715
-0.0522155240515626
0.0469152340093131
-0.119984747535674
-0.113899809734365
-0.120061251873392
0.048039530808765
-0.0558579455591555
-0.21061583218291
-0.207238701900394
-0.282871461501713
-0.0228977223529781
0.187764355772489
0.193830981548843
-0.0794085850239836
-0.154206385031965
-0.199386186349168
-0.129026386174733
-0.091874749959191
-0.123905074371909
-0.163647231440149
-0.133839123988028
-0.164901309807766
-0.113976151118008
-0.131229362562488
-0.0664986661140087
-0.0256265827391117
-0.0706593716622691
-0.132622720115103
-0.0082671827038845
-0.0158686294257057
-0.0163113193106302
0.140351845744027
0.00706093969442558
-0.032838133940614
0.295365964360794
-0.0404406214212402
0.182734145274867
0.278824380585182
-0.103823708077619
0.181529935489458
0.168546986579904
0.0942473254472295
0.216002999133338
0.196845518828541
-0.142683231079166
-0.104003654539193
0.218895689347372
0.14555152515557
-0.0742423389418291
-0.102977645429163
0.112745798883069
-0.143839970370697
0.102175176244126
0.190327826417529
0.20034067071532
-0.112022212412227
-0.0854724279328704
-0.0932944735162778
-0.24140022883896
-0.36278488726588
-0.100640596765227
-0.103009589749881
-0.183898732331757
-0.0824399263071041
-0.207212138855377
-0.225043440204108
0.0455640076135869
-0.439805006243825
0.0979835684268602
0.0965908388757504
0.0988892601338264
0.411257360108526
0.13392044869726
0.438477498298131
-0.262452631341609
0.10498850364639
0.113062190595741
0.303565812543207
0.272756349235767
-0.124299999596553
0.260602292286516
0.384967670445282
0.312063422158563
0.32179265885355
0.411213085917022
0.348860849714584
0.2740786332788
0.340666099043799
0.291737572592245
0.260178275933202
0.328910541127313
0.360947363354868
0.333815209567096
0.420677257435585
0.335666020821256
0.320706402902757
0.347559380700138
0.352016977143184
0.316204052971021
0.354274334170204
0.337756720484395
0.415295619506976
0.29780918327433
0.154641887804652
0.144889913096834
0.113549523484255
0.133466522885362
0.10896191014832
0.125236460524108
0.153200905389272
0.12028368612364
0.0724321755191286
-0.0152869898971472
0.0558773011993693
-0.0325636924551596
0.00972104948958552
-0.0684476654011417
0.0397271652797769
0.00338943740326609
0.00123569745765275
-0.219421385792001
-0.258996958389352
-0.354734175686472
0.0418498968779306
0.029497408312974
0.132814993470884
-0.0284872639498937
-0.0339743113706379
-0.0228311538072135
-0.0151226385597303
0.00107262791271916
-0.000173124559948224
-0.193090497368162
-0.0527844052867137
-0.0737510053655122
-0.0943098206557635
-0.526699567404628
-0.0298825307875501
-0.0341919209184563
-0.0473535462239253
-0.526873420312934
0.248278834802529
0.0999858968230788
0.0811777893407045
-0.0488250823409887
0.246078290884482
0.0806097666611125
-0.0442992964198605
-0.0295644033318771
0.247909517808611
0.0818171577801214
-0.0309083482503283
-0.263421776713474
-0.0217824644432299
-0.0381442611081517
0.0720876507813765
-0.0546762465894456
0.093484643268865
0.0972023721891044
0.229596680699012
0.221030852704221
0.28149917990823
-0.220269296495279
-0.520803942714313
0.39783744109323
0.0176210235896039
-0.0047930233185206
-0.183049552334932
-0.14923997924878
0.0958754092099225
0.038618333152093
0.0636133184326897
0.0237195724783138
-0.174343026264127
-0.132645173384582
-0.158654997783893
0.00104839271074028
0.214634080760992
-0.172821838606188
-0.00374073765435699
0.194956755704949
-0.26088696516837
-0.26611408389924
-0.0904818522288429
0.188274924483088
-0.0428683070514105
0.317720174727264
0.310980809464151
-0.233617139605901
-0.0147948667723605
0.00489040039768952
0.077925711762142
-0.180830203119086
-0.134849480612381
-0.142013841182758
-0.17239413097612
-0.125876750016148
-0.198905965484144
-0.22117689444382
-0.178703047954761
-0.103679287997519
-0.198250944290199
-0.160114269241957
-0.0834262404515755
-0.0784550956272398
0.121855937463459
0.00828094077167865
-0.211417236259986
-0.153226064240321
-0.124042827767918
0.0235722143455746
0.0436657071970129
0.0678161842201455
0.103610978972703
-0.15352016756202
0.0273544596864021
0.00855164603595619
-0.0117235478292311
-0.329231246142854
-0.239060414174915
-0.185494872872843
-0.138840049441848
-0.117688242574846
-0.0509556255625406
-0.118304088065068
-0.209158697478267
-0.180107493556202
-0.148017640130334
-0.0642523715604889
-0.0390347164492653
-0.00606155048136477
0.26137439243645
0.270580912450113
0.277224840072195
0.279970563279103
0.318644862395263
0.278036699400311
0.276643095560727
0.229618112778818
0.318744248409283
0.240075293435541
0.19887985341035
0.194808805867308
0.209045363955866
0.253792934488069
0.361864589593558
0.279233598067032
0.174687200322928
0.0470449324638504
-0.099868030038885
-0.300998666462583
-0.124403062243807
-0.0615807435744726
-0.0801381917462458
-0.0234455279544832
0.307893510250234
0.159961464983943
0.182731583303075
-0.0215358012749885
-0.20124291217554
-0.212345353782712
-0.231150947087327
0.0308081660735621
-0.121089630948137
-0.0401048717318746
-0.0943036919988879
-0.210108149137055
-0.0951109125936578
0.0539017427940449
-0.172247082707716
-0.179240685341028
-0.00773553817532066
-0.233287624873443
-0.301300932496989
-0.187792230321252
-0.152861603917041
-0.16178046920592
-0.128642549106748
-0.176615927832301
-0.195845922063879
-0.0431133265770166
0.0160813333719049
-0.0076873540519039
-0.0146495256861872
-0.0458449608929859
-0.0634576833729657
-0.0838363530891185
-0.0710175849259198
-0.0423585949140821
-0.0570106004626799
-0.0568047315326689
-0.0801247515745755
-0.0711540753826502
-0.137576895259576
-0.0380634751922286
0.201986801025753
0.0232361701452411
-0.110079331536022
-0.260124110849508
-0.263280760279496
-0.327183024709691
-0.305525296446244
-0.0975811382242131
-0.232125975462328
-0.0267870547333
-0.287800851262816
0.0875177610473543
-0.170929773830423
-0.0119410539153938
0.122935532357193
-0.126413741573471
-0.0251858774510785
-0.0235219295183101
-0.0339771672401107
-0.0344752059143841
-0.00655264722149396
-0.0059638938139715
-0.0216188477724724
0.0203467192121732
0.0204583889095243
-0.00334485960665594
-0.0239445209877832
0.00177565475304107
0.0101765461648442
0.0429017433669859
-0.00863759706388181
0.00417760026750012
0.107587411040994
0.0489949708773197
0.300706488686987
0.0641489814719333
0.266098087015539
0.0190766884334604
0.284041080220498
0.297308937514481
0.0196182507602629
0.275341405321424
0.290288442166523
0.29678076992036
0.279775948763012
0.301140008954423
-0.0608807039606184
-0.0700028152793584
0.0882998064192963
0.292573340559533
0.0209210943043618
-0.0566026239953232
-0.0407871703253245
-0.0416809464462271
-0.109255819266819
0.148838731341299
0.211528456975207
0.235380531522839
-0.0773473704243764
0.29324321390793
-0.396934036654202
0.234837749178011
0.234716612903671
-0.162523655197661
0.295228452202085
0.368053430121553
-0.149651083624591
-0.1576880714344
-0.164542752461136
0.262271574632898
0.143327044818162
-0.209159457982234
0.215578163423942
0.170982025942618
-0.175809308955458
0.128630533512582
-0.0540366712966444
0.0420354105887407
-0.00785884059133172
0.0182100752919258
0.0688409863802426
-0.166091123881286
0.0840481585733257
-0.0113252654811044
-0.0689456094266667
-0.0712931790849814
-0.0352933408211688
-0.034555837404026
-0.182282363853531
-0.180654691784625
-0.164880406449734
-0.172211687948006
-0.180397932942287
-0.13127711282938
-0.0536625459947488
-0.121852140194296
-0.16667525492731
-0.137744907770175
-0.195312785824112
0.0400151595130635
0.0389617453374896
-0.10250195072783
-0.105578907964647
-0.126454525002402
-0.508782873244407
-0.0434403322274053
-0.0529833096619811
-0.0314052858049145
-0.0249621548951323
-0.0333779017904198
-0.0181644863897972
0.101407220381147
-0.0506955171474008
-0.0255194059645459
-0.397034319019192
-0.506067012698647
0.140073866121615
0.132117093160698
-0.0592311694490263
0.0223877048298423
0.0128433708106131
-0.0736856408963781
0.0849256884981999
0.195310796213569
0.231051708121536
0.0674812880366201
-0.0395660619963576
0.140660232969834
0.129341193846439
0.0983662038950981
0.0935840557400077
0.0929654121197519
0.0980904142886968
-0.0460942283552955
0.113159705657461
0.10760605214635
0.104670013377561
0.133360683410137
-0.0556149704242667
-0.0208580364506614
0.238079006745655
0.253499304237046
0.116556031037413
0.132274786985861
-0.0522407255893508
0.104876997272825
-0.447241044525837
0.121932870916704
0.0873089552574646
-0.0173935650166181
-0.0982516347479018
-0.179459541857414
-0.050550015988014
0.108469426227647
-0.0335623531081088
-0.046278245398229
0.0987851965598876
-0.0194585250108955
-0.136012069792239
0.0980921320008957
-0.768399485455696
-0.730154423131686
-0.0885306731792047
-0.0902536362808736
0.14033232793123
-0.122588363293493
-0.1265355827226
-0.0999380351781318
-0.117553978213517
0.101529240229988
0.384430920950305
-0.0497043164289975
-0.0279613022650329
-0.0585859514512435
0.028830055024717
0.054559072322597
-0.0120612025913361
-0.0422338997912993
0.372003374921059
0.373894950161954
0.370756256400281
0.39733291154856
0.331483923947082
0.380786244713672
-0.0430445697680408
-0.382889611065795
