0.208482011450014
0.0221132561182091
-0.111930063204279
0.174764762205729
0.0493508279568543
0.0578813901434945
0.127509263923219
-0.0294711199363158
0.0611785741885837
0.0807390238474088
-0.151113031974455
-0.163032746869524
-0.189945242698621
0.101663616285598
-0.0135507634086148
-0.0533532076608441
-0.0348755375356069
-0.0542027390264596
-0.0975085619530274
-0.117924946455798
-0.0993045848069023
-0.0846197946065523
-0.0666936453153418
-0.0287993984832626
-0.01772662418107
-0.12624437882104
-0.117059117166978
-0.06547011112019
-0.0650352490124515
-0.043256392953424
-0.102892907179356
-0.0817539605367706
-0.0641866603773857
-0.0426255528932441
-0.0226277313353794
0.00323745714454669
-0.0391920925692456
0.0455772427228281
0.0277929622351647
0.00928974871588185
-0.0206995998355706
-0.0429015283229394
-0.065617757071898
-0.1111154449288
-0.154722064599038
-0.000563755218942215
-0.0149000225788729
-0.052625777970012
-0.0556365942357293
-0.0706786112787082
-0.104867084940812
-0.116785549168923
-0.0938320749351754
-0.0378980890048031
-0.0832823816905639
-0.0917801202990258
-0.0486326304510549
-0.0983179811525465
0.489537783150745
-0.00743496400268045
-0.131037918250181
-0.0274562808530113
-0.0275052225690159
-0.00411092948291244
-0.0536203136979644
-0.187358478043709
-0.174599987379087
-0.109792552732734
-0.0845840353494445
1.1201299096026
-0.0194128395653657
-0.0348326871143352
0.140005095345323
0.155617876416003
-0.0925997692834779
-0.255118267061845
-0.142412387093168
-0.394624903704642
-0.0556553135317357
-0.016445376464793
0.0244804644587638
0.389974263554191
0.0339928668325771
0.0961269809429753
0.0245089378337236
-0.00599097782505357
0.154671191096206
-0.0329896888541167
-0.0235798718942721
-0.0309425702995364
-0.0434184131743289
0.00759689431212405
0.0317822099314585
0.00990046186977957
-0.00682456862053133
0.0857357975995657
0.0704329533570413
-0.0339283332562642
0.196129513532264
0.148690756567886
0.000822391118696851
0.0600922688866216
-0.0165711005921025
0.283871867871347
0.0608007960710761
0.0432934899635704
0.0504871325491588
0.0707509395983874
0.0418693213380391
0.100927275231015
0.089815030739304
0.0482932055979051
-0.00213303554143419
0.0504358684969953
0.120490457428684
0.088971804683123
0.0329846373754943
0.112901577334673
0.0900272188823968
0.106903140350078
0.0727407447292896
0.044456964262641
0.0876766043769664
0.0168327289541279
0.0881188452538195
0.0685515191587858
0.000793780160597625
0.0549600338787693
0.0496685719065275
-0.00683081611246634
0.352343289842111
0.423374054974652
0.00478061313528616
0.00342938677727766
0.0186701794565535
-0.136337705140081
0.0720038685690508
0.0694315583362159
0.0769541910084544
-0.0134337642933609
0.0278888474888352
-0.00140478156559823
-0.00334811345305948
0.00970104936451305
0.0550452200681396
-0.0157604020170021
0.0235881917571148
0.00671227121594631
0.00542706033694787
0.00462781562918019
0.0820591625927232
0.0511388651188107
0.0716519514018346
0.0682304594080908
0.021009730612898
0.0218594469963722
0.0709248291096836
0.0790761382277338
-0.00156977731717261
-0.0150460975221723
0.0998296480423987
0.104060481281345
0.025905251294482
0.0151121940822635
0.0129480223926702
-0.00524594316588943
-0.0323319546389791
-0.0446324990071627
-0.0139917632586658
-0.0181393107267314
-0.014767156415173
-0.0345527358085439
0.0456061676260694
0.0830782984730182
-0.0616835942319738
-0.100153554474477
-0.0367305195758503
-0.0371434134939007
-0.0271457657355653
-0.048813674216122
-0.012891088063633
0.0202534831945033
-0.0401147655958448
0.0186960498285515
-0.0247485977535857
0.0314411477209399
0.0178883609953515
-0.0265610408731749
-0.00222940775460641
-0.0272325650997052
-0.00185084228732056
-0.0590114840893405
-0.03252996602197
0.00917668307396412
-0.0259355203408714
-0.0744139534886189
-0.0924475558773228
-0.108287076395033
-0.0897031551794926
-0.55079569892159
-0.109248023689456
-0.103742661686609
0.105818141530794
0.0178564346737799
0.139064030663701
-0.160359491875379
-0.0690132831949979
0.159831336841614
0.0732963902641635
0.0612508124049719
0.0111647049057049
0.364695491943121
-0.0224142129600861
0.00240113824795718
-0.043831625588155
-0.0128032400549677
-0.035248456114531
-0.0294536181850449
-0.00170852849679533
-0.000169167940640548
-0.0202240064738484
-0.0574812576513237
-0.0440856532129096
-0.0730696837931571
0.274047618185962
0.334310589555367
0.277114082632241
0.356275053956411
0.234503752089959
0.302707717727987
0.339916729947434
0.399933264936757
0.357278347916183
0.359485837346862
0.376723752700388
0.301458451159161
0.364337049455208
0.322423612296422
0.401663926848191
0.0307702783584398
0.0902095137892937
0.0949571790289817
0.0622574659749646
-0.127099235306827
-0.137521848475119
-0.579850243427405
-0.62880187803863
-0.55115599338911
-0.565725408699323
-0.266912572319225
-0.615636339885475
-0.309234024003663
-0.312057981915308
-0.254888861799705
-0.289014123574081
-0.246429147251717
-0.277210716110038
-0.572747690172255
-0.575108011382893
-0.580453410284383
-0.275360552469711
0.0804818290900415
-0.558438858705586
-0.558581012321436
0.139653916929024
0.26883168032607
0.243830621305649
-0.113939841975005
-0.000868844769549664
-0.373909993267624
-0.37112296985311
0.00797053894245747
-0.285423600383689
-0.358512250828156
-0.35284768383301
-0.178287109980165
-0.265349649387841
-0.026666507183065
-0.490221701596347
-0.481024638359816
-0.0250658587679315
0.00976808635397932
-0.0625291240290143
-0.0241128091332744
-0.367719722204678
-0.286856917233651
-0.326326053298362
0.180874582569065
0.0783386554641514
0.0822080337089534
0.218182601238884
0.240147876030685
0.118967677600023
0.12408308335642
-0.0928648768294537
-0.0968350026409805
-0.131144450653082
-0.0641571878392709
-0.0221905229509707
0.0701109982951858
0.0367848715882086
0.0787879696670736
0.0417253710867782
-0.0711014146745169
-0.0313758366634678
0.0323092684700038
-0.00248500637386656
0.172322683209194
0.0519205519600889
0.0677379072015463
0.0035903683502215
0.0167984416575927
-0.0113767088836587
-0.0462373507476358
0.0413433510365728
-0.0053633763362786
-0.0471560442926902
-0.00460512020187078
-0.0653892622181951
-0.013264044672148
-0.0559783894795273
-0.204141610647567
0.0427804528418967
0.00561515948014565
0.0496228163545923
0.0460881057187233
0.017833142828099
0.082779520076768
0.0309665851070844
0.0562289760837286
0.0251557911199077
-0.0378442453265725
-0.0061225765711272
0.0186394877141138
-0.0577672031368024
-0.0422068121760577
-0.0188448398991738
-0.118387253222768
-0.0235688860959172
-0.134430472079815
-0.12648762994852
-0.0494362806573663
-0.142146271940223
-0.233227640701542
-0.011929670458039
0.0444578520801436
-0.00614183527624015
0.421522601504435
-0.0147101438785478
0.0660311010983017
0.358081126978284
0.299410211522079
0.0488030740020547
0.0311561132367191
-0.0418276371707355
-0.0447679905022487
-0.0280361967196
-0.0602238962885244
0.00486575012672838
0.299594398999026
0.0987296096118643
0.181715749306774
0.0644442580294305
0.247897521244623
0.057015318696929
-0.141424024002387
0.0516469507932542
0.0588809777098669
0.0263682499163659
-0.129373926728473
0.0487652389491574
0.0755297440285515
0.0108775250626278
-0.0775348484810213
0.038689075775059
0.0484913429481867
0.0699628756040669
0.0090139453437191
0.0320082457289749
0.0732597355066814
0.0144201086530665
0.0458088447187015
0.0359218330988765
0.0528444752058489
-0.102529729483144
0.0514453676363876
0.0480109896540002
0.0869935998340626
0.0549010807473905
0.0623897679343383
0.0789607554192745
0.0117691262047775
0.0394665872763792
-0.121980844954871
-0.0417252031727398
-0.151616903592936
0.24393175342482
0.156940656314046
0.0954620124518936
0.0955511489782641
0.00284555217486641
0.114869976023317
0.0777458832911828
0.13578020966448
0.0901190032837886
0.109029448684196
0.0854011082525004
0.0704967884514091
0.14560777522734
0.281760882499353
0.0788865222083344
0.158778495592745
0.263936263177535
0.236709577150633
0.221795263640373
-0.0371749187613421
0.200395113694613
0.00446843808485474
-0.199255396583664
-0.116666823073943
-0.138388079226257
0.0206134371702412
-0.0017122070631973
0.0459930737571155
-0.112481703344882
-0.147168037480419
-0.0906728846080565
-0.0978913732535681
-0.135863584138952
0.0868123992088329
-0.120217715729222
-0.0383439338815258
-0.0159203963336553
-0.0754819932654468
-0.0668573137669667
-0.0452878288397699
0.00415772682504556
-0.114611288376269
0.0855321830049392
-0.0446064384527593
0.0716494359578972
0.0835612803158666
0.109285599563533
0.343323595252088
0.37151592171607
0.400826702148169
0.373907566610144
-0.155449519850718
0.36634436981472
0.353340570661492
-0.0640913980807129
0.0304488706267961
-0.0750024149487055
-0.0449593140243059
-0.032412309821805
0.0240435126042032
-0.100618514930442
0.032281467658767
0.0523215296736739
0.0787692328285349
-0.0748490445715637
-0.0431352487287713
-0.0213417208785631
-0.0641673197332621
-0.0530400908819891
-0.0523985045758523
-0.0430092644079057
-0.0582301537778536
-0.0343597084319231
-0.0575991047020755
-0.0431949444394521
-0.0844272796364065
0.00518746902176454
0.0977306163467855
0.0342151605569666
0.0278321495346389
0.0391560091059769
0.0389421083241961
0.0348254081921882
0.161219253020695
0.329719135317174
-0.108500581942181
-0.0381879408766757
0.320572334391708
0.32298842394706
0.3126228702887
0.45508703605159
0.384330711112875
0.211395882323189
0.150146224950026
0.0872273626286205
-0.062425295136709
-0.0709671702343865
0.149997194711428
-0.185428940153439
-0.2132306878839
-0.200350771572367
-0.0842475970542824
-0.16057079018785
0.0498293835537121
-0.0603560440537262
-0.061699206429637
0.102730076112473
-0.0713244394877711
0.105758153753151
0.10186699280559
0.122041508349668
0.141305032049032
0.0272072979950951
0.0297002808305077
0.0202569394796983
-0.0403487212839483
0.197149311351468
0.172208182575473
0.160624683707944
0.202922962789968
0.189073730949843
0.197142820544979
0.196006397366094
0.145657416041514
0.133813812169276
0.133008964417758
0.168680507780836
0.145150733305491
-0.0436130392495386
-0.00745268441192259
0.137036433899142
0.170242189781063
0.145249806869593
0.108410278575709
-0.0428054583297516
0.176071673085306
0.18554509851202
-0.0652294749732515
-0.362706988810868
-0.347650176311915
0.154573170596546
-0.0411923105014567
0.0529789490579459
0.0790364521204085
-0.0148072007844045
0.0212960856169343
0.0715180942237101
0.117033980925965
-0.0182425320121515
-0.0336946190613471
-0.129156472602072
-0.0642449222534223
-0.0717359970878286
-0.0682788528492895
-0.111409423676383
-0.115330849820015
-0.0688296171353464
-0.112678170409575
-0.193994307751862
-0.040276638673467
-0.0684111228139041
-0.0626526087473786
-0.000306393114571714
0.0448796368446048
-0.196625231539262
-0.0416049572106394
0.0271906891949565
-0.0587672907417713
0.119372394017096
-0.0515381405822276
-0.0156411768306511
0.101107418629335
-0.00876326085942097
-0.0338120588500421
-0.0806574269438667
-0.0951578979184768
-0.0382344123208766
-0.0193824445661006
0.013015145665047
-0.0473525069664368
0.077128817827381
-0.161487145856243
-0.174128091940148
0.424514360278605
0.171610278211383
-0.12913797841076
-0.337363088192694
-0.300515288595775
0.313230116676257
-0.16583676745899
0.299526404638928
-0.0969083546795872
-0.151249245234078
-0.142682803934991
0.748280248801617
-0.212798313609661
-0.277586660735406
-0.0599158781102058
0.0613819953889684
0.0397065082084236
-0.149663656360377
-0.469203735682826
-0.130106952455041
-0.284909859429827
-0.345966794998324
0.113781617854133
0.0949352170453843
0.113950872747859
0.129377464370056
0.160368720739516
0.120483027749345
0.188951205578891
0.0820616629460109
0.0933491928605781
-0.0199953057856793
0.0650676798061258
0.175826144042478
0.0751699273264851
0.102073130769548
0.14056721852955
-0.0859781442843845
-0.0274439714203317
-0.0772553305344703
-0.0894498547630956
-0.112739343063548
-0.451309349441962
-0.0574084843697964
-0.0261847334245381
-0.152062354918974
-0.132880912832029
0.0803029075156987
0.0704388013817176
0.0183690554359806
0.0135152525867177
0.0162857712868017
-0.169419137903312
0.0946633523738409
0.0805167675742376
0.00409899167363961
0.0295359347794267
0.0330638891413244
0.0457847103365938
0.0315347470082712
0.0426852109453857
-0.042203552253765
-0.0635989060638924
0.0158668477786588
-0.00759111404180462
0.088180929282284
0.0771798825602947
0.128195821380141
0.0747064056244917
0.146246776155469
0.157514130144282
0.0933115670244871
0.00526124640573151
0.272528649311951
0.00862191455026694
0.013911301967561
0.0036011108868626
0.0285417430163456
0.052885446791795
0.0635614717524409
0.0597432966616868
-0.00203687910308173
0.0258204913224187
0.132155931475142
0.0590689883560603
0.00154599806210457
0.0179427771580058
0.00524411557490332
-0.0118587628752329
0.00976331390193664
0.0179626595955192
0.036099291505087
0.00830240482105658
0.0132936902566626
0.0878188856770887
0.0789394308556582
0.0424039972736715
0.0522203072577158
0.015907190344305
-0.0272350761826221
-0.0564885332406559
0.0229189267890862
0.0461781725959974
-0.0281872086684845
0.0297696984474425
0.05355529457113
0.0380515415098342
-0.0578070807161857
0.0563726153754526
-0.151458848154444
-0.0105189058636153
0.0856009626926472
0.0670884591058543
0.172318842051178
-0.0234770511917372
0.0653305048240427
0.0291972881397227
0.0171416846324391
0.0529856280603842
0.0324479127966758
-0.217753066847612
-0.188424288126389
-0.233261933704798
-0.198747493829954
-0.199081508924904
-0.231044756322369
0.0437840394153714
0.0128195190658607
0.0592622792240481
-0.0873276211045701
-0.0233725971696517
0.0486312006473337
-0.213524919483508
-0.0250367480315981
