-0.0927715437476931
-0.0552666419698791
0.0343226014410532
0.20613017429695
-0.0835452509329717
0.196100942873294
0.103894008691234
-0.054358340045929
0.0299531994057315
0.0936239142803026
0.0549612607550146
0.0198969244018614
0.00636932358593104
-0.0183329497483162
-0.0664241744552571
-0.0941174389420818
-0.0700790854165918
-0.0971863767989615
-0.139478683693275
-0.158145060479432
-0.158021634431363
-0.140411358390194
-0.124393072647696
-0.0893675573799414
-0.152082574458032
-0.143976951414759
-0.0965057919769266
-0.103206830996481
-0.0693696030103119
-0.156605469167534
-0.141493643992822
-0.124680543589202
-0.0905302316538667
-0.0761850759628324
-0.0414762507038742
-0.0850541327193285
-0.00579779253812066
-0.0232887942968232
-0.0350722563382095
-0.0508919980284161
-0.0668974471650676
-0.0930761503411455
-0.117331857417858
-0.148246119390682
-0.192043688162473
-0.0537323064901043
-0.0663645441515456
-0.0922743898648001
-0.101208761800021
-0.114093433458043
-0.150109168965733
-0.162197791483692
-0.155386651659354
-0.0876638036327297
-0.128504637674896
-0.156787550418484
-0.0900915961695141
-0.128779199261278
0.111253928482597
0.151495906676862
-0.0669989911373657
0.166183632654399
0.151950811542988
0.182920561538325
0.146085164712026
0.0431135266143174
0.111117151841204
0.121514566698563
0.937409036941453
0.170770689991188
0.165031062583713
0.125934300401227
0.171378565014592
0.110679565617374
-0.169293053665088
0.181695892543632
0.00884865600267095
0.223588774940426
0.423330064246711
0.474409092148291
0.345307004301278
-0.117784870959652
0.0528510096762743
0.120665130386027
0.00602513684590277
0.264727137533211
0.144560612560722
0.0205632721803276
-0.0831798207176909
-0.00568128961543811
0.0442552054816946
0.0661838900568064
-0.0130406623973143
0.116104052576739
0.216972831169869
0.175061485526529
0.0996548531602313
0.486769637590271
0.441040290281924
0.0769351019378437
0.0936045952117588
-0.0184713911283932
-0.0313408589723079
-0.0415511089899558
-0.0147763957511088
-0.13869563775832
-0.0772167035483681
-0.0290764682957119
-0.00481686109638427
0.0394390630701515
-0.0380505406048124
0.0711602752240014
0.0769486977833308
0.0879777831313853
0.0456939098023863
0.112782515774554
0.0568436957723608
0.0396170488743936
0.0764150394075211
0.05724835898499
0.0868511263039376
-0.0236263048375049
0.0782602388317245
0.0651398502396186
0.0129591178135744
0.0374845624179891
0.0630783779000468
0.00856104299239528
0.234841768023013
0.266096871447236
0.133704924973908
0.0662408008415757
0.000398231190328424
0.0812565524379998
0.076540822975454
0.0835874275648583
0.0624770829947638
0.00448920975944735
0.0660800073231472
0.128118345316982
0.0373321952680679
0.101978032247012
0.162654129744244
0.0175433139503526
0.0355869762685105
0.108671528597926
0.121000689051899
0.172249760860737
0.0648748014961718
0.159058880388954
0.0770204685843845
0.0841943738243971
-0.000241802936228002
-0.0244619063110184
0.0870432421203537
0.124987308819055
-0.0791504425030181
0.086682379561377
0.0510452217629914
-0.0238701999778675
0.0519037795607588
0.0854521112410955
0.121271713334278
-0.0538005264512638
-0.0526859095329798
0.169704854841081
0.121693500838444
-3.13926382247525E-05
-0.00399834517945239
0.065090444251894
0.0676708539538679
0.0525643573513613
0.051512023785019
0.0155953230816243
0.0341894404889246
0.113455573047162
0.123363697065497
0.178639260740087
0.220791829724699
0.18981170853864
0.0902083915146602
0.0243821686864575
0.111039579907851
0.069004638679691
0.142993480655564
0.127570086381663
0.138731830719157
0.118510162197446
0.0797631158140007
0.149511619519409
-0.010070385640132
0.204276140764579
-0.0838429040173972
-0.0119146941340219
-0.0421471038058931
-0.0342787068689913
0.323871727579671
-0.0527240338758311
-0.0343903367234206
-0.0258569629586703
0.113402301941389
0.154649536899662
0.414356736373759
-0.0842526439629811
-0.0114314270487256
-0.0424581971330158
0.0759027536960108
0.0461512379731535
0.106876403929595
0.279567259924916
0.0835073011907891
0.0397304291511555
0.0415343027818447
0.0219604902799917
0.0162459629420363
0.035831004622262
0.0368585207193932
0.00779994297433782
-0.00198969157640029
0.028164843550263
0.0227799940496068
0.112222137015833
0.197050355030944
0.131829588479577
0.213253360110145
0.0165157003414726
-0.00391499640035465
0.199198285150338
0.258053898442553
0.209332123332415
0.194424731064372
0.215378980768535
0.159089999718168
0.19346355318631
0.189715969319375
0.262426400834756
-0.136096985471989
-0.0825928064283315
-0.106821619354658
0.39253759957177
-0.0960365404462158
-0.0836713199913732
-0.181173702427932
-0.196369913671972
-0.23310521615666
-0.0274887943801322
-0.232035107860029
-0.0845802392279736
-0.0761173636819091
-0.0724858023690844
-0.0546027215256749
-0.079520889004526
-0.0647032642664205
-0.231445061547804
-0.232270233116858
-0.0661520195930372
-0.0515603098329703
-0.120350435581528
-0.131063043760668
-0.0155888432608336
0.0950763889910819
0.100003232589922
-0.0559697226424939
0.184722752578178
-0.0419415436379031
-0.0630629288571191
0.178977061115032
0.0360415566521798
-0.0193103437185335
-0.0215494363925117
0.126330473731995
0.0518326285911557
0.149730056095553
0.174430773661319
-0.0744846159260441
-0.029210847203622
0.135603660727709
0.182158178270767
0.193742304083153
0.148142487801871
-0.0227546935202997
-0.018604502109665
-0.00471826018701246
0.072127173446974
0.10235962666318
0.0961344934900655
0.0974402081212452
0.0603266823355238
0.09921827541327
0.0931045148760028
-0.143925405511193
-0.259508341401808
-0.244378447538532
-0.258494113599842
-0.243487728395852
0.0568792699755227
0.0649687520000486
0.0688039598808109
0.18461571080781
0.157156300007243
0.127279416894744
0.14587011237499
-0.0454570519621756
0.0723044234240847
0.124959047696835
0.0248993020308426
0.0836925243793413
0.0976332602272251
-0.295653851126071
-0.267011280893249
0.0095935025650175
-0.00414219266852256
-0.302287023679932
-0.267061472824164
0.136807200142245
-0.248285294216109
-0.248181497911182
0.127837795326101
0.0980552703258649
0.0200086874176158
0.0776269224601438
0.0854309362761025
0.0464875127073883
0.127604453546348
0.0770846616258753
0.0804540149528369
0.133653621212766
0.122719260541397
0.124783963662986
-0.0422150902501036
-0.0967018287174107
0.120926158543496
0.125623495979589
0.117533430860231
0.0352273267900049
0.0531216681778303
0.108831479037882
0.0469482528652748
-0.013105314235146
-0.146532719195599
-0.0590068371058282
-0.140235115097693
0.57130667637766
-0.14753294165508
-0.0626050828592195
0.564149467457508
0.344110420838379
-0.0815538787898843
-0.202095133127036
-0.124549023825557
-0.0845284887563921
-0.156263283688554
-0.0292375430453732
0.162104379767765
-0.00890132987554789
0.114449388426457
0.0975847876736147
0.261864787583321
0.0842663820228034
-0.185018098217291
0.149076873306889
0.179575262043544
0.1601891268463
-0.112688067465517
0.164586779637213
0.145601358859057
0.210118839330928
-0.0928383761688454
0.000629749430970867
0.0935004796291963
0.0732200860701434
0.211036960836042
-0.00482391457751504
0.069754256495872
0.207921718950498
0.152518060644987
9.27903646163388E-06
0.073856090377056
0.159951469685701
-0.0887375238900703
0.226602549468002
0.148197650079036
0.0818828595334484
0.156086373758274
0.0852040136077014
0.118412445290162
-0.0584817593153225
-0.0389636290822044
0.0457212570619813
-0.124924583987562
-0.130096840558254
0.512599645488433
0.118674145320176
-0.16547297395588
-0.163443330578782
0.0608014045751177
0.137979040954822
0.0901177127891165
0.144056221220764
0.115526169217892
-0.150947018096444
0.147451597234642
0.0772449257280188
0.103616693120781
0.0994274937259967
0.0984646610432967
0.124630847954765
0.0773654447459528
0.163689457575812
0.160127000905169
0.0304148670649782
0.00662881523228484
0.0642083412825811
-0.13132569234085
0.0130370722536439
0.138350009945507
0.129628140792256
0.113608465733424
0.0116612503225997
-0.00746847838818552
0.0239270867988824
0.0114091184659307
-0.00847148655522565
-0.00575519245658551
-0.059197676416761
0.0492539376894774
0.0677096839436187
0.0144161996068099
0.0358565706188797
0.0708851916617983
0.0160566944861464
-0.0140269445141904
0.0523584738184668
0.00380633041412053
0.0229522744270166
0.0428375037910679
0.170765175195678
0.164068263521751
0.183589712511883
0.207237413677343
-0.0890220629880342
0.145172909856437
0.150328464195083
-0.143889248120408
-0.0684753396802491
-0.077046684259384
-0.0541571925421644
-0.0464471431032712
-0.0119199525516222
-0.150948265955768
-0.108327725416825
-0.0843639198315469
-0.066438185977617
-0.137917007143459
-0.111293438904691
-0.0946650348801233
-0.236748320797546
-0.232013665145512
-0.253433756028296
-0.247022114907302
-0.239580974874606
-0.232211952522492
-0.233225078457032
-0.273211199011314
-0.240273189202238
-0.247601655161218
-0.248586380083645
-0.245678248002281
-0.247650935003736
-0.250083793496404
-0.320137807033322
-0.285284778362029
-0.0621562600017193
0.176565721013025
-0.0609431471402402
-0.0299796746490403
0.209641513125112
0.212799546928846
0.209066873612875
0.284251791172579
0.138553393237818
-0.0495936064443364
-0.0570353776769461
0.0331592002577707
-0.0053528890800521
0.0228422986006278
0.118075054461776
0.157106411316459
0.193074611787957
0.136118425425311
-0.00221533346447388
0.124809774672579
0.0972601618972745
0.025689109747852
0.0181534240461735
0.0556222079090999
0.0190518703338196
-0.0921015801389769
-0.0839226055598813
-0.0704870222894439
-0.0630146793483765
-0.00263299434858417
-0.0586761563891802
-0.0713362715092865
0.0718166033226862
0.157614184789244
0.102389554677362
0.088753128429163
-0.121896119549121
-0.136832531576796
-0.140988323065465
-0.125380476205838
-0.137509017588688
-0.149868977794735
-0.152775785462695
-0.142711424942506
-0.161935391869301
0.0104438660609618
0.0440951240217041
0.0864090294685372
0.324153151020613
0.0529621083241916
0.0517148592175777
0.107628813460844
0.0833996903872621
0.0286146790591607
-0.340947346934827
-0.495802818034617
0.0930449871426445
0.0378909593305313
-0.000782204730463139
0.0307496623615814
0.021956552856091
-0.00613121022283051
0.0260461921895759
0.0507698520257362
0.0171117646758865
0.0151342295596218
0.106229501831979
0.050512881291012
-0.0223311553495971
-0.022273685542693
0.0121629913047983
0.0544107259596219
-0.00520078084312118
0.0299440240116345
0.186223971415691
-0.0102970349223793
0.0252709011719653
0.000442719602554353
0.00876454856964818
-0.0147244071477819
0.0590577502868271
0.120086957673448
0.133550208753106
0.0972679106167751
-0.0980889502630484
0.0484612146364992
0.0788445160710077
0.102065341938579
0.024398344095015
0.153065803367409
0.161697636514347
0.145631494907317
0.0384083044710193
0.0762535986019035
0.0591792030050342
-0.0888057157613081
0.123193450249801
-0.0433199917417415
-0.0390212282659346
0.396568878665372
-0.0704626047469474
-0.0661702533310228
0.0628125473544035
-0.00604659966898092
0.337619962134798
0.219442876340983
0.194865454555044
-0.148572906658061
-0.161763364050963
-0.196099412424183
-0.171406074502206
-0.208579701359573
-0.0910071382625277
-0.0587349564015908
-0.0735574764996296
-0.0830547169872939
-0.0834362430999429
0.103746518083765
-0.0309043397533416
-0.0165158537494631
0.0125009459967447
-0.0534077930783252
-0.0318525299550195
0.00106870084004773
0.099422182513109
0.0462494879846326
0.14852404356029
-0.0383518592136716
0.112424023013497
-0.0280283882216885
0.0305025385260654
-0.0521549468684028
0.0234270485139624
0.0513806244288144
-0.098832417570364
-0.13692599429105
-0.0790602857953839
-0.13836270026681
-0.14956263192431
-0.142251818691904
-0.347360113630685
-0.0969436539627539
-0.0741320985402233
-0.188252301614877
-0.18607440798265
0.108953654664189
0.0937088521018042
0.107551029808848
0.0955276002948466
0.0829888497333764
-0.241283539345575
0.0914529263193076
0.0680853294071851
0.212318978185126
0.147899544136815
0.118513074676245
0.163706799302925
0.0907936971479796
0.154364923349322
0.213057505559308
-0.242818532573343
0.0374991841465518
0.0648737459302803
0.0860434708041404
0.0609902634051477
0.0968931161390219
0.090320175707442
0.0403497073161712
0.00778796488422993
-0.218428031633677
-0.0804073894156074
0.0585496476352985
0.150300702786115
0.0392722360065332
0.0600654466649451
0.0814474852369678
0.0582434586197348
0.0610692188945534
0.105537896612169
0.193565998459329
0.0936953149324398
0.00271420153387828
0.0693333030205707
0.029315863905076
0.0837195257705094
0.159405602341078
0.20093857022697
-0.0826139690718267
-0.0118707706225303
0.092379586853914
0.0716755427075517
0.156259267061065
-0.24029976112811
0.124099099548797
0.0554323398396763
0.14000217759502
0.0916210810909156
0.0449577509422243
0.122838992181821
0.107222684364625
0.202994959464104
0.199532213610366
0.0542988106776618
0.146882440526982
0.0411382537479002
0.0519085595603661
-0.142957368511005
-0.196885668404262
0.166249722170633
0.174719875013834
-0.0345494569305335
0.245955222652858
0.14249111359486
0.164915361073123
0.148503493918472
0.115488505038905
0.14602782869491
-0.0262118664590733
0.0292205667638299
0.0405363577384636
0.0410377005996185
0.0153783556094126
0.0180985507136944
0.0877454637434357
0.227656976626933
0.0876526662671546
0.304915093756861
0.204503146969239
0.137443400454917
-0.0158823698559548
0.143713008743629
