-0.0304963393043173
0.0408967763147357
-0.0942425300726844
-0.028385367203101
-0.155850558815152
-0.15584449305274
0.0204309418375822
0.00965488450436325
-0.0600673430717261
0.197901723177698
-0.0256835601379146
-0.0473870873024664
-0.10231168848155
-0.18306955633118
-0.211521054143969
0.148057404049415
0.138436768464088
0.17547872742218
0.176842084864073
0.202777201542609
0.17591721550345
0.164686902735298
0.161963699861019
0.14818819666068
0.157494819325547
0.176511154397915
0.143020451496833
0.174835713747742
0.171538689605597
0.137039555174017
0.160506829437797
0.144661915771397
0.131284887213158
0.133820563442978
0.0682020366341958
0.108894650877019
0.135172530744218
0.0928352289439873
0.100134207466496
0.0614675490497014
0.073314273601342
0.0909729513947695
0.131034598286292
0.0579697614304382
0.0502817188550835
0.0342307946620661
0.0232910896884824
0.00197246896259651
-0.00869538501673191
0.000371083719372491
0.0137494403636991
0.0443292039499124
0.185758736924621
0.135438565068444
0.179528561171304
0.180764064385946
0.109914846261439
0.156508962151051
-0.432821592314067
-0.0335069072003016
-0.321630238800726
-0.0401547273898325
-0.0140874723574181
-0.0262161920869529
-0.00912230979349104
0.100432103028536
0.00218950739985498
-0.0201840273151163
-0.0223580327820043
-0.374415683503479
-0.0652643248591863
-0.0175881275103641
0.129044629342596
-0.0913075014895343
0.160337993864465
1.04824030169392
0.0240919732480798
0.0819747114555915
0.450604907550961
0.62134482492644
0.587517600622432
0.651889879317277
-0.0855385490891106
0.172063667216227
0.0716834261436607
0.102366979886366
-0.388163858821863
-0.0181771860747501
-0.0576197308122327
0.0609839179011637
-0.0517843020791988
0.156738697293854
0.0465855860488918
0.0453384285141751
0.233470069838238
-0.111902027518406
-0.192104687997724
0.0219457083358167
-0.0798588801331356
0.125889122502947
-0.0688034357222377
-0.0523438825812615
-0.123761597273676
0.0342231318842816
0.187812687384168
0.250599728884631
0.462860231330191
0.32311365802709
0.191909215398972
0.361510809584154
0.204170891587169
-0.137192247861548
-0.183822331890673
-0.231701917772214
-0.240379540704639
-0.172750249271448
-0.219574152517359
-0.163036964073072
-0.0443193201481753
-0.267699601153271
-0.173265768389803
-0.219930446517159
-0.167787576318475
-0.243920153545274
-0.199896526443672
-0.221701787430583
-0.236648404963984
-0.35447059202798
-0.242905364600536
-0.333149521752365
0.024518109545888
-0.136334531041001
-0.0137359350189075
0.0426196938419129
0.0841845287958636
-0.339700556323958
-0.00010454465568778
0.0361734043155432
-0.0416425916435309
0.126011495339979
0.179070371049792
0.191658380631846
-0.0606719363667481
0.192593268535705
0.0163993973614541
-0.0509681800027739
0.171941349116291
0.199277029600963
0.189998395607933
0.231624554386537
-0.0166515641398616
0.00668383224283943
0.00157512395692688
0.0360422753400246
0.103376769896994
0.0354430150697538
0.0812744949596855
-0.343030276317163
-0.0860083308532542
-0.149428488314635
0.280601799687444
0.238490388206505
0.101568663265931
0.10526533617737
-0.00542281200812514
0.0743810813045408
-0.0289499193062557
0.00258821731392986
0.0564959511157272
0.113438240334426
0.102107005303794
0.119598996268801
0.0907200243119247
0.0859461089176744
-0.142238519115862
-0.163851433495982
-0.202993726883016
-0.315828940269714
-0.401745304775884
-0.369690755087795
-0.30979001632052
-0.327608267944539
0.192416238624729
-0.0186592145573718
0.108700421826538
0.174054885175489
0.17733990142769
0.175310540891256
0.195564712868824
0.162340665987356
0.189631475887555
-0.14243859499104
0.0515688029929649
0.0969033547628995
0.0885480695306468
0.208963733567128
0.0836952674551996
0.123739222708092
0.117195636658349
-0.88377508503126
0.127985258094584
0.0846418009605858
0.168060485600763
0.0932634700005206
-0.421125630622889
-0.237966190734967
-0.625526182837795
-0.241320358930359
-0.16214550333022
0.00376553818327057
0.817479468097374
-0.725607053228855
-0.108425046593946
-0.106915614922695
-0.101135900535261
-0.172032017512497
-0.158958945481583
-0.108340855518701
-0.158492050276966
-0.142386172358054
-0.115567451270592
-0.176621974713454
-0.100395884929601
-0.0272249804599104
0.201922391131166
-0.357320960095695
-0.353965976512618
-0.34658665599152
0.23054422340963
0.277545000626992
-0.291294496885869
-0.322947424216388
-0.439129492648245
-0.317209114319828
-0.317710652282518
-0.334553340931089
-0.330205576336564
-0.425502206105587
-0.356137699611923
0.219704450622095
0.203023033384707
0.216474927318321
-0.0667957368937488
-0.259412447978708
-0.28785490918255
0.872190495981661
0.641434234821118
0.804399288607892
0.762498323826653
1.26013778053807
0.727506213586109
1.1032974086856
1.07106614409266
1.19654104931026
1.11881119801048
1.21410213048133
1.2300383661224
0.776331670383216
0.768193009218614
0.764315714785501
1.24523158893439
-0.182274594774677
0.678055662772219
0.65235168830795
0.193433435781742
-0.152306029873437
-0.151973661149665
-0.37374853243738
-0.057053615719036
-0.0809734690509855
-0.184336862252884
-0.0364424972247906
-0.0569613524248679
-0.073725393884536
-0.0558476434999813
-0.0598911072249089
-0.0656613817076884
-0.0224449267702619
-0.124912881675298
-0.120108447751575
-0.10759898615105
-0.0350277729419278
-0.207312832277644
-0.0110641074964263
-0.0677709327957324
-0.105070783634116
-0.122411958485786
-0.303088824725832
-0.233152819349877
-0.221261441935503
0.110695228275622
0.282868255704998
-0.104537724070202
-0.0873397125367258
0.0942458869104768
-0.104999239471716
0.0421189533579985
0.0233500471670126
-0.0489715360679494
-0.350118548704886
0.0330909985919692
0.0436757564467101
0.038089209358615
0.0263601620811407
0.421965648049924
0.199928458794304
-0.026622331798329
0.313327281149974
-0.00040265284911735
-0.00364642490819911
0.00498987858019992
0.0118748672670663
-0.127106804868386
-0.0239625901464609
-0.0422021212010909
0.122606823375117
-0.0362879213574906
-0.132466342784969
-0.0190904362328776
0.112303571008215
-0.0317202500495252
0.055273440868959
0.0772288161271208
0.0200574253975755
0.0791722130750207
0.0828996782370265
-0.117785796638431
0.0320406078085559
0.110159103008092
0.0953264248317095
0.0282030595240735
-0.149145496354158
-0.0190196236784437
0.0946411494729498
0.0697065379843207
-0.0491013699350683
-0.0476774883807471
-0.0225926295630218
-0.0462755026954448
-0.0173989396543714
-0.0285658598916665
-0.0488518125320309
-0.0286119722193997
-0.00500364924647198
-0.0822387247263011
-0.184428672795931
-0.0797914654513037
-0.265570973932448
-0.0800758030194647
-0.193621288260334
-0.257304769483418
-0.312221361063502
0.202504636743387
0.28212810037914
0.360936804539128
-0.186198454978112
-0.18590032056991
-0.163660499373426
-0.266541921204014
-0.631729303018929
-0.485690906962028
-0.412323034283937
-0.722144812328718
-0.423878371736156
-0.478280506480914
0.165454054362772
-0.00863802300402176
-0.0987655233570044
-0.0589962429405337
0.016773583705661
0.0451950128136384
-0.00571931056604397
-0.00488698636370745
0.0110480841359602
0.027117208348579
0.0287278770189385
0.0269418331729739
-0.00150190077363457
0.0323731079541154
0.0152255424494624
-0.0177529950902075
0.0479102319097092
0.0483344275893684
0.0542875058456672
0.167260392126664
0.02374115835254
0.0311995507770629
-0.103097358158614
-0.0407814015396626
0.00966087814310524
-0.00300619957248043
-0.048001346169346
0.117358884211874
0.123593405122308
-0.0275072557531212
-0.157238113087576
-0.0978907760491461
0.167799215866728
0.0247490698136328
0.028392268529371
-0.158486171702288
-0.233680255986234
-0.244616442620237
-0.24400754370829
-0.219077184788507
-0.00976950368760993
-0.0679193050313994
-0.0578326820579492
0.1362046727259
-0.406626566178999
-0.0263115145617928
0.153444575818644
-0.377671806340764
-0.61537529510163
-0.597216184167563
-0.204724324115872
-0.326473650019555
-0.219934739834934
-0.367793881153253
-0.305949206422242
-0.10625643406438
-0.307894397191081
-0.308067318775034
-0.310342749321586
-0.273340700191746
-0.252801871018554
-0.20462702705224
-0.202004636486092
-0.210265632844661
-0.345041293833249
-0.528863192077962
-0.170622408233064
-0.202278368299238
-0.0874106445803694
-0.239129677959098
-0.23434757885311
-0.259893591089115
-0.196109541857935
-0.352654473694201
-0.25377530575402
0.00903708039806023
-0.0161618679269714
-0.0562766005493913
0.186235422272622
0.203675094212795
0.189926605768304
-0.194271971843869
-0.0306744387336357
0.206777046319084
0.189836175806984
0.484932727920323
0.295414826542754
-0.0215179904547944
-0.0475642721452476
-0.0260049160015191
-0.0606173620496341
0.166720255297463
0.587773761872473
0.418490017892862
0.4077354746917
0.120927699892221
0.0974734793401661
0.0814693281090111
-0.131742516456073
-0.135658212601095
-0.0735383025095841
-0.0741327767358562
-0.140405257440591
-0.132135899356143
-0.10743863831385
-0.0416406201660161
-0.127173463520459
-0.0200550511260303
0.00123013238822227
0.077834198639207
0.0212294196454358
0.0548435860415905
0.355634070626873
0.109882007307008
0.802262103823197
-0.0212570997999748
-0.534587507273818
-0.386520095916146
0.122117721473294
0.075310104436707
0.00727382766810252
-0.15643581374478
1.13298761908707
0.905532093799512
0.598181521552395
0.286841864865933
0.160971946502916
0.140389899709549
0.223452533145823
-0.169637642170387
-0.250440834254689
-0.215704242760416
0.0992903548105357
-0.106165179609892
0.113842542934662
0.143807386617313
0.147295335693801
0.271618654100424
0.140414017238906
0.407491606853732
0.184369311636581
0.197365651716263
0.246475267371923
0.533003953501828
0.625910732441406
0.62193704329131
0.35378455762038
0.0993743433787482
0.0956958997613324
0.0726385736713027
0.662359896084975
0.661523364923137
0.279765545506463
0.0751656024732011
0.535671597042744
0.533153285186748
0.56629515629776
0.0992300931718114
0.874576024373914
-0.031034624938282
0.0185318036100364
0.0228216746558238
-0.332533143878514
-0.270666956758393
0.307288210510525
0.0229925131014141
0.099497451967208
0.212205139386821
0.00167918576826908
0.119096250962294
1.0513375060218
0.104974397595461
-0.000286306522667958
-0.0366644544378425
0.0928212660245508
0.0571479703938496
0.200362295357239
-0.070171549121158
0.0604645256457773
-0.186529787624652
-0.177184960253143
-0.380750450595774
-0.278369265909781
-0.152561234743889
-0.149608268230556
-0.250809803662446
-0.260236389046595
-0.136646935213516
-0.259554905236027
-0.49945442030774
-0.00378435879085027
-0.138226578318649
-0.127742188548091
-0.0238244260114502
-0.0527180826232379
-0.158352650609329
-0.0807926738082417
-0.168921829556023
0.010106565458516
0.503401701239244
-0.00558750752930113
0.0209245698080888
0.506331871929749
0.0449714639084905
-0.0530878661223015
-0.0991867147767191
-0.0653283389307329
-0.0572849936994161
0.0887451943264031
0.200589570079924
-0.0950775891122615
0.448945922244238
-0.0237242372781371
-0.0297060580791356
-0.373926825317159
0.128133078427166
-0.270696809392591
-0.0186401457676581
-0.132448760813626
-0.375615580413682
0.0117934158825507
0.594405054724968
-0.222823788221532
-0.158524803317554
1.162565941356
0.13008314916922
-0.311807796086656
-0.328698070367192
0.615221920920761
0.451015329160196
0.513732221284355
-0.355360149767129
-0.0493190821053987
-0.0171689665376336
-0.146393053053451
-0.105355167727682
-0.130739184096257
0.00407648281672339
-0.273832102403287
-0.162778090046699
0.549387245262169
0.560060428520289
0.174066910989576
-0.207461701728796
-0.0674666266263088
-0.271989108494314
-0.227350391948425
0.0273776805117209
-0.026590983042957
-0.0543841656221282
-0.0684097521899939
0.100501926500758
0.151015818713522
0.192724690198416
0.191777717055462
0.150579766844652
-0.244166222080898
0.0573423748093099
0.0437018300908076
0.198774368911269
0.12079049659846
0.0475168173343033
0.0485328477624892
0.0504805192382551
0.0668333254757956
0.052605094133506
-0.0521546497076621
0.24786228077283
0.276595416152407
0.0936166858846169
0.101618483099114
0.0941474724591078
0.0200562561267848
0.093034403498425
-0.00677730281198503
-0.0160328806170963
-0.0951232029518339
0.0974787387904007
0.117236955293668
0.242046838468361
0.254897644300818
0.479062285030312
0.061873785611796
0.00586857281229131
0.0288886021808089
0.0562441483791875
0.0672328164573332
-0.114467357583745
-0.0349287048045717
0.114760048868409
0.121355115053466
0.0722703601484622
0.0333259611317899
0.0639807730731445
0.0540077408796674
0.0417682562701775
0.0326533993234909
0.00716529058343024
-0.00960085152923525
0.103749378416311
0.0799016981991648
-0.0880955581977696
0.0404736948093289
0.0806960850751697
0.0257275221978825
0.0719785814128449
0.09888587378183
-0.0682611521392208
0.00405843340829913
-0.338572985722729
0.156780412747405
0.000525101210013867
0.0704114884302196
0.00983839472476726
-0.00437066998595626
-0.0871181997400946
0.0208118754813067
0.00144042861798936
0.045290954257457
-0.0208557590021833
0.010905449625112
-0.0513457387021352
-0.0562102029401351
-0.143766226308881
-0.0114912671919463
0.140181674957063
0.11345867110266
-0.0385054890365307
-0.255218684824724
-0.081007812795716
-0.11514455990494
0.0326651611379359
0.0549406169474527
0.0423785296088999
-0.160069685433807
-0.181598772634404
-0.13267720018259
-0.0926837135024718
-0.125859150692758
-0.189287807584665
0.0198665247352549
0.0245877460429664
0.0925202737555472
-0.0754406311639077
-0.0526801991153478
0.0907652979344033
-0.146525443564789
-0.649217245593222
