-0.144760708198846
-0.163360466261228
-0.00352321555775111
0.158990225144284
-0.000208899263135826
0.283902441493102
0.0620685890488794
0.00304309030509779
-0.000396968638342384
-0.0327126033735542
-0.0548745694727579
0.0273914502120116
0.023898480939326
0.066424782068423
-0.268941649707612
-0.201437257350434
-0.0605815713149605
-0.0507432169547762
-0.0572711956284762
-0.00614039383408287
0.0100627989588014
-0.0482357020700959
-0.0493520801097994
-0.0574457353887604
-0.0735496904110078
-0.0406289013345357
-0.0324334223906397
-0.0232849725141368
-0.0615970024989144
-0.0284944977426478
-0.0327189425671301
-0.0302331151254618
-0.0385779550527205
-0.0329899883141032
-0.0712391379760356
0.153654969183467
0.21687146401068
0.0705340199174504
0.0834763581672645
0.133308919414253
0.168322326096372
0.18481214799342
0.224239133663554
0.256360623732696
0.064002866085033
0.11327944258019
-0.0153101876917035
-0.00658874284085938
-0.0098809535696989
0.0167329449962491
0.0829292290715015
0.106809292605638
-0.0466038482441457
-0.0747875811084951
-0.0353261809214207
-0.0219662744527293
-0.0463178449997465
-0.0342411927181142
-0.258642853163165
0.0855530401888617
-0.646713998643677
-0.0801357543226156
-0.0641051693683302
-0.0503396103403317
-0.0866515556689742
-0.0157739766631725
0.0316285204174016
-0.0167124143055836
-0.00304283328077647
-0.292174320489215
-0.0274995763428225
-0.0507889711882767
0.138202772292356
0.210368612461705
-0.0175690770259902
0.585592096323562
-0.0667127433160979
-0.0415057883197854
-0.417586513171606
0.459933244359542
0.452607849546791
0.487616217895227
0.0111728818916035
-0.2313986425842
-0.093634304346347
-0.0945395400448686
-0.0627382160775554
0.00298657558390222
-0.024502715531439
-0.0612999069559933
0.123453852575731
0.00451688599540213
0.0206345584273103
-0.0516794761485226
0.00864806489656113
-0.156355035213152
-0.14934298534326
-0.0366946207541517
0.289357700324566
0.331510829979106
0.332464818643544
0.267774801925012
0.362189634220085
0.249402730255221
-0.442188677618662
-0.466413401832387
-0.471364001519198
-0.563161345409352
-0.44364713017268
-0.51263973430389
-0.448212159849793
-0.0967638508429862
-0.11993188465465
0.00314223921726932
0.000436954440367188
-0.0592951078113797
-0.016482979856797
-0.0930623287769297
-0.239854414850023
0.0547285605823177
-0.0323746140758977
-0.071572696127461
0.0335865397044059
-0.199115958114795
-0.0809640563398626
-0.0571505623972379
0.0773210937321135
0.0616443375769057
0.0135641691722365
0.0858245843024397
-0.0935214605684065
-0.0645804987098155
0.0147634665022625
0.00478410381089256
-0.0364554171772487
0.0420355541545191
-0.0226124859144648
-0.0310662818952786
-0.00791379212857563
0.121032810086162
0.0295611267303648
0.0359146609630862
0.283542635177025
0.0344237423290691
0.0161336119330055
0.299886948076146
0.0423077486936238
0.0381638113927822
0.0335819341075935
0.0291651294411105
-0.000639770894092639
0.0049661771040219
-0.0293872207392299
-0.0296575398658928
-0.031745704553183
-0.00118486772702765
-0.0651428821696306
0.0417344461949488
0.0759748543905446
0.130984714784403
0.134307576056711
-0.29538822219401
-0.0993221809194775
0.0977659831831504
0.0430363975044406
-0.0398963821944456
0.115965590847426
0.0268156658597407
-0.045842774335861
0.0576861334655034
0.0668865378854763
0.0498145018655756
0.00395107545160594
-0.0781940818471945
0.106029914780806
0.0224960215545499
0.0633067920052178
0.0691054451852349
0.0332493420664706
0.0219279680266479
0.0403254631359594
-0.0083290020954051
0.209939268887391
0.0657436824548028
0.000667234103276887
0.0150467448009204
0.00373829033613339
0.00920384643083992
-0.00143809418870058
0.00392177715854243
0.107388775493106
0.0800694334899206
0.179437174061001
0.030142889762283
0.278631864673286
0.0582738066706115
0.0926364240148517
0.0998819447213472
0.41725334241869
0.0987733721547028
0.11931377699654
0.192090276589355
0.871003826904027
0.79568788809977
-0.116868738057524
0.0266723098373715
0.540016372406793
-0.284373375816065
-0.267929763863653
0.467839166647158
0.588672674434664
0.551554414706762
-0.258042195580375
-0.129433897702139
-0.158078542640646
-0.107928045913895
-0.0425531993820681
-0.01899366097996
0.191807716972562
0.115326587079633
0.130499829131931
0.146878968147072
0.00517277854721181
-0.113763173036818
-0.0815560172236117
-0.263802242572886
-0.0280949744697179
-0.0234221893515749
-0.0457075523424537
-0.0473238732011957
-0.0159040469769093
-0.0182166158390559
-0.0187519852112539
0.0141865196180337
0.00692330698486666
-0.0203356913761558
0.0172119893961287
-0.0274736185912329
-0.0302833280417474
-0.106401935949565
-0.121049505946839
-0.1881391987595
0.427574899171002
-0.0155291347403887
-0.0326970951084755
0.594898699436394
1.01204326971572
0.843175006902423
0.619902987538993
0.34010573607339
0.630157651446224
0.512783038320463
0.625718475851052
0.385930732751483
0.591599804266968
0.325273860745201
0.481467972309734
0.619401598880355
0.510364661296786
0.641371548171963
0.462173006046995
-0.278475972001009
0.590744527556935
0.616397383552747
-0.085163760332912
-0.397018438799061
-0.336532090084516
-0.338349791448219
-0.0158368204911914
-0.477655516560785
-0.650289762052459
-0.00252661039412157
-0.554919974387489
-0.579160683988845
-0.552776703858286
-0.519718037497363
-0.545057187794259
0.000670063593702421
-0.604969134890271
-0.30954401758714
0.141484923405861
0.00220728125956824
-0.552665773187725
-5.98797226501194E-05
-0.544931369513877
-0.550181201799727
-0.610095051764136
0.0631643671281176
0.00980349543807119
-0.0217140794772063
-0.0693091900293817
-0.21713198223849
0.168710521532886
0.170594833631487
0.00254721373654278
-0.157594075502778
-0.216651445618847
-0.202494806843924
-0.203634553275514
0.000620841236038644
-0.0204812668845467
-0.00140028353944127
-0.029483467533353
0.12272894196341
0.342182098794088
0.146915160541535
-0.303194035737738
-0.010809413730747
-0.0293652722413574
-0.00703589030711293
-0.0213741004756849
0.105099690798521
0.0204244239356526
-0.191572471590259
-0.220445633821093
-0.022858295921816
-0.0170477984187724
-0.168956309954285
-0.200081878504981
-0.0551625805511149
-0.198787121434194
-0.241623941917766
-0.0694383773570344
-0.0222321524951194
-0.0512950472694341
-0.0910287154446082
0.00723102984370601
-0.0597281444685619
-0.0754937361295217
-0.0479737039795157
-0.0387528199836238
-0.0394456985442473
0.00829208897250213
-0.0389597136804319
-0.0337693142941981
-0.210391219469127
-0.0558422066991887
-0.0791894517491656
-0.0645646461954372
-0.0208438815661707
-0.00773976093678765
-0.0519264072715059
0.00675554546932424
0.116618277836352
-0.171024280660177
-0.232606978347812
-0.167290853455747
0.387269645194761
-0.170749316260834
-0.257218580556603
0.381864717911966
0.373898295030263
-0.449550002504639
-0.486112650478765
-0.53154966480995
-0.105072435727957
-0.106209636422946
-0.090976773447643
-0.0816726326594388
0.132592240663245
0.110760780475363
0.0428123135025966
0.353811309381824
0.23560059638031
0.0147436325097357
-0.00164165681120631
-0.0347610214520463
0.00177060400558136
-0.243686802530213
-0.0405887420315759
-0.0566813151781398
-0.02630233088836
-0.253134525117179
-0.00873115357839618
-0.0523196142352979
-0.0479897173665653
-0.032213470382002
-0.00532354237046344
-0.0323626449042147
-0.028872616135683
-0.0323570837029722
0.00277782158919558
-0.0504956333153523
-0.0385892113271867
-0.208943126328967
-0.0516729318767052
-0.0452326378121063
-0.0375528231862981
-0.047426808289958
-0.0610565141015882
0.0975958057282997
0.0107571515083356
-0.0205487816368164
-0.205830230761997
-0.205279584818693
0.0905223878480274
0.272481733145536
0.103578758130238
-0.423666084239765
-0.423775909415085
0.00959636234361866
-0.107644540849101
-0.0377613074612306
-0.0406982490685388
-0.0851499600820157
-0.443205619164339
0.360577437198215
0.21031308686303
0.106640744918484
-0.203863956220194
0.255624838905487
0.109815279327948
-0.199248443972059
-0.376837588480947
-0.365415445189091
0.107921437672504
-0.311114052338503
0.0757882109098123
-0.318540754589344
-0.32091100591925
-0.0595773750910067
-0.187837451779212
-0.145336604559183
-0.15974311237063
-0.00758203070109083
0.0292477278330701
-0.0138772411652282
0.0298132884448377
-0.232833761053633
-0.411529157000267
-0.175288559073554
-0.205017727085441
-0.177351139386233
-0.0824017082316861
-0.0950842866771836
-0.147459555789892
0.00199823325968883
-0.230383170560324
-0.119073035945691
-0.337816367236673
-0.311454321372762
-0.311796753081851
-0.294221375381697
-0.305574161897299
-0.30669080496297
-0.112208448253113
-0.322457771036531
-0.314728742971477
-0.315915410436222
-0.21201137152326
-0.375656238027816
-0.276580264429299
-0.408922127890296
-0.412583632447489
-0.406698339403053
-0.403914243553353
-0.281309864256664
-0.235709775568218
-0.26117937253304
-0.258051454341314
-0.324783790972878
-0.332564038541417
-0.329863798260202
-0.50014302801736
-0.515624970165307
-0.508687410731482
-0.521082489274667
-0.493113301082131
-0.509380255116781
-0.492687970500546
-0.468522010256648
-0.465653444416723
-0.467575371591992
-0.544982057865673
-0.505044248579902
-0.522979368344876
-0.520105797221122
-0.505627547932232
-0.623636112930337
-0.641021430448065
0.0456095311773669
-0.0637235172838261
-0.201680367293856
-0.192681800080414
-0.0506537270325725
-0.0335499993884351
-0.0979440314652796
0.0298888188667715
-0.0251587832416986
0.0409291938999286
0.154602173780519
0.0565266936079116
0.0784495106026338
0.0817208503817134
0.0956803228580812
0.175326015243748
0.20155331389645
0.199543427545116
0.0827132986650785
0.144978376167936
0.232613189469725
0.0502302747432325
0.0522662549045456
0.13967442384452
0.0759131205368205
-0.211987100986713
-0.145674577479604
-0.171862435247343
-0.157772514039218
-0.0686471317814819
-0.0829457199199394
-0.00922608241710616
-0.0499769890024512
-0.0173348129980044
-0.00854991840271415
-0.175407600300636
-0.17037461242934
-0.183757759508299
-0.187448932672449
-0.102739137723905
-0.0978833128163243
-0.0978804847958939
-0.136370364684104
-0.0938966833194565
0.0688811597725701
0.0388993919117201
-0.300593735297471
-0.153335490435236
0.131757012042415
0.0398399016422714
0.0285538960618407
-0.0629826350795338
0.0613167037661141
0.0051632633454941
0.0508565917614604
0.0124618510808086
0.0467508413084298
0.0972107574692265
0.0737165046975892
0.0285197807961742
0.268625171716033
0.0982528820621211
0.0506844834679153
0.0784920703147213
0.0761778122640768
0.126107363284719
0.110072077126608
0.123204077192966
0.120146481669807
0.143471662681191
0.13691471656257
0.110563078098201
0.141474332405115
0.373500425332161
0.0441708806468016
0.111046499916742
0.0984279697205883
0.266136983405481
0.258033232363987
0.120771404721766
0.0484606909138565
-0.0205276119163491
0.174377064133216
-0.00953150274885963
-0.0198333110825826
-0.0148676400761754
-0.0225600350796522
-0.0218778139107303
0.0063868550247015
-0.0193876659744099
-0.000348824690449075
-0.0033496272228951
0.261023824247564
0.162253822564817
0.00463650820383713
0.0446366887144644
0.0271168385005871
0.0400659486781255
0.036098526937796
0.145409084772729
-0.19061748548634
-4.28972300648038E-05
-0.442881921903543
-0.577269166295672
0.230385385774837
0.0893534207550367
-0.352474267536881
0.339247377229498
0.496226126630469
0.149876406669973
-1.35362852175763
0.742461347288477
1.025719195869
0.284158161868379
0.133473918314909
0.181540249047762
-0.363763740776159
-0.609216614258529
0.181109096404734
-0.667393137041313
-0.496098732857257
-0.301486539517903
-0.334339703778992
-0.0166260406564688
-0.237354660549248
0.177172143454177
0.169687977255174
0.142635963695966
-0.271314758247289
0.252360618330148
-0.0342962392530589
-0.00974903241808931
-0.095753462094155
0.0701252799271739
-0.0244103635170296
0.0613428179608588
-0.00800606371728961
-0.0717099828580095
-0.0293430711743969
-0.00582224044339508
-0.0181180407551677
0.477645997969969
-0.0452391457509646
-0.0512163684417037
0.00178952976468567
0.0156105336317992
-0.0149392736659581
-0.00315954141525413
0.0197464663527273
0.0299272916308193
-0.222573056438406
0.207632937504533
0.220263978984298
-0.0425619699236043
-0.0334315260540713
-0.0276783722967295
-0.0148130005886303
-0.0213273433952192
-0.0214451416603817
-0.027788700428332
-0.176918496329752
-0.182736119773212
0.123446420473732
0.0388057869381632
0.212522657432889
0.213087303349473
-0.0396658831316966
-0.0418573220100475
0.0179166866145087
-0.027163154399185
0.177281975421719
0.13301338003869
0.0662186198419217
0.0031657043483622
0.111884410430862
0.048900334698649
-0.0203890425538152
-0.0301647412693356
-0.0279392159237869
-0.0285421666762114
-0.018741049458891
-0.00838910732842471
-0.0090380967695098
-0.0141435132916454
0.128090158853329
-0.0150596980671958
0.0129989777011226
-0.0224863478141488
0.129766570171228
0.00935138236837849
-0.00491765279598255
0.0624726124893712
0.00529472495071188
-0.018338594575882
0.0607206299293223
0.0106094658034129
-0.0334386376906827
0.0483236265712942
0.0403581739980046
0.0695381270708388
-0.0139461860798562
-0.00465154301214406
-0.0154946599497275
-0.0007524629567604
-0.0204027938466013
0.0267802477516802
0.0262786507575784
-0.208267477757019
-0.289379201458323
-0.0988901028204301
-0.113589929922143
-0.135456755352021
0.137695907995152
0.0989284247317498
0.0767869952261671
0.0960368141212051
-0.0322142848022739
-0.0429741446131919
-0.0201569764794846
0.0315649765496087
0.0624195537021935
-0.0160584504511799
0.0547624926650531
0.0320065854441785
0.0801281744730199
-0.00779906021335875
-0.0327932199791197
-0.031581203431225
-0.00217927565931721
-0.0116181158651554
-0.0407950432051865
0.0639788820687865
0.036910790836925
