-0.0157230812628418
-0.0265842056375362
-0.235151138682284
-0.00608732811819896
-0.00301358735940321
0.0512730661292707
0.110813371085858
-0.07061954282798
-0.0527392331434589
0.178096791627298
0.127646731548568
0.113058720599409
0.113391232907412
0.583715506539847
0.570351226012225
0.149039285507852
0.134409431099356
0.158480807857667
0.162816737354766
0.176184555108673
0.133426475097887
0.134105883463723
0.132513028474975
0.126782791232448
0.143327764215681
0.106466031309574
0.0899914172244706
0.11524945739595
0.111367203448775
0.0901730548715348
0.0589004863750346
0.0549201471121144
0.0542515360548103
0.0650643478175724
0.0303285804881409
0.123972540844254
0.147520599285806
0.0835871299890754
0.0906982353263144
0.0697952226742386
0.0806044227776906
0.0841323483296312
0.105792572039317
0.0598313532359135
0.067531895841393
0.0288991719721955
0.0187564937210252
0.00542668576357437
-0.00105033441836125
0.00728857863205509
-0.0110610450335152
-0.00401148655243754
0.141890610683706
0.118070598526452
0.164881901084499
0.0710724684034579
0.0474788914852847
0.102302632270643
-0.20024305021188
0.231437754288114
0.0459289178578759
0.0191059326158364
0.0211400928828172
0.0530696742958258
0.0535473774381757
0.223215230127816
0.13113974382802
0.0705750612942278
0.0471982334035991
-0.333693617831678
-0.00989152687995772
0.0758027537633061
-0.0771652654862481
-0.20184467568343
0.174246500522438
0.544317912778347
0.219642764000254
0.713005505286088
-0.239162459592531
-0.359054368940806
-0.375768637593495
0.147556211354569
-0.156193964469235
0.173295998390135
0.112911902644722
0.159462168916781
-0.212043281329643
0.00488987978152495
0.060951824046952
0.144044143026181
0.0509472602400185
0.173069239236347
0.126114091947172
0.136097166715424
0.191310697096401
-0.00245502785989255
-0.0271503238235503
0.0665067968710514
-0.101342908792252
0.0484984838145365
-0.172773374648146
-0.1705074061471
-0.201574506751735
-0.118677797169455
0.375942346712267
0.434492728670885
0.574290038203619
0.510173552116102
0.399367831739882
0.556199103083348
0.366708331560826
0.0162837073102994
0.0206499047207063
-0.1624235058874
-0.156235308334708
-0.129849098057752
-0.208235655638149
-0.12193154348015
-0.0616244684539517
-0.167730360719484
-0.137857840440414
-0.157700053312978
-0.127727171681048
-0.172599338953456
-0.130266704948749
-0.137407180141816
-0.166487304092648
-0.234077073529783
-0.162633415326807
-0.194778737609979
-0.278314445482662
-0.388201732680656
-0.0695646395638692
-0.0242233305885093
0.119976827965257
-0.175080917669875
-0.0296238084763303
0.0856466218135507
-0.0532817243860655
0.138436088268599
0.150863379619588
0.114614455968806
-0.00675960139900286
0.157513660833226
-0.0566762640507374
0.0108960600606275
0.164036510462651
0.14891723022959
0.143156618657502
0.156639850405648
-0.0391789948540725
-0.0633969616451952
-0.0254227119826958
-0.0164165618794951
0.129515565833279
0.00617172691167575
0.0070671520523409
-0.239104711821086
0.0567264215057896
0.0162697478442069
0.0965604854252423
0.00396516029702523
0.12240174892779
0.127896854984677
0.0601615896749021
0.13513761356442
0.0698463874097983
0.0216025119075371
0.0850013689227117
0.144259855428375
0.145763850641367
0.130025981549977
0.182756272019238
0.0267927667130907
0.0563131771351076
-0.0181033719751521
-0.0347056396128832
-0.155623512931783
-0.189627676587494
-0.189525925039532
-0.16749107934106
-0.16975958746597
0.144712257287601
0.0420781452817495
0.142126622179857
0.160822148834164
0.178875187811443
0.139247078820855
0.167228187947504
0.129571974199362
0.175822179124303
0.0516238841775951
-0.0508506688489843
0.0570338511430112
-0.0144393223780596
0.312522879577132
0.241121845018998
0.264117967757662
0.261729122267248
-0.0818427907983162
0.272106058899439
0.266081466424313
0.132485455829303
-0.00680441718614601
-0.114360526110366
0.430465454532558
-0.479028150727396
0.427551452720956
0.50191361399491
-0.0466290539641284
0.412450765456372
-0.318749103510559
0.0725058352280906
0.0691152273568335
0.0853948940164564
0.0679481865077611
0.0929660109412292
-0.260730771532427
-0.296856570944306
-0.282876157008349
-0.257391575300776
0.00845905454678944
-0.00323892694521223
0.0345484579454351
0.0357844221700898
-0.52203116152513
-0.573324658514176
-0.523678863786806
0.103389331926425
0.113884398205945
-0.491180167477711
-0.573263208014843
-0.562254925492195
-0.564617812729997
-0.512430514051697
-0.518271126143238
-0.577284010148951
-0.560869288292228
-0.522484693360779
0.00093397133265486
-0.00347238925723684
-0.129157825794848
-0.0397423623808285
0.409295322590029
0.368950085656895
0.205913787051576
0.128574042078836
0.163287918861162
0.171573235861707
0.61030336261036
0.238442397566253
0.58467305411833
0.529913392500935
0.595992100587725
0.527766567355385
0.62423531067457
0.581412342827546
0.17620867945368
0.200143860955536
0.168149016128698
0.593778085694671
0.568850475694768
0.29543357870863
0.283950821422809
0.364624361219255
0.571253728797597
0.567005319678413
-0.22488393732553
-0.03498084786556
0.645759074172
0.485715439766753
0.00538528631932512
0.412191500298241
0.487181761839331
0.476176045006438
0.303900261162081
0.368440209225113
0.0327863394660159
0.641604358075507
0.759550206308265
0.00464659101907189
0.00916057754392221
0.117496889487602
0.0341184229602046
0.467026349030288
0.555044363394078
0.44462561863914
-0.431562658880773
-0.183281640169258
-0.169148134243391
-0.192097129566609
-0.0588283559612729
-0.383393164456292
-0.376437405625978
0.0950680366774757
-0.185400188830728
-0.126501710147488
-0.117701663600198
-0.124451729441984
-0.173770239874073
-0.0161877130526262
-0.0144031377605509
-0.0175971058981725
-0.0546409892567125
0.216662012194807
0.0658143623019024
-0.158311340647564
0.0445697836671102
-0.041544033237271
-0.0527572964721243
0.0834489774202207
0.08893207693393
0.0653464784918601
0.0237042584159811
-0.0107633599786021
0.155189431420962
0.062813298845452
-0.0844041896222102
-0.064845710661137
0.0605298699970272
-0.0833966333269967
-0.047736426641657
0.0658707945507257
0.0398850699354461
0.102149119687411
0.0949727236797615
-0.0308593509908128
0.052004873055611
0.0787205740782473
0.0815909228581241
0.00884429579750125
-0.0351947728359117
0.0312284137992284
0.125225731787512
-0.0589151953364437
0.0210451936657483
0.0266875810502689
0.0923203705147247
0.0254603285165638
0.10258085684743
0.0779840983722225
0.021333670546432
0.087976212936738
0.16806163447447
0.626489716311868
0.492301262562245
0.626623397788376
-0.800326953347563
0.739324544203356
0.581285810761399
-0.790611332213848
-0.784977862556876
0.398139681733081
0.488735442473133
0.5979121891717
0.00155083723312677
-0.0152159599009732
0.0228022759784632
-0.0756585386590535
-0.639784251926081
-0.547610859420247
-0.524584893901275
-0.697311284973846
-0.509897911808278
-0.573008824678823
0.0703230455390112
-0.0749891332396637
-0.10462274199561
-0.10636513773554
-0.15141419845373
-0.0433695195827177
-0.0531895968866942
-0.0868356483531082
-0.147648716824533
0.0931181426750216
-0.0263543540273968
-0.00907319859476416
-0.0858622119729515
-0.000304550979894114
-0.0215130602361294
-0.0917847340650455
-0.0428240593964985
0.115406208033097
-0.0362228185338988
-0.0770702297822187
-0.0746099500243761
-0.0445671922372347
-0.0837718021187871
-0.0847243509914807
-0.0333572827060981
-0.0453177857887225
0.0675305347564017
0.022060250634042
-0.109079906138115
-0.169876809804287
-0.110987888246993
-0.135730657056411
-0.0333562852415742
0.146143540758621
0.15120488578649
-0.0740265421427324
-0.136319092616199
-0.140992641189855
-0.157707515519444
-0.106362663363894
0.11124627002839
-0.138607915980431
-0.173965823932654
-0.0773048982684756
-0.293344067213469
-0.125565015133686
-0.0462584075004714
-0.265957319385422
-0.33071771429675
-0.22513954194459
-0.0708184976196045
-0.150542132566118
-0.105768287177074
-0.124629626541489
-0.126782748146979
-0.0445287031980471
-0.19588989568214
-0.233720301352104
-0.194993528937619
-0.0762556910138681
-0.0915318837684779
-0.0294575425197324
-0.0618763769883311
-0.0995138686585269
-0.191394400028076
-0.0498218482016478
-0.0611463875311093
-0.10268097187014
0.0878769900103418
-0.0563858118306292
-0.0618259745244834
-0.0953951092854765
-0.0947620676565407
-0.207331179927169
-0.119416479332116
-0.134903383826195
-0.161249286790981
-0.198882450092594
0.00389588722388073
0.004822237487629
-0.018149407827433
-0.282271455363032
-0.0507183693116952
0.00905787543417132
0.0130630653932877
0.291670678794321
0.0618762925152543
0.016459775139557
0.00534433387445997
0.00336129900524802
-0.0531663996630642
0.154574057843696
0.255741307672296
0.130808508752352
0.112333941115873
0.0736032249427685
0.0587109426631069
0.0371407992942025
-0.079550377441525
-0.0863284436872413
-0.0241289109203314
-0.0253325516891324
-0.0727027517868853
-0.063648378058116
-0.0673602117018679
0.0107642108046942
-0.0701387269220728
0.0260356892459093
0.0113665635054792
0.0827327526101834
0.0372555055651748
0.0691981497955603
0.658704640698031
0.406179115981996
0.312369371765707
-0.217408338807363
-0.222196692435632
-0.293374290893326
-0.172727069525797
-0.214875610478849
-0.31372175981399
-0.384511171605592
0.49891529889298
0.381449083908341
0.198210773045404
0.0153992630878753
-0.0252171566404051
-0.0151541215341538
-0.0285302755047464
-0.270300339362362
-0.342998838263592
-0.304090819151698
-0.0596046818430499
-0.248308552327808
-0.138089393767884
-0.0491528877178773
-0.0370603130752095
0.00508046675530292
-0.0276019560294264
0.0744597137613932
-0.0435609352609726
-0.0453228083636779
-0.12745806502849
0.064676143234346
0.147232321888218
0.153754346496357
-0.0957644849253277
-0.113459075567775
-0.0915131964850537
-0.105147495890815
0.22445526146776
0.224701699695587
0.00557898200306447
-0.1138407711491
0.136047899647099
0.137181226104407
0.154252166793773
-0.0969779597213242
0.330011556777842
-0.103487519517249
0.084057811496472
-0.133530784996735
-0.735529747915906
-0.672372833379513
0.0398402057442914
-0.100784512492246
-0.0754744361553261
0.00598475428902356
-0.0947617646617925
-0.302685226440677
0.151469138386844
-0.088692732095446
-0.127793127750024
-0.119832487449094
-0.0150869786200787
-0.0558769543820228
0.000577683181179948
-0.143332920006564
-0.0379013104224558
-0.0970685584608529
-0.0923513684029868
-0.236402415258207
-0.158239793760504
-0.0852428355950908
-0.082738325446502
-0.150163740223083
-0.176557528569281
-0.085204432424736
-0.16211492360154
-0.379479941091567
-0.085403402844257
-0.0829231512903074
-0.0906105774949068
-0.0300187661164964
-0.125534438010599
-0.0234372006905328
-0.0605157214515056
-0.156249376284074
0.03252743189833
0.435543779043058
0.090522271652753
0.0842036048336257
0.458162056692629
0.0677036631463432
0.0634898982674611
-0.00129840327545193
-0.0108834571603782
0.0192593254104888
0.183930541269656
0.192183445537526
0.0352357214419332
0.484871736640117
0.15740111266777
0.141576537695103
-0.578653284952892
-0.0427082313592463
0.375025010331817
0.52317194908053
0.67390365198427
-0.580496241858996
-0.112897224433468
0.647445250661136
0.354002938831184
0.51110488743213
1.03802414808635
1.18602477836688
0.327292917799687
0.411106151679625
0.54268324467534
0.382630313651116
0.435732788197015
-0.151810394584408
0.631414875444972
0.0296926451325182
0.420756577948766
0.591737177514102
0.0954140798344894
0.0760395534560404
-0.264041954268638
0.26845785010404
0.163776041259897
0.194006471709418
-0.0486300700368234
0.574768637354085
-0.166104240508478
-0.149901225169025
-0.169648203276289
-0.113033837690429
-0.156031757301642
-0.165417513866443
-0.174403200496198
0.0970295827753242
0.142170751495826
0.161029036699732
0.145455180859487
0.126459112949667
-0.183066826487886
0.0884694708587239
0.0712062002622111
0.145019201964519
0.105863719303139
0.129752080879034
0.129029531516546
0.102048372454748
0.116582052494177
0.116263412710457
-0.188568015436283
0.195501324002192
0.219780469714897
-0.0426532146503969
-0.00203917334039057
-0.00442956722600346
0.0677925780111027
-0.00299191805254881
-0.0532895871687505
-0.160493691949443
-0.204592460292121
0.0899291902236067
0.13081100224911
0.187861111438746
0.199374423330424
0.402765082069644
0.143269565650054
-0.0275689681015868
-0.00138463090856313
0.21118331355395
0.153062792879791
-0.0681144569682276
-0.0663710847155982
0.121307366587796
0.130324540524538
-0.0152697426799923
0.0962077008730798
0.00726968120446619
-0.0161630677115118
-0.0646786734201127
-0.0313677570473151
-0.0205555477444203
-0.0273506887715711
0.115172212954367
-0.000395183236856651
-0.0929481737701718
-0.0596904372622865
0.15720903326394
-0.00979319716064239
-0.00864278651800653
0.113684749082556
-0.0870795638774122
0.0784709412854614
-0.157467835967279
0.155241183760967
-0.0230929772365531
-0.0057311403743678
0.0879811978331771
0.0870612719875445
0.0746579685683342
-0.0338869782006619
-0.0767520189658679
-0.0651015106186241
-0.0410262981434605
-0.0374912631149828
0.0704009470345128
-0.0520044802067496
-0.24202756739211
-0.0984724437878948
0.0454780928343411
0.0391078362557764
-0.0204009866563759
-0.0660268886658341
-0.0113421335261559
0.0635549919906394
-0.0270872214238354
0.0936680380107082
-0.0331019406136292
0.0961513016677214
0.098625532120974
0.0482876547275317
0.14855775507352
0.0867720150760913
0.0807784682943484
0.0885687851022544
0.0880074949784823
0.127128616949684
0.0172101892199602
0.0363974908379817
0.105158469272186
0.112315587799704
-0.303887508533546
