total error;
avg err;MSE;
-0.140476304181055;0.393714578505326;
programs error;
program;avg err;MSE;
0;-0.00246425245657747;0.294263287606211
1;-0.271982113981841;0.351068130918766
2;0.100711862364016;0.429658792450883
3;-0.230825156478684;0.440859903317552
4;-0.148878836374038;0.409028374111596
5;-0.149434627069989;0.385122165397788
6;-0.328993982263666;0.53097647212287
7;-0.0919433271876584;0.235008677869068

programs splitup;
program;splitup;
0;1.74130288266868;0;0;0;
1;0.886261696102332;0;0;0.145906631934483;
2;1.24539085517011;0;0;0.021900204451157;
3;0.425115956152831;0;0;0.0544668419059746;
4;0.932398878811118;0;0;0.0892474228491884;
5;0.879426046608167;0;0;0.130984331118877;
6;0.566760555404617;0;0;0.343977201462662;
7;0;0.0406757099613485;0.237004627666175;0.572551479449045;

buckets;
bucket;number;
-79;1;
-78;0;
-77;1;
-76;1;
-75;2;
-74;2;
-73;3;
-72;12;
-71;15;
-70;36;
-69;33;
-68;26;
-67;18;
-66;21;
-65;7;
-64;6;
-63;10;
-62;8;
-61;9;
-60;8;
-59;15;
-58;15;
-57;25;
-56;46;
-55;44;
-54;48;
-53;60;
-52;51;
-51;42;
-50;65;
-49;51;
-48;57;
-47;59;
-46;43;
-45;69;
-44;56;
-43;69;
-42;69;
-41;66;
-40;72;
-39;75;
-38;70;
-37;83;
-36;76;
-35;75;
-34;65;
-33;82;
-32;76;
-31;73;
-30;95;
-29;77;
-28;85;
-27;88;
-26;59;
-25;61;
-24;63;
-23;55;
-22;62;
-21;57;
-20;50;
-19;66;
-18;64;
-17;63;
-16;69;
-15;59;
-14;56;
-13;60;
-12;56;
-11;67;
-10;81;
-9;74;
-8;85;
-7;90;
-6;64;
-5;78;
-4;80;
-3;86;
-2;90;
-1;91;
0;151;
1;68;
2;77;
3;55;
4;51;
5;51;
6;68;
7;71;
8;61;
9;37;
10;40;
11;50;
12;31;
13;36;
14;44;
15;41;
16;42;
17;31;
18;34;
19;36;
20;39;
21;42;
22;42;
23;42;
24;21;
25;21;
26;21;
27;24;
28;23;
29;24;
30;21;
31;17;
32;13;
33;13;
34;10;
35;12;
36;7;
37;12;
38;12;
39;10;
40;12;
41;9;
42;13;
43;7;
44;7;
45;9;
46;6;
47;4;
48;4;
49;6;
50;4;
51;3;
52;4;
53;4;
54;4;
55;0;
56;6;
57;6;
58;4;
59;8;
60;4;
61;5;
62;5;
63;5;
64;3;
65;4;
66;4;
67;4;
68;1;
69;5;
70;3;
71;1;
72;2;
73;2;
74;1;
75;2;
76;0;
77;0;
78;2;
79;3;
80;0;
81;0;
82;1;
83;1;
84;2;
85;0;
86;2;
87;0;
88;1;
89;0;
90;1;
91;1;
92;1;
93;0;
94;1;
95;2;
96;1;
97;1;
98;2;
99;1;
100;1;
101;1;
102;1;
103;0;
104;0;
105;0;
106;0;
107;0;
108;2;
109;0;
110;0;
111;3;
112;1;
113;2;
114;1;
115;0;
116;1;
117;0;
118;0;
119;0;
120;1;
121;0;
122;0;
123;0;
124;0;
125;0;
126;0;
127;1;
128;0;
129;0;
130;0;
131;0;
132;0;
133;0;
134;1;
135;0;
136;0;
137;1;
138;1;
139;0;
140;0;
141;0;
142;1;
143;2;
144;0;
145;0;
146;0;
147;0;
148;0;
149;0;
150;0;
151;0;
152;1;
153;0;
154;2;
155;2;
156;0;
157;0;
158;0;
159;0;
160;1;
161;0;
162;0;
163;0;
164;1;
165;0;
166;0;
167;0;
168;0;
169;0;
170;0;
171;0;
172;0;
173;0;
174;0;
175;0;
176;0;
177;0;
178;0;
179;0;
180;0;
181;0;
182;0;
183;0;
184;0;
185;0;
186;1;
187;0;
188;0;
189;0;
190;0;
191;1;
192;0;
193;0;
194;0;
195;0;
196;0;
197;0;
198;0;
199;0;
200;0;
201;0;
202;1;
203;1;
204;1;
205;0;
206;0;
207;0;
208;0;
209;1;
210;0;
211;0;
212;0;
213;0;
214;0;
215;0;
216;0;
217;0;
218;0;
219;0;
220;0;
221;0;
222;0;
223;0;
224;0;
225;0;
226;0;
227;0;
228;0;
229;0;
230;0;
231;0;
232;0;
233;0;
234;0;
235;0;
236;0;
237;0;
238;0;
239;0;
240;0;
241;0;
242;0;
243;0;
244;0;
245;0;
246;0;
247;0;
248;0;
249;0;
250;0;
251;0;
252;0;
253;0;
254;0;
255;0;
256;0;
257;0;
258;0;
259;0;
260;0;
261;0;
262;0;
263;0;
264;0;
265;0;
266;0;
267;0;
268;0;
269;0;
270;0;
271;0;
272;0;
273;0;
274;0;
275;0;
276;0;
277;0;
278;0;
279;0;
280;0;
281;0;
282;0;
283;0;
284;0;
285;0;
286;0;
287;0;
288;0;
289;0;
290;0;
291;0;
292;0;
293;0;
294;0;
295;0;
296;0;
297;0;
298;0;
299;0;
300;0;
301;0;
302;0;
303;0;
304;0;
305;0;
306;0;
307;0;
308;0;
309;0;
310;0;
311;0;
312;0;
313;0;
314;0;
315;0;
316;0;
317;0;
318;0;
319;0;
320;0;
321;0;
322;0;
323;0;
324;0;
325;0;
326;0;
327;0;
328;0;
329;0;
330;0;
331;0;
332;0;
333;0;
334;0;
335;0;
336;0;
337;0;
338;0;
339;0;
340;0;
341;0;
342;0;
343;0;
344;0;
345;0;
346;0;
347;0;
348;0;
349;0;
350;0;
351;0;
352;0;
353;0;
354;0;
355;0;
356;0;
357;0;
358;0;
359;0;
360;0;
361;0;
362;0;
363;0;
364;0;
365;0;
366;0;
367;0;
368;0;
369;0;
370;0;
371;0;
372;0;
373;0;
374;0;
375;0;
376;0;
377;0;
378;0;
379;0;
380;0;
381;0;
382;0;
383;0;
384;0;
385;0;
386;0;
387;0;
388;0;
389;0;
390;0;
391;0;
392;0;
393;0;
394;0;
395;0;
396;0;
397;0;
398;0;
399;0;
400;0;
401;0;
402;0;
403;0;
404;0;
405;0;
406;0;
407;0;
408;0;
409;0;
410;0;
411;0;
412;0;
413;0;
414;0;
415;0;
416;0;
417;0;
418;0;
419;0;
420;0;
421;0;
422;0;
423;0;
424;0;
425;0;
426;0;
427;0;
428;0;
429;0;
430;0;
431;0;
432;0;
433;0;
434;0;
435;0;
436;0;
437;0;
438;0;
439;0;
440;0;
441;0;
442;0;
443;1;
444;0;
445;0;
446;0;
447;0;
448;0;
449;0;
450;0;
451;0;
452;0;
453;0;
454;0;
455;0;
456;0;
457;0;
458;0;
459;0;
460;0;
461;0;
462;1;
463;0;
464;0;
465;0;
466;0;
467;0;
468;0;
469;0;
470;0;
471;0;
472;0;
473;0;
474;1;
475;0;
476;0;
477;0;
478;0;
479;0;
480;0;
481;0;
482;0;
483;0;
484;0;
485;0;
486;0;
487;0;
488;0;
489;0;
490;1;
491;0;
492;0;
493;0;
494;0;
495;0;
496;0;
497;0;
498;0;
499;0;
500;0;
501;0;
502;0;
503;0;
504;0;
505;0;
506;1;
507;0;
508;0;
509;0;
510;0;
511;0;
512;0;
513;0;
514;0;
515;0;
516;0;
517;0;
518;0;
519;0;
520;0;
521;0;
522;0;
523;0;
524;0;
525;0;
526;0;
527;0;
528;0;
529;0;
530;0;
531;0;
532;0;
533;0;
534;0;
535;0;
536;0;
537;0;
538;0;
539;0;
540;0;
541;0;
542;0;
543;0;
544;0;
545;0;
546;0;
547;0;
548;0;
549;0;
550;0;
551;0;
552;0;
553;0;
554;0;
555;0;
556;0;
557;0;
558;0;
559;0;
560;0;
561;0;
562;0;
563;0;
564;0;
565;1;
566;0;
567;0;
568;0;
569;1;
570;0;
571;0;
572;0;
573;0;
574;0;
575;0;
576;0;
577;0;
578;0;
579;0;
580;0;
581;0;
582;0;
583;1;
