total error;
avg err;MSE;
0.437819252108014;1.7376785439608;
programs error;
program;avg err;MSE;
0;-0.00246425245657735;0.294263287606211
1;2.16373011226067;4.25897900232216
2;-0.213602109196268;0.311244132377372
3;0.651106614233948;1.19780651490219
4;0.104824682323543;0.43495876627621
5;-0.215027724455252;0.450929360229032
6;-0.10343710563179;0.434174283395725
7;-0.122867699419215;0.404672465063792
8;-0.289523130894758;0.527772413316075
9;0.777973240394531;1.53190445159539
10;2.06529914602932;3.18267823756676

programs splitup;
program;splitup;
0;1.74130288266868;
1;1.33398566804273;
2;1.11291686385158;
3;1.2584512853746;
4;1.27117943731949;
5;0.488737599613245;
6;1.07103815331753;
7;1.0367524213457;
8;0.965525214968848;
9;1.07372561380908;
10;1.04691193904052;

buckets;
bucket;number;
-72;1;
-71;0;
-70;2;
-69;6;
-68;12;
-67;12;
-66;6;
-65;4;
-64;4;
-63;8;
-62;24;
-61;20;
-60;34;
-59;33;
-58;40;
-57;27;
-56;26;
-55;30;
-54;26;
-53;30;
-52;28;
-51;25;
-50;29;
-49;31;
-48;21;
-47;43;
-46;51;
-45;65;
-44;57;
-43;62;
-42;61;
-41;74;
-40;81;
-39;58;
-38;86;
-37;53;
-36;67;
-35;68;
-34;85;
-33;67;
-32;91;
-31;106;
-30;121;
-29;93;
-28;82;
-27;70;
-26;77;
-25;69;
-24;77;
-23;58;
-22;69;
-21;76;
-20;88;
-19;89;
-18;71;
-17;77;
-16;84;
-15;77;
-14;68;
-13;65;
-12;90;
-11;100;
-10;83;
-9;88;
-8;89;
-7;78;
-6;91;
-5;87;
-4;96;
-3;93;
-2;93;
-1;114;
0;187;
1;84;
2;86;
3;71;
4;72;
5;89;
6;99;
7;88;
8;77;
9;69;
10;77;
11;58;
12;56;
13;61;
14;47;
15;43;
16;28;
17;65;
18;53;
19;67;
20;51;
21;47;
22;40;
23;40;
24;30;
25;37;
26;35;
27;26;
28;38;
29;37;
30;29;
31;32;
32;30;
33;26;
34;19;
35;21;
36;15;
37;15;
38;25;
39;20;
40;14;
41;22;
42;20;
43;16;
44;13;
45;17;
46;24;
47;8;
48;9;
49;12;
50;17;
51;9;
52;15;
53;19;
54;15;
55;10;
56;8;
57;13;
58;19;
59;16;
60;13;
61;11;
62;7;
63;9;
64;12;
65;10;
66;8;
67;7;
68;12;
69;3;
70;7;
71;4;
72;4;
73;6;
74;5;
75;2;
76;5;
77;5;
78;3;
79;5;
80;5;
81;2;
82;3;
83;11;
84;5;
85;7;
86;7;
87;2;
88;3;
89;6;
90;6;
91;10;
92;5;
93;9;
94;8;
95;9;
96;8;
97;10;
98;11;
99;9;
100;9;
101;8;
102;5;
103;5;
104;3;
105;8;
106;8;
107;2;
108;4;
109;2;
110;8;
111;3;
112;8;
113;8;
114;5;
115;6;
116;5;
117;8;
118;1;
119;7;
120;2;
121;3;
122;5;
123;9;
124;3;
125;2;
126;8;
127;6;
128;3;
129;7;
130;6;
131;6;
132;4;
133;4;
134;4;
135;4;
136;4;
137;7;
138;9;
139;7;
140;8;
141;4;
142;5;
143;5;
144;10;
145;12;
146;4;
147;4;
148;5;
149;5;
150;6;
151;3;
152;9;
153;6;
154;7;
155;5;
156;7;
157;7;
158;8;
159;7;
160;8;
161;6;
162;5;
163;1;
164;3;
165;4;
166;3;
167;3;
168;8;
169;3;
170;10;
171;3;
172;2;
173;3;
174;4;
175;2;
176;3;
177;2;
178;7;
179;3;
180;2;
181;0;
182;7;
183;4;
184;3;
185;1;
186;5;
187;3;
188;5;
189;4;
190;2;
191;3;
192;3;
193;5;
194;1;
195;4;
196;2;
197;5;
198;1;
199;3;
200;2;
201;2;
202;3;
203;6;
204;5;
205;3;
206;4;
207;3;
208;2;
209;3;
210;4;
211;4;
212;3;
213;1;
214;5;
215;1;
216;0;
217;1;
218;2;
219;1;
220;1;
221;1;
222;2;
223;2;
224;2;
225;3;
226;2;
227;1;
228;3;
229;0;
230;2;
231;1;
232;1;
233;0;
234;0;
235;2;
236;5;
237;0;
238;3;
239;1;
240;1;
241;1;
242;2;
243;3;
244;2;
245;1;
246;0;
247;0;
248;1;
249;0;
250;2;
251;1;
252;1;
253;2;
254;1;
255;2;
256;2;
257;1;
258;0;
259;0;
260;2;
261;0;
262;0;
263;2;
264;1;
265;1;
266;2;
267;2;
268;1;
269;1;
270;3;
271;1;
272;0;
273;1;
274;2;
275;1;
276;0;
277;3;
278;1;
279;0;
280;1;
281;2;
282;0;
283;1;
284;1;
285;0;
286;0;
287;0;
288;0;
289;0;
290;0;
291;1;
292;0;
293;2;
294;1;
295;0;
296;2;
297;1;
298;0;
299;0;
300;2;
301;0;
302;2;
303;2;
304;1;
305;0;
306;1;
307;0;
308;1;
309;2;
310;1;
311;2;
312;0;
313;0;
314;0;
315;0;
316;1;
317;0;
318;0;
319;0;
320;0;
321;0;
322;0;
323;1;
324;0;
325;0;
326;4;
327;2;
328;1;
329;1;
330;0;
331;2;
332;0;
333;0;
334;2;
335;2;
336;0;
337;0;
338;1;
339;0;
340;1;
341;1;
342;0;
343;2;
344;1;
345;0;
346;0;
347;0;
348;0;
349;0;
350;0;
351;0;
352;2;
353;1;
354;2;
355;1;
356;2;
357;1;
358;0;
359;2;
360;2;
361;0;
362;0;
363;1;
364;0;
365;1;
366;0;
367;0;
368;0;
369;0;
370;2;
371;3;
372;3;
373;0;
374;0;
375;2;
376;1;
377;2;
378;0;
379;3;
380;2;
381;0;
382;1;
383;0;
384;0;
385;0;
386;0;
387;1;
388;3;
389;2;
390;1;
391;1;
392;1;
393;0;
394;0;
395;0;
396;1;
397;1;
398;0;
399;2;
400;0;
401;3;
402;0;
403;2;
404;1;
405;0;
406;0;
407;0;
408;2;
409;0;
410;3;
411;4;
412;1;
413;3;
414;0;
415;0;
416;2;
417;1;
418;2;
419;2;
420;0;
421;0;
422;2;
423;1;
424;2;
425;1;
426;1;
427;1;
428;1;
429;2;
430;0;
431;0;
432;0;
433;1;
434;1;
435;0;
436;1;
437;1;
438;0;
439;2;
440;0;
441;0;
442;0;
443;1;
444;0;
445;3;
446;1;
447;0;
448;2;
449;0;
450;0;
451;1;
452;2;
453;1;
454;0;
455;1;
456;0;
457;1;
458;2;
459;3;
460;4;
461;1;
462;0;
463;1;
464;1;
465;0;
466;2;
467;2;
468;1;
469;3;
470;0;
471;3;
472;0;
473;1;
474;1;
475;1;
476;1;
477;1;
478;2;
479;1;
480;0;
481;2;
482;1;
483;1;
484;1;
485;2;
486;1;
487;4;
488;1;
489;3;
490;1;
491;2;
492;2;
493;0;
494;2;
495;2;
496;0;
497;3;
498;0;
499;5;
500;7;
501;2;
502;4;
503;1;
504;4;
505;2;
506;2;
507;3;
508;8;
509;3;
510;3;
511;2;
512;1;
513;3;
514;3;
515;2;
516;3;
517;1;
518;0;
519;3;
520;2;
521;2;
522;2;
523;2;
524;1;
525;1;
526;3;
527;1;
528;0;
529;1;
530;2;
531;2;
532;1;
533;0;
534;3;
535;3;
536;1;
537;4;
538;4;
539;1;
540;2;
541;1;
542;1;
543;0;
544;1;
545;1;
546;1;
547;1;
548;3;
549;1;
550;1;
551;2;
552;3;
553;1;
554;3;
555;0;
556;2;
557;0;
558;0;
559;2;
560;3;
561;1;
562;1;
563;2;
564;4;
565;2;
566;0;
567;2;
568;2;
569;0;
570;0;
571;1;
572;0;
573;0;
574;0;
575;2;
576;1;
577;2;
578;0;
579;0;
580;2;
581;1;
582;4;
583;1;
584;1;
585;1;
586;0;
587;0;
588;1;
589;1;
590;2;
591;0;
592;0;
593;2;
594;0;
595;2;
596;1;
597;1;
598;1;
599;2;
600;2;
601;1;
602;1;
603;0;
604;2;
605;0;
606;0;
607;1;
608;1;
609;1;
610;3;
611;0;
612;1;
613;1;
614;1;
615;1;
616;0;
617;0;
618;0;
619;1;
620;2;
621;0;
622;0;
623;0;
624;0;
625;1;
626;0;
627;1;
628;0;
629;2;
630;2;
631;1;
632;1;
633;2;
634;0;
635;0;
636;0;
637;0;
638;0;
639;1;
640;2;
641;0;
642;0;
643;2;
644;0;
645;1;
646;0;
647;0;
648;1;
649;1;
650;0;
651;0;
652;0;
653;0;
654;0;
655;0;
656;1;
657;0;
658;0;
659;1;
660;1;
661;0;
662;0;
663;0;
664;0;
665;0;
666;0;
667;0;
668;1;
669;2;
670;1;
671;0;
672;1;
673;1;
674;0;
675;0;
676;0;
677;0;
678;0;
679;0;
680;0;
681;1;
682;1;
683;0;
684;0;
685;1;
686;0;
687;1;
688;0;
689;2;
690;0;
691;0;
692;0;
693;3;
694;0;
695;0;
696;0;
697;0;
698;0;
699;0;
700;0;
701;0;
702;0;
703;1;
704;0;
705;0;
706;0;
707;0;
708;0;
709;0;
710;0;
711;0;
712;0;
713;0;
714;0;
715;1;
716;0;
717;1;
718;0;
719;0;
720;1;
721;0;
722;0;
723;0;
724;0;
725;0;
726;0;
727;0;
728;0;
729;0;
730;1;
731;0;
732;0;
733;0;
734;0;
735;1;
736;1;
737;0;
738;0;
739;0;
740;0;
741;0;
742;0;
743;0;
744;1;
745;1;
746;0;
747;0;
748;0;
749;0;
750;0;
751;1;
752;0;
753;0;
754;0;
755;0;
756;0;
757;0;
758;0;
759;0;
760;0;
761;2;
762;0;
763;0;
764;0;
765;1;
766;0;
767;0;
768;0;
769;0;
770;0;
771;0;
772;0;
773;1;
774;0;
775;0;
776;0;
777;0;
778;0;
779;0;
780;0;
781;0;
782;0;
783;0;
784;1;
785;0;
786;0;
787;0;
788;0;
789;0;
790;0;
791;0;
792;1;
793;0;
794;0;
795;0;
796;0;
797;0;
798;0;
799;1;
800;1;
801;0;
802;0;
803;0;
804;0;
805;0;
806;0;
807;0;
808;0;
809;0;
810;0;
811;1;
812;0;
813;0;
814;0;
815;0;
816;0;
817;0;
818;1;
819;0;
820;0;
821;0;
822;0;
823;0;
824;0;
825;0;
826;0;
827;0;
828;0;
829;0;
830;0;
831;0;
832;0;
833;0;
834;0;
835;0;
836;0;
837;0;
838;0;
839;0;
840;0;
841;0;
842;0;
843;0;
844;1;
845;1;
846;0;
847;0;
848;0;
849;0;
850;0;
851;0;
852;0;
853;0;
854;0;
855;0;
856;0;
857;0;
858;0;
859;0;
860;0;
861;0;
862;0;
863;0;
864;2;
865;0;
866;0;
867;0;
868;0;
869;0;
870;0;
871;0;
872;0;
873;0;
874;0;
875;0;
876;0;
877;0;
878;1;
879;0;
880;0;
881;0;
882;0;
883;0;
884;0;
885;0;
886;0;
887;0;
888;0;
889;0;
890;0;
891;0;
892;0;
893;0;
894;0;
895;0;
896;0;
897;0;
898;0;
899;0;
900;0;
901;0;
902;0;
903;0;
904;0;
905;0;
906;0;
907;0;
908;0;
909;1;
910;0;
911;0;
912;0;
913;0;
914;0;
915;0;
916;0;
917;1;
918;0;
919;0;
920;0;
921;1;
922;0;
923;0;
924;0;
925;0;
926;0;
927;0;
928;0;
929;0;
930;0;
931;0;
932;0;
933;0;
934;0;
935;0;
936;0;
937;0;
938;0;
939;0;
940;0;
941;0;
942;0;
943;0;
944;0;
945;0;
946;0;
947;0;
948;0;
949;0;
950;0;
951;0;
952;0;
953;1;
954;0;
955;0;
956;0;
957;0;
958;0;
959;0;
960;0;
961;0;
962;0;
963;0;
964;0;
965;0;
966;0;
967;0;
968;0;
969;0;
970;0;
971;0;
972;0;
973;0;
974;0;
975;0;
976;0;
977;0;
978;0;
979;0;
980;0;
981;0;
982;0;
983;0;
984;0;
985;0;
986;0;
987;0;
988;0;
989;0;
990;0;
991;0;
992;0;
993;0;
994;0;
995;0;
996;0;
997;0;
998;0;
999;0;
1000;0;
1001;0;
1002;0;
1003;0;
1004;0;
1005;0;
1006;0;
1007;0;
1008;0;
1009;0;
1010;0;
1011;0;
1012;0;
1013;0;
1014;0;
1015;0;
1016;0;
1017;0;
1018;0;
1019;0;
1020;0;
1021;1;
1022;0;
1023;0;
1024;0;
1025;0;
1026;1;
1027;0;
1028;0;
1029;0;
1030;0;
1031;0;
1032;0;
1033;0;
1034;0;
1035;1;
1036;0;
1037;0;
1038;0;
1039;0;
1040;0;
1041;0;
1042;0;
1043;0;
1044;0;
1045;0;
1046;0;
1047;0;
1048;0;
1049;0;
1050;0;
1051;0;
1052;0;
1053;0;
1054;0;
1055;0;
1056;1;
1057;0;
1058;0;
1059;0;
1060;0;
1061;0;
1062;0;
1063;0;
1064;0;
1065;0;
1066;0;
1067;0;
1068;0;
1069;0;
1070;0;
1071;0;
1072;0;
1073;0;
1074;0;
1075;0;
1076;0;
1077;0;
1078;0;
1079;0;
1080;0;
1081;0;
1082;0;
1083;0;
1084;0;
1085;0;
1086;0;
1087;0;
1088;0;
1089;0;
1090;0;
1091;0;
1092;0;
1093;0;
1094;0;
1095;0;
1096;0;
1097;0;
1098;0;
1099;0;
1100;0;
1101;1;
1102;1;
1103;0;
1104;0;
1105;0;
1106;0;
1107;0;
1108;0;
1109;0;
1110;0;
1111;0;
1112;1;
1113;0;
1114;0;
1115;0;
1116;0;
1117;0;
1118;1;
1119;0;
1120;0;
1121;0;
1122;0;
1123;0;
1124;0;
1125;0;
1126;0;
1127;0;
1128;0;
1129;0;
1130;0;
1131;0;
1132;0;
1133;0;
1134;0;
1135;0;
1136;0;
1137;0;
1138;0;
1139;0;
1140;0;
1141;0;
1142;0;
1143;0;
1144;0;
1145;1;
1146;0;
1147;0;
1148;0;
1149;0;
1150;0;
1151;0;
1152;0;
1153;0;
1154;0;
1155;0;
1156;0;
1157;0;
1158;0;
1159;0;
1160;0;
1161;0;
1162;0;
1163;0;
1164;0;
1165;0;
1166;0;
1167;0;
1168;0;
1169;0;
1170;0;
1171;0;
1172;0;
1173;0;
1174;0;
1175;0;
1176;0;
1177;0;
1178;0;
1179;0;
1180;0;
1181;0;
1182;0;
1183;0;
1184;1;
1185;0;
1186;0;
1187;0;
1188;0;
1189;0;
1190;0;
1191;0;
1192;0;
1193;0;
1194;0;
1195;0;
1196;0;
1197;0;
1198;0;
1199;1;
1200;0;
1201;0;
1202;0;
1203;0;
1204;0;
1205;0;
1206;0;
1207;0;
1208;0;
1209;1;
1210;0;
1211;0;
1212;0;
1213;0;
1214;0;
1215;0;
1216;0;
1217;0;
1218;0;
1219;0;
1220;0;
1221;0;
1222;0;
1223;0;
1224;0;
1225;0;
1226;0;
1227;0;
1228;0;
1229;0;
1230;0;
1231;0;
1232;1;
1233;0;
1234;0;
1235;0;
1236;0;
1237;0;
1238;0;
1239;0;
1240;0;
1241;0;
1242;0;
1243;1;
1244;0;
1245;0;
1246;0;
1247;0;
1248;0;
1249;0;
1250;0;
1251;0;
1252;0;
1253;0;
1254;0;
1255;0;
1256;0;
1257;0;
1258;0;
1259;0;
1260;0;
1261;0;
1262;0;
1263;0;
1264;0;
1265;0;
1266;0;
1267;0;
1268;0;
1269;0;
1270;0;
1271;0;
1272;0;
1273;0;
1274;0;
1275;0;
1276;0;
1277;0;
1278;0;
1279;0;
1280;0;
1281;0;
1282;0;
1283;0;
1284;0;
1285;0;
1286;1;
1287;0;
1288;0;
1289;0;
1290;0;
1291;1;
1292;0;
1293;0;
1294;0;
1295;0;
1296;0;
1297;0;
1298;0;
1299;0;
1300;0;
1301;0;
1302;0;
1303;0;
1304;0;
1305;0;
1306;0;
1307;1;
1308;0;
1309;0;
1310;0;
1311;1;
1312;0;
1313;0;
1314;0;
1315;0;
1316;1;
1317;0;
1318;0;
1319;0;
1320;0;
1321;1;
1322;0;
1323;0;
1324;0;
1325;0;
1326;0;
1327;0;
1328;0;
1329;0;
1330;0;
1331;0;
1332;0;
1333;0;
1334;0;
1335;0;
1336;0;
1337;0;
1338;0;
1339;1;
1340;0;
1341;0;
1342;0;
1343;0;
1344;0;
1345;0;
1346;0;
1347;0;
1348;0;
1349;0;
1350;0;
1351;0;
1352;0;
1353;0;
1354;0;
1355;0;
1356;0;
1357;0;
1358;0;
1359;0;
1360;0;
1361;0;
1362;0;
1363;0;
1364;0;
1365;0;
1366;0;
1367;0;
1368;0;
1369;0;
1370;0;
1371;0;
1372;0;
1373;0;
1374;0;
1375;0;
1376;0;
1377;0;
1378;0;
1379;0;
1380;0;
1381;0;
1382;0;
1383;0;
1384;0;
1385;0;
1386;0;
1387;0;
1388;0;
1389;0;
1390;0;
1391;0;
1392;0;
1393;0;
1394;0;
1395;0;
1396;0;
1397;0;
1398;0;
1399;0;
1400;0;
1401;0;
1402;0;
1403;0;
1404;0;
1405;0;
1406;0;
1407;0;
1408;0;
1409;0;
1410;0;
1411;0;
1412;0;
1413;0;
1414;0;
1415;0;
1416;0;
1417;0;
1418;0;
1419;0;
1420;0;
1421;0;
1422;0;
1423;0;
1424;0;
1425;0;
1426;0;
1427;0;
1428;0;
1429;0;
1430;0;
1431;0;
1432;1;
1433;0;
1434;0;
1435;0;
1436;0;
1437;0;
1438;0;
1439;0;
1440;0;
1441;0;
1442;0;
1443;0;
1444;0;
1445;0;
1446;0;
1447;0;
1448;0;
1449;0;
1450;0;
1451;0;
1452;0;
1453;0;
1454;0;
1455;0;
1456;0;
1457;0;
1458;0;
1459;0;
1460;0;
1461;0;
1462;0;
1463;0;
1464;0;
1465;0;
1466;0;
1467;0;
1468;0;
1469;0;
1470;0;
1471;0;
1472;1;
1473;0;
1474;0;
1475;0;
1476;0;
1477;0;
1478;0;
1479;0;
1480;0;
1481;0;
1482;0;
1483;0;
1484;0;
1485;0;
1486;0;
1487;0;
1488;0;
1489;0;
1490;0;
1491;0;
1492;0;
1493;0;
1494;0;
1495;0;
1496;0;
1497;0;
1498;0;
1499;0;
1500;0;
1501;0;
1502;0;
1503;0;
1504;0;
1505;0;
1506;0;
1507;0;
1508;0;
1509;0;
1510;0;
1511;0;
1512;0;
1513;0;
1514;0;
1515;0;
1516;0;
1517;0;
1518;0;
1519;0;
1520;0;
1521;0;
1522;0;
1523;0;
1524;0;
1525;0;
1526;0;
1527;0;
1528;0;
1529;0;
1530;0;
1531;0;
1532;0;
1533;0;
1534;0;
1535;0;
1536;0;
1537;0;
1538;0;
1539;0;
1540;0;
1541;0;
1542;0;
1543;0;
1544;0;
1545;0;
1546;0;
1547;0;
1548;0;
1549;0;
1550;0;
1551;0;
1552;0;
1553;0;
1554;0;
1555;0;
1556;0;
1557;0;
1558;0;
1559;0;
1560;0;
1561;0;
1562;0;
1563;0;
1564;0;
1565;0;
1566;0;
1567;0;
1568;0;
1569;0;
1570;0;
1571;0;
1572;0;
1573;0;
1574;0;
1575;0;
1576;0;
1577;0;
1578;0;
1579;0;
1580;0;
1581;0;
1582;0;
1583;0;
1584;0;
1585;0;
1586;0;
1587;0;
1588;0;
1589;0;
1590;0;
1591;0;
1592;0;
1593;0;
1594;0;
1595;0;
1596;0;
1597;0;
1598;0;
1599;0;
1600;0;
1601;0;
1602;0;
1603;0;
1604;0;
1605;0;
1606;0;
1607;0;
1608;0;
1609;1;
1610;0;
1611;0;
1612;0;
1613;0;
1614;0;
1615;0;
1616;0;
1617;0;
1618;0;
1619;0;
1620;0;
1621;0;
1622;0;
1623;0;
1624;0;
1625;0;
1626;1;
1627;0;
1628;0;
1629;0;
1630;0;
1631;0;
1632;0;
1633;0;
1634;0;
1635;0;
1636;0;
1637;0;
1638;0;
1639;0;
1640;0;
1641;0;
1642;0;
1643;0;
1644;0;
1645;0;
1646;0;
1647;0;
1648;0;
1649;0;
1650;0;
1651;0;
1652;0;
1653;0;
1654;0;
1655;0;
1656;0;
1657;0;
1658;0;
1659;0;
1660;1;
1661;0;
1662;0;
1663;0;
1664;0;
1665;0;
1666;0;
1667;0;
1668;0;
1669;0;
1670;0;
1671;0;
1672;0;
1673;0;
1674;0;
1675;0;
1676;0;
1677;0;
1678;0;
1679;0;
1680;0;
1681;0;
1682;0;
1683;1;
1684;1;
1685;0;
1686;0;
1687;0;
1688;0;
1689;0;
1690;0;
1691;0;
1692;0;
1693;0;
1694;0;
1695;0;
1696;0;
1697;0;
1698;0;
1699;0;
1700;0;
1701;0;
1702;0;
1703;0;
1704;1;
1705;0;
1706;0;
1707;0;
1708;0;
1709;0;
1710;0;
1711;0;
1712;0;
1713;0;
1714;0;
1715;0;
1716;0;
1717;0;
1718;0;
1719;0;
1720;0;
1721;0;
1722;0;
1723;0;
1724;0;
1725;0;
1726;0;
1727;0;
1728;0;
1729;0;
1730;0;
1731;0;
1732;1;
1733;0;
1734;0;
1735;0;
1736;0;
1737;0;
1738;0;
1739;1;
1740;0;
1741;0;
1742;0;
1743;0;
1744;0;
1745;0;
1746;0;
1747;0;
1748;0;
1749;0;
1750;0;
1751;0;
1752;0;
1753;0;
1754;0;
1755;0;
1756;0;
1757;0;
1758;0;
1759;0;
1760;0;
1761;0;
1762;0;
1763;0;
1764;0;
1765;0;
1766;0;
1767;0;
1768;0;
1769;0;
1770;0;
1771;0;
1772;0;
1773;0;
1774;0;
1775;0;
1776;0;
1777;0;
1778;0;
1779;0;
1780;0;
1781;0;
1782;0;
1783;0;
1784;0;
1785;0;
1786;0;
1787;0;
1788;0;
1789;0;
1790;0;
1791;0;
1792;0;
1793;0;
1794;0;
1795;0;
1796;0;
1797;0;
1798;0;
1799;0;
1800;0;
1801;0;
1802;0;
1803;0;
1804;0;
1805;0;
1806;0;
1807;0;
1808;0;
1809;0;
1810;0;
1811;0;
1812;0;
1813;0;
1814;0;
1815;0;
1816;0;
1817;0;
1818;0;
1819;0;
1820;0;
1821;1;
1822;0;
1823;0;
1824;0;
1825;0;
1826;0;
1827;0;
1828;0;
1829;0;
1830;0;
1831;0;
1832;0;
1833;0;
1834;0;
1835;0;
1836;0;
1837;0;
1838;0;
1839;0;
1840;0;
1841;0;
1842;0;
1843;0;
1844;0;
1845;0;
1846;0;
1847;0;
1848;0;
1849;0;
1850;0;
1851;0;
1852;0;
1853;0;
1854;0;
1855;0;
1856;0;
1857;0;
1858;0;
1859;0;
1860;0;
1861;0;
1862;0;
1863;0;
1864;0;
1865;1;
1866;0;
1867;0;
1868;0;
1869;0;
1870;0;
1871;0;
1872;0;
1873;0;
1874;0;
1875;0;
1876;0;
1877;0;
1878;0;
1879;0;
1880;0;
1881;0;
1882;0;
1883;0;
1884;0;
1885;0;
1886;0;
1887;0;
1888;0;
1889;0;
1890;0;
1891;0;
1892;0;
1893;0;
1894;0;
1895;0;
1896;0;
1897;0;
1898;0;
1899;0;
1900;0;
1901;0;
1902;0;
1903;0;
1904;0;
1905;0;
1906;0;
1907;0;
1908;0;
1909;0;
1910;0;
1911;0;
1912;0;
1913;0;
1914;0;
1915;0;
1916;0;
1917;0;
1918;0;
1919;0;
1920;0;
1921;0;
1922;0;
1923;0;
1924;0;
1925;0;
1926;1;
1927;0;
1928;0;
1929;0;
1930;0;
1931;0;
1932;0;
1933;0;
1934;1;
1935;1;
1936;0;
1937;0;
1938;0;
1939;0;
1940;1;
1941;0;
1942;0;
1943;0;
1944;0;
1945;0;
1946;0;
1947;0;
1948;0;
1949;0;
1950;0;
1951;0;
1952;0;
1953;0;
1954;0;
1955;0;
1956;0;
1957;0;
1958;0;
1959;0;
1960;0;
1961;0;
1962;0;
1963;0;
1964;0;
1965;0;
1966;0;
1967;0;
1968;0;
1969;1;
1970;0;
1971;0;
1972;0;
1973;0;
1974;0;
1975;0;
1976;0;
1977;0;
1978;0;
1979;0;
1980;0;
1981;0;
1982;0;
1983;0;
1984;0;
1985;0;
1986;0;
1987;0;
1988;0;
1989;0;
1990;0;
1991;0;
1992;0;
1993;0;
1994;0;
1995;0;
1996;0;
1997;0;
1998;0;
1999;0;
2000;0;
2001;0;
2002;0;
2003;0;
2004;0;
2005;0;
2006;0;
2007;0;
2008;0;
2009;0;
2010;0;
2011;0;
2012;0;
2013;0;
2014;0;
2015;0;
2016;0;
2017;0;
2018;0;
2019;0;
2020;0;
2021;0;
2022;0;
2023;0;
2024;0;
2025;0;
2026;0;
2027;0;
2028;0;
2029;0;
2030;0;
2031;0;
2032;0;
2033;0;
2034;0;
2035;0;
2036;0;
2037;0;
2038;0;
2039;0;
2040;0;
2041;0;
2042;0;
2043;0;
2044;0;
2045;0;
2046;0;
2047;0;
2048;0;
2049;0;
2050;0;
2051;0;
2052;0;
2053;0;
2054;0;
2055;0;
2056;0;
2057;0;
2058;0;
2059;0;
2060;0;
2061;0;
2062;0;
2063;0;
2064;0;
2065;0;
2066;0;
2067;0;
2068;0;
2069;0;
2070;0;
2071;0;
2072;0;
2073;0;
2074;0;
2075;0;
2076;0;
2077;0;
2078;0;
2079;0;
2080;0;
2081;0;
2082;0;
2083;0;
2084;0;
2085;0;
2086;0;
2087;0;
2088;0;
2089;0;
2090;0;
2091;0;
2092;0;
2093;0;
2094;0;
2095;0;
2096;0;
2097;0;
2098;0;
2099;0;
2100;0;
2101;0;
2102;0;
2103;0;
2104;0;
2105;0;
2106;0;
2107;0;
2108;0;
2109;0;
2110;0;
2111;0;
2112;0;
2113;0;
2114;0;
2115;0;
2116;0;
2117;0;
2118;0;
2119;0;
2120;0;
2121;0;
2122;0;
2123;0;
2124;0;
2125;0;
2126;0;
2127;0;
2128;0;
2129;0;
2130;0;
2131;0;
2132;0;
2133;0;
2134;0;
2135;0;
2136;0;
2137;0;
2138;0;
2139;0;
2140;0;
2141;0;
2142;0;
2143;0;
2144;0;
2145;0;
2146;0;
2147;0;
2148;0;
2149;0;
2150;0;
2151;0;
2152;0;
2153;0;
2154;0;
2155;0;
2156;0;
2157;0;
2158;0;
2159;0;
2160;0;
2161;0;
2162;0;
2163;0;
2164;0;
2165;0;
2166;0;
2167;0;
2168;0;
2169;0;
2170;0;
2171;0;
2172;0;
2173;0;
2174;0;
2175;0;
2176;0;
2177;0;
2178;0;
2179;0;
2180;0;
2181;0;
2182;0;
2183;0;
2184;0;
2185;0;
2186;0;
2187;0;
2188;0;
2189;0;
2190;0;
2191;0;
2192;0;
2193;0;
2194;0;
2195;0;
2196;0;
2197;0;
2198;0;
2199;0;
2200;0;
2201;0;
2202;0;
2203;0;
2204;0;
2205;0;
2206;0;
2207;0;
2208;0;
2209;0;
2210;0;
2211;0;
2212;0;
2213;0;
2214;0;
2215;0;
2216;0;
2217;0;
2218;0;
2219;0;
2220;0;
2221;0;
2222;0;
2223;0;
2224;0;
2225;0;
2226;0;
2227;0;
2228;0;
2229;0;
2230;0;
2231;0;
2232;0;
2233;0;
2234;0;
2235;0;
2236;0;
2237;0;
2238;0;
2239;0;
2240;0;
2241;0;
2242;0;
2243;0;
2244;0;
2245;0;
2246;0;
2247;0;
2248;0;
2249;0;
2250;0;
2251;0;
2252;0;
2253;0;
2254;0;
2255;0;
2256;0;
2257;0;
2258;0;
2259;0;
2260;0;
2261;0;
2262;0;
2263;0;
2264;0;
2265;0;
2266;0;
2267;0;
2268;0;
2269;0;
2270;0;
2271;0;
2272;0;
2273;0;
2274;0;
2275;0;
2276;0;
2277;0;
2278;0;
2279;0;
2280;0;
2281;0;
2282;0;
2283;0;
2284;0;
2285;0;
2286;0;
2287;0;
2288;0;
2289;0;
2290;0;
2291;0;
2292;0;
2293;0;
2294;0;
2295;0;
2296;0;
2297;0;
2298;0;
2299;0;
2300;0;
2301;0;
2302;0;
2303;0;
2304;0;
2305;0;
2306;0;
2307;0;
2308;0;
2309;0;
2310;0;
2311;0;
2312;0;
2313;0;
2314;0;
2315;0;
2316;0;
2317;0;
2318;0;
2319;0;
2320;0;
2321;0;
2322;0;
2323;0;
2324;0;
2325;0;
2326;0;
2327;0;
2328;0;
2329;0;
2330;0;
2331;0;
2332;0;
2333;0;
2334;0;
2335;0;
2336;0;
2337;0;
2338;0;
2339;0;
2340;0;
2341;0;
2342;0;
2343;0;
2344;0;
2345;0;
2346;0;
2347;0;
2348;0;
2349;0;
2350;0;
2351;0;
2352;0;
2353;0;
2354;0;
2355;0;
2356;0;
2357;0;
2358;0;
2359;0;
2360;0;
2361;0;
2362;0;
2363;0;
2364;0;
2365;0;
2366;0;
2367;0;
2368;0;
2369;0;
2370;0;
2371;0;
2372;0;
2373;0;
2374;0;
2375;0;
2376;0;
2377;0;
2378;0;
2379;0;
2380;0;
2381;0;
2382;0;
2383;0;
2384;0;
2385;0;
2386;0;
2387;0;
2388;0;
2389;0;
2390;0;
2391;0;
2392;0;
2393;0;
2394;0;
2395;0;
2396;0;
2397;0;
2398;0;
2399;0;
2400;0;
2401;0;
2402;0;
2403;0;
2404;0;
2405;0;
2406;0;
2407;0;
2408;0;
2409;0;
2410;0;
2411;0;
2412;0;
2413;0;
2414;0;
2415;0;
2416;0;
2417;0;
2418;0;
2419;0;
2420;0;
2421;0;
2422;0;
2423;0;
2424;0;
2425;0;
2426;0;
2427;0;
2428;0;
2429;0;
2430;0;
2431;0;
2432;0;
2433;0;
2434;0;
2435;0;
2436;0;
2437;0;
2438;0;
2439;0;
2440;0;
2441;0;
2442;0;
2443;0;
2444;0;
2445;0;
2446;0;
2447;0;
2448;0;
2449;0;
2450;0;
2451;0;
2452;0;
2453;0;
2454;0;
2455;0;
2456;0;
2457;0;
2458;0;
2459;0;
2460;0;
2461;0;
2462;0;
2463;0;
2464;0;
2465;0;
2466;0;
2467;0;
2468;0;
2469;0;
2470;0;
2471;0;
2472;0;
2473;0;
2474;0;
2475;0;
2476;0;
2477;0;
2478;0;
2479;0;
2480;0;
2481;0;
2482;0;
2483;0;
2484;0;
2485;0;
2486;0;
2487;0;
2488;0;
2489;0;
2490;0;
2491;0;
2492;0;
2493;0;
2494;0;
2495;0;
2496;0;
2497;0;
2498;0;
2499;0;
2500;0;
2501;0;
2502;0;
2503;0;
2504;0;
2505;0;
2506;0;
2507;0;
2508;0;
2509;0;
2510;0;
2511;0;
2512;0;
2513;0;
2514;0;
2515;0;
2516;0;
2517;0;
2518;0;
2519;0;
2520;0;
2521;0;
2522;0;
2523;0;
2524;0;
2525;0;
2526;0;
2527;0;
2528;0;
2529;0;
2530;0;
2531;0;
2532;0;
2533;0;
2534;0;
2535;0;
2536;0;
2537;0;
2538;0;
2539;0;
2540;0;
2541;0;
2542;0;
2543;0;
2544;0;
2545;0;
2546;0;
2547;0;
2548;0;
2549;0;
2550;0;
2551;0;
2552;0;
2553;0;
2554;0;
2555;0;
2556;0;
2557;0;
2558;0;
2559;0;
2560;0;
2561;0;
2562;0;
2563;0;
2564;0;
2565;0;
2566;0;
2567;0;
2568;0;
2569;0;
2570;0;
2571;0;
2572;0;
2573;0;
2574;0;
2575;0;
2576;0;
2577;0;
2578;0;
2579;0;
2580;0;
2581;0;
2582;0;
2583;0;
2584;0;
2585;0;
2586;0;
2587;0;
2588;0;
2589;0;
2590;0;
2591;0;
2592;0;
2593;0;
2594;0;
2595;0;
2596;0;
2597;0;
2598;0;
2599;0;
2600;0;
2601;0;
2602;0;
2603;0;
2604;0;
2605;1;
