Testbed;
471.omnetpp;
462.libquantum;
445.gobmk;

Program;average error; MSE;
482.sphinx3;-0.185259538618152;0.0817329022936495
481.wrf;-0.069044773959439;0.0674728983253997
470.lbm;-0.116038081158052;0.248281317233098
465.tonto;-0.0716474794869427;0.0405999146693761
459.GemsFDTD;-0.0572164405465047;0.237740957505662
454.calculix;0.0682814450185421;0.1005727997635
453.povray;-0.0435792718810168;0.0392087649076669
450.soplex;-0.0595123082973633;0.0519846065197324
447.dealII;0.0380380988547705;0.12560800629912
444.namd;0.0461687225280591;0.0787113472037028
437.leslie3d;-0.0614856411985366;0.235734161619335
436.cactusADM;-0.134852401332292;0.229534192007418
435.gromacs;-0.14263523746816;0.082665987454497
434.zeusmp;-0.139596732061506;0.130503617014031
433.milc;0.0692787986398494;0.144238538098152
416.gamess;-0.0024556540486392;0.0236372512532665
410.bwaves;0.0273290439208049;0.249723253456446
483.xalancbmk;-0.0895529718041535;0.0617050498893456
473.astar;-0.0628007002956118;0.0399971365878252
464.h264ref;-0.0267179370057556;0.0118506922084904
458.sjeng;-0.0125486461717644;0.0138288554844295
456.hmmer;0.0483344929212239;0.155280736808179
429.mcf;-0.14115554089162;0.0676282144366439
403.gcc;-0.153460178131286;0.048328476705302
401.bzip2;-0.0306501693034217;0.00830063231257419
400.perlbench;-0.0173880344850369;0.0256669400133155


average; -0.0507756590870002;
MSE; 0.100020663464237;
