0.147180714745985,0.286930452052295,0.220181141514341,0.152304798885633
0.171398095231724,0.298109060878162,0.165905301065572,0.176523502012409
0.0373414618547301,0.608997773432039,0.226207690498904,0.0575951114522711
0.191804385898745,0.229550898467211,0.187244574300067,0.19480833250759
0.0838111212410923,0.430759047812729,0.150170698961217,0.151491333356737
0.190499188875033,0.217605514069828,0.203639222983303,0.193334711083767
0.195333024230667,0.211128399821689,0.195396767651234,0.198451345349069
0.182534997059348,0.292084363223353,0.160555392486083,0.176497782240688
0.199694255283252,0.208084375825862,0.195983900191563,0.197787176792268
0.202171707223955,0.195246715867489,0.197065685475877,0.202513702647118
0.0664625325004525,0.421668708491921,0.286108751501666,0.100008044918347
0.144062249989047,0.319509382757394,0.199829877873081,0.160932035138961
0.201286725382358,0.199051587743342,0.193223347260251,0.202828078081058
0.0830229002725521,0.490975981248864,0.251604751902275,0.084541544971721
0.16850468987266,0.427225914163301,0.126924907804956,0.127782824492577
0.2,0.2,0.2,0.2
0.0756345867148996,0.502884769747592,0.121281952798712,0.140223497623233
