10 1 -0.310861695412379 0.788460443960511 0.847528681145992
100 1 -0.537670398018227 0.673171912936024 0.861539251149374
110 1 -0.551956337448884 0.626620372003392 0.835050231458956
120 1 -0.535375261426639 0.690100727877163 0.873421825445319
130 1 -0.53156312666957 0.614186949304937 0.812271485607636
140 1 -0.528700612466242 0.728835917707719 0.900403316610413
150 1 -0.560042241498868 0.628148532832029 0.841556826103922
160 1 -0.53647926529083 0.652515694481524 0.844740630981898
170 1 -0.51144334702437 0.673402750046703 0.845603666610992
180 1 -0.535997925407646 0.641197581411036 0.835720117293261
190 1 -0.567972619155878 0.611363597189572 0.834480882992152
20 1 -0.537939513151474 0.677016565816095 0.864714027987904
200 1 -0.563322280477802 0.620341565026806 0.837947282937667
30 1 -0.495119325385071 0.808419108185172 0.94798976832489
40 1 -0.422409324153201 0.729589546960109 0.843048364072323
50 1 -0.568198570960887 0.623403748264109 0.843493834827342
60 1 -0.549563574618667 0.643214426119135 0.846017092330537
70 1 -0.563396150316223 0.623004223902403 0.839969931123357
80 1 -0.560624167273829 0.619149978695694 0.835252149383857
90 1 -0.623949083460461 0.534449133125611 0.821552393125275
10 10 0.0189112710905488 0.430700953330506 0.431115932637692
100 10 0.0554503941708228 0.529046315310624 0.531944310955054
110 10 0.102956919162653 0.593144975172093 0.602014193167709
120 10 -0.00318427069467993 0.436653097703044 0.436664708115416
130 10 0.028260210916044 0.420716839002495 0.421664912153324
140 10 -0.000787105852046083 0.44480888233812 0.444809578744106
150 10 0.0713436032235341 0.694501932636665 0.69815674755529
160 10 0.0477107825132015 0.599042827540489 0.600939787329584
170 10 0.0743316114204266 0.56491162583131 0.569780952169982
180 10 0.139297655390406 0.654247920946051 0.668912684032449
190 10 0.0976180055358229 0.723413272212177 0.729969888021089
20 10 0.0629616144541811 0.493504932923356 0.497505058983688
200 10 0.0836229475465126 0.553394709557942 0.559677140790193
30 10 0.000535838030307018 0.391230800708318 0.39123116765573
40 10 0.0844816375745666 0.601372576184235 0.607277632120388
50 10 0.0466963325291684 0.507312938391768 0.509457520242233
60 10 0.0756056104418209 0.495447002380201 0.501182542092008
70 10 0.138423803985392 0.609134976548891 0.624665165640764
80 10 0.0530986468679954 0.75381664381637 0.755684457160386
90 10 0.0034675630206779 0.398127295247998 0.39814239565109
10 11 0.049965964161393 0.451307774615513 0.454065309182483
100 11 0.070928263845779 0.521444728983157 0.526246542978189
110 11 0.0820448839756894 0.522611323900029 0.529012248303501
120 11 0.120961726388815 0.77009413024373 0.779536213839235
130 11 0.127665852487267 0.549975900287335 0.564599026556162
140 11 0.116477463820373 0.62295486668275 0.633750554636246
150 11 0.148505550213876 0.716319144229461 0.731551101997634
160 11 0.0629074456635385 0.480819854715913 0.484917600638441
170 11 0.0726788417308444 0.528439645460975 0.533414166413171
180 11 0.0983724255775273 0.531140371518628 0.540173331784301
190 11 0.0781539482761014 0.434074385685032 0.44105397848674
20 11 0.110668032862664 0.658200623985799 0.667439491574321
200 11 0.124565930318181 0.617212940954718 0.629657435021621
30 11 0.0650023898698315 0.616693258059474 0.620109575175871
40 11 0.110672799802949 0.5101669660888 0.522033334093211
50 11 0.134212322465731 0.722321935435615 0.734684916078381
60 11 0.153973637259191 0.687700036948595 0.704726345321305
70 11 0.0600405807654543 0.552339587100732 0.555593278232612
80 11 0.0570002528760906 0.504322089312801 0.507533051728424
90 11 0.0588976058690553 0.517171970495641 0.520514913372758
10 12 0.107931849548184 0.474995975081464 0.487104157742964
100 12 0.0600132505698698 0.431338559193575 0.435493447586931
110 12 0.0936531915688126 0.460995379524599 0.470412223729416
120 12 0.0608880695462221 0.484758003631003 0.488566964803579
130 12 0.0210719435831213 0.394433703734241 0.39499616890279
140 12 0.0808564727997295 0.504572727979282 0.511010182886865
150 12 0.0659336703020182 0.432598135042648 0.437593870297417
160 12 0.0467630724481437 0.43411609185587 0.436627491293213
170 12 0.0550329378358743 0.505795305513487 0.508780419558702
180 12 0.107848014905008 0.557401103089901 0.567738658226467
190 12 0.12027911841387 0.589687495101788 0.601829218471353
20 12 0.333060571368012 1.86027559568657 1.88985571833063
200 12 0.0585671462609679 0.43431722265686 0.43824828638287
30 12 0.151320378709807 0.667708197640394 0.684640120215769
40 12 0.075151511694623 0.518936288203142 0.524349712428682
50 12 0.0760691373012308 0.567436034912308 0.572512154776434
60 12 0.0138306554335164 0.3273899480241 0.327681957234364
70 12 0.0908517016353627 0.459046587945215 0.467950640125842
80 12 0.0726081264184883 0.450806314075168 0.45661611100797
90 12 0.0895394204324857 0.48452486981147 0.49272878673486
10 13 0.0645325878626953 0.48246669814824 0.486763361109196
100 13 0.0651868736589356 0.570747004942414 0.57445754599288
110 13 0.0511164805415337 0.406853367516097 0.410051895791424
120 13 0.102406251465015 0.41829161783338 0.430644769954056
130 13 0.105116519195634 0.478419289665667 0.489831092655426
140 13 0.0673246934845195 0.537115047024629 0.541318010131803
150 13 0.08179702403251 0.420543490839868 0.428424533410912
160 13 0.095234867769808 0.554000648821299 0.56212667516633
170 13 0.147059878587975 0.642592077486833 0.659204965044374
180 13 0.0882566541117576 0.493280000492671 0.501113156763073
190 13 0.0830425493764596 0.424578949158238 0.432623796242481
20 13 0.0882957402251877 0.456874738484516 0.465328555331831
200 13 0.113117807547418 0.530385722033145 0.542314164042352
30 13 0.0817304761474767 0.374075915058852 0.382900327707369
40 13 0.157067414780935 0.631939936425747 0.651166841935109
50 13 0.0253386324102829 0.272906982141454 0.274080767647019
60 13 0.0130474094043461 0.302414443478277 0.302695772214348
70 13 0.117175983839117 0.535031591417425 0.547712529529248
80 13 0.105799765121619 0.472671247761548 0.484367318014178
90 13 0.145727658381938 0.580094381266891 0.598118752084316
10 14 0.092875835656923 0.440853113914188 0.450530119855274
100 14 0.0528387479890887 0.416445124868407 0.419783843562038
110 14 0.0814627651181704 0.444096205447598 0.451505948790991
120 14 0.130881738207757 0.523776911316412 0.539881729848718
130 14 0.0691353079394849 0.402742761394769 0.408633604418153
140 14 0.0676530850611612 0.42520593133648 0.430554321731899
150 14 0.0567471203308814 0.359687664629137 0.364136583924507
160 14 0.0940970917816098 0.557530374618859 0.56541522910548
170 14 0.0785626321032649 0.389521266788079 0.397364951201264
180 14 0.0875888178393727 0.649419468728656 0.655299509670431
190 14 0.0862555474098782 0.410347518122587 0.419315042764201
20 14 0.177286812484358 0.79381061186906 0.81336701518859
200 14 0.139711413896354 0.681461837130306 0.695636050415682
30 14 0.0642301266937859 0.385755052233465 0.391065812234646
40 14 0.0742027811168365 0.389522477631518 0.39652719113028
50 14 0.0590746351053943 0.404536122830622 0.408826720246693
60 14 0.104714899374803 0.517614961907063 0.52810080376868
70 14 0.0821184941122102 0.363570616707828 0.372729178370258
80 14 0.0917457467506612 0.419199456092951 0.429121738013192
90 14 0.0718713474775441 0.473474620684334 0.478898430797609
10 15 0.177151776385087 0.692490702925098 0.714790966306995
100 15 0.0978337200262695 0.408876306488699 0.420417971525979
110 15 0.0714575262707814 0.403525304427787 0.409803427723925
120 15 0.110811950989433 0.477331696164142 0.490025342859961
130 15 0.0634477773489376 0.33437510753659 0.340341494664736
140 15 0.0699774209398744 0.353442146796006 0.360302915021744
150 15 0.13251302376855 0.507259668217028 0.5242824357805
160 15 0.142990309788912 0.633378225756976 0.649318262146218
170 15 0.0646689131509834 0.395548441163018 0.400799997049181
180 15 0.170604843615129 0.722604860612888 0.742471411736717
190 15 0.0614141694628383 0.461748800084167 0.465815043327261
20 15 0.0638999100405867 0.340007229248125 0.34595970060714
200 15 0.117842519987751 0.526416232084377 0.539445000828607
30 15 0.151587911716401 0.645374881609404 0.662938634257268
40 15 0.0752510969814016 0.391179354678358 0.398351622468744
50 15 0.109065072425774 0.48226602213157 0.494444846394264
60 15 0.0877756808614568 0.443097799358038 0.451708124729485
70 15 0.0910109348678995 0.490961094172665 0.499325331078596
80 15 0.0460683573822836 0.35361761959314 0.356605825020597
90 15 0.0659005722751603 0.411791849991419 0.417031669235742
10 16 0.0912105009321321 0.58650996282363 0.593559847000846
100 16 0.102981858388231 0.588647820418165 0.597588085256182
110 16 0.125487953524087 0.543862616481806 0.558152104794114
120 16 0.0705725431882596 0.380339592163503 0.386831603180452
130 16 0.108948041161193 0.637718475716281 0.646957904305032
140 16 0.0569226876815174 0.358089200610096 0.362585256134975
150 16 0.137293647121772 0.482509209867731 0.50166192116522
160 16 0.129255303916116 0.503545327621456 0.519870013137752
170 16 0.101782128365114 0.515456620852775 0.525409487576589
180 16 0.0883305429722981 0.420553491982016 0.42972959455924
190 16 0.101102485733129 0.407132014012383 0.419497544039529
20 16 0.132862099210528 0.728733120373564 0.7407457715951
200 16 0.193780349100727 0.822790341096111 0.845301584701375
30 16 0.168433522122737 0.788914806756537 0.806694752489672
40 16 0.101932287336632 0.490879820702467 0.501351363391548
50 16 0.0951067707757739 0.418320347465837 0.428995583836633
60 16 0.133908974543163 0.584127261817031 0.599279793970282
70 16 0.0892743002078055 0.39828599121652 0.408168631177016
80 16 0.14122278192309 0.612104110587955 0.628184142057699
90 16 0.0864788938529174 0.499106594150921 0.506543178225663
10 17 0.122957299135997 0.399174473794759 0.417682604306358
100 17 0.0711766693772924 0.37801482281098 0.384657411898511
110 17 0.127974874045867 0.518021690893495 0.533595390369155
120 17 0.0755285790993188 0.407890097716067 0.414823936237514
130 17 0.0964461882643726 0.394592087629712 0.406207807471374
140 17 0.0730342770794165 0.382133731158897 0.389050374781895
150 17 0.0739818397233495 0.380383769978544 0.387511451536521
160 17 0.140663829597885 0.446052074523681 0.467705854297359
170 17 0.120284861548595 0.453599365633949 0.469276925089319
180 17 0.0589845857796626 0.312140569190397 0.317664786046713
190 17 0.0887675366790161 0.372707072831485 0.383132141312464
20 17 0.0740090747713154 0.35523919344494 0.36286668034957
200 17 0.106828908304452 0.375829189513352 0.390717283134218
30 17 0.126506839739008 0.529197123613696 0.544108055575141
40 17 0.120039886463918 0.514686079096164 0.528499133734061
50 17 0.0803666213373471 0.363491496607022 0.372269877818222
60 17 0.106221617386377 0.53449375647315 0.544946426457644
70 17 0.0882566243384551 0.366028072706801 0.376517970021452
80 17 0.0882807050829388 0.409691647367705 0.419095130981982
90 17 0.0827534615178256 0.409597149397709 0.417873138868618
10 18 0.0955487727059634 0.477661425238024 0.487124219399976
100 18 0.107023111105046 0.479171431560744 0.490977807171135
110 18 0.0913086886653778 0.375714128694803 0.386650207715819
120 18 0.107825061516503 0.433950945938587 0.4471461364834
130 18 0.111028177498017 0.44742845133976 0.460998346273419
140 18 0.109872229210818 0.541071331432927 0.552114202362477
150 18 0.0844953517689804 0.407300532635272 0.41597258125451
160 18 0.127994509610816 0.645863614295845 0.658424181483188
170 18 0.0675873232330536 0.375330509065946 0.381367325943783
180 18 0.104075730905384 0.410682782767804 0.423665086861541
190 18 0.103548321589711 0.440791413067026 0.452790597006686
20 18 0.120634307908502 0.538835068706713 0.552173765686792
200 18 0.145495670789969 0.666428916323921 0.682126447758257
30 18 0.151506457401796 0.453592005708096 0.478225798422393
40 18 0.0804946950896873 0.351187153307859 0.360294064044996
50 18 0.102973822846517 0.584248148116829 0.593253324280252
60 18 0.173212949658375 0.924453244345307 0.940540550380428
70 18 0.117859543591585 0.541664682484821 0.554338795563686
80 18 0.120203397635012 0.569830071296877 0.582370300545285
90 18 0.105359844095997 0.539809857005191 0.549995798591132
10 19 0.214614433508194 1.31228389127979 1.32971740094746
100 19 0.104144414849696 0.407852937735186 0.42093951817762
110 19 0.0756102790162135 0.357821243674668 0.365722513277206
120 19 0.108395938812103 0.534249623353191 0.545135157189466
130 19 0.144072197422133 0.526386811127446 0.545747077865712
140 19 0.116663928718641 0.513614218073624 0.526697291877838
150 19 0.102006820396159 0.409020897881352 0.421548913307817
160 19 0.108328982839872 0.382736548268844 0.397771836489048
170 19 0.124296082809084 0.503476963896274 0.51859287439753
180 19 0.100216809344894 0.374932741739402 0.388095310076657
190 19 0.0723072612662466 0.338490385467046 0.34612726140172
20 19 0.109644366951777 0.412057679643944 0.426395847256756
200 19 0.131636871164583 0.491628058594348 0.508946376200135
30 19 0.0502634752688761 0.37830212868021 0.381626672954189
40 19 0.104544155890076 0.421236317046807 0.434015570377293
50 19 0.0922996813355036 0.356203630502598 0.367967739833082
60 19 0.161336960689746 0.596751723731899 0.618176540044669
70 19 0.0668425799836275 0.373496828520085 0.379430904663061
80 19 0.0946373232287971 0.420137596445022 0.430664397059371
90 19 0.0436449205896372 0.297728322532186 0.300910340684904
10 2 -0.289988167217184 0.743507601327554 0.798058074552119
100 2 -0.371605919023732 0.621643515572523 0.724245551941355
110 2 -0.3753603275927 0.604971200055044 0.711958937317693
120 2 -0.309019454448564 0.646526759672093 0.716582077782988
130 2 -0.427355158797976 0.546233523368732 0.693544154184189
140 2 -0.287575174178385 0.680637290649429 0.738895528627914
150 2 -0.373774888568735 0.65230446218981 0.751803683628451
160 2 -0.328510241965015 0.650829293196106 0.729038920742957
170 2 -0.362583935863877 0.646062164625672 0.740853177834413
180 2 -0.362709257936024 0.587493559201024 0.690439488945403
190 2 -0.328796196079017 0.625244797824168 0.706426213954589
20 2 -0.325839969155226 0.665517352131515 0.741002720296775
200 2 -0.392371013882066 0.625774499942266 0.738612711312791
30 2 -0.220816173959082 0.717893873962846 0.751086810532119
40 2 -0.492802012435846 0.538357537030516 0.729851122584862
50 2 -0.31906757865162 0.678413640090778 0.749699397630695
60 2 -0.271260494980825 0.72446989675339 0.773588319094278
70 2 -0.325814158210667 0.590217859893622 0.674175042424393
80 2 -0.37284653474403 0.582835077533848 0.691889634316427
90 2 -0.354826415668231 0.642530597124875 0.733994109988365
10 20 0.166586765620179 0.639395954445874 0.660740748737008
100 20 0.120441091791953 0.458190529275404 0.473755862981886
110 20 0.173925437017103 0.634230526606053 0.657646119520659
120 20 0.0878502625608948 0.502091105101204 0.509718693451365
130 20 0.0775434645968409 0.332482011346038 0.341404857567066
140 20 0.0973062365625161 0.358192170714446 0.371173995364825
150 20 0.0920697189596148 0.388165786730568 0.39893547239806
160 20 0.11060506327807 0.420941098138556 0.435229695821459
170 20 0.0734513339373215 0.370823413413405 0.378027912187369
180 20 0.0948700195193547 0.394195552982867 0.405450927480838
190 20 0.0807034814419884 0.352854708656861 0.361966154962277
20 20 0.041877840931817 0.207955397258308 0.212130150638638
200 20 0.0771738184039713 0.441256186228871 0.447954037968514
30 20 0.192417449658637 0.840638382347298 0.862378898633668
40 20 0.144470813310507 0.54718094786275 0.565931802960901
50 20 0.0895216457164741 0.385236979329006 0.395501776600716
60 20 0.0571493928095283 0.336438830902423 0.341258172118246
70 20 0.114720671575539 0.465469107664206 0.47939787512718
80 20 0.131675316163252 0.641240926293154 0.654620740917972
90 20 0.0747540796539005 0.400503194986619 0.407419908226624
10 21 0.139547634614976 0.775642307481848 0.788095509111936
100 21 0.0724417813340635 0.387721431756086 0.394430881557012
110 21 0.110616503447166 0.505938734107646 0.517889962738538
120 21 0.07331043774213 0.390256365199522 0.397082423258303
130 21 0.0773448674740178 0.314031285790556 0.323415950410371
140 21 0.0933552838302822 0.515057581161569 0.523449635524793
150 21 0.0804834562028232 0.323329516156187 0.333195982478999
160 21 0.137194311010295 0.569182436266133 0.585483496545752
170 21 0.103587239810208 0.557789817077447 0.567326886624272
180 21 0.0688784393877522 0.32333628556695 0.330591277829172
190 21 0.0685051923368154 0.302949050988286 0.310597953746973
20 21 0.0720255641283608 0.38315252838837 0.389863491363848
200 21 0.0910360088831098 0.387956531008804 0.398494447722613
30 21 0.0782739279629567 0.431636631576099 0.438676406383009
40 21 0.0949906659220265 0.436140630735981 0.446365182772009
50 21 0.135035484442682 0.558563222349651 0.574654205083627
60 21 0.127711029836914 0.631295302639318 0.644083741664446
70 21 0.0603121222214323 0.303672066776245 0.309603417660414
80 21 0.0961830154420752 0.348033788510603 0.361079894766482
90 21 0.10757852175655 0.463375547789797 0.475699523473399
10 22 0.135921866524593 0.500467219762305 0.518596366990881
100 22 0.111845350949513 0.43884156637005 0.452870072872053
110 22 0.103674323802208 0.458651846893044 0.470223225792012
120 22 0.11094690789222 0.461223434898352 0.474379882868444
130 22 0.132478318790523 0.493972509174387 0.511428728924767
140 22 0.0827254370270908 0.293262920221467 0.304707463492685
150 22 0.0626512389273732 0.363463043749427 0.36882321227213
160 22 0.073610746843508 0.344487639636792 0.352264497094708
170 22 0.106101056424314 0.435577068148073 0.448313301688481
180 22 0.112405274346333 0.583000241979842 0.593737507531256
190 22 0.0886230655235306 0.452270246387044 0.460871374148781
20 22 0.0685253668090849 0.352335475637956 0.358937338945594
200 22 0.0722576185824624 0.363165792304683 0.370284426007221
30 22 0.132741198010238 0.710855799246798 0.723143272783476
40 22 0.161343225019488 0.551938781465323 0.57503743769003
50 22 0.0754768064266159 0.50365808944373 0.509282062682821
60 22 0.132458062640707 0.427129086672849 0.447196148284521
70 22 0.0584232329070384 0.369000664089609 0.373597061339998
80 22 0.126107548415235 0.498031197630784 0.513749148496475
90 22 0.108342791197675 0.474158205729615 0.48637862254136
10 23 0.126360184740743 0.525242545045599 0.54022831045188
100 23 0.108569731725639 0.425927868106004 0.439547421191733
110 23 0.113398368257362 0.433573191810794 0.448157229753612
120 23 0.0777887669396534 0.332782999503307 0.341753737390551
130 23 0.108094858247377 0.453487506423081 0.466192467615409
140 23 0.167183530643004 0.661643926034013 0.68243902128759
150 23 0.119776443858644 0.434021617523618 0.450245667365318
160 23 0.0593449337505471 0.311579775317583 0.317180985478027
170 23 0.100757723256884 0.476432516345834 0.486970288033607
180 23 0.124383816608124 0.459661474954468 0.476193243748082
190 23 0.117153578855868 0.514904099156889 0.528063625302203
20 23 0.0819887573433446 0.408862573193094 0.417002110412866
200 23 0.0996499211600558 0.511193687040712 0.520815795130565
30 23 0.181243316599014 0.801632662030929 0.821866208483232
40 23 0.116314012544154 0.441879012240264 0.456931079017999
50 23 0.0788404002650814 0.347165450143572 0.356005138287844
60 23 0.111907917359564 0.537192088194951 0.548724631839147
70 23 0.114124908009575 0.511046030710443 0.523633975342599
80 23 0.0739924813258639 0.354362887734061 0.362005446776676
90 23 0.136723529266194 1.03478938631823 1.04378273481211
10 24 0.0169694615360481 0.238676600478297 0.239279088598857
100 24 0.0929922944383021 0.352954290676256 0.36499903853528
110 24 0.116384827595424 0.51048850026015 0.523587563825072
120 24 0.113944963109598 0.406508158212192 0.422175718523835
130 24 0.114202788995666 0.439308100756144 0.453909555312904
140 24 0.0972992402286706 0.390197214485178 0.402145506429039
150 24 0.060608056494563 0.285390343736499 0.29175500820052
160 24 0.133303335936191 0.470336110703571 0.488861776378026
170 24 0.11703783218947 0.430809686512304 0.446424506670994
180 24 0.070846069580006 0.336939629657126 0.344307245942365
190 24 0.116628585300172 0.413207430635355 0.429351380155451
20 24 0.0993630034943633 0.508486516850111 0.518103796822393
200 24 0.091547680850864 0.436653843784995 0.446147461229336
30 24 0.140259133483307 0.530875603997167 0.549091551059424
40 24 0.119841830523914 0.484304842966834 0.498912061654608
50 24 0.0893240501944055 0.408824179699733 0.418468631859417
60 24 0.0935940602244244 0.40161348972361 0.412375124416192
70 24 0.081123650636641 0.37307238167007 0.381790582201283
80 24 0.100074086452289 0.536307088092517 0.54556403429619
90 24 0.10186670965788 0.409574111281691 0.422051867865443
10 25 0.0633863058497169 0.238427336606689 0.246709178205095
100 25 0.155924842749799 0.729047152491067 0.745534913429198
110 25 0.0841620942700489 0.399009462626403 0.407788927482504
120 25 0.0904207609355123 0.330558143314975 0.342701911462426
130 25 0.107292135306722 0.519838070696564 0.53079489639992
140 25 0.0807353767186714 0.381091117211803 0.389549278874504
150 25 0.066830993305251 0.284795806912179 0.292532106444619
160 25 0.105494131083003 0.40117727537768 0.414815884426352
170 25 0.114987148097655 0.527209861362498 0.539603819617223
180 25 0.10213922454708 0.414847789960987 0.427236597246297
190 25 0.106485571650796 0.493449456660514 0.504808422323115
20 25 0.120030475517342 0.434893654166987 0.451153860104991
200 25 0.0874865199146788 0.51230000177271 0.519716444788021
30 25 0.115697691723143 0.639432156107271 0.649814926062842
40 25 0.1395700852675 0.53284691559389 0.550822697571096
50 25 0.104104241278887 0.370286511713598 0.384642423309335
60 25 0.134845951064642 0.457379110224804 0.476842826294536
70 25 0.0907658640714785 0.422617648906557 0.432254692569031
80 25 0.109258327843832 0.428190802857525 0.441910336895396
90 25 0.111744891981704 0.48957701988289 0.502167879579543
10 26 0.151694751782765 0.437833160881131 0.463367213434008
100 26 0.075342528936131 0.338070963915991 0.346364653666593
110 26 0.127819224884814 0.532815311057603 0.54793239541714
120 26 0.121601985725121 0.442331950318987 0.458742408335322
130 26 0.153670915330614 0.780036876620561 0.795029734731041
140 26 0.104346313736361 0.39709813349694 0.410578958078858
150 26 0.0830324180858622 0.329504869510781 0.339805593662762
160 26 0.107385814613927 0.444420232042752 0.457210078442317
170 26 0.116139695944932 0.620928699963296 0.631696825551854
180 26 0.106860535593719 0.431539713136206 0.444573613793099
190 26 0.146402088003656 0.60592784678176 0.623363559151006
20 26 0.0953663792274376 0.351341970054015 0.364054839561828
200 26 0.0986539397230288 0.420183821109233 0.431609827674059
30 26 0.122121772075653 0.433680428318924 0.450546824560758
40 26 0.114351033692985 0.434744210428786 0.44953163115403
50 26 0.0815602644899529 0.403177868132143 0.41134470957489
60 26 0.0966995675828779 0.457200169059716 0.46731445618443
70 26 0.0896335209833589 0.358109933130775 0.369157002223718
80 26 0.0974294717022918 0.503484519003297 0.512824690154607
90 26 0.0600768118111841 0.372261958773631 0.377078492183494
10 27 0.107559743279053 0.513439434934642 0.524584742172569
100 27 0.152931559548777 0.599998182739979 0.619181622141111
110 27 0.0799316579934625 0.389376242277433 0.397495821361279
120 27 0.0544947793268798 0.270718842575524 0.276149185585104
130 27 0.0921778709482966 0.39772461003475 0.408266610586581
140 27 0.105340506925772 0.400029086302477 0.413666402173749
150 27 0.122756016423673 0.539785227450909 0.553567639356239
160 27 0.0503071399122195 0.355663318580718 0.359203569734484
170 27 0.0972803095185527 0.425208326148951 0.436194428261548
180 27 0.0788197250424335 0.340351709214109 0.349359177667812
190 27 0.10222658081778 0.420898337272863 0.433134718239896
20 27 0.122836521482083 0.663635963828787 0.674908514909082
200 27 0.0561031399119872 0.315670290038761 0.320617052449085
30 27 0.0891267792957496 0.273129232362178 0.287303255043144
40 27 0.0901915911111467 0.358903744083062 0.370062725256139
50 27 0.0949311994794402 0.41032207351558 0.421160464251727
60 27 0.0944149114528107 0.350894636655088 0.363374767338004
70 27 0.068964669866113 0.359863086978919 0.366411745253532
80 27 0.0971642172941427 0.389482402298575 0.401419265634638
90 27 0.0739085449502315 0.378715833259253 0.385860279606376
10 28 0.0211347830999885 0.213678648337658 0.214721316622482
100 28 0.124123999898812 0.496458588352429 0.511740068100756
110 28 0.110342278699349 0.430560154389283 0.444474369358108
120 28 0.0894037552242824 0.371574061265831 0.382178380411277
130 28 0.0674797923048701 0.29198585215367 0.299681931766687
140 28 0.0792655682631636 0.464200285871897 0.470919245429228
150 28 0.119490111838047 0.525051826489593 0.538476840102828
160 28 0.124799449945213 0.467705153311781 0.484069223501168
170 28 0.14652649099328 0.618790831833371 0.635902591694545
180 28 0.120438154589132 0.414759496494523 0.431892103439304
190 28 0.115222445268308 0.452419417711231 0.466861372803295
20 28 0.116083691072728 0.652426003010654 0.662672704083642
200 28 0.0849299131613701 0.397972494602235 0.406933897100652
30 28 0.122840261356693 0.472635278350434 0.48833782994109
40 28 0.142865493670685 0.61894449777185 0.635218734455948
50 28 0.160760871764887 0.519376996687007 0.543687890777624
60 28 0.0878599391004304 0.358846496816611 0.369445770277973
70 28 0.123001189501318 0.370473689440602 0.390358869742281
80 28 0.0774268347771117 0.31670939936955 0.326036437216185
90 28 0.104968370350435 0.408673907025326 0.421939238584623
10 3 -0.155867711046229 0.747324088411712 0.763405551766023
100 3 -0.240399974636996 0.708791638778024 0.74845022213044
110 3 -0.277139265671387 0.685563444700896 0.739461567146687
120 3 -0.29240966775347 0.680333048753544 0.740510952668484
130 3 -0.262873855692966 0.694655499769309 0.742730723322144
140 3 -0.263606064932846 0.656432452165751 0.707383716045062
150 3 -0.226324117164117 0.707917837201192 0.743216166561069
160 3 -0.285866897103604 0.646602734757494 0.706975939799589
170 3 -0.259244411471941 0.640226347382087 0.690722404994686
180 3 -0.312039760732506 0.634319408509401 0.706915783024906
190 3 -0.304917213275051 0.586250808518353 0.660805960505689
20 3 -0.258082163657126 0.874199665963929 0.911499566192649
200 3 -0.313349483388695 0.659263645152998 0.729942773483223
30 3 -0.221410740697668 0.884408267610352 0.911702089453476
40 3 -0.33795197244725 0.53112146651774 0.629524858823654
50 3 -0.352485014510942 0.583060231816091 0.681325854037708
60 3 -0.375880473702095 0.516341356577292 0.638666209394696
70 3 -0.323817736233084 0.58901324977006 0.672156629591501
80 3 -0.341144231242696 0.599429834420165 0.689706831126933
90 3 -0.227860513308095 0.692828279771943 0.72933630019133
10 4 -0.0677350411804412 0.842362074122983 0.845081001871709
100 4 -0.211170774196552 0.641190963589853 0.675069587275308
110 4 -0.232797435455018 0.568663708219025 0.61446973806677
120 4 -0.11298575618051 0.659927690651885 0.669529938082541
130 4 -0.215588976980004 0.614365113189528 0.651093771510423
140 4 -0.191972216091717 0.738624820193623 0.763164436250292
150 4 -0.170261332423798 0.655493457999584 0.677244855867491
160 4 -0.195989695623323 0.659221640592198 0.687739145472752
170 4 -0.172865483862854 0.616684768648789 0.640454978429045
180 4 -0.19430304932358 0.629130134655095 0.658451517810977
190 4 -0.224105276726721 0.599767183676026 0.640268576201762
20 4 -0.183939511218753 0.590493473065411 0.618479009765283
200 4 -0.265693106093979 0.5693355870706 0.628280062815056
30 4 -0.192185633558207 0.769956750064429 0.793579683910788
40 4 -0.200602205846264 0.557944462414556 0.592910843322548
50 4 -0.177517335990401 0.731052850925222 0.7522969330145
60 4 -0.192463114527047 0.593251053220461 0.623689716606453
70 4 -0.168797530264997 0.571716273039508 0.596114169502577
80 4 -0.184262567870615 0.658451200300618 0.683747524379867
90 4 -0.180650544340245 0.611644337082942 0.637764387729558
10 5 -0.058543633686071 0.589157452762479 0.592059001443895
100 5 -0.0681816900449658 0.671792661646839 0.675243750878106
110 5 -0.0938224648355137 0.59051592161807 0.59792282829162
120 5 -0.063375032352614 0.677608358690706 0.680565560760465
130 5 -0.143577723317249 0.516031912987689 0.535633734798974
140 5 -0.129710836281113 0.673294093421765 0.685674731403588
150 5 -0.161871634404774 0.511845826680376 0.536831981456946
160 5 -0.0703163312926268 0.613388721111025 0.617405952054783
170 5 -0.0891122995139206 0.541736573994323 0.549016864520358
180 5 -0.105414970830796 0.577533158050139 0.587074837412254
190 5 -0.126544813603099 0.530897974029209 0.5457712420769
20 5 -0.0179508072650218 0.67358495591435 0.673824104878717
200 5 -0.0522129255915216 0.602700440360006 0.604957858374425
30 5 -0.146694659720481 0.548134080743886 0.567424262490998
40 5 -0.0618801366327733 0.550277037553708 0.553745401216638
50 5 -0.134069674457372 0.617388724026617 0.631778057678739
60 5 -0.0836034582049282 0.603049311106309 0.608816893531723
70 5 -0.0983052581271632 0.599241566724675 0.60725149572981
80 5 -0.130567748228539 0.614048321255337 0.627776455208356
90 5 -0.102114478647082 0.603349043440962 0.611929272849804
10 6 -0.103107775978039 0.661368806239662 0.669357835043419
100 6 -0.160324679330054 0.473494000215126 0.499900561153922
110 6 -0.109720638003213 0.488870652260279 0.501032067881112
120 6 -0.0955841409603568 0.535003384164697 0.543474883569432
130 6 -0.118042127234165 0.501838879692117 0.515534872702716
140 6 -0.11861731079472 0.567646159502981 0.579907086366993
150 6 -0.117666337451533 0.511873989682724 0.525224093395351
160 6 -0.129788209242746 0.566588979964926 0.581264183892432
170 6 -0.0549107465096544 0.583193148247514 0.585772514074444
180 6 -0.114361069300201 0.602451967571633 0.613210263614706
190 6 -0.165932402972689 0.502105369809795 0.528813166201563
20 6 -0.0792927553968669 0.576662598376521 0.582088561496263
200 6 -0.122975724442388 0.554036376445361 0.56752033904243
30 6 -0.133570425787774 0.625862565063252 0.639957036833474
40 6 -0.0567393997832307 0.541147800517422 0.544114235701111
50 6 -0.105654465514382 0.648373525492985 0.656925486370663
60 6 -0.0966081447595666 0.532664683052873 0.54135459562629
70 6 -0.0749482689325762 0.728690419357488 0.73253462053297
80 6 -0.0352811821007001 0.62970590749267 0.630693500633699
90 6 -0.101493369212831 0.636467476910442 0.644508924033575
10 7 0.00119566320129914 0.873716094017557 0.8737169121379
100 7 -0.081586983402243 0.639735582161793 0.644917088426541
110 7 -0.015944216143385 0.748677399624938 0.74884715846265
120 7 -0.113025202867753 0.58040316055706 0.59130577983639
130 7 -0.0516539268249292 0.737324744855634 0.739131860720982
140 7 -0.0599152042707891 0.577175847132466 0.580277339050811
150 7 -0.0580328134715409 0.674501882255574 0.676993793624236
160 7 -0.0645994760316673 0.613839289352685 0.617229102891767
170 7 -0.0483870754956849 0.703282527391826 0.704945120140327
180 7 -0.108956973199537 0.616920186804051 0.626467987127155
190 7 -0.0749313440694932 0.648848365793303 0.653160706194655
20 7 -0.127889773588584 0.467691724711673 0.484862190268863
200 7 -0.0654083269256068 0.558081122992343 0.561901049181795
30 7 0.0106238983150134 0.744934793175718 0.74501054576372
40 7 -0.0768562056218976 0.541417280819584 0.546845086210589
50 7 -0.0852345196508816 0.499821784474271 0.507037217149945
60 7 -0.0948672225709597 0.557828637395673 0.565837943776344
70 7 -0.0926244511308024 0.54311761447443 0.550959192771731
80 7 -0.0523891829609032 0.692364118309692 0.694343358011055
90 7 -0.0497821010519499 0.759165784789767 0.760796258127371
10 8 -0.0361625876752256 1.06644110720739 1.06705406043419
100 8 -0.0392189018981634 0.476986521770138 0.478596138948563
110 8 -0.0285400025622586 0.705714303374124 0.706291164983025
120 8 0.0209194169490767 0.684467842381411 0.684787448234672
130 8 0.0515737765806039 0.647424536167483 0.649475468714921
140 8 -0.0460578208083813 0.618906851921188 0.62061825159482
150 8 -0.058013737818762 0.491772300703351 0.495182380052816
160 8 -0.026164133236855 0.505672098294174 0.506348529040294
170 8 0.000452193031015358 0.558611685090483 0.558611868114316
180 8 -0.0716342446671502 0.440001245751031 0.445794303767435
190 8 -0.0294424566931862 0.580766399313665 0.581512225862784
20 8 -0.0429961695433336 0.500125194220987 0.501969999591588
200 8 0.0553625760926393 0.62070458904099 0.623168678359364
30 8 0.0179363797208465 1.42065620056185 1.42076942320432
40 8 0.0548677393543069 0.613082810102246 0.615533102980433
50 8 -0.0280037182704566 0.556526300851949 0.557230411748072
60 8 0.0233947482496669 0.631389133292248 0.631822405336501
70 8 -0.0265441537292948 0.656567360671854 0.657103714185826
80 8 0.0639127902906036 0.952066619531939 0.95420945959978
90 8 0.0206074799756291 0.630684561385435 0.631021144020456
10 9 -0.00865108932546002 0.582075986974404 0.582140271720436
100 9 -0.0304536415751815 0.423975816296615 0.425068132291249
110 9 0.0624121538395467 0.593763592631937 0.597034740096484
120 9 -0.00738687325369139 0.473049332954443 0.473107004075303
130 9 -0.0230061519911904 0.429478264716036 0.430094016341705
140 9 0.00345933545777939 0.46560576758053 0.465618618405733
150 9 0.0374698086962042 0.541007817379247 0.542303830918781
160 9 0.020088672354899 0.50054598212151 0.500948934498287
170 9 0.10854663893854 0.645426928599085 0.654490865471553
180 9 0.0139665613093545 0.566315564396328 0.566487760955468
190 9 0.0363439696924945 0.480091433791304 0.481465127431675
20 9 0.157739604823628 0.773722637549556 0.78963821005987
200 9 0.0371707375242984 0.508631674879181 0.509988082623997
30 9 0.0785405751121372 0.518098381077816 0.524017704294806
40 9 0.0445974494441119 0.676070697920359 0.677540051276263
50 9 0.00974529062363741 0.520260288964413 0.52035155324326
60 9 0.0584503101751026 0.62842395113454 0.631136356993568
70 9 0.0331825307479541 0.477995695106829 0.479146078860613
80 9 0.0152543138930091 0.632562221652881 0.632746124725213
90 9 0.0475013442716708 0.591482180259842 0.593386507491157
