4 3 0.00990727177553548 0.239542424677138
4 3 -0.071818641953126 0.195392037311002
4 3 0.0266016643073241 0.21646611195524
4 3 0.0187385690429156 0.256145717874311
4 3 0.00418905065755541 0.218542154398361
4 3 0.0517323266225328 0.270285592567143
4 3 0.0236296699885945 0.249977006447625
4 3 -0.0558195202255289 0.185179694355856
4 3 -0.070896220402448 0.192560831022723
4 3 0.0711500430210929 0.259417890699573
