\begin{thebibliography}{1}
\providecommand{\natexlab}[1]{#1}
\providecommand{\url}[1]{{#1}}
\providecommand{\urlprefix}{URL }
\expandafter\ifx\csname urlstyle\endcsname\relax
  \providecommand{\doi}[1]{DOI~\discretionary{}{}{}#1}\else
  \providecommand{\doi}{DOI~\discretionary{}{}{}\begingroup
  \urlstyle{rm}\Url}\fi
\providecommand{\eprint}[2][]{\url{#2}}

\bibitem[{Morelli and Cisternino(2012)}]{morelli_compositional_2012}
Morelli D, Cisternino A (2012) A compositional model to characterize software
  and hardware from their resource usage. In: Jones AV (ed) 2012 Imperial
  College Computing Student Workshop, Schloss {Dagstuhl–Leibniz-Zentrum} fuer
  Informatik, Dagstuhl, Germany, {OpenAccess} Series in Informatics ({OASIcs)},
  vol~28, p 95–101, \doi{http://dx.doi.org/10.4230/OASIcs.ICCSW.2012.95},
  \urlprefix\url{http://drops.dagstuhl.de/opus/volltexte/2012/3771}

\end{thebibliography}
