This is BibTeX, Version 0.99d (TeX Live 2011)
Capacity: max_strings=35307, hash_size=35307, hash_prime=30011
The top-level auxiliary file: thrashing_article.aux
The style file: spbasic.bst
Database file #1: ../../phd_proposal/Energon_bibliography.bib
Reallocated wiz_functions (elt_size=4) to 6000 items from 3000.
You've used 1 entry,
            3270 wiz_defined-function locations,
            679 strings with 5264 characters,
and the built_in function-call counts, 1137 in all, are:
= -- 98
> -- 24
< -- 3
+ -- 10
- -- 7
* -- 88
:= -- 142
add.period$ -- 1
call.type$ -- 1
change.case$ -- 9
chr.to.int$ -- 1
cite$ -- 1
duplicate$ -- 107
empty$ -- 98
format.name$ -- 12
if$ -- 245
int.to.chr$ -- 1
int.to.str$ -- 1
missing$ -- 14
newline$ -- 13
num.names$ -- 6
pop$ -- 26
preamble$ -- 1
purify$ -- 6
quote$ -- 0
skip$ -- 40
stack$ -- 0
substring$ -- 87
swap$ -- 52
text.length$ -- 2
text.prefix$ -- 0
top$ -- 0
type$ -- 9
warning$ -- 0
while$ -- 8
width$ -- 0
write$ -- 24
